(module InterBoard_1x10_P1.27mm_TL (layer F.Cu) (tedit 5D615F09)
  (descr "surface-mounted straight pin header, 1x10, 1.27mm pitch, single row, style 1 (pin 1 left)")
  (tags "Surface mounted pin header SMD 1x10 1.27mm single row style1 pin1 left")
  (attr smd)
  (fp_text reference REF** (at 0 -7.41) (layer F.SilkS)
    (effects (font (size 1 1) (thickness 0.15)))
  )
  (fp_text value InterBoard_1x10_P1.27mm_TL (at -0.01 7.68) (layer F.Fab)
    (effects (font (size 1 1) (thickness 0.15)))
  )
  (fp_line (start 1.05 6.35) (end -1.05 6.35) (layer F.Fab) (width 0.1))
  (fp_line (start -0.615 -6.35) (end 1.05 -6.35) (layer F.Fab) (width 0.1))
  (fp_line (start -1.05 6.35) (end -1.05 -5.915) (layer F.Fab) (width 0.1))
  (fp_line (start -1.05 -5.915) (end -0.615 -6.35) (layer F.Fab) (width 0.1))
  (fp_line (start 1.05 -6.35) (end 1.05 6.35) (layer F.Fab) (width 0.1))
  (fp_line (start -1.05 -5.915) (end -2.5 -5.915) (layer F.Fab) (width 0.1))
  (fp_line (start -2.5 -5.915) (end -2.5 -5.515) (layer F.Fab) (width 0.1))
  (fp_line (start -2.5 -5.515) (end -1.05 -5.515) (layer F.Fab) (width 0.1))
  (fp_line (start -1.05 -3.375) (end -2.5 -3.375) (layer F.Fab) (width 0.1))
  (fp_line (start -2.5 -3.375) (end -2.5 -2.975) (layer F.Fab) (width 0.1))
  (fp_line (start -2.5 -2.975) (end -1.05 -2.975) (layer F.Fab) (width 0.1))
  (fp_line (start -1.05 -0.835) (end -2.5 -0.835) (layer F.Fab) (width 0.1))
  (fp_line (start -2.5 -0.835) (end -2.5 -0.435) (layer F.Fab) (width 0.1))
  (fp_line (start -2.5 -0.435) (end -1.05 -0.435) (layer F.Fab) (width 0.1))
  (fp_line (start -1.05 1.705) (end -2.5 1.705) (layer F.Fab) (width 0.1))
  (fp_line (start -2.5 1.705) (end -2.5 2.105) (layer F.Fab) (width 0.1))
  (fp_line (start -2.5 2.105) (end -1.05 2.105) (layer F.Fab) (width 0.1))
  (fp_line (start -1.05 4.245) (end -2.5 4.245) (layer F.Fab) (width 0.1))
  (fp_line (start -2.5 4.245) (end -2.5 4.645) (layer F.Fab) (width 0.1))
  (fp_line (start -2.5 4.645) (end -1.05 4.645) (layer F.Fab) (width 0.1))
  (fp_line (start -1.11 -6.41) (end 1.11 -6.41) (layer F.SilkS) (width 0.12))
  (fp_line (start -1.11 6.41) (end 1.11 6.41) (layer F.SilkS) (width 0.12))
  (fp_line (start 1.11 -6.4) (end 1.11 -5.03) (layer F.SilkS) (width 0.12))
  (fp_line (start -1.11 -6.3) (end -2.94 -6.3) (layer F.SilkS) (width 0.12))
  (fp_line (start -1.11 -6.41) (end -1.11 -6.3) (layer F.SilkS) (width 0.12))
  (fp_line (start 1.11 6.3) (end 1.11 6.41) (layer F.SilkS) (width 0.12))
  (fp_line (start 1.11 -3.86) (end 1.11 -2.49) (layer F.SilkS) (width 0.12))
  (fp_line (start 1.11 -1.32) (end 1.11 0.05) (layer F.SilkS) (width 0.12))
  (fp_line (start 1.11 1.22) (end 1.11 2.59) (layer F.SilkS) (width 0.12))
  (fp_line (start 1.11 3.76) (end 1.11 5.13) (layer F.SilkS) (width 0.12))
  (fp_line (start -1.11 -5.13) (end -1.11 -3.76) (layer F.SilkS) (width 0.12))
  (fp_line (start -1.11 -2.59) (end -1.11 -1.22) (layer F.SilkS) (width 0.12))
  (fp_line (start -1.11 -0.05) (end -1.11 1.32) (layer F.SilkS) (width 0.12))
  (fp_line (start -1.11 2.49) (end -1.11 3.86) (layer F.SilkS) (width 0.12))
  (fp_line (start -1.11 5.03) (end -1.11 6.4) (layer F.SilkS) (width 0.12))
  (fp_line (start -3.5 -6.85) (end -3.5 6.85) (layer F.CrtYd) (width 0.05))
  (fp_line (start -3.5 6.85) (end 1.5 6.85) (layer F.CrtYd) (width 0.05))
  (fp_line (start 1.5 6.85) (end 1.5 -6.85) (layer F.CrtYd) (width 0.05))
  (fp_line (start 1.5 -6.85) (end -3.5 -6.85) (layer F.CrtYd) (width 0.05))
  (fp_text user %R (at 0.06 -7.43 180) (layer F.Fab)
    (effects (font (size 1 1) (thickness 0.15)))
  )
  (pad 1 smd rect (at -1.2 -5.715) (size 3 0.65) (layers F.Cu F.Paste F.Mask))
  (pad 3 smd rect (at -1.2 -3.175) (size 3 0.65) (layers F.Cu F.Paste F.Mask))
  (pad 5 smd rect (at -1.2 -0.635) (size 3 0.65) (layers F.Cu F.Paste F.Mask))
  (pad 7 smd rect (at -1.2 1.905) (size 3 0.65) (layers F.Cu F.Paste F.Mask))
  (pad 9 smd rect (at -1.2 4.445) (size 3 0.65) (layers F.Cu F.Paste F.Mask))
  (pad 2 smd rect (at -1.2 -4.445) (size 3 0.65) (layers F.Cu F.Paste F.Mask))
  (pad 4 smd rect (at -1.2 -1.905) (size 3 0.65) (layers F.Cu F.Paste F.Mask))
  (pad 6 smd rect (at -1.2 0.635) (size 3 0.65) (layers F.Cu F.Paste F.Mask))
  (pad 8 smd rect (at -1.2 3.175) (size 3 0.65) (layers F.Cu F.Paste F.Mask))
  (pad 10 smd rect (at -1.2 5.715) (size 3 0.65) (layers F.Cu F.Paste F.Mask))
  (pad 10 thru_hole oval (at 0 5.715) (size 1 1) (drill 0.65) (layers *.Cu *.Mask))
  (pad 8 thru_hole oval (at 0 3.175) (size 1 1) (drill 0.65) (layers *.Cu *.Mask))
  (pad 2 thru_hole oval (at 0 -4.445) (size 1 1) (drill 0.65) (layers *.Cu *.Mask))
  (pad 3 thru_hole oval (at 0 -3.175) (size 1 1) (drill 0.65) (layers *.Cu *.Mask))
  (pad 5 thru_hole oval (at 0 -0.635) (size 1 1) (drill 0.65) (layers *.Cu *.Mask))
  (pad 9 thru_hole oval (at 0 4.445) (size 1 1) (drill 0.65) (layers *.Cu *.Mask))
  (pad 4 thru_hole oval (at 0 -1.905) (size 1 1) (drill 0.65) (layers *.Cu *.Mask))
  (pad 1 thru_hole rect (at 0 -5.75) (size 1 1) (drill 0.65) (layers *.Cu *.Mask))
  (pad 6 thru_hole oval (at 0 0.635) (size 1 1) (drill 0.65) (layers *.Cu *.Mask))
  (pad 7 thru_hole oval (at 0 1.905) (size 1 1) (drill 0.65) (layers *.Cu *.Mask))
  (model ${KISYS3DMOD}/Connector_PinHeader_1.27mm.3dshapes/PinHeader_1x10_P1.27mm_Vertical_SMD_Pin1Left.wrl
    (at (xyz 0 0 0))
    (scale (xyz 1 1 1))
    (rotate (xyz 0 0 0))
  )
)
