(module QFN-40-1EP_6x6mm_Pitch0.5mm_TL (layer F.Cu) (tedit 5D544D5F)
  (descr "40-Lead Plastic Quad Flat, No Lead Package (ML) - 6x6x0.9mm Body [QFN]; (see Microchip Packaging Specification 00000049BS.pdf)")
  (tags "QFN 0.5")
  (attr smd)
  (fp_text reference REF** (at 0 -4.25) (layer F.SilkS)
    (effects (font (size 1 1) (thickness 0.15)))
  )
  (fp_text value QFN-40-1EP_6x6mm_Pitch0.5mm_TL (at 0 4.25) (layer F.Fab)
    (effects (font (size 1 1) (thickness 0.15)))
  )
  (fp_line (start 3.15 -3.15) (end 2.625 -3.15) (layer F.SilkS) (width 0.15))
  (fp_line (start 3.15 3.15) (end 2.625 3.15) (layer F.SilkS) (width 0.15))
  (fp_line (start -3.15 3.15) (end -2.625 3.15) (layer F.SilkS) (width 0.15))
  (fp_line (start -3.15 -3.15) (end -2.625 -3.15) (layer F.SilkS) (width 0.15))
  (fp_line (start 3.15 3.15) (end 3.15 2.625) (layer F.SilkS) (width 0.15))
  (fp_line (start -3.15 3.15) (end -3.15 2.625) (layer F.SilkS) (width 0.15))
  (fp_line (start 3.15 -3.15) (end 3.15 -2.625) (layer F.SilkS) (width 0.15))
  (fp_line (start -3.5 3.5) (end 3.5 3.5) (layer F.CrtYd) (width 0.05))
  (fp_line (start -3.5 -3.5) (end 3.5 -3.5) (layer F.CrtYd) (width 0.05))
  (fp_line (start 3.5 -3.5) (end 3.5 3.5) (layer F.CrtYd) (width 0.05))
  (fp_line (start -3.5 -3.5) (end -3.5 3.5) (layer F.CrtYd) (width 0.05))
  (fp_line (start -3 -2.5) (end -2.5 -3) (layer F.Fab) (width 0.15))
  (fp_line (start -3 3) (end -3 -3) (layer F.Fab) (width 0.15))
  (fp_line (start 3 3) (end -3 3) (layer F.Fab) (width 0.15))
  (fp_line (start 3 -3) (end 3 3) (layer F.Fab) (width 0.15))
  (fp_line (start -3 -3) (end 3 -3) (layer F.Fab) (width 0.15))
  (pad 41 thru_hole circle (at 0 0 270) (size 2 2) (drill 1) (layers *.Cu *.Mask))
  (pad 41 smd rect (at -1.725 -1.725) (size 1.15 1.15) (layers F.Cu F.Paste F.Mask)
    (solder_paste_margin_ratio -0.2))
  (pad 41 smd rect (at -1.725 -0.575) (size 1.15 1.15) (layers F.Cu F.Paste F.Mask)
    (solder_paste_margin_ratio -0.2))
  (pad 41 smd rect (at -1.725 0.575) (size 1.15 1.15) (layers F.Cu F.Paste F.Mask)
    (solder_paste_margin_ratio -0.2))
  (pad 41 smd rect (at -1.725 1.725) (size 1.15 1.15) (layers F.Cu F.Paste F.Mask)
    (solder_paste_margin_ratio -0.2))
  (pad 41 smd rect (at -0.575 -1.725) (size 1.15 1.15) (layers F.Cu F.Paste F.Mask)
    (solder_paste_margin_ratio -0.2))
  (pad 41 smd rect (at -0.575 -0.575) (size 1.15 1.15) (layers F.Cu F.Paste F.Mask)
    (solder_paste_margin_ratio -0.2))
  (pad 41 smd rect (at -0.575 0.575) (size 1.15 1.15) (layers F.Cu F.Paste F.Mask)
    (solder_paste_margin_ratio -0.2))
  (pad 41 smd rect (at -0.575 1.725) (size 1.15 1.15) (layers F.Cu F.Paste F.Mask)
    (solder_paste_margin_ratio -0.2))
  (pad 41 smd rect (at 0.575 -1.725) (size 1.15 1.15) (layers F.Cu F.Paste F.Mask)
    (solder_paste_margin_ratio -0.2))
  (pad 41 smd rect (at 0.575 -0.575) (size 1.15 1.15) (layers F.Cu F.Paste F.Mask)
    (solder_paste_margin_ratio -0.2))
  (pad 41 smd rect (at 0.575 0.575) (size 1.15 1.15) (layers F.Cu F.Paste F.Mask)
    (solder_paste_margin_ratio -0.2))
  (pad 41 smd rect (at 0.575 1.725) (size 1.15 1.15) (layers F.Cu F.Paste F.Mask)
    (solder_paste_margin_ratio -0.2))
  (pad 41 smd rect (at 1.725 -1.725) (size 1.15 1.15) (layers F.Cu F.Paste F.Mask)
    (solder_paste_margin_ratio -0.2))
  (pad 41 smd rect (at 1.725 -0.575) (size 1.15 1.15) (layers F.Cu F.Paste F.Mask)
    (solder_paste_margin_ratio -0.2))
  (pad 41 smd rect (at 1.725 0.575) (size 1.15 1.15) (layers F.Cu F.Paste F.Mask)
    (solder_paste_margin_ratio -0.2))
  (pad 41 smd rect (at 1.725 1.725) (size 1.15 1.15) (layers F.Cu F.Paste F.Mask)
    (solder_paste_margin_ratio -0.2))
  (pad 40 smd rect (at -2.25 -3.25 90) (size 1 0.3) (layers F.Cu F.Paste F.Mask))
  (pad 39 smd rect (at -1.75 -3.25 90) (size 1 0.3) (layers F.Cu F.Paste F.Mask))
  (pad 38 smd rect (at -1.25 -3.25 90) (size 1 0.3) (layers F.Cu F.Paste F.Mask))
  (pad 37 smd rect (at -0.75 -3.25 90) (size 1 0.3) (layers F.Cu F.Paste F.Mask))
  (pad 36 smd rect (at -0.25 -3.25 90) (size 1 0.3) (layers F.Cu F.Paste F.Mask))
  (pad 35 smd rect (at 0.25 -3.25 90) (size 1 0.3) (layers F.Cu F.Paste F.Mask))
  (pad 34 smd rect (at 0.75 -3.25 90) (size 1 0.3) (layers F.Cu F.Paste F.Mask))
  (pad 33 smd rect (at 1.25 -3.25 90) (size 1 0.3) (layers F.Cu F.Paste F.Mask))
  (pad 32 smd rect (at 1.75 -3.25 90) (size 1 0.3) (layers F.Cu F.Paste F.Mask))
  (pad 31 smd rect (at 2.25 -3.25 90) (size 1 0.3) (layers F.Cu F.Paste F.Mask))
  (pad 30 smd rect (at 3.25 -2.25) (size 1 0.3) (layers F.Cu F.Paste F.Mask))
  (pad 29 smd rect (at 3.25 -1.75) (size 1 0.3) (layers F.Cu F.Paste F.Mask))
  (pad 28 smd rect (at 3.25 -1.25) (size 1 0.3) (layers F.Cu F.Paste F.Mask))
  (pad 27 smd rect (at 3.25 -0.75) (size 1 0.3) (layers F.Cu F.Paste F.Mask))
  (pad 26 smd rect (at 3.25 -0.25) (size 1 0.3) (layers F.Cu F.Paste F.Mask))
  (pad 25 smd rect (at 3.25 0.25) (size 1 0.3) (layers F.Cu F.Paste F.Mask))
  (pad 24 smd rect (at 3.25 0.75) (size 1 0.3) (layers F.Cu F.Paste F.Mask))
  (pad 23 smd rect (at 3.25 1.25) (size 1 0.3) (layers F.Cu F.Paste F.Mask))
  (pad 22 smd rect (at 3.25 1.75) (size 1 0.3) (layers F.Cu F.Paste F.Mask))
  (pad 21 smd rect (at 3.25 2.25) (size 1 0.3) (layers F.Cu F.Paste F.Mask))
  (pad 20 smd rect (at 2.25 3.25 90) (size 1 0.3) (layers F.Cu F.Paste F.Mask))
  (pad 19 smd rect (at 1.75 3.25 90) (size 1 0.3) (layers F.Cu F.Paste F.Mask))
  (pad 18 smd rect (at 1.25 3.25 90) (size 1 0.3) (layers F.Cu F.Paste F.Mask))
  (pad 17 smd rect (at 0.75 3.25 90) (size 1 0.3) (layers F.Cu F.Paste F.Mask))
  (pad 16 smd rect (at 0.25 3.25 90) (size 1 0.3) (layers F.Cu F.Paste F.Mask))
  (pad 15 smd rect (at -0.25 3.25 90) (size 1 0.3) (layers F.Cu F.Paste F.Mask))
  (pad 14 smd rect (at -0.75 3.25 90) (size 1 0.3) (layers F.Cu F.Paste F.Mask))
  (pad 13 smd rect (at -1.25 3.25 90) (size 1 0.3) (layers F.Cu F.Paste F.Mask))
  (pad 12 smd rect (at -1.75 3.25 90) (size 1 0.3) (layers F.Cu F.Paste F.Mask))
  (pad 11 smd rect (at -2.25 3.25 90) (size 1 0.3) (layers F.Cu F.Paste F.Mask))
  (pad 10 smd rect (at -3.25 2.25) (size 1 0.3) (layers F.Cu F.Paste F.Mask))
  (pad 9 smd rect (at -3.25 1.75) (size 1 0.3) (layers F.Cu F.Paste F.Mask))
  (pad 8 smd rect (at -3.25 1.25) (size 1 0.3) (layers F.Cu F.Paste F.Mask))
  (pad 7 smd rect (at -3.25 0.75) (size 1 0.3) (layers F.Cu F.Paste F.Mask))
  (pad 6 smd rect (at -3.25 0.25) (size 1 0.3) (layers F.Cu F.Paste F.Mask))
  (pad 5 smd rect (at -3.25 -0.25) (size 1 0.3) (layers F.Cu F.Paste F.Mask))
  (pad 4 smd rect (at -3.25 -0.75) (size 1 0.3) (layers F.Cu F.Paste F.Mask))
  (pad 3 smd rect (at -3.25 -1.25) (size 1 0.3) (layers F.Cu F.Paste F.Mask))
  (pad 2 smd rect (at -3.25 -1.75) (size 1 0.3) (layers F.Cu F.Paste F.Mask))
  (pad 1 smd rect (at -3.25 -2.25) (size 1 0.3) (layers F.Cu F.Paste F.Mask))
  (model ${KISYS3DMOD}/Housings_DFN_QFN.3dshapes/QFN-40-1EP_6x6mm_Pitch0.5mm.wrl
    (at (xyz 0 0 0))
    (scale (xyz 1 1 1))
    (rotate (xyz 0 0 0))
  )
)
