(module SOT-416_TL (layer F.Cu) (tedit 5D542330)
  (descr "SOT-323, SC-70")
  (tags "SOT-323 SC-70")
  (attr smd)
  (fp_text reference REF** (at -0.05 -1.95) (layer F.SilkS)
    (effects (font (size 1 1) (thickness 0.15)))
  )
  (fp_text value SOT-416_TL (at -0.05 2.05) (layer F.Fab)
    (effects (font (size 1 1) (thickness 0.15)))
  )
  (fp_line (start -0.05 -0.9) (end -0.45 -0.5) (layer F.Fab) (width 0.1))
  (fp_line (start 0.45 0.9) (end -0.45 0.9) (layer F.Fab) (width 0.1))
  (fp_line (start 0.45 -0.9) (end 0.45 0.9) (layer F.Fab) (width 0.1))
  (fp_line (start -0.45 -0.9) (end -0.45 0.9) (layer F.Fab) (width 0.1))
  (fp_line (start 0.45 -0.9) (end -0.45 -0.9) (layer F.Fab) (width 0.1))
  (fp_line (start -0.85 1) (end 0.85 1) (layer F.SilkS) (width 0.12))
  (fp_line (start 0.85 -1) (end -0.85 -1) (layer F.SilkS) (width 0.12))
  (fp_line (start -1.7 1.3) (end -1.7 -1.3) (layer F.CrtYd) (width 0.05))
  (fp_line (start -1.7 -1.3) (end 1.7 -1.3) (layer F.CrtYd) (width 0.05))
  (fp_line (start 1.7 -1.3) (end 1.7 1.3) (layer F.CrtYd) (width 0.05))
  (fp_line (start 1.7 1.3) (end -1.7 1.3) (layer F.CrtYd) (width 0.05))
  (fp_line (start 0.85 -1) (end 0.85 -0.5) (layer F.SilkS) (width 0.12))
  (fp_line (start 0.85 0.5) (end 0.85 1) (layer F.SilkS) (width 0.12))
  (fp_text user %R (at 0 0 90) (layer F.Fab)
    (effects (font (size 0.5 0.5) (thickness 0.075)))
  )
  (pad 3 smd rect (at 0.9 0 270) (size 0.4 0.8) (layers F.Cu F.Paste F.Mask))
  (pad 2 smd rect (at -0.9 0.5 270) (size 0.4 0.8) (layers F.Cu F.Paste F.Mask))
  (pad 1 smd rect (at -0.9 -0.5 270) (size 0.4 0.8) (layers F.Cu F.Paste F.Mask))
  (model ${KISYS3DMOD}/TO_SOT_Packages_SMD.3dshapes/SOT-323_SC-70.wrl
    (at (xyz 0 0 0))
    (scale (xyz 1 1 1))
    (rotate (xyz 0 0 0))
  )
)
