(export (version D)
  (design
    (source F:\ToucheLibre\03_Électronique\01_Schéma_Routage\05_Carte_Flèche_Droite\carte_fleche_droite.sch)
    (date "31/10/2019 22:49:44")
    (tool "Eeschema (5.1.2)-2")
    (sheet (number 1) (name /) (tstamps /)
      (title_block
        (title Schematics)
        (company "Lilian T.")
        (rev B)
        (date "31 aout 2019")
        (source carte_fleche_droite.sch)
        (comment (number 1) (value "TL 500 005"))
        (comment (number 2) (value "Clavier ToucheLibre"))
        (comment (number 3) (value "Right Arrows Board"))
        (comment (number 4) (value "Tracking Sheet"))))
    (sheet (number 2) (name /touche_fleche/) (tstamps /5BBF8496/)
      (title_block
        (title Schematics)
        (company "Lilian T.")
        (rev B)
        (date "31 aout 2019")
        (source touche_fleche.sch)
        (comment (number 1) (value "TL 500 005"))
        (comment (number 2) (value "Clavier ToucheLibre"))
        (comment (number 3) (value "Right Arrows Board"))
        (comment (number 4) (value "Connector and Switches")))))
  (components
    (comp (ref SW52003)
      (value ML1A-11JW)
      (footprint lib_clavier:ML1A-11JW_TL)
      (fields
        (field (name ID_BASE) "TL 200 049")
        (field (name Variante) CD))
      (libsource (lib carte_fleche_droite-rescue) (part ML1A-11JW-carte_clavier-rescue) (description ""))
      (sheetpath (names /touche_fleche/) (tstamps /5BBF8496/))
      (tstamp 5D5059D8))
    (comp (ref D52003)
      (value 1N4148WT)
      (footprint lib_clavier:D_SOD-523_TL)
      (fields
        (field (name ID_BASE) "TL 200 036")
        (field (name Variante) CD))
      (libsource (lib Device) (part D) (description Diode))
      (sheetpath (names /touche_fleche/) (tstamps /5BBF8496/))
      (tstamp 5D5059E6))
    (comp (ref D52004)
      (value 1N4148WT)
      (footprint lib_clavier:D_SOD-523_TL)
      (fields
        (field (name ID_BASE) "TL 200 036")
        (field (name Variante) CD))
      (libsource (lib Device) (part D) (description Diode))
      (sheetpath (names /touche_fleche/) (tstamps /5BBF8496/))
      (tstamp 5D5059ED))
    (comp (ref Q52002)
      (value BC847BT)
      (footprint lib_clavier:SOT-416_TL)
      (datasheet ~)
      (fields
        (field (name ID_BASE) "TL 200 038")
        (field (name Variante) CD))
      (libsource (lib Device) (part Q_NPN_BEC) (description "NPN transistor, base/emitter/collector"))
      (sheetpath (names /touche_fleche/) (tstamps /5BBF8496/))
      (tstamp 5D505A06))
    (comp (ref R52003)
      (value 10k)
      (footprint lib_clavier:R_0402_TL)
      (datasheet ~)
      (fields
        (field (name ID_BASE) "TL 200 008")
        (field (name Variante) CD))
      (libsource (lib Device) (part R) (description Resistor))
      (sheetpath (names /touche_fleche/) (tstamps /5BBF8496/))
      (tstamp 5D505A0D))
    (comp (ref R52004)
      (value 16.2k)
      (footprint lib_clavier:R_0402_TL)
      (datasheet ~)
      (fields
        (field (name ID_BASE) "TL 200 009")
        (field (name Variante) CD))
      (libsource (lib Device) (part R) (description Resistor))
      (sheetpath (names /touche_fleche/) (tstamps /5BBF8496/))
      (tstamp 5D505A26))
    (comp (ref SW52004)
      (value ML1A-11JW)
      (footprint lib_clavier:ML1A-11JW_TL)
      (fields
        (field (name ID_BASE) "TL 200 049")
        (field (name Variante) CD))
      (libsource (lib carte_fleche_droite-rescue) (part ML1A-11JW-carte_clavier-rescue) (description ""))
      (sheetpath (names /touche_fleche/) (tstamps /5BBF8496/))
      (tstamp 5D5059DF))
    (comp (ref SW52001)
      (value ML1A-11JW)
      (footprint lib_clavier:ML1A-11JW_TL)
      (fields
        (field (name ID_BASE) "TL 200 049")
        (field (name Variante) CD))
      (libsource (lib carte_fleche_droite-rescue) (part ML1A-11JW-carte_clavier-rescue) (description ""))
      (sheetpath (names /touche_fleche/) (tstamps /5BBF8496/))
      (tstamp 5D4EA8C2))
    (comp (ref D52001)
      (value 1N4148WT)
      (footprint lib_clavier:D_SOD-523_TL)
      (fields
        (field (name ID_BASE) "TL 200 036")
        (field (name Variante) CD))
      (libsource (lib Device) (part D) (description Diode))
      (sheetpath (names /touche_fleche/) (tstamps /5BBF8496/))
      (tstamp 5D4EA8C9))
    (comp (ref D52002)
      (value 1N4148WT)
      (footprint lib_clavier:D_SOD-523_TL)
      (fields
        (field (name ID_BASE) "TL 200 036")
        (field (name Variante) CD))
      (libsource (lib Device) (part D) (description Diode))
      (sheetpath (names /touche_fleche/) (tstamps /5BBF8496/))
      (tstamp 5D4EA8D0))
    (comp (ref Q52001)
      (value BC847BT)
      (footprint lib_clavier:SOT-416_TL)
      (datasheet ~)
      (fields
        (field (name ID_BASE) "TL 200 038")
        (field (name Variante) CD))
      (libsource (lib Device) (part Q_NPN_BEC) (description "NPN transistor, base/emitter/collector"))
      (sheetpath (names /touche_fleche/) (tstamps /5BBF8496/))
      (tstamp 5D4EA8E1))
    (comp (ref R52001)
      (value 10k)
      (footprint lib_clavier:R_0402_TL)
      (datasheet ~)
      (fields
        (field (name ID_BASE) "TL 200 008")
        (field (name Variante) CD))
      (libsource (lib Device) (part R) (description Resistor))
      (sheetpath (names /touche_fleche/) (tstamps /5BBF8496/))
      (tstamp 5D4EA8E8))
    (comp (ref R52002)
      (value 16.2k)
      (footprint lib_clavier:R_0402_TL)
      (datasheet ~)
      (fields
        (field (name ID_BASE) "TL 200 009")
        (field (name Variante) CD))
      (libsource (lib Device) (part R) (description Resistor))
      (sheetpath (names /touche_fleche/) (tstamps /5BBF8496/))
      (tstamp 5D4EA8FE))
    (comp (ref SW52002)
      (value ML1A-11JW)
      (footprint lib_clavier:ML1A-11JW_TL)
      (fields
        (field (name ID_BASE) "TL 200 049")
        (field (name Variante) CD))
      (libsource (lib carte_fleche_droite-rescue) (part ML1A-11JW-carte_clavier-rescue) (description ""))
      (sheetpath (names /touche_fleche/) (tstamps /5BBF8496/))
      (tstamp 5D4EA919))
    (comp (ref SW52005)
      (value ML1A-11JW)
      (footprint lib_clavier:ML1A-11JW_TL)
      (fields
        (field (name ID_BASE) "TL 200 049")
        (field (name Variante) G1))
      (libsource (lib carte_fleche_droite-rescue) (part ML1A-11JW-carte_clavier-rescue) (description ""))
      (sheetpath (names /touche_fleche/) (tstamps /5BBF8496/))
      (tstamp 5D501EF8))
    (comp (ref D52005)
      (value 1N4148WT)
      (footprint lib_clavier:D_SOD-523_TL)
      (fields
        (field (name ID_BASE) "TL 200 036")
        (field (name Variante) G1))
      (libsource (lib Device) (part D) (description Diode))
      (sheetpath (names /touche_fleche/) (tstamps /5BBF8496/))
      (tstamp 5D501EFF))
    (comp (ref Q52003)
      (value BC847BT)
      (footprint lib_clavier:SOT-416_TL)
      (datasheet ~)
      (fields
        (field (name ID_BASE) "TL 200 038")
        (field (name Variante) G1))
      (libsource (lib Device) (part Q_NPN_BEC) (description "NPN transistor, base/emitter/collector"))
      (sheetpath (names /touche_fleche/) (tstamps /5BBF8496/))
      (tstamp 5D501F0A))
    (comp (ref R52005)
      (value 10k)
      (footprint lib_clavier:R_0402_TL)
      (datasheet ~)
      (fields
        (field (name ID_BASE) "TL 200 008")
        (field (name Variante) G1))
      (libsource (lib Device) (part R) (description Resistor))
      (sheetpath (names /touche_fleche/) (tstamps /5BBF8496/))
      (tstamp 5D501F11))
    (comp (ref J52001)
      (value Conn_01x10)
      (footprint lib_clavier:InterBoard_1x10_P1.27mm_inverse_TL)
      (datasheet ~)
      (fields
        (field (name ID_BASE) "TL 200 066")
        (field (name Variante) CD))
      (libsource (lib Connector_Generic) (part Conn_01x10) (description "Generic connector, single row, 01x10, script generated (kicad-library-utils/schlib/autogen/connector/)"))
      (sheetpath (names /touche_fleche/) (tstamps /5BBF8496/))
      (tstamp 5D628E71)))
  (libparts
    (libpart (lib Connector_Generic) (part Conn_01x10)
      (description "Generic connector, single row, 01x10, script generated (kicad-library-utils/schlib/autogen/connector/)")
      (docs ~)
      (footprints
        (fp Connector*:*_1x??_*))
      (fields
        (field (name Reference) J)
        (field (name Value) Conn_01x10))
      (pins
        (pin (num 1) (name Pin_1) (type passive))
        (pin (num 2) (name Pin_2) (type passive))
        (pin (num 3) (name Pin_3) (type passive))
        (pin (num 4) (name Pin_4) (type passive))
        (pin (num 5) (name Pin_5) (type passive))
        (pin (num 6) (name Pin_6) (type passive))
        (pin (num 7) (name Pin_7) (type passive))
        (pin (num 8) (name Pin_8) (type passive))
        (pin (num 9) (name Pin_9) (type passive))
        (pin (num 10) (name Pin_10) (type passive))))
    (libpart (lib Device) (part D)
      (description Diode)
      (docs ~)
      (footprints
        (fp TO-???*)
        (fp *_Diode_*)
        (fp *SingleDiode*)
        (fp D_*))
      (fields
        (field (name Reference) D)
        (field (name Value) D))
      (pins
        (pin (num 1) (name K) (type passive))
        (pin (num 2) (name A) (type passive))))
    (libpart (lib Device) (part Q_NPN_BEC)
      (description "NPN transistor, base/emitter/collector")
      (docs ~)
      (fields
        (field (name Reference) Q)
        (field (name Value) Q_NPN_BEC))
      (pins
        (pin (num 1) (name B) (type input))
        (pin (num 2) (name E) (type passive))
        (pin (num 3) (name C) (type passive))))
    (libpart (lib Device) (part R)
      (description Resistor)
      (docs ~)
      (footprints
        (fp R_*))
      (fields
        (field (name Reference) R)
        (field (name Value) R))
      (pins
        (pin (num 1) (name ~) (type passive))
        (pin (num 2) (name ~) (type passive))))
    (libpart (lib carte_fleche_droite-rescue) (part ML1A-11JW-carte_clavier-rescue)
      (fields
        (field (name Reference) J)
        (field (name Value) ML1A-11JW-carte_clavier-rescue))
      (pins
        (pin (num 1) (name SW1) (type input))
        (pin (num 2) (name SW2) (type input))
        (pin (num 3) (name JW1) (type input))
        (pin (num 4) (name JW2) (type input)))))
  (libraries
    (library (logical Connector_Generic)
      (uri "C:\\Program Files\\KiCad\\share\\kicad\\library/Connector_Generic.lib"))
    (library (logical Device)
      (uri "C:\\Program Files\\KiCad\\share\\kicad\\library/Device.lib"))
    (library (logical carte_fleche_droite-rescue)
      (uri F:\ToucheLibre\03_Électronique\01_Schéma_Routage\05_Carte_Flèche_Droite/carte_fleche_droite-rescue.lib)))
  (nets
    (net (code 1) (name "Net-(SW52005-Pad4)")
      (node (ref SW52005) (pin 4)))
    (net (code 2) (name /touche_fleche/Col_8_Opt_D)
      (node (ref J52001) (pin 7))
      (node (ref D52005) (pin 2))
      (node (ref Q52003) (pin 1)))
    (net (code 3) (name "Net-(Q52003-Pad3)")
      (node (ref R52005) (pin 2))
      (node (ref Q52003) (pin 3)))
    (net (code 4) (name "Net-(D52005-Pad1)")
      (node (ref R52005) (pin 1))
      (node (ref SW52005) (pin 2))
      (node (ref D52005) (pin 1)))
    (net (code 5) (name GND)
      (node (ref J52001) (pin 6))
      (node (ref Q52001) (pin 2))
      (node (ref Q52002) (pin 2))
      (node (ref J52001) (pin 3))
      (node (ref Q52003) (pin 2)))
    (net (code 6) (name "Net-(D52002-Pad1)")
      (node (ref D52002) (pin 1))
      (node (ref SW52002) (pin 2))
      (node (ref R52002) (pin 1)))
    (net (code 7) (name "Net-(D52001-Pad1)")
      (node (ref D52001) (pin 1))
      (node (ref R52001) (pin 1))
      (node (ref SW52001) (pin 2)))
    (net (code 8) (name "Net-(SW52001-Pad4)")
      (node (ref SW52001) (pin 4))
      (node (ref SW52002) (pin 3))
      (node (ref SW52002) (pin 1)))
    (net (code 9) (name "Net-(SW52002-Pad4)")
      (node (ref SW52005) (pin 1))
      (node (ref SW52005) (pin 3))
      (node (ref SW52002) (pin 4)))
    (net (code 10) (name /touche_fleche/Col_6bis_Opt_D)
      (node (ref D52004) (pin 2))
      (node (ref J52001) (pin 2)))
    (net (code 11) (name /touche_fleche/Lig_X_Opt_D)
      (node (ref J52001) (pin 10)))
    (net (code 12) (name /touche_fleche/Col_8bis_Opt_D)
      (node (ref J52001) (pin 8)))
    (net (code 13) (name +3V3)
      (node (ref J52001) (pin 9)))
    (net (code 14) (name /touche_fleche/Col_7bis_Opt_D)
      (node (ref J52001) (pin 5))
      (node (ref D52002) (pin 2)))
    (net (code 15) (name /touche_fleche/Col_6_Opt_D)
      (node (ref J52001) (pin 1))
      (node (ref Q52002) (pin 1))
      (node (ref D52003) (pin 2)))
    (net (code 16) (name "Net-(D52004-Pad1)")
      (node (ref R52004) (pin 1))
      (node (ref SW52004) (pin 2))
      (node (ref D52004) (pin 1)))
    (net (code 17) (name /touche_fleche/Lig_X_Opt)
      (node (ref SW52003) (pin 3))
      (node (ref SW52003) (pin 1)))
    (net (code 18) (name "Net-(Q52002-Pad3)")
      (node (ref R52003) (pin 2))
      (node (ref Q52002) (pin 3))
      (node (ref R52004) (pin 2)))
    (net (code 19) (name "Net-(SW52003-Pad4)")
      (node (ref SW52003) (pin 4))
      (node (ref SW52004) (pin 1))
      (node (ref SW52004) (pin 3)))
    (net (code 20) (name "Net-(D52003-Pad1)")
      (node (ref D52003) (pin 1))
      (node (ref SW52003) (pin 2))
      (node (ref R52003) (pin 1)))
    (net (code 21) (name /touche_fleche/Col_7_Opt_D)
      (node (ref J52001) (pin 4))
      (node (ref Q52001) (pin 1))
      (node (ref D52001) (pin 2)))
    (net (code 22) (name "Net-(Q52001-Pad3)")
      (node (ref Q52001) (pin 3))
      (node (ref R52001) (pin 2))
      (node (ref R52002) (pin 2)))
    (net (code 23) (name "Net-(SW52001-Pad1)")
      (node (ref SW52001) (pin 3))
      (node (ref SW52001) (pin 1))
      (node (ref SW52004) (pin 4)))))