EESchema Schematic File Version 4
LIBS:carte_fleche_droite-cache
EELAYER 30 0
EELAYER END
$Descr A2 23386 16535
encoding utf-8
Sheet 2 2
Title "Schematics"
Date "20 oct 2019"
Rev "B"
Comp "Lilian T."
Comment1 "TL 500 005"
Comment2 "Clavier ToucheLibre"
Comment3 "Right Arrows Board"
Comment4 "Connector and Switches"
$EndDescr
Wire Notes Line
	15400 7200 15400 5500
Text Notes 15450 5450 0    59   ~ 12
Connecteur vers carte Clavier\nConnector to Clavier board
Wire Notes Line
	15400 5500 17100 5500
Wire Notes Line
	17100 7200 17100 5500
Wire Wire Line
	15700 6000 16850 6000
Wire Wire Line
	15700 6100 16850 6100
Wire Wire Line
	15700 6300 16850 6300
Wire Wire Line
	15700 6400 16850 6400
Wire Wire Line
	15700 6700 16850 6700
Wire Wire Line
	15700 6900 16850 6900
$Comp
L power:+3.3V #PWR02001
U 1 1 5D4E9994
P 16450 5850
F 0 "#PWR02001" H 16450 5700 50  0001 C CNN
F 1 "+3.3V" H 16465 6023 50  0000 C CNN
F 2 "" H 16450 5850 50  0001 C CNN
F 3 "" H 16450 5850 50  0001 C CNN
	1    16450 5850
	-1   0    0    -1  
$EndComp
Text Label 15700 6900 0    50   ~ 0
Lig_X_Opt_D
Text Label 15700 6000 0    50   ~ 0
Col_6_Opt_D
Text Label 15700 6100 0    50   ~ 0
Col_6bis_Opt_D
Text Label 15700 6300 0    50   ~ 0
Col_7_Opt_D
Text Label 15700 6400 0    50   ~ 0
Col_7bis_Opt_D
Text Label 15700 6600 0    50   ~ 0
Col_8_Opt_D
Text Label 15700 6700 0    50   ~ 0
Col_8bis_Opt_D
Wire Notes Line
	15400 7200 17100 7200
Wire Notes Line
	7800 5000 11400 5000
Wire Notes Line
	11400 5000 11400 9200
Wire Notes Line
	11400 9200 7800 9200
Wire Notes Line
	7800 5000 7800 9200
Wire Notes Line
	13800 9500 12500 9500
Wire Notes Line
	12500 9500 12500 7500
Wire Notes Line
	12500 7500 13800 7500
Wire Notes Line
	13800 7500 13800 9500
Text Notes 12500 7450 0    59   ~ 12
Basculement Flèches\nCurseur / Page\n\nCursor / Page\nToggle
Text Notes 7900 4950 0    59   ~ 12
Flèches de Droites\nRight Arrows
$Comp
L carte_fleche_droite-rescue:GND #PWR02003
U 1 1 5D500558
P 16700 7000
F 0 "#PWR02003" H 16700 6750 50  0001 C CNN
F 1 "GND" H 16705 6827 50  0001 C CNN
F 2 "" H 16700 7000 50  0001 C CNN
F 3 "" H 16700 7000 50  0001 C CNN
	1    16700 7000
	1    0    0    -1  
$EndComp
$Comp
L carte_fleche_droite-rescue:ML1A-11JW-carte_clavier-rescue SW52003
U 1 1 5D5059D8
P 8100 8000
F 0 "SW52003" H 8350 8950 60  0000 C CNN
F 1 "ML1A-11JW" H 8400 8850 60  0000 C CNN
F 2 "lib_clavier:ML1A-11JW_TL" H 8700 8750 60  0001 C CNN
F 3 "" H 8700 8750 60  0000 C CNN
F 4 "TL 200 049" H 8100 8000 50  0001 C CNN "ID_BASE"
F 5 "CD" H 8100 8000 50  0001 C CNN "Variante"
	1    8100 8000
	1    0    0    -1  
$EndComp
$Comp
L Device:D D?
U 1 1 5D5059E6
P 8700 8000
AR Path="/5D5059E6" Ref="D?"  Part="1" 
AR Path="/5BBF8496/5D5059E6" Ref="D52003"  Part="1" 
F 0 "D52003" H 8800 8200 50  0000 C CNN
F 1 "1N4148WT" H 8800 8100 50  0000 C CNN
F 2 "lib_clavier:D_SOD-523_TL" H 8700 8000 50  0001 C CNN
F 3 "" H 8700 8000 50  0000 C CNN
F 4 "TL 200 036" H 8700 8000 50  0001 C CNN "ID_BASE"
F 5 "G2" H 8700 8000 50  0001 C CNN "Variante"
	1    8700 8000
	1    0    0    -1  
$EndComp
$Comp
L Device:D D?
U 1 1 5D5059ED
P 9800 8900
AR Path="/5D5059ED" Ref="D?"  Part="1" 
AR Path="/5BBF8496/5D5059ED" Ref="D52004"  Part="1" 
F 0 "D52004" H 9850 9000 50  0000 C CNN
F 1 "1N4148WT" H 9800 8800 50  0000 C CNN
F 2 "lib_clavier:D_SOD-523_TL" H 9800 8900 50  0001 C CNN
F 3 "" H 9800 8900 50  0000 C CNN
F 4 "TL 200 036" H 9800 8900 50  0001 C CNN "ID_BASE"
F 5 "G2" H 9800 8900 50  0001 C CNN "Variante"
	1    9800 8900
	1    0    0    -1  
$EndComp
Text Notes 8200 7000 0    60   ~ 12
LEFT
Text Notes 9300 7900 0    60   ~ 12
DOWN
Connection ~ 8150 7500
Wire Wire Line
	8850 8000 9000 8000
$Comp
L Device:Q_NPN_BEC Q52002
U 1 1 5D505A06
P 8500 8300
F 0 "Q52002" V 8450 8600 50  0000 C CNN
F 1 "BC847BT" V 8350 8550 50  0000 C CNN
F 2 "lib_clavier:SOT-416_TL" H 8700 8400 50  0001 C CNN
F 3 "~" H 8500 8300 50  0001 C CNN
F 4 "TL 200 038" H 8500 8300 50  0001 C CNN "ID_BASE"
F 5 "G1" H 8500 8300 50  0001 C CNN "Variante"
	1    8500 8300
	0    -1   -1   0   
$EndComp
$Comp
L Device:R R52003
U 1 1 5D505A0D
P 8250 8000
F 0 "R52003" V 8050 7950 50  0000 C CNN
F 1 "10k" V 8150 7950 50  0000 C CNN
F 2 "lib_clavier:R_0402_TL" V 8180 8000 50  0001 C CNN
F 3 "~" H 8250 8000 50  0001 C CNN
F 4 "TL 200 008" H 8250 8000 50  0001 C CNN "ID_BASE"
F 5 "G1" H 8250 8000 50  0001 C CNN "Variante"
	1    8250 8000
	0    1    1    0   
$EndComp
Wire Wire Line
	8500 8500 9000 8500
$Comp
L power:GND #PWR02004
U 1 1 5D505A15
P 8800 8200
F 0 "#PWR02004" H 8800 7950 50  0001 C CNN
F 1 "GND" H 8805 8027 50  0001 C CNN
F 2 "" H 8800 8200 50  0001 C CNN
F 3 "" H 8800 8200 50  0001 C CNN
	1    8800 8200
	1    0    0    -1  
$EndComp
Wire Wire Line
	8700 8200 8800 8200
Wire Wire Line
	8500 7200 8150 7200
Wire Wire Line
	8150 7200 8150 7500
Connection ~ 9000 8000
Wire Wire Line
	9000 8000 9000 8500
Wire Wire Line
	8300 8200 8100 8200
Wire Wire Line
	9600 8100 9250 8100
Wire Wire Line
	9250 8100 9250 8400
$Comp
L Device:R R52004
U 1 1 5D505A26
P 9350 8900
F 0 "R52004" V 9150 8850 50  0000 C CNN
F 1 "16.2k" V 9234 8900 50  0000 C CNN
F 2 "lib_clavier:R_0402_TL" V 9280 8900 50  0001 C CNN
F 3 "~" H 9350 8900 50  0001 C CNN
F 4 "TL 200 009" H 9350 8900 50  0001 C CNN "ID_BASE"
F 5 "G1" H 9350 8900 50  0001 C CNN "Variante"
	1    9350 8900
	0    1    1    0   
$EndComp
Wire Wire Line
	9650 8900 9600 8900
Wire Wire Line
	8400 8000 8500 8000
Wire Wire Line
	8500 7950 8500 8000
Connection ~ 8500 8000
Wire Wire Line
	8500 8000 8550 8000
Wire Wire Line
	9600 8850 9600 8900
Connection ~ 9600 8900
Wire Wire Line
	9600 8900 9500 8900
Wire Wire Line
	9000 4200 9000 8000
Wire Wire Line
	8100 8000 8100 8100
Wire Wire Line
	8000 8100 8100 8100
Connection ~ 8100 8100
Wire Wire Line
	8100 8100 8100 8200
Wire Wire Line
	8000 8900 9200 8900
Wire Wire Line
	8850 7500 9150 7500
Wire Wire Line
	9150 8400 9250 8400
Wire Wire Line
	8000 8900 8000 8100
Connection ~ 9250 8400
$Comp
L carte_fleche_droite-rescue:ML1A-11JW-carte_clavier-rescue SW52004
U 1 1 5D5059DF
P 9200 8900
F 0 "SW52004" H 9450 9850 60  0000 C CNN
F 1 "ML1A-11JW" H 9500 9750 60  0000 C CNN
F 2 "lib_clavier:ML1A-11JW_TL" H 9800 9650 60  0001 C CNN
F 3 "" H 9800 9650 60  0000 C CNN
F 4 "TL 200 049" H 9200 8900 50  0001 C CNN "ID_BASE"
F 5 "CD" H 9200 8900 50  0001 C CNN "Variante"
	1    9200 8900
	1    0    0    -1  
$EndComp
$Comp
L carte_fleche_droite-rescue:ML1A-11JW-carte_clavier-rescue SW52001
U 1 1 5D4EA8C2
P 9250 6400
F 0 "SW52001" H 9500 7350 60  0000 C CNN
F 1 "ML1A-11JW" H 9550 7250 60  0000 C CNN
F 2 "lib_clavier:ML1A-11JW_TL" H 9850 7150 60  0001 C CNN
F 3 "" H 9850 7150 60  0000 C CNN
F 4 "TL 200 049" H 9250 6400 50  0001 C CNN "ID_BASE"
F 5 "CD" H 9250 6400 50  0001 C CNN "Variante"
	1    9250 6400
	1    0    0    -1  
$EndComp
$Comp
L Device:D D?
U 1 1 5D4EA8C9
P 9850 6400
AR Path="/5D4EA8C9" Ref="D?"  Part="1" 
AR Path="/5BBF8496/5D4EA8C9" Ref="D52001"  Part="1" 
F 0 "D52001" H 9950 6600 50  0000 C CNN
F 1 "1N4148WT" H 9950 6500 50  0000 C CNN
F 2 "lib_clavier:D_SOD-523_TL" H 9850 6400 50  0001 C CNN
F 3 "" H 9850 6400 50  0000 C CNN
F 4 "TL 200 036" H 9850 6400 50  0001 C CNN "ID_BASE"
F 5 "G2" H 9850 6400 50  0001 C CNN "Variante"
	1    9850 6400
	1    0    0    -1  
$EndComp
$Comp
L Device:D D?
U 1 1 5D4EA8D0
P 11050 7300
AR Path="/5D4EA8D0" Ref="D?"  Part="1" 
AR Path="/5BBF8496/5D4EA8D0" Ref="D52002"  Part="1" 
F 0 "D52002" H 11100 7400 50  0000 C CNN
F 1 "1N4148WT" H 11050 7200 50  0000 C CNN
F 2 "lib_clavier:D_SOD-523_TL" H 11050 7300 50  0001 C CNN
F 3 "" H 11050 7300 50  0000 C CNN
F 4 "TL 200 036" H 11050 7300 50  0001 C CNN "ID_BASE"
F 5 "G2" H 11050 7300 50  0001 C CNN "Variante"
	1    11050 7300
	1    0    0    -1  
$EndComp
Text Notes 9350 5400 0    60   ~ 12
UP
Text Notes 10550 6300 0    60   ~ 12
RGHT
Connection ~ 9300 5900
Wire Wire Line
	11300 4200 11300 7300
Wire Wire Line
	10000 6400 10150 6400
$Comp
L Device:Q_NPN_BEC Q52001
U 1 1 5D4EA8E1
P 9650 6700
F 0 "Q52001" V 9600 7000 50  0000 C CNN
F 1 "BC847BT" V 9500 6950 50  0000 C CNN
F 2 "lib_clavier:SOT-416_TL" H 9850 6800 50  0001 C CNN
F 3 "~" H 9650 6700 50  0001 C CNN
F 4 "TL 200 038" H 9650 6700 50  0001 C CNN "ID_BASE"
F 5 "G1" H 9650 6700 50  0001 C CNN "Variante"
	1    9650 6700
	0    -1   -1   0   
$EndComp
$Comp
L Device:R R52001
U 1 1 5D4EA8E8
P 9400 6400
F 0 "R52001" V 9200 6350 50  0000 C CNN
F 1 "10k" V 9300 6350 50  0000 C CNN
F 2 "lib_clavier:R_0402_TL" V 9330 6400 50  0001 C CNN
F 3 "~" H 9400 6400 50  0001 C CNN
F 4 "TL 200 008" H 9400 6400 50  0001 C CNN "ID_BASE"
F 5 "G1" H 9400 6400 50  0001 C CNN "Variante"
	1    9400 6400
	0    1    1    0   
$EndComp
Wire Wire Line
	9650 6900 10150 6900
$Comp
L power:GND #PWR02002
U 1 1 5D4EA8F0
P 9950 6600
F 0 "#PWR02002" H 9950 6350 50  0001 C CNN
F 1 "GND" H 9955 6427 50  0001 C CNN
F 2 "" H 9950 6600 50  0001 C CNN
F 3 "" H 9950 6600 50  0001 C CNN
	1    9950 6600
	1    0    0    -1  
$EndComp
Wire Wire Line
	9850 6600 9950 6600
Wire Wire Line
	9650 5600 9300 5600
Wire Wire Line
	9300 5600 9300 5900
Wire Wire Line
	10150 6400 10150 6900
Wire Wire Line
	9450 6600 9250 6600
Wire Wire Line
	10850 6500 10500 6500
Wire Wire Line
	10500 6500 10500 6800
$Comp
L Device:R R52002
U 1 1 5D4EA8FE
P 10600 7300
F 0 "R52002" V 10400 7250 50  0000 C CNN
F 1 "16.2k" V 10484 7300 50  0000 C CNN
F 2 "lib_clavier:R_0402_TL" V 10530 7300 50  0001 C CNN
F 3 "~" H 10600 7300 50  0001 C CNN
F 4 "TL 200 009" H 10600 7300 50  0001 C CNN "ID_BASE"
F 5 "G1" H 10600 7300 50  0001 C CNN "Variante"
	1    10600 7300
	0    1    1    0   
$EndComp
Wire Wire Line
	10900 7300 10850 7300
Wire Wire Line
	9550 6400 9650 6400
Wire Wire Line
	9650 6350 9650 6400
Connection ~ 9650 6400
Wire Wire Line
	9650 6400 9700 6400
Wire Wire Line
	10850 7250 10850 7300
Connection ~ 10850 7300
Wire Wire Line
	10850 7300 10750 7300
Wire Wire Line
	10150 4200 10150 6400
Wire Wire Line
	9250 6400 9250 6500
Wire Wire Line
	9150 6500 9250 6500
Connection ~ 9250 6500
Wire Wire Line
	9250 6500 9250 6600
Wire Wire Line
	10400 6800 10500 6800
Wire Wire Line
	10400 5900 10400 6800
Connection ~ 10500 6800
$Comp
L carte_fleche_droite-rescue:ML1A-11JW-carte_clavier-rescue SW52002
U 1 1 5D4EA919
P 10450 7300
F 0 "SW52002" H 10700 8250 60  0000 C CNN
F 1 "ML1A-11JW" H 10750 8150 60  0000 C CNN
F 2 "lib_clavier:ML1A-11JW_TL" H 11050 8050 60  0001 C CNN
F 3 "" H 11050 8050 60  0000 C CNN
F 4 "TL 200 049" H 10450 7300 50  0001 C CNN "ID_BASE"
F 5 "CD" H 10450 7300 50  0001 C CNN "Variante"
	1    10450 7300
	1    0    0    -1  
$EndComp
Wire Wire Line
	9150 8400 9150 7500
Wire Wire Line
	9950 8400 9950 7400
Wire Wire Line
	9150 7300 9150 6500
Wire Wire Line
	9100 7400 9100 5900
Wire Wire Line
	9100 7400 9950 7400
Wire Wire Line
	9100 5900 9300 5900
$Comp
L carte_fleche_droite-rescue:ML1A-11JW-carte_clavier-rescue SW52005
U 1 1 5D501EF8
P 12700 8800
F 0 "SW52005" H 12950 9750 60  0000 C CNN
F 1 "ML1A-11JW" H 13000 9650 60  0000 C CNN
F 2 "lib_clavier:ML1A-11JW_TL" H 13300 9550 60  0001 C CNN
F 3 "" H 13300 9550 60  0000 C CNN
F 4 "TL 200 049" H 12700 8800 50  0001 C CNN "ID_BASE"
F 5 "G3" H 12700 8800 50  0001 C CNN "Variante"
	1    12700 8800
	1    0    0    -1  
$EndComp
$Comp
L Device:D D?
U 1 1 5D501EFF
P 13300 8800
AR Path="/5D501EFF" Ref="D?"  Part="1" 
AR Path="/5BBF8496/5D501EFF" Ref="D52005"  Part="1" 
F 0 "D52005" H 13400 9000 50  0000 C CNN
F 1 "1N4148WT" H 13400 8900 50  0000 C CNN
F 2 "lib_clavier:D_SOD-523_TL" H 13300 8800 50  0001 C CNN
F 3 "" H 13300 8800 50  0000 C CNN
F 4 "TL 200 036" H 13300 8800 50  0001 C CNN "ID_BASE"
F 5 "G5" H 13300 8800 50  0001 C CNN "Variante"
	1    13300 8800
	1    0    0    -1  
$EndComp
Text Notes 12800 7800 0    60   ~ 12
RCPT
Connection ~ 12750 8300
Wire Wire Line
	13450 8800 13600 8800
$Comp
L Device:Q_NPN_BEC Q52003
U 1 1 5D501F0A
P 13100 9100
F 0 "Q52003" V 13050 9400 50  0000 C CNN
F 1 "BC847BT" V 12950 9350 50  0000 C CNN
F 2 "lib_clavier:SOT-416_TL" H 13300 9200 50  0001 C CNN
F 3 "~" H 13100 9100 50  0001 C CNN
F 4 "TL 200 038" H 13100 9100 50  0001 C CNN "ID_BASE"
F 5 "G4" H 13100 9100 50  0001 C CNN "Variante"
	1    13100 9100
	0    -1   -1   0   
$EndComp
$Comp
L Device:R R52005
U 1 1 5D501F11
P 12850 8800
F 0 "R52005" V 12650 8750 50  0000 C CNN
F 1 "10k" V 12750 8750 50  0000 C CNN
F 2 "lib_clavier:R_0402_TL" V 12780 8800 50  0001 C CNN
F 3 "~" H 12850 8800 50  0001 C CNN
F 4 "TL 200 008" H 12850 8800 50  0001 C CNN "ID_BASE"
F 5 "G4" H 12850 8800 50  0001 C CNN "Variante"
	1    12850 8800
	0    1    1    0   
$EndComp
Wire Wire Line
	13100 9300 13600 9300
$Comp
L power:GND #PWR02005
U 1 1 5D501F19
P 13400 9000
F 0 "#PWR02005" H 13400 8750 50  0001 C CNN
F 1 "GND" H 13405 8827 50  0001 C CNN
F 2 "" H 13400 9000 50  0001 C CNN
F 3 "" H 13400 9000 50  0001 C CNN
	1    13400 9000
	1    0    0    -1  
$EndComp
Wire Wire Line
	13300 9000 13400 9000
Wire Wire Line
	13100 8000 12750 8000
Wire Wire Line
	12750 8000 12750 8300
Connection ~ 13600 8800
Wire Wire Line
	13600 8800 13600 9300
Wire Wire Line
	12900 9000 12700 9000
Wire Wire Line
	13000 8800 13100 8800
Wire Wire Line
	13100 8750 13100 8800
Connection ~ 13100 8800
Wire Wire Line
	13100 8800 13150 8800
Wire Wire Line
	13600 4200 13600 8800
Wire Wire Line
	12700 8800 12700 9000
NoConn ~ 13450 8300
Wire Wire Line
	11900 6800 11900 8300
Wire Wire Line
	11900 8300 12750 8300
Wire Wire Line
	11200 6800 11900 6800
Wire Wire Line
	6700 7500 8150 7500
Text Label 6700 7500 0    50   ~ 0
Lig_X_Opt
Text Label 9000 4200 3    50   ~ 0
Col_6_Opt_D
Text Label 9900 4200 3    50   ~ 0
Col_6bis_Opt_D
Text Label 10150 4200 3    50   ~ 0
Col_7_Opt_D
Text Label 11300 4200 3    50   ~ 0
Col_7bis_Opt_D
Text Label 13600 4200 3    50   ~ 0
Col_8_Opt_D
Connection ~ 10150 6400
Wire Wire Line
	10000 5900 10400 5900
Wire Wire Line
	9150 7300 10450 7300
Wire Wire Line
	9950 8900 10300 8900
Wire Wire Line
	11200 7300 11300 7300
Wire Wire Line
	10300 5350 9900 5350
Wire Wire Line
	9900 5350 9900 4200
Wire Wire Line
	10300 5350 10300 8900
$Comp
L Connector_Generic:Conn_01x10 J52001
U 1 1 5D628E71
P 17050 6400
F 0 "J52001" H 16700 7050 50  0000 L CNN
F 1 "Conn_01x10" H 16600 6950 50  0000 L CNN
F 2 "lib_clavier:InterBoard_1x10_P1.27mm_inverse_TL" H 17050 6400 50  0001 C CNN
F 3 "~" H 17050 6400 50  0001 C CNN
F 4 "TL 200 066" H 17050 6400 50  0001 C CNN "ID_BASE"
F 5 "CD" H 17050 6400 50  0001 C CNN "Variante"
	1    17050 6400
	1    0    0    -1  
$EndComp
Wire Wire Line
	16700 6200 16850 6200
Wire Wire Line
	16850 6500 16700 6500
Connection ~ 16700 6500
Wire Wire Line
	16700 6500 16700 6200
Wire Wire Line
	16700 7000 16700 6500
Wire Wire Line
	15700 6600 16850 6600
Wire Wire Line
	16450 6800 16450 5850
Wire Wire Line
	16450 6800 16850 6800
$EndSCHEMATC
