EESchema Schematic File Version 4
LIBS:carte_MCU-cache
EELAYER 30 0
EELAYER END
$Descr A2 23386 16535
encoding utf-8
Sheet 5 5
Title "Schematics"
Date "20 oct 2019"
Rev "B"
Comp "Lilian T."
Comment1 "TL 500 002"
Comment2 "Clavier ToucheLibre"
Comment3 "MCU Board"
Comment4 "Bluetooth Transceiver"
$EndDescr
Text HLabel 8950 7000 0    50   Output ~ 0
SPI_BT_MISO
Text HLabel 8950 6800 0    50   Input ~ 0
SPI_BT_MOSI
Text HLabel 8950 7200 0    50   Input ~ 0
SPI_BT_SCLK
Text HLabel 8950 7400 0    50   Input ~ 0
SPI_BT_CSN
$Comp
L Device:C C?
U 1 1 5D53D705
P 13450 8650
AR Path="/5D53D705" Ref="C?"  Part="1" 
AR Path="/5D4A0749/5D49F20C/5D53D705" Ref="C?"  Part="1" 
AR Path="/5D4A0749/5D49F20F/5D53D705" Ref="C25010"  Part="1" 
F 0 "C25010" H 13650 8550 50  0000 C CNN
F 1 "12pF" H 13700 8650 50  0000 C CNN
F 2 "lib_clavier:C_0402_TL" H 13488 8500 50  0001 C CNN
F 3 "~" H 13450 8650 50  0001 C CNN
F 4 "50V" H 13700 8750 50  0000 C CNN "Tension"
F 5 "TL 200 017" H 13450 8650 50  0001 C CNN "ID_BASE"
F 6 "G2" H 13450 8650 50  0001 C CNN "Variante"
	1    13450 8650
	-1   0    0    1   
$EndComp
$Comp
L power:GND #PWR?
U 1 1 5D53D70C
P 13650 8000
AR Path="/5D53D70C" Ref="#PWR?"  Part="1" 
AR Path="/5D4A0749/5D49F20C/5D53D70C" Ref="#PWR?"  Part="1" 
AR Path="/5D4A0749/5D49F20F/5D53D70C" Ref="#PWR05010"  Part="1" 
F 0 "#PWR05010" H 13650 7750 50  0001 C CNN
F 1 "GND" H 13800 7950 50  0001 C CNN
F 2 "" H 13650 8000 50  0001 C CNN
F 3 "" H 13650 8000 50  0001 C CNN
	1    13650 8000
	-1   0    0    1   
$EndComp
$Comp
L power:GND #PWR?
U 1 1 5D53D712
P 13650 8500
AR Path="/5D53D712" Ref="#PWR?"  Part="1" 
AR Path="/5D4A0749/5D49F20C/5D53D712" Ref="#PWR?"  Part="1" 
AR Path="/5D4A0749/5D49F20F/5D53D712" Ref="#PWR05012"  Part="1" 
F 0 "#PWR05012" H 13650 8250 50  0001 C CNN
F 1 "GND" H 13500 8450 50  0001 C CNN
F 2 "" H 13650 8500 50  0001 C CNN
F 3 "" H 13650 8500 50  0001 C CNN
	1    13650 8500
	1    0    0    -1  
$EndComp
$Comp
L power:GND #PWR?
U 1 1 5D53D720
P 13450 8850
AR Path="/5D53D720" Ref="#PWR?"  Part="1" 
AR Path="/5D4A0749/5D49F20C/5D53D720" Ref="#PWR?"  Part="1" 
AR Path="/5D4A0749/5D49F20F/5D53D720" Ref="#PWR05013"  Part="1" 
F 0 "#PWR05013" H 13450 8600 50  0001 C CNN
F 1 "GND" H 13300 8800 50  0001 C CNN
F 2 "" H 13450 8850 50  0001 C CNN
F 3 "" H 13450 8850 50  0001 C CNN
	1    13450 8850
	1    0    0    -1  
$EndComp
Wire Notes Line
	14350 7500 14350 9050
Wire Notes Line
	14350 9050 12950 9050
Wire Notes Line
	12950 9050 12950 7500
Wire Notes Line
	12950 7500 14350 7500
Text Notes 13300 7450 2    59   ~ 12
Quartz
$Comp
L Device:Crystal_GND24 Y?
U 1 1 5D53D736
P 13650 8250
AR Path="/5D53D736" Ref="Y?"  Part="1" 
AR Path="/5D4A0749/5D49F20C/5D53D736" Ref="Y?"  Part="1" 
AR Path="/5D4A0749/5D49F20F/5D53D736" Ref="Y25001"  Part="1" 
F 0 "Y25001" H 14200 8350 50  0000 R CNN
F 1 "16MHz" H 14150 8250 50  0000 R CNN
F 2 "lib_clavier:Crystal_SMD_3225-4Pin_3.2x2.5mm_TL" H 13650 8250 50  0001 C CNN
F 3 "~" H 13650 8250 50  0001 C CNN
F 4 "Q22FA238" H 14100 8150 50  0000 C CNN "Ref_Fab"
F 5 "TL 200 033" H 13650 8250 50  0001 C CNN "ID_BASE"
F 6 "G2" H 13650 8250 50  0001 C CNN "Variante"
	1    13650 8250
	1    0    0    -1  
$EndComp
Wire Wire Line
	12000 8100 12000 8150
Wire Wire Line
	12000 8150 12100 8150
Wire Wire Line
	12200 8100 12200 8150
Connection ~ 12200 8150
Wire Wire Line
	12200 8150 12300 8150
Wire Wire Line
	12100 8150 12100 8100
Connection ~ 12100 8150
Wire Wire Line
	8950 6800 9750 6800
Wire Wire Line
	8950 7200 9750 7200
Wire Wire Line
	12300 8150 12300 8100
Wire Wire Line
	13450 8800 13450 8850
Wire Wire Line
	13650 8000 13650 8050
Wire Wire Line
	13650 8500 13650 8450
$Comp
L Device:C C?
U 1 1 5D5433BD
P 13850 8650
AR Path="/5D5433BD" Ref="C?"  Part="1" 
AR Path="/5D4A0749/5D49F20C/5D5433BD" Ref="C?"  Part="1" 
AR Path="/5D4A0749/5D49F20F/5D5433BD" Ref="C25011"  Part="1" 
F 0 "C25011" H 13650 8550 50  0000 C CNN
F 1 "12pF" H 13650 8650 50  0000 C CNN
F 2 "lib_clavier:C_0402_TL" H 13888 8500 50  0001 C CNN
F 3 "~" H 13850 8650 50  0001 C CNN
F 4 "50V" H 13650 8750 50  0000 C CNN "Tension"
F 5 "TL 200 017" H 13850 8650 50  0001 C CNN "ID_BASE"
F 6 "G2" H 13850 8650 50  0001 C CNN "Variante"
	1    13850 8650
	-1   0    0    1   
$EndComp
$Comp
L power:GND #PWR?
U 1 1 5D5433C4
P 13850 8850
AR Path="/5D5433C4" Ref="#PWR?"  Part="1" 
AR Path="/5D4A0749/5D49F20C/5D5433C4" Ref="#PWR?"  Part="1" 
AR Path="/5D4A0749/5D49F20F/5D5433C4" Ref="#PWR05014"  Part="1" 
F 0 "#PWR05014" H 13850 8600 50  0001 C CNN
F 1 "GND" H 13700 8800 50  0001 C CNN
F 2 "" H 13850 8850 50  0001 C CNN
F 3 "" H 13850 8850 50  0001 C CNN
	1    13850 8850
	1    0    0    -1  
$EndComp
Wire Wire Line
	13850 8800 13850 8850
Wire Wire Line
	13450 8500 13450 8250
Wire Wire Line
	13450 8250 13500 8250
Wire Wire Line
	13800 8250 13850 8250
Wire Wire Line
	13850 8250 13850 8500
Wire Wire Line
	13450 8250 13450 7800
Connection ~ 13450 8250
Connection ~ 13850 8250
$Comp
L Device:R R25001
U 1 1 5D54610E
P 13200 7800
F 0 "R25001" V 13300 7800 50  0000 C CNN
F 1 "0" V 13400 7800 50  0000 C CNN
F 2 "lib_clavier:R_0402_TL" V 13130 7800 50  0001 C CNN
F 3 "~" H 13200 7800 50  0001 C CNN
F 4 "TL 200 001" H 13200 7800 50  0001 C CNN "ID_BASE"
F 5 "G2" H 13200 7800 50  0001 C CNN "Variante"
	1    13200 7800
	0    1    1    0   
$EndComp
Wire Wire Line
	13350 7800 13450 7800
$Comp
L Device:R R25003
U 1 1 5D549A4A
P 11250 8700
F 0 "R25003" H 10850 8750 50  0000 L CNN
F 1 "22.1k" H 10950 8650 50  0000 L CNN
F 2 "lib_clavier:R_0402_TL" V 11180 8700 50  0001 C CNN
F 3 "~" H 11250 8700 50  0001 C CNN
F 4 "TL 200 010" H 11250 8700 50  0001 C CNN "ID_BASE"
F 5 "G2" H 11250 8700 50  0001 C CNN "Variante"
	1    11250 8700
	1    0    0    -1  
$EndComp
$Comp
L Device:C C?
U 1 1 5D549ACB
P 11500 8700
AR Path="/5D549ACB" Ref="C?"  Part="1" 
AR Path="/5D4A0749/5D49F20C/5D549ACB" Ref="C?"  Part="1" 
AR Path="/5D4A0749/5D49F20F/5D549ACB" Ref="C25012"  Part="1" 
F 0 "C25012" H 11300 8600 50  0000 C CNN
F 1 "33nF" H 11300 8700 50  0000 C CNN
F 2 "lib_clavier:C_0402_TL" H 11538 8550 50  0001 C CNN
F 3 "~" H 11500 8700 50  0001 C CNN
F 4 "16V" H 11350 8800 50  0000 C CNN "Tension"
F 5 "TL 200 021" H 11500 8700 50  0001 C CNN "ID_BASE"
F 6 "G2" H 11500 8700 50  0001 C CNN "Variante"
	1    11500 8700
	-1   0    0    1   
$EndComp
$Comp
L power:GND #PWR?
U 1 1 5D549AD2
P 11500 8900
AR Path="/5D549AD2" Ref="#PWR?"  Part="1" 
AR Path="/5D4A0749/5D49F20C/5D549AD2" Ref="#PWR?"  Part="1" 
AR Path="/5D4A0749/5D49F20F/5D549AD2" Ref="#PWR05016"  Part="1" 
F 0 "#PWR05016" H 11500 8650 50  0001 C CNN
F 1 "GND" H 11350 8850 50  0001 C CNN
F 2 "" H 11500 8900 50  0001 C CNN
F 3 "" H 11500 8900 50  0001 C CNN
	1    11500 8900
	1    0    0    -1  
$EndComp
Wire Wire Line
	11500 8850 11500 8900
$Comp
L power:GND #PWR?
U 1 1 5D54A97A
P 11250 8900
AR Path="/5D54A97A" Ref="#PWR?"  Part="1" 
AR Path="/5D4A0749/5D49F20C/5D54A97A" Ref="#PWR?"  Part="1" 
AR Path="/5D4A0749/5D49F20F/5D54A97A" Ref="#PWR05015"  Part="1" 
F 0 "#PWR05015" H 11250 8650 50  0001 C CNN
F 1 "GND" H 11100 8850 50  0001 C CNN
F 2 "" H 11250 8900 50  0001 C CNN
F 3 "" H 11250 8900 50  0001 C CNN
	1    11250 8900
	1    0    0    -1  
$EndComp
Wire Wire Line
	11250 8900 11250 8850
$Comp
L Device:Ferrite_Bead FB?
U 1 1 5D54CAD6
P 11250 5050
AR Path="/5D54CAD6" Ref="FB?"  Part="1" 
AR Path="/5D4A0749/5D49F20C/5D54CAD6" Ref="FB?"  Part="1" 
AR Path="/5D4A0749/5D55A9E5/5D54CAD6" Ref="FB?"  Part="1" 
AR Path="/5D4A0749/5D49F20F/5D54CAD6" Ref="FB25001"  Part="1" 
F 0 "FB25001" V 10850 5050 50  0000 C CNN
F 1 "BLM15HD182SN1" V 10950 5050 50  0000 C CNN
F 2 "lib_clavier:L_0402_TL" V 11180 5050 50  0001 C CNN
F 3 "~" H 11250 5050 50  0001 C CNN
F 4 "200mA" V 11050 5100 50  0000 C CNN "Current"
F 5 "TL 200 029" H 11250 5050 50  0001 C CNN "ID_BASE"
F 6 "G2" H 11250 5050 50  0001 C CNN "Variante"
	1    11250 5050
	0    1    1    0   
$EndComp
$Comp
L power:GND #PWR?
U 1 1 5D54CADD
P 10850 5550
AR Path="/5D54CADD" Ref="#PWR?"  Part="1" 
AR Path="/5D4A0749/5D49F20C/5D54CADD" Ref="#PWR?"  Part="1" 
AR Path="/5D4A0749/5D55A9E5/5D54CADD" Ref="#PWR?"  Part="1" 
AR Path="/5D4A0749/5D49F20F/5D54CADD" Ref="#PWR05002"  Part="1" 
F 0 "#PWR05002" H 10850 5300 50  0001 C CNN
F 1 "GND" H 10855 5377 50  0001 C CNN
F 2 "" H 10850 5550 50  0001 C CNN
F 3 "" H 10850 5550 50  0001 C CNN
	1    10850 5550
	1    0    0    -1  
$EndComp
$Comp
L Device:C C?
U 1 1 5D54CAE5
P 10850 5400
AR Path="/5D54CAE5" Ref="C?"  Part="1" 
AR Path="/5D4A0749/5D49F20C/5D54CAE5" Ref="C?"  Part="1" 
AR Path="/5D4A0749/5D55A9E5/5D54CAE5" Ref="C?"  Part="1" 
AR Path="/5D4A0749/5D49F20F/5D54CAE5" Ref="C25001"  Part="1" 
F 0 "C25001" H 10900 5500 50  0000 L CNN
F 1 "10uF" H 11000 5400 50  0000 L CNN
F 2 "lib_clavier:C_0805_TL" H 10888 5250 50  0001 C CNN
F 3 "~" H 10850 5400 50  0001 C CNN
F 4 "10V" H 11050 5300 50  0000 C CNN "Tension"
F 5 "TL 200 024" H 10850 5400 50  0001 C CNN "ID_BASE"
F 6 "G2" H 10850 5400 50  0001 C CNN "Variante"
	1    10850 5400
	1    0    0    -1  
$EndComp
Wire Notes Line
	10550 4500 10550 6350
Wire Notes Line
	12400 4500 12400 6350
Wire Notes Line
	10550 4500 12400 4500
Wire Notes Line
	12400 6350 10550 6350
Text Notes 10600 4450 0    59   ~ 12
Filtrage de l’alimentation\nPower Supply Filter
Wire Wire Line
	10850 5050 11100 5050
Wire Wire Line
	11400 5050 11700 5050
Wire Wire Line
	12000 5750 12000 5850
$Comp
L power:GND #PWR?
U 1 1 5D54DBA7
P 11700 5550
AR Path="/5D54DBA7" Ref="#PWR?"  Part="1" 
AR Path="/5D4A0749/5D49F20C/5D54DBA7" Ref="#PWR?"  Part="1" 
AR Path="/5D4A0749/5D49F20F/5D54DBA7" Ref="#PWR05003"  Part="1" 
F 0 "#PWR05003" H 11700 5300 50  0001 C CNN
F 1 "GND" H 11705 5377 50  0001 C CNN
F 2 "" H 11700 5550 50  0001 C CNN
F 3 "" H 11700 5550 50  0001 C CNN
	1    11700 5550
	1    0    0    -1  
$EndComp
$Comp
L power:GND #PWR?
U 1 1 5D54DBAE
P 12000 6150
AR Path="/5D54DBAE" Ref="#PWR?"  Part="1" 
AR Path="/5D4A0749/5D49F20C/5D54DBAE" Ref="#PWR?"  Part="1" 
AR Path="/5D4A0749/5D49F20F/5D54DBAE" Ref="#PWR05006"  Part="1" 
F 0 "#PWR05006" H 12000 5900 50  0001 C CNN
F 1 "GND" H 12005 5977 50  0001 C CNN
F 2 "" H 12000 6150 50  0001 C CNN
F 3 "" H 12000 6150 50  0001 C CNN
	1    12000 6150
	1    0    0    -1  
$EndComp
Wire Wire Line
	11000 5750 11000 5850
$Comp
L power:GND #PWR?
U 1 1 5D54DBB7
P 11000 6150
AR Path="/5D54DBB7" Ref="#PWR?"  Part="1" 
AR Path="/5D4A0749/5D49F20C/5D54DBB7" Ref="#PWR?"  Part="1" 
AR Path="/5D4A0749/5D49F20F/5D54DBB7" Ref="#PWR05004"  Part="1" 
F 0 "#PWR05004" H 11000 5900 50  0001 C CNN
F 1 "GND" H 11005 5977 50  0001 C CNN
F 2 "" H 11000 6150 50  0001 C CNN
F 3 "" H 11000 6150 50  0001 C CNN
	1    11000 6150
	1    0    0    -1  
$EndComp
$Comp
L power:GND #PWR?
U 1 1 5D54DBBD
P 11500 6150
AR Path="/5D54DBBD" Ref="#PWR?"  Part="1" 
AR Path="/5D4A0749/5D49F20C/5D54DBBD" Ref="#PWR?"  Part="1" 
AR Path="/5D4A0749/5D49F20F/5D54DBBD" Ref="#PWR05005"  Part="1" 
F 0 "#PWR05005" H 11500 5900 50  0001 C CNN
F 1 "GND" H 11505 5977 50  0001 C CNN
F 2 "" H 11500 6150 50  0001 C CNN
F 3 "" H 11500 6150 50  0001 C CNN
	1    11500 6150
	1    0    0    -1  
$EndComp
Wire Wire Line
	11500 5850 11500 5750
Wire Wire Line
	11950 5750 11950 5050
$Comp
L Device:C C?
U 1 1 5D54DBCA
P 12000 6000
AR Path="/5D54DBCA" Ref="C?"  Part="1" 
AR Path="/5D4A0749/5D49F20C/5D54DBCA" Ref="C?"  Part="1" 
AR Path="/5D4A0749/5D49F20F/5D54DBCA" Ref="C25005"  Part="1" 
F 0 "C25005" H 11650 6100 50  0000 L CNN
F 1 "220nF" H 11700 5900 50  0000 L CNN
F 2 "lib_clavier:C_0402_TL" H 12038 5850 50  0001 C CNN
F 3 "~" H 12000 6000 50  0001 C CNN
F 4 "10V" H 11800 6000 50  0000 C CNN "Tension"
F 5 "TL 200 022" H 12000 6000 50  0001 C CNN "ID_BASE"
F 6 "G2" H 12000 6000 50  0001 C CNN "Variante"
	1    12000 6000
	1    0    0    -1  
$EndComp
$Comp
L Device:C C?
U 1 1 5D54DBD2
P 11500 6000
AR Path="/5D54DBD2" Ref="C?"  Part="1" 
AR Path="/5D4A0749/5D49F20C/5D54DBD2" Ref="C?"  Part="1" 
AR Path="/5D4A0749/5D49F20F/5D54DBD2" Ref="C25004"  Part="1" 
F 0 "C25004" H 11150 6100 50  0000 L CNN
F 1 "220nF" H 11200 5900 50  0000 L CNN
F 2 "lib_clavier:C_0402_TL" H 11538 5850 50  0001 C CNN
F 3 "~" H 11500 6000 50  0001 C CNN
F 4 "10V" H 11300 6000 50  0000 C CNN "Tension"
F 5 "TL 200 022" H 11500 6000 50  0001 C CNN "ID_BASE"
F 6 "G2" H 11500 6000 50  0001 C CNN "Variante"
	1    11500 6000
	1    0    0    -1  
$EndComp
$Comp
L Device:C C?
U 1 1 5D54DBDA
P 11000 6000
AR Path="/5D54DBDA" Ref="C?"  Part="1" 
AR Path="/5D4A0749/5D49F20C/5D54DBDA" Ref="C?"  Part="1" 
AR Path="/5D4A0749/5D49F20F/5D54DBDA" Ref="C25003"  Part="1" 
F 0 "C25003" H 10650 6100 50  0000 L CNN
F 1 "220nF" H 10700 5900 50  0000 L CNN
F 2 "lib_clavier:C_0402_TL" H 11038 5850 50  0001 C CNN
F 3 "~" H 11000 6000 50  0001 C CNN
F 4 "10V" H 10800 6000 50  0000 C CNN "Tension"
F 5 "TL 200 022" H 11000 6000 50  0001 C CNN "ID_BASE"
F 6 "G2" H 11000 6000 50  0001 C CNN "Variante"
	1    11000 6000
	1    0    0    -1  
$EndComp
$Comp
L Device:C C?
U 1 1 5D54DBE2
P 11700 5400
AR Path="/5D54DBE2" Ref="C?"  Part="1" 
AR Path="/5D4A0749/5D49F20C/5D54DBE2" Ref="C?"  Part="1" 
AR Path="/5D4A0749/5D49F20F/5D54DBE2" Ref="C25002"  Part="1" 
F 0 "C25002" H 11400 5500 50  0000 L CNN
F 1 "10uF" H 11350 5400 50  0000 L CNN
F 2 "lib_clavier:C_0805_TL" H 11738 5250 50  0001 C CNN
F 3 "~" H 11700 5400 50  0001 C CNN
F 4 "10V" H 11500 5300 50  0000 C CNN "Tension"
F 5 "TL 200 024" H 11700 5400 50  0001 C CNN "ID_BASE"
F 6 "G2" H 11700 5400 50  0001 C CNN "Variante"
	1    11700 5400
	1    0    0    -1  
$EndComp
Wire Wire Line
	11700 5050 11950 5050
Wire Wire Line
	10250 4950 10250 5050
$Comp
L power:+3V3 #PWR?
U 1 1 5D54FDE9
P 10250 4950
AR Path="/5D4A0749/5D49F20C/5D54FDE9" Ref="#PWR?"  Part="1" 
AR Path="/5D4A0749/5D49F20F/5D54FDE9" Ref="#PWR05001"  Part="1" 
F 0 "#PWR05001" H 10250 4800 50  0001 C CNN
F 1 "+3V3" H 10265 5123 50  0000 C CNN
F 2 "" H 10250 4950 50  0001 C CNN
F 3 "" H 10250 4950 50  0001 C CNN
	1    10250 4950
	1    0    0    -1  
$EndComp
Connection ~ 11700 5050
Connection ~ 10850 5050
Wire Wire Line
	12100 6500 12200 6500
Connection ~ 12200 6500
Wire Wire Line
	12200 6500 12300 6500
Wire Wire Line
	10250 5050 10850 5050
$Comp
L Device:C C?
U 1 1 5D55E796
P 13450 6350
AR Path="/5D55E796" Ref="C?"  Part="1" 
AR Path="/5D4A0749/5D49F20C/5D55E796" Ref="C?"  Part="1" 
AR Path="/5D4A0749/5D49F20F/5D55E796" Ref="C25006"  Part="1" 
F 0 "C25006" H 13650 6250 50  0000 C CNN
F 1 "2.2nF" H 13700 6350 50  0000 C CNN
F 2 "lib_clavier:C_0402_TL" H 13488 6200 50  0001 C CNN
F 3 "~" H 13450 6350 50  0001 C CNN
F 4 "50V" H 13700 6450 50  0000 C CNN "Tension"
F 5 "TL 200 019" H 13450 6350 50  0001 C CNN "ID_BASE"
F 6 "G2" H 13450 6350 50  0001 C CNN "Variante"
	1    13450 6350
	-1   0    0    1   
$EndComp
$Comp
L power:GND #PWR?
U 1 1 5D55E7A3
P 13450 6550
AR Path="/5D55E7A3" Ref="#PWR?"  Part="1" 
AR Path="/5D4A0749/5D49F20C/5D55E7A3" Ref="#PWR?"  Part="1" 
AR Path="/5D4A0749/5D49F20F/5D55E7A3" Ref="#PWR05007"  Part="1" 
F 0 "#PWR05007" H 13450 6300 50  0001 C CNN
F 1 "GND" H 13300 6500 50  0001 C CNN
F 2 "" H 13450 6550 50  0001 C CNN
F 3 "" H 13450 6550 50  0001 C CNN
	1    13450 6550
	1    0    0    -1  
$EndComp
Wire Wire Line
	13450 6500 13450 6550
$Comp
L Device:C C?
U 1 1 5D55E7B4
P 13750 6350
AR Path="/5D55E7B4" Ref="C?"  Part="1" 
AR Path="/5D4A0749/5D49F20C/5D55E7B4" Ref="C?"  Part="1" 
AR Path="/5D4A0749/5D49F20F/5D55E7B4" Ref="C25007"  Part="1" 
F 0 "C25007" H 13600 6250 50  0000 C CNN
F 1 "4.7pF" H 13550 6350 50  0000 C CNN
F 2 "lib_clavier:C_0402_TL" H 13788 6200 50  0001 C CNN
F 3 "~" H 13750 6350 50  0001 C CNN
F 4 "50V" H 13550 6450 50  0000 C CNN "Tension"
F 5 "TL 200 016" H 13750 6350 50  0001 C CNN "ID_BASE"
F 6 "G2" H 13750 6350 50  0001 C CNN "Variante"
	1    13750 6350
	-1   0    0    1   
$EndComp
$Comp
L power:GND #PWR?
U 1 1 5D55E7BB
P 13750 6550
AR Path="/5D55E7BB" Ref="#PWR?"  Part="1" 
AR Path="/5D4A0749/5D49F20C/5D55E7BB" Ref="#PWR?"  Part="1" 
AR Path="/5D4A0749/5D49F20F/5D55E7BB" Ref="#PWR05008"  Part="1" 
F 0 "#PWR05008" H 13750 6300 50  0001 C CNN
F 1 "GND" H 13600 6500 50  0001 C CNN
F 2 "" H 13750 6550 50  0001 C CNN
F 3 "" H 13750 6550 50  0001 C CNN
	1    13750 6550
	1    0    0    -1  
$EndComp
Wire Wire Line
	13750 6500 13750 6550
Wire Wire Line
	13000 6800 13000 6100
Wire Wire Line
	13750 6100 13750 6200
Wire Wire Line
	13450 6200 13450 6100
Connection ~ 13450 6100
Wire Wire Line
	13450 6100 13750 6100
$Comp
L Device:L L25001
U 1 1 5D5649BB
P 14150 6350
F 0 "L25001" H 14203 6396 50  0000 L CNN
F 1 "2.4nH" H 14203 6305 50  0000 L CNN
F 2 "lib_clavier:L_0402_TL" H 14150 6350 50  0001 C CNN
F 3 "~" H 14150 6350 50  0001 C CNN
F 4 "TL 200 025" H 14150 6350 50  0001 C CNN "ID_BASE"
F 5 "G2" H 14150 6350 50  0001 C CNN "Variante"
	1    14150 6350
	1    0    0    -1  
$EndComp
Connection ~ 13750 6100
Wire Wire Line
	14150 6100 14150 6200
Wire Wire Line
	13750 6100 14150 6100
Wire Wire Line
	14150 6500 14150 6900
$Comp
L Device:L L25002
U 1 1 5D56BED4
P 13250 7050
F 0 "L25002" H 13303 7096 50  0000 L CNN
F 1 "8.2nH" H 13303 7005 50  0000 L CNN
F 2 "lib_clavier:L_0402_TL" H 13250 7050 50  0001 C CNN
F 3 "~" H 13250 7050 50  0001 C CNN
F 4 "TL 200 027" H 13250 7050 50  0001 C CNN "ID_BASE"
F 5 "G2" H 13250 7050 50  0001 C CNN "Variante"
	1    13250 7050
	1    0    0    -1  
$EndComp
Wire Wire Line
	13050 7000 13050 6900
Wire Wire Line
	13050 6900 13250 6900
Wire Wire Line
	13250 6900 14150 6900
Connection ~ 13250 6900
Connection ~ 13250 7200
$Comp
L Device:RF_Shield_Two_Pieces J25001
U 1 1 5D571B50
P 12200 9900
F 0 "J25001" H 12900 9750 50  0000 L CNN
F 1 "RF_Shield_Two_Pieces" H 12900 9650 50  0000 L CNN
F 2 "lib_clavier:Laird_BMI-S-102_16.50x16.50mm_TL" H 12200 9800 50  0001 C CNN
F 3 "~" H 12200 9800 50  0001 C CNN
F 4 "CD" H 12200 9900 50  0001 C CNN "Variante"
F 5 "TL 200 056" H 12200 9900 50  0001 C CNN "ID_BASE"
	1    12200 9900
	1    0    0    -1  
$EndComp
Connection ~ 11950 5750
Wire Wire Line
	11950 5750 12000 5750
$Comp
L power:GND #PWR05017
U 1 1 5D579867
P 12200 10350
F 0 "#PWR05017" H 12200 10100 50  0001 C CNN
F 1 "GND" H 12205 10177 50  0001 C CNN
F 2 "" H 12200 10350 50  0001 C CNN
F 3 "" H 12200 10350 50  0001 C CNN
	1    12200 10350
	1    0    0    -1  
$EndComp
Wire Wire Line
	12200 10350 12200 10300
Wire Notes Line width 8 style dash_dot rgb(122, 194, 0)
	12800 9900 15150 9900
Wire Notes Line width 8 style dash_dot rgb(122, 194, 0)
	15150 9900 15150 4000
Wire Notes Line width 8 style dash_dot rgb(122, 194, 0)
	15150 4000 9300 4000
Wire Notes Line width 8 style dash_dot rgb(122, 194, 0)
	9300 4000 9300 9900
Wire Notes Line width 8 style dash_dot rgb(122, 194, 0)
	9300 9900 11600 9900
$Comp
L Device:L L25003
U 1 1 5D581F83
P 14850 7200
F 0 "L25003" V 15040 7200 50  0000 C CNN
F 1 "3.9nH" V 14949 7200 50  0000 C CNN
F 2 "lib_clavier:L_0402_TL" H 14850 7200 50  0001 C CNN
F 3 "~" H 14850 7200 50  0001 C CNN
F 4 "TL 200 026" H 14850 7200 50  0001 C CNN "ID_BASE"
F 5 "G2" H 14850 7200 50  0001 C CNN "Variante"
	1    14850 7200
	0    -1   -1   0   
$EndComp
Wire Wire Line
	15000 7200 15400 7200
$Comp
L Device:C C25008
U 1 1 5D58205C
P 15900 7200
F 0 "C25008" V 15648 7200 50  0000 C CNN
F 1 "1.5pF" V 15739 7200 50  0000 C CNN
F 2 "lib_clavier:C_0402_TL" H 15938 7050 50  0001 C CNN
F 3 "~" H 15900 7200 50  0001 C CNN
F 4 "TL 200 015" H 15900 7200 50  0001 C CNN "ID_BASE"
F 5 "G2" H 15900 7200 50  0001 C CNN "Variante"
F 6 "50V" V 15850 7350 50  0000 C CNN "Tension"
	1    15900 7200
	0    1    1    0   
$EndComp
Wire Wire Line
	17100 7200 17100 7150
$Comp
L power:GND #PWR05009
U 1 1 5D585561
P 16400 7700
F 0 "#PWR05009" H 16400 7450 50  0001 C CNN
F 1 "GND" H 16405 7527 50  0001 C CNN
F 2 "" H 16400 7700 50  0001 C CNN
F 3 "" H 16400 7700 50  0001 C CNN
	1    16400 7700
	1    0    0    -1  
$EndComp
Wire Wire Line
	9750 7400 8950 7400
Wire Wire Line
	9750 7000 8950 7000
Wire Wire Line
	12200 5750 12200 6500
Wire Wire Line
	11500 8550 11500 7800
Wire Wire Line
	10850 7300 10850 7600
Wire Wire Line
	10900 7800 10900 7400
Text HLabel 8950 7800 0    50   Output ~ 0
SPI_BT_IRQ
Text HLabel 8950 7600 0    50   Input ~ 0
SPI_BT_CE
Wire Wire Line
	8950 7600 9750 7600
Wire Wire Line
	9750 7800 8950 7800
Wire Wire Line
	11250 7600 11250 8550
Wire Wire Line
	13000 6100 13450 6100
Wire Notes Line
	12900 6700 14550 6700
Wire Notes Line
	14550 6700 14550 6000
Wire Notes Line
	14550 6000 12900 6000
Wire Notes Line
	12900 6000 12900 6700
Text Notes 13000 5950 0    59   ~ 12
Alimentation de l’Amplificateur RF\nRF Amplifier Power Supply
Text Notes 15250 7150 0    50   ~ 0
50Ω line
Text Notes 13800 7200 0    50   ~ 0
50Ω line
Wire Notes Line
	14650 6850 16650 6850
Wire Notes Line
	16650 6850 16650 7900
Wire Notes Line
	16650 7900 14650 7900
Wire Notes Line
	14650 7900 14650 6850
Text Notes 15500 6800 0    59   ~ 12
Adaptation de l’Antenne\nAntenna Matching
$Comp
L Device:Ferrite_Bead FB?
U 1 1 5D514C15
P 9900 6800
AR Path="/5D514C15" Ref="FB?"  Part="1" 
AR Path="/5D4A0749/5D49F20C/5D514C15" Ref="FB?"  Part="1" 
AR Path="/5D4A0749/5D55A9E5/5D514C15" Ref="FB?"  Part="1" 
AR Path="/5D4A0749/5D49F20F/5D514C15" Ref="FB25002"  Part="1" 
F 0 "FB25002" V 9850 6550 50  0000 C CNN
F 1 "BLM15HD182SN1" V 9850 7250 50  0000 C CNN
F 2 "lib_clavier:L_0402_TL" V 9830 6800 50  0001 C CNN
F 3 "~" H 9900 6800 50  0001 C CNN
F 4 "200mA" V 9700 6850 50  0001 C CNN "Current"
F 5 "TL 200 029" H 9900 6800 50  0001 C CNN "ID_BASE"
F 6 "G2" H 9900 6800 50  0001 C CNN "Variante"
	1    9900 6800
	0    1    1    0   
$EndComp
$Comp
L Device:Ferrite_Bead FB?
U 1 1 5D514E84
P 9900 7000
AR Path="/5D514E84" Ref="FB?"  Part="1" 
AR Path="/5D4A0749/5D49F20C/5D514E84" Ref="FB?"  Part="1" 
AR Path="/5D4A0749/5D55A9E5/5D514E84" Ref="FB?"  Part="1" 
AR Path="/5D4A0749/5D49F20F/5D514E84" Ref="FB25003"  Part="1" 
F 0 "FB25003" V 9850 6750 50  0000 C CNN
F 1 "BLM15HD182SN1" V 9850 7450 50  0000 C CNN
F 2 "lib_clavier:L_0402_TL" V 9830 7000 50  0001 C CNN
F 3 "~" H 9900 7000 50  0001 C CNN
F 4 "200mA" V 9700 7050 50  0001 C CNN "Current"
F 5 "TL 200 029" H 9900 7000 50  0001 C CNN "ID_BASE"
F 6 "G2" H 9900 7000 50  0001 C CNN "Variante"
	1    9900 7000
	0    1    1    0   
$EndComp
$Comp
L Device:Ferrite_Bead FB?
U 1 1 5D5175A7
P 9900 7200
AR Path="/5D5175A7" Ref="FB?"  Part="1" 
AR Path="/5D4A0749/5D49F20C/5D5175A7" Ref="FB?"  Part="1" 
AR Path="/5D4A0749/5D55A9E5/5D5175A7" Ref="FB?"  Part="1" 
AR Path="/5D4A0749/5D49F20F/5D5175A7" Ref="FB25004"  Part="1" 
F 0 "FB25004" V 9850 6950 50  0000 C CNN
F 1 "BLM15HD182SN1" V 9850 7650 50  0000 C CNN
F 2 "lib_clavier:L_0402_TL" V 9830 7200 50  0001 C CNN
F 3 "~" H 9900 7200 50  0001 C CNN
F 4 "200mA" V 9700 7250 50  0001 C CNN "Current"
F 5 "TL 200 029" H 9900 7200 50  0001 C CNN "ID_BASE"
F 6 "G2" H 9900 7200 50  0001 C CNN "Variante"
	1    9900 7200
	0    1    1    0   
$EndComp
$Comp
L Device:Ferrite_Bead FB?
U 1 1 5D519CCF
P 9900 7400
AR Path="/5D519CCF" Ref="FB?"  Part="1" 
AR Path="/5D4A0749/5D49F20C/5D519CCF" Ref="FB?"  Part="1" 
AR Path="/5D4A0749/5D55A9E5/5D519CCF" Ref="FB?"  Part="1" 
AR Path="/5D4A0749/5D49F20F/5D519CCF" Ref="FB25005"  Part="1" 
F 0 "FB25005" V 9850 7150 50  0000 C CNN
F 1 "BLM15HD182SN1" V 9850 7850 50  0000 C CNN
F 2 "lib_clavier:L_0402_TL" V 9830 7400 50  0001 C CNN
F 3 "~" H 9900 7400 50  0001 C CNN
F 4 "200mA" V 9700 7450 50  0001 C CNN "Current"
F 5 "TL 200 029" H 9900 7400 50  0001 C CNN "ID_BASE"
F 6 "G2" H 9900 7400 50  0001 C CNN "Variante"
	1    9900 7400
	0    1    1    0   
$EndComp
$Comp
L Device:Ferrite_Bead FB?
U 1 1 5D51C400
P 9900 7600
AR Path="/5D51C400" Ref="FB?"  Part="1" 
AR Path="/5D4A0749/5D49F20C/5D51C400" Ref="FB?"  Part="1" 
AR Path="/5D4A0749/5D55A9E5/5D51C400" Ref="FB?"  Part="1" 
AR Path="/5D4A0749/5D49F20F/5D51C400" Ref="FB25006"  Part="1" 
F 0 "FB25006" V 9850 7350 50  0000 C CNN
F 1 "BLM15HD182SN1" V 9850 8050 50  0000 C CNN
F 2 "lib_clavier:L_0402_TL" V 9830 7600 50  0001 C CNN
F 3 "~" H 9900 7600 50  0001 C CNN
F 4 "200mA" V 9700 7650 50  0001 C CNN "Current"
F 5 "TL 200 029" H 9900 7600 50  0001 C CNN "ID_BASE"
F 6 "G2" H 9900 7600 50  0001 C CNN "Variante"
	1    9900 7600
	0    1    1    0   
$EndComp
$Comp
L Device:Ferrite_Bead FB?
U 1 1 5D51EB32
P 9900 7800
AR Path="/5D51EB32" Ref="FB?"  Part="1" 
AR Path="/5D4A0749/5D49F20C/5D51EB32" Ref="FB?"  Part="1" 
AR Path="/5D4A0749/5D55A9E5/5D51EB32" Ref="FB?"  Part="1" 
AR Path="/5D4A0749/5D49F20F/5D51EB32" Ref="FB25007"  Part="1" 
F 0 "FB25007" V 9850 7550 50  0000 C CNN
F 1 "BLM15HD182SN1" V 9850 8250 50  0000 C CNN
F 2 "lib_clavier:L_0402_TL" V 9830 7800 50  0001 C CNN
F 3 "~" H 9900 7800 50  0001 C CNN
F 4 "200mA" V 9700 7850 50  0001 C CNN "Current"
F 5 "TL 200 029" H 9900 7800 50  0001 C CNN "ID_BASE"
F 6 "G2" H 9900 7800 50  0001 C CNN "Variante"
	1    9900 7800
	0    1    1    0   
$EndComp
Wire Wire Line
	10800 7100 10800 7400
Wire Wire Line
	10800 7400 10050 7400
Wire Wire Line
	10050 7600 10850 7600
Wire Wire Line
	10050 7800 10900 7800
Wire Wire Line
	10050 7200 10750 7200
Wire Wire Line
	10750 7200 10750 7000
Wire Wire Line
	10700 6900 10700 7000
Wire Wire Line
	10700 7000 10050 7000
Wire Wire Line
	11250 7600 11500 7600
Wire Wire Line
	13250 7200 14700 7200
Wire Notes Line
	11000 8000 11000 6600
Wire Notes Line
	11000 6600 9400 6600
Wire Notes Line
	9400 6600 9400 8000
Wire Notes Line
	9400 8000 11000 8000
Wire Wire Line
	10050 6800 11500 6800
Wire Wire Line
	10700 6900 11500 6900
Wire Wire Line
	10750 7000 11500 7000
Wire Wire Line
	10800 7100 11500 7100
Wire Wire Line
	10850 7300 11500 7300
Wire Wire Line
	10900 7400 11500 7400
Text Notes 9450 6550 0    59   ~ 12
Filtres CEM\nECM Filters
Wire Wire Line
	11700 5050 11700 5250
Wire Wire Line
	10850 5050 10850 5250
Connection ~ 12000 5750
Wire Wire Line
	12000 5750 12200 5750
Connection ~ 11500 5750
Wire Wire Line
	11500 5750 11950 5750
Wire Wire Line
	11000 5750 11500 5750
Wire Wire Line
	16400 7700 16400 7650
Wire Wire Line
	16400 7350 16400 7200
$Comp
L Device:C C25009
U 1 1 5D5820EB
P 16400 7500
F 0 "C25009" H 16050 7600 50  0000 L CNN
F 1 "1pF" H 16100 7500 50  0000 L CNN
F 2 "lib_clavier:C_0402_TL" H 16438 7350 50  0001 C CNN
F 3 "~" H 16400 7500 50  0001 C CNN
F 4 "TL 200 014" H 16400 7500 50  0001 C CNN "ID_BASE"
F 5 "G2" H 16400 7500 50  0001 C CNN "Variante"
F 6 "50V" H 16200 7400 50  0000 C CNN "Tension"
	1    16400 7500
	1    0    0    -1  
$EndComp
Connection ~ 16400 7200
Wire Wire Line
	16050 7200 16400 7200
$Comp
L power:GND #PWR?
U 1 1 5D6996D3
P 15400 7700
F 0 "#PWR?" H 15400 7450 50  0001 C CNN
F 1 "GND" H 15405 7527 50  0001 C CNN
F 2 "" H 15400 7700 50  0001 C CNN
F 3 "" H 15400 7700 50  0001 C CNN
	1    15400 7700
	1    0    0    -1  
$EndComp
Wire Wire Line
	15400 7700 15400 7650
Wire Wire Line
	15400 7350 15400 7200
$Comp
L Device:C C25013
U 1 1 5D6996DE
P 15400 7500
F 0 "C25013" H 15450 7600 50  0000 L CNN
F 1 "1pF" H 15550 7500 50  0000 L CNN
F 2 "lib_clavier:C_0402_TL" H 15438 7350 50  0001 C CNN
F 3 "~" H 15400 7500 50  0001 C CNN
F 4 "TL 200 014" H 15400 7500 50  0001 C CNN "ID_BASE"
F 5 "G2" H 15400 7500 50  0001 C CNN "Variante"
F 6 "50V" H 15600 7400 50  0000 C CNN "Tension"
	1    15400 7500
	1    0    0    -1  
$EndComp
Wire Wire Line
	15400 7200 15750 7200
Connection ~ 15400 7200
Wire Wire Line
	16400 7200 17100 7200
$Comp
L carte_MCU-rescue:Antenna_1GND-Device AE25001
U 1 1 5D6D5F65
P 17100 6950
AR Path="/5D6D5F65" Ref="AE25001"  Part="1" 
AR Path="/5D4A0749/5D49F20F/5D6D5F65" Ref="AE25001"  Part="1" 
F 0 "AE25001" H 17280 7039 50  0000 L CNN
F 1 "SWRA117D_2.4GHz" H 17280 6948 50  0000 L CNN
F 2 "lib_clavier:Texas_SWRA117D_2.4GHz_Right_TL" H 17100 6950 50  0001 C CNN
F 3 "~" H 17100 6950 50  0001 C CNN
F 4 "ANM" H 17100 6950 50  0001 C CNN "Variante"
	1    17100 6950
	1    0    0    -1  
$EndComp
$Comp
L power:GND #PWR?
U 1 1 5D6DE303
P 17200 7200
F 0 "#PWR?" H 17200 6950 50  0001 C CNN
F 1 "GND" H 17205 7027 50  0001 C CNN
F 2 "" H 17200 7200 50  0001 C CNN
F 3 "" H 17200 7200 50  0001 C CNN
	1    17200 7200
	1    0    0    -1  
$EndComp
Wire Wire Line
	17200 7200 17200 7150
Wire Wire Line
	13850 7600 13850 8250
$Comp
L carte_MCU-rescue:NRF24L01_TL U25001
U 1 1 5D53D99F
P 12100 7300
F 0 "U25001" H 11650 8150 50  0000 C CNN
F 1 "nRF24L01P" H 11650 8050 50  0000 C CNN
F 2 "lib_clavier:QFN-20-1EP_4x4mm_Pitch0.5mm_TL" H 12300 8100 50  0001 L CIN
F 3 "http://www.nordicsemi.com/eng/content/download/2726/34069/file/nRF24L01P_Product_Specification_1_0.pdf" H 12100 7400 50  0001 C CNN
F 4 "TL 200 061" H 12100 7300 50  0001 C CNN "ID_BASE"
F 5 "G2" H 12100 7300 50  0001 C CNN "Variante"
	1    12100 7300
	1    0    0    -1  
$EndComp
Wire Wire Line
	12850 7600 13850 7600
Wire Wire Line
	12850 7200 13250 7200
Wire Wire Line
	12850 6800 13000 6800
Wire Wire Line
	12850 7000 13050 7000
Wire Wire Line
	12850 7800 13050 7800
Wire Wire Line
	12400 8100 12400 8150
Wire Wire Line
	12400 8150 12300 8150
Connection ~ 12300 8150
Wire Wire Line
	12100 8150 12200 8150
$Comp
L power:GND #PWR05011
U 1 1 5D53DF29
P 12200 8200
F 0 "#PWR05011" H 12200 7950 50  0001 C CNN
F 1 "GND" H 12205 8027 50  0001 C CNN
F 2 "" H 12200 8200 50  0001 C CNN
F 3 "" H 12200 8200 50  0001 C CNN
	1    12200 8200
	1    0    0    -1  
$EndComp
Wire Wire Line
	12200 8200 12200 8150
$EndSCHEMATC
