(export (version D)
  (design
    (source /media/lilian/Tada_Center/ToucheLibre/03_Électronique/01_Schéma/02_Carte_MCU/carte_MCU.sch)
    (date "mar. 01 oct. 2019 22:34:59 CEST")
    (tool "Eeschema 5.1.4-e60b266~84~ubuntu18.04.1")
    (sheet (number 1) (name /) (tstamps /)
      (title_block
        (title Schematics)
        (company "Lilian T.")
        (rev B)
        (date "31 aout 2019")
        (source carte_MCU.sch)
        (comment (number 1) (value "TL 500 002"))
        (comment (number 2) (value "Clavier ToucheLibre"))
        (comment (number 3) (value "MCU Board"))
        (comment (number 4) (value "Tracking Sheet"))))
    (sheet (number 2) (name /Connector_Hierarchy/) (tstamps /5D4A0749/)
      (title_block
        (title Schematics)
        (company "Lilian T.")
        (rev B)
        (date "31 aout 2019")
        (source Connector_Hierarchy.sch)
        (comment (number 1) (value "TL 500 002"))
        (comment (number 2) (value "Clavier ToucheLibre"))
        (comment (number 3) (value "MCU Board"))
        (comment (number 4) (value "Connectors and Hierarchical Blocs"))))
    (sheet (number 3) (name /Connector_Hierarchy/Power_Supplies/) (tstamps /5D4A0749/5D55A9E5/)
      (title_block
        (title Schematics)
        (company "Lilian T.")
        (rev B)
        (date "31 aout 2019")
        (source Power_Supplies.sch)
        (comment (number 1) (value "TL 500 002"))
        (comment (number 2) (value "Clavier ToucheLibre"))
        (comment (number 3) (value "MCU Board"))
        (comment (number 4) (value "Power Supplies to all the keyboard"))))
    (sheet (number 4) (name /Connector_Hierarchy/Core_MCU/) (tstamps /5D4A0749/5D49F20C/)
      (title_block
        (title Schematics)
        (company "Lilian T.")
        (rev B)
        (date "31 aout 2019")
        (source Core_MCU.sch)
        (comment (number 1) (value "TL 500 002"))
        (comment (number 2) (value "Clavier ToucheLibre"))
        (comment (number 3) (value "MCU Board"))
        (comment (number 4) (value "MCU Core"))))
    (sheet (number 5) (name /Connector_Hierarchy/Bluetooth/) (tstamps /5D4A0749/5D49F20F/)
      (title_block
        (title Schematics)
        (company "Lilian T.")
        (rev B)
        (date "31 aout 2019")
        (source Bluetooth.sch)
        (comment (number 1) (value "TL 500 002"))
        (comment (number 2) (value "Clavier ToucheLibre"))
        (comment (number 3) (value "MCU Board"))
        (comment (number 4) (value "Bluetooth Transceiver")))))
  (components
    (comp (ref J22003)
      (value Conn_01x02)
      (footprint lib_clavier:PinBAT_1x02_P2.54mm_TL)
      (datasheet ~)
      (fields
        (field (name ID_BASE) "TL 200 064")
        (field (name Variante) CD))
      (libsource (lib carte_MCU-rescue) (part Conn_01x02-Connector_Generic-carte_coco_simple-rescue-carte_MCU-rescue) (description ""))
      (sheetpath (names /Connector_Hierarchy/) (tstamps /5D4A0749/))
      (tstamp 5D4A69F7))
    (comp (ref D22002)
      (value PESD5V0V1BB)
      (footprint lib_clavier:D_SOD-523_TL)
      (datasheet ~)
      (fields
        (field (name ID_BASE) "TL 200 047")
        (field (name Variante) G2))
      (libsource (lib carte_MCU-rescue) (part D_TVS-Device-carte_coco_simple-rescue-carte_MCU-rescue) (description ""))
      (sheetpath (names /Connector_Hierarchy/) (tstamps /5D4A0749/))
      (tstamp 5D4A6A00))
    (comp (ref J22002)
      (value Conn_01x02)
      (footprint lib_clavier:PinBAT_1x02_P2.54mm_TL)
      (datasheet ~)
      (fields
        (field (name ID_BASE) "TL 200 064")
        (field (name Variante) CD))
      (libsource (lib carte_MCU-rescue) (part Conn_01x02-Connector_Generic-carte_coco_simple-rescue-carte_MCU-rescue) (description ""))
      (sheetpath (names /Connector_Hierarchy/) (tstamps /5D4A0749/))
      (tstamp 5D4A6A17))
    (comp (ref J22005)
      (value Conn_01x36)
      (footprint lib_clavier:InterBoard_1x36_P1.27mm_TL)
      (datasheet ~)
      (fields
        (field (name ID_BASE) "TL 200 067")
        (field (name Variante) CD))
      (libsource (lib Connector_Generic) (part Conn_01x36) (description "Generic connector, single row, 01x36, script generated (kicad-library-utils/schlib/autogen/connector/)"))
      (sheetpath (names /Connector_Hierarchy/) (tstamps /5D4A0749/))
      (tstamp 5D500C67))
    (comp (ref D22001)
      (value PESD5V0V1BB)
      (footprint lib_clavier:D_SOD-523_TL)
      (datasheet ~)
      (fields
        (field (name ID_BASE) "TL 200 047")
        (field (name Variante) G2))
      (libsource (lib carte_MCU-rescue) (part D_TVS-Device-carte_coco_simple-rescue-carte_MCU-rescue) (description ""))
      (sheetpath (names /Connector_Hierarchy/) (tstamps /5D4A0749/))
      (tstamp 5D5F87D9))
    (comp (ref J22004)
      (value Conn_01x10)
      (footprint lib_clavier:InterBoard_1x10_P1.27mm_inverse_TL)
      (datasheet ~)
      (fields
        (field (name ID_BASE) "TL 200 066")
        (field (name Variante) CD))
      (libsource (lib Connector_Generic) (part Conn_01x10) (description "Generic connector, single row, 01x10, script generated (kicad-library-utils/schlib/autogen/connector/)"))
      (sheetpath (names /Connector_Hierarchy/) (tstamps /5D4A0749/))
      (tstamp 5D5D8F3B))
    (comp (ref C22001)
      (value 220nF)
      (footprint lib_clavier:C_0402_TL)
      (datasheet ~)
      (fields
        (field (name ID_BASE) "TL 200 022")
        (field (name Tension) 10V)
        (field (name Variante) CD))
      (libsource (lib Device) (part C) (description "Unpolarized capacitor"))
      (sheetpath (names /Connector_Hierarchy/) (tstamps /5D4A0749/))
      (tstamp 5D5CFDC4))
    (comp (ref C22002)
      (value 220nF)
      (footprint lib_clavier:C_0402_TL)
      (datasheet ~)
      (fields
        (field (name ID_BASE) "TL 200 022")
        (field (name Tension) 10V)
        (field (name Variante) CD))
      (libsource (lib Device) (part C) (description "Unpolarized capacitor"))
      (sheetpath (names /Connector_Hierarchy/) (tstamps /5D4A0749/))
      (tstamp 5D5FD457))
    (comp (ref C22003)
      (value 220nF)
      (footprint lib_clavier:C_0402_TL)
      (datasheet ~)
      (fields
        (field (name ID_BASE) "TL 200 022")
        (field (name Tension) 10V)
        (field (name Variante) CD))
      (libsource (lib Device) (part C) (description "Unpolarized capacitor"))
      (sheetpath (names /Connector_Hierarchy/) (tstamps /5D4A0749/))
      (tstamp 5D60A675))
    (comp (ref J22001)
      (value Conn_01x04)
      (footprint lib_clavier:InterBoard_1x04_P1.27mm_TL)
      (datasheet ~)
      (fields
        (field (name ID_BASE) "TL 200 065")
        (field (name Variante) CD))
      (libsource (lib Connector_Generic) (part Conn_01x04) (description "Generic connector, single row, 01x04, script generated (kicad-library-utils/schlib/autogen/connector/)"))
      (sheetpath (names /Connector_Hierarchy/) (tstamps /5D4A0749/))
      (tstamp 5D59FFC8))
    (comp (ref C22004)
      (value 220nF)
      (footprint lib_clavier:C_0402_TL)
      (datasheet ~)
      (fields
        (field (name ID_BASE) "TL 200 022")
        (field (name Tension) 10V)
        (field (name Variante) CD))
      (libsource (lib Device) (part C) (description "Unpolarized capacitor"))
      (sheetpath (names /Connector_Hierarchy/) (tstamps /5D4A0749/))
      (tstamp 5D68CB7D))
    (comp (ref L23001)
      (value 1.5uH)
      (footprint lib_clavier:L_Murata_LQH2MC_TL)
      (datasheet ~)
      (fields
        (field (name Current) 540mA)
        (field (name ID_BASE) "TL 200 028")
        (field (name Ref_Fab) LQH2MCN1R5M52)
        (field (name Variante) CD))
      (libsource (lib Device) (part L_Core_Ferrite) (description "Inductor with ferrite core"))
      (sheetpath (names /Connector_Hierarchy/Power_Supplies/) (tstamps /5D4A0749/5D55A9E5/))
      (tstamp 5D4B573E))
    (comp (ref C23006)
      (value 220nF)
      (footprint lib_clavier:C_0402_TL)
      (datasheet ~)
      (fields
        (field (name ID_BASE) "TL 200 022")
        (field (name Tension) 10V)
        (field (name Variante) CD))
      (libsource (lib Device) (part C) (description "Unpolarized capacitor"))
      (sheetpath (names /Connector_Hierarchy/Power_Supplies/) (tstamps /5D4A0749/5D55A9E5/))
      (tstamp 5D4B8861))
    (comp (ref C23001)
      (value 10uF)
      (footprint lib_clavier:C_0805_TL)
      (datasheet ~)
      (fields
        (field (name ID_BASE) "TL 200 024")
        (field (name Tension) 10V)
        (field (name Variante) CD))
      (libsource (lib Device) (part C) (description "Unpolarized capacitor"))
      (sheetpath (names /Connector_Hierarchy/Power_Supplies/) (tstamps /5D4A0749/5D55A9E5/))
      (tstamp 5D4B8869))
    (comp (ref C23002)
      (value 10uF)
      (footprint lib_clavier:C_0805_TL)
      (datasheet ~)
      (fields
        (field (name ID_BASE) "TL 200 024")
        (field (name Tension) 10V)
        (field (name Variante) CD))
      (libsource (lib Device) (part C) (description "Unpolarized capacitor"))
      (sheetpath (names /Connector_Hierarchy/Power_Supplies/) (tstamps /5D4A0749/5D55A9E5/))
      (tstamp 5D4BAD23))
    (comp (ref C23003)
      (value 10uF)
      (footprint lib_clavier:C_0805_TL)
      (datasheet ~)
      (fields
        (field (name ID_BASE) "TL 200 024")
        (field (name Tension) 10V)
        (field (name Variante) CD))
      (libsource (lib Device) (part C) (description "Unpolarized capacitor"))
      (sheetpath (names /Connector_Hierarchy/Power_Supplies/) (tstamps /5D4A0749/5D55A9E5/))
      (tstamp 5D4BB0FB))
    (comp (ref U23001)
      (value TPS63030DSK)
      (footprint lib_clavier:VSON-10-1EP_2.5x2.5mm_Pitch0.5mm_TL)
      (fields
        (field (name ID_BASE) "TL 200 060")
        (field (name Variante) CD))
      (libsource (lib carte_MCU-rescue) (part TPS63030DSK-Regulator_Switching-carte_MCU-rescue) (description ""))
      (sheetpath (names /Connector_Hierarchy/Power_Supplies/) (tstamps /5D4A0749/5D55A9E5/))
      (tstamp 5D4ACF24))
    (comp (ref C23011)
      (value 220nF)
      (footprint lib_clavier:C_0402_TL)
      (datasheet ~)
      (fields
        (field (name ID_BASE) "TL 200 022")
        (field (name Tension) 10V)
        (field (name Variante) CD))
      (libsource (lib Device) (part C) (description "Unpolarized capacitor"))
      (sheetpath (names /Connector_Hierarchy/Power_Supplies/) (tstamps /5D4A0749/5D55A9E5/))
      (tstamp 5D4AD1B9))
    (comp (ref C23007)
      (value 10uF)
      (footprint lib_clavier:C_0805_TL)
      (datasheet ~)
      (fields
        (field (name ID_BASE) "TL 200 024")
        (field (name Tension) 10V)
        (field (name Variante) CD))
      (libsource (lib Device) (part C) (description "Unpolarized capacitor"))
      (sheetpath (names /Connector_Hierarchy/Power_Supplies/) (tstamps /5D4A0749/5D55A9E5/))
      (tstamp 5D4AD1C1))
    (comp (ref C23008)
      (value 10uF)
      (footprint lib_clavier:C_0805_TL)
      (datasheet ~)
      (fields
        (field (name ID_BASE) "TL 200 024")
        (field (name Tension) 10V)
        (field (name Variante) CD))
      (libsource (lib Device) (part C) (description "Unpolarized capacitor"))
      (sheetpath (names /Connector_Hierarchy/Power_Supplies/) (tstamps /5D4A0749/5D55A9E5/))
      (tstamp 5D4AD1CF))
    (comp (ref C23009)
      (value 10uF)
      (footprint lib_clavier:C_0805_TL)
      (datasheet ~)
      (fields
        (field (name ID_BASE) "TL 200 024")
        (field (name Tension) 10V)
        (field (name Variante) CD))
      (libsource (lib Device) (part C) (description "Unpolarized capacitor"))
      (sheetpath (names /Connector_Hierarchy/Power_Supplies/) (tstamps /5D4A0749/5D55A9E5/))
      (tstamp 5D4AD1DD))
    (comp (ref U23002)
      (value TPS63030DSK)
      (footprint lib_clavier:VSON-10-1EP_2.5x2.5mm_Pitch0.5mm_TL)
      (fields
        (field (name ID_BASE) "TL 200 060")
        (field (name Variante) CD))
      (libsource (lib carte_MCU-rescue) (part TPS63030DSK-Regulator_Switching-carte_MCU-rescue) (description ""))
      (sheetpath (names /Connector_Hierarchy/Power_Supplies/) (tstamps /5D4A0749/5D55A9E5/))
      (tstamp 5D4AD1F1))
    (comp (ref J23001)
      (value RF_Shield_Two_Pieces)
      (footprint lib_clavier:Laird_BMI-S-209-F_29.36x18.50mm_TL)
      (datasheet ~)
      (fields
        (field (name ID_BASE) "TL 200 055")
        (field (name Variante) CD))
      (libsource (lib Device) (part RF_Shield_Two_Pieces) (description "Two-piece EMI RF shielding cabinet"))
      (sheetpath (names /Connector_Hierarchy/Power_Supplies/) (tstamps /5D4A0749/5D55A9E5/))
      (tstamp 5D4B5CAB))
    (comp (ref C23005)
      (value 10uF)
      (footprint lib_clavier:C_0805_TL)
      (datasheet ~)
      (fields
        (field (name ID_BASE) "TL 200 024")
        (field (name Tension) 10V)
        (field (name Variante) CD))
      (libsource (lib Device) (part C) (description "Unpolarized capacitor"))
      (sheetpath (names /Connector_Hierarchy/Power_Supplies/) (tstamps /5D4A0749/5D55A9E5/))
      (tstamp 5D4C471C))
    (comp (ref C23010)
      (value 10uF)
      (footprint lib_clavier:C_0805_TL)
      (datasheet ~)
      (fields
        (field (name ID_BASE) "TL 200 024")
        (field (name Tension) 10V)
        (field (name Variante) CD))
      (libsource (lib Device) (part C) (description "Unpolarized capacitor"))
      (sheetpath (names /Connector_Hierarchy/Power_Supplies/) (tstamps /5D4A0749/5D55A9E5/))
      (tstamp 5D4F181E))
    (comp (ref FB23001)
      (value BLM15HD182SN1)
      (footprint lib_clavier:L_0402_TL)
      (datasheet ~)
      (fields
        (field (name Current) 200mA)
        (field (name ID_BASE) "TL 200 029")
        (field (name Variante) CD))
      (libsource (lib Device) (part Ferrite_Bead) (description "Ferrite bead"))
      (sheetpath (names /Connector_Hierarchy/Power_Supplies/) (tstamps /5D4A0749/5D55A9E5/))
      (tstamp 5D53B144))
    (comp (ref C23004)
      (value 10uF)
      (footprint lib_clavier:C_0805_TL)
      (datasheet ~)
      (fields
        (field (name ID_BASE) "TL 200 024")
        (field (name Tension) 10V)
        (field (name Variante) CD))
      (libsource (lib Device) (part C) (description "Unpolarized capacitor"))
      (sheetpath (names /Connector_Hierarchy/Power_Supplies/) (tstamps /5D4A0749/5D55A9E5/))
      (tstamp 5D53B155))
    (comp (ref FB23002)
      (value BLM15HD182SN1)
      (footprint lib_clavier:L_0402_TL)
      (datasheet ~)
      (fields
        (field (name Current) 200mA)
        (field (name ID_BASE) "TL 200 029")
        (field (name Variante) CD))
      (libsource (lib Device) (part Ferrite_Bead) (description "Ferrite bead"))
      (sheetpath (names /Connector_Hierarchy/Power_Supplies/) (tstamps /5D4A0749/5D55A9E5/))
      (tstamp 5D564109))
    (comp (ref FB23003)
      (value BLM15HD182SN1)
      (footprint lib_clavier:L_0402_TL)
      (datasheet ~)
      (fields
        (field (name Current) 200mA)
        (field (name ID_BASE) "TL 200 029")
        (field (name Variante) CD))
      (libsource (lib Device) (part Ferrite_Bead) (description "Ferrite bead"))
      (sheetpath (names /Connector_Hierarchy/Power_Supplies/) (tstamps /5D4A0749/5D55A9E5/))
      (tstamp 5D564185))
    (comp (ref R23001)
      (value 0)
      (footprint lib_clavier:R_0402_TL)
      (datasheet ~)
      (fields
        (field (name ID_BASE) "TL 200 001")
        (field (name Variante) CD))
      (libsource (lib Device) (part R) (description Resistor))
      (sheetpath (names /Connector_Hierarchy/Power_Supplies/) (tstamps /5D4A0749/5D55A9E5/))
      (tstamp 5D4C4E68))
    (comp (ref R23002)
      (value 0)
      (footprint lib_clavier:R_0402_TL)
      (datasheet ~)
      (fields
        (field (name ID_BASE) "TL 200 001")
        (field (name Variante) CD))
      (libsource (lib Device) (part R) (description Resistor))
      (sheetpath (names /Connector_Hierarchy/Power_Supplies/) (tstamps /5D4A0749/5D55A9E5/))
      (tstamp 5D4C4F35))
    (comp (ref L23002)
      (value 1.5uH)
      (footprint lib_clavier:L_Murata_LQH2MC_TL)
      (datasheet ~)
      (fields
        (field (name Current) 540mA)
        (field (name ID_BASE) "TL 200 028")
        (field (name Ref_Fab) LQH2MCN1R5M52)
        (field (name Variante) CD))
      (libsource (lib Device) (part L_Core_Ferrite) (description "Inductor with ferrite core"))
      (sheetpath (names /Connector_Hierarchy/Power_Supplies/) (tstamps /5D4A0749/5D55A9E5/))
      (tstamp 5D532C8D))
    (comp (ref D23002)
      (value PMEG4010EGWX)
      (footprint lib_clavier:D_SOD-123_TL)
      (datasheet ~)
      (fields
        (field (name Current) 1A)
        (field (name ID_BASE) "TL 200 037")
        (field (name Variante) G2))
      (libsource (lib Device) (part D_Schottky) (description "Schottky diode"))
      (sheetpath (names /Connector_Hierarchy/Power_Supplies/) (tstamps /5D4A0749/5D55A9E5/))
      (tstamp 5D5BBDA8))
    (comp (ref D23001)
      (value PMEG4010EGWX)
      (footprint lib_clavier:D_SOD-123_TL)
      (datasheet ~)
      (fields
        (field (name Current) 1A)
        (field (name ID_BASE) "TL 200 037")
        (field (name Variante) G1))
      (libsource (lib Device) (part D_Schottky) (description "Schottky diode"))
      (sheetpath (names /Connector_Hierarchy/Power_Supplies/) (tstamps /5D4A0749/5D55A9E5/))
      (tstamp 5D5C150D))
    (comp (ref R23003)
      (value 46.4k)
      (footprint lib_clavier:R_0402_TL)
      (datasheet ~)
      (fields
        (field (name ID_BASE) "TL 200 062")
        (field (name Variante) CD))
      (libsource (lib Device) (part R) (description Resistor))
      (sheetpath (names /Connector_Hierarchy/Power_Supplies/) (tstamps /5D4A0749/5D55A9E5/))
      (tstamp 5D635840))
    (comp (ref R23004)
      (value 16.2k)
      (footprint lib_clavier:R_0402_TL)
      (datasheet ~)
      (fields
        (field (name ID_BASE) "TL 200 009")
        (field (name Variante) CD))
      (libsource (lib Device) (part R) (description Resistor))
      (sheetpath (names /Connector_Hierarchy/Power_Supplies/) (tstamps /5D4A0749/5D55A9E5/))
      (tstamp 5D63B9E9))
    (comp (ref R23005)
      (value 16.2k)
      (footprint lib_clavier:R_0402_TL)
      (datasheet ~)
      (fields
        (field (name ID_BASE) "TL 200 009")
        (field (name Variante) CD))
      (libsource (lib Device) (part R) (description Resistor))
      (sheetpath (names /Connector_Hierarchy/Power_Supplies/) (tstamps /5D4A0749/5D55A9E5/))
      (tstamp 5D63D1A5))
    (comp (ref R23006)
      (value 73.2k)
      (footprint lib_clavier:R_0402_TL)
      (datasheet ~)
      (fields
        (field (name ID_BASE) "TL 200 063")
        (field (name Variante) CD))
      (libsource (lib Device) (part R) (description Resistor))
      (sheetpath (names /Connector_Hierarchy/Power_Supplies/) (tstamps /5D4A0749/5D55A9E5/))
      (tstamp 5D661F64))
    (comp (ref R23007)
      (value 16.2k)
      (footprint lib_clavier:R_0402_TL)
      (datasheet ~)
      (fields
        (field (name ID_BASE) "TL 200 009")
        (field (name Variante) CD))
      (libsource (lib Device) (part R) (description Resistor))
      (sheetpath (names /Connector_Hierarchy/Power_Supplies/) (tstamps /5D4A0749/5D55A9E5/))
      (tstamp 5D661F6C))
    (comp (ref R23009)
      (value 16.2k)
      (footprint lib_clavier:R_0402_TL)
      (datasheet ~)
      (fields
        (field (name ID_BASE) "TL 200 009")
        (field (name Variante) CD))
      (libsource (lib Device) (part R) (description Resistor))
      (sheetpath (names /Connector_Hierarchy/Power_Supplies/) (tstamps /5D4A0749/5D55A9E5/))
      (tstamp 5D661F74))
    (comp (ref U24001)
      (value ATmega32U4-AU)
      (footprint lib_clavier:TQFP-44_10x10mm_P0.8mm_TL)
      (datasheet http://ww1.microchip.com/downloads/en/DeviceDoc/Atmel-7766-8-bit-AVR-ATmega16U4-32U4_Datasheet.pdf)
      (fields
        (field (name ID_BASE) "TL 200 057")
        (field (name Variante) CD))
      (libsource (lib carte_MCU-rescue) (part ATmega32U4-AU-MCU_Microchip_ATmega-MCU-rescue-carte_MCU-rescue) (description ""))
      (sheetpath (names /Connector_Hierarchy/Core_MCU/) (tstamps /5D4A0749/5D49F20C/))
      (tstamp 5D4AB5AF))
    (comp (ref C24012)
      (value 12pF)
      (footprint lib_clavier:C_0402_TL)
      (datasheet ~)
      (fields
        (field (name ID_BASE) "TL 200 017")
        (field (name Tension) 50V)
        (field (name Variante) CD))
      (libsource (lib Device) (part C) (description "Unpolarized capacitor"))
      (sheetpath (names /Connector_Hierarchy/Core_MCU/) (tstamps /5D4A0749/5D49F20C/))
      (tstamp 5D4AB5CA))
    (comp (ref C24011)
      (value 12pF)
      (footprint lib_clavier:C_0402_TL)
      (datasheet ~)
      (fields
        (field (name ID_BASE) "TL 200 017")
        (field (name Tension) 50V)
        (field (name Variante) CD))
      (libsource (lib Device) (part C) (description "Unpolarized capacitor"))
      (sheetpath (names /Connector_Hierarchy/Core_MCU/) (tstamps /5D4A0749/5D49F20C/))
      (tstamp 5D4AB5D2))
    (comp (ref R24004)
      (value 10)
      (footprint lib_clavier:R_0402_TL)
      (datasheet ~)
      (fields
        (field (name ID_BASE) "TL 200 002")
        (field (name Variante) G1))
      (libsource (lib Device) (part R) (description Resistor))
      (sheetpath (names /Connector_Hierarchy/Core_MCU/) (tstamps /5D4A0749/5D49F20C/))
      (tstamp 5D4AB609))
    (comp (ref C24008)
      (value 220nF)
      (footprint lib_clavier:C_0402_TL)
      (datasheet ~)
      (fields
        (field (name ID_BASE) "TL 200 022")
        (field (name Tension) 10V)
        (field (name Variante) CD))
      (libsource (lib Device) (part C) (description "Unpolarized capacitor"))
      (sheetpath (names /Connector_Hierarchy/Core_MCU/) (tstamps /5D4A0749/5D49F20C/))
      (tstamp 5D4AB631))
    (comp (ref R24003)
      (value 22.1k)
      (footprint lib_clavier:R_0402_TL)
      (datasheet ~)
      (fields
        (field (name ID_BASE) "TL 200 010")
        (field (name Variante) CD))
      (libsource (lib Device) (part R) (description Resistor))
      (sheetpath (names /Connector_Hierarchy/Core_MCU/) (tstamps /5D4A0749/5D49F20C/))
      (tstamp 5D4AB658))
    (comp (ref R24008)
      (value 150)
      (footprint lib_clavier:R_0402_TL)
      (datasheet ~)
      (fields
        (field (name ID_BASE) "TL 200 004")
        (field (name Variante) G3))
      (libsource (lib Device) (part R) (description Resistor))
      (sheetpath (names /Connector_Hierarchy/Core_MCU/) (tstamps /5D4A0749/5D49F20C/))
      (tstamp 5D4AB66E))
    (comp (ref D24001)
      (value orange)
      (footprint lib_clavier:LED_0603_TL)
      (datasheet ~)
      (fields
        (field (name ID_BASE) "TL 200 040")
        (field (name Variante) G3))
      (libsource (lib Device) (part LED) (description "Light emitting diode"))
      (sheetpath (names /Connector_Hierarchy/Core_MCU/) (tstamps /5D4A0749/5D49F20C/))
      (tstamp 5D4AB67B))
    (comp (ref R24007)
      (value 22.1k)
      (footprint lib_clavier:R_0402_TL)
      (datasheet ~)
      (fields
        (field (name ID_BASE) "TL 200 010")
        (field (name Variante) CD))
      (libsource (lib Device) (part R) (description Resistor))
      (sheetpath (names /Connector_Hierarchy/Core_MCU/) (tstamps /5D4A0749/5D49F20C/))
      (tstamp 5D4AB682))
    (comp (ref R24009)
      (value 150)
      (footprint lib_clavier:R_0402_TL)
      (datasheet ~)
      (fields
        (field (name ID_BASE) "TL 200 004")
        (field (name Variante) G3))
      (libsource (lib Device) (part R) (description Resistor))
      (sheetpath (names /Connector_Hierarchy/Core_MCU/) (tstamps /5D4A0749/5D49F20C/))
      (tstamp 5D4AB690))
    (comp (ref D24002)
      (value red)
      (footprint lib_clavier:LED_0603_TL)
      (datasheet ~)
      (fields
        (field (name ID_BASE) "TL 200 039")
        (field (name Variante) G3))
      (libsource (lib Device) (part LED) (description "Light emitting diode"))
      (sheetpath (names /Connector_Hierarchy/Core_MCU/) (tstamps /5D4A0749/5D49F20C/))
      (tstamp 5D4AB69D))
    (comp (ref R24005)
      (value 10)
      (footprint lib_clavier:R_0402_TL)
      (datasheet ~)
      (fields
        (field (name ID_BASE) "TL 200 002")
        (field (name Variante) G1))
      (libsource (lib Device) (part R) (description Resistor))
      (sheetpath (names /Connector_Hierarchy/Core_MCU/) (tstamps /5D4A0749/5D49F20C/))
      (tstamp 5D4AB6D7))
    (comp (ref TP24025)
      (value TestPoint)
      (footprint lib_clavier:Test_Point_TL)
      (datasheet ~)
      (fields
        (field (name Variante) ANM))
      (libsource (lib Connector) (part TestPoint) (description "test point"))
      (sheetpath (names /Connector_Hierarchy/Core_MCU/) (tstamps /5D4A0749/5D49F20C/))
      (tstamp 5D4AB7B8))
    (comp (ref R24001)
      (value 4.75k)
      (footprint lib_clavier:R_0402_TL)
      (datasheet ~)
      (fields
        (field (name ID_BASE) "TL 200 007")
        (field (name Variante) CD))
      (libsource (lib Device) (part R) (description Resistor))
      (sheetpath (names /Connector_Hierarchy/Core_MCU/) (tstamps /5D4A0749/5D49F20C/))
      (tstamp 5D4AB81B))
    (comp (ref R24002)
      (value 4.75k)
      (footprint lib_clavier:R_0402_TL)
      (datasheet ~)
      (fields
        (field (name ID_BASE) "TL 200 007")
        (field (name Variante) CD))
      (libsource (lib Device) (part R) (description Resistor))
      (sheetpath (names /Connector_Hierarchy/Core_MCU/) (tstamps /5D4A0749/5D49F20C/))
      (tstamp 5D4AB829))
    (comp (ref TP24008)
      (value TestPoint)
      (footprint lib_clavier:Test_Point_TL)
      (datasheet ~)
      (fields
        (field (name Variante) ANM))
      (libsource (lib Connector) (part TestPoint) (description "test point"))
      (sheetpath (names /Connector_Hierarchy/Core_MCU/) (tstamps /5D4A0749/5D49F20C/))
      (tstamp 5D4AB83C))
    (comp (ref C24002)
      (value 10uF)
      (footprint lib_clavier:C_0805_TL)
      (datasheet ~)
      (fields
        (field (name ID_BASE) "TL 200 024")
        (field (name Tension) 10V)
        (field (name Variante) CD))
      (libsource (lib Device) (part C) (description "Unpolarized capacitor"))
      (sheetpath (names /Connector_Hierarchy/Core_MCU/) (tstamps /5D4A0749/5D49F20C/))
      (tstamp 5D4AB87B))
    (comp (ref C24007)
      (value 220nF)
      (footprint lib_clavier:C_0402_TL)
      (datasheet ~)
      (fields
        (field (name ID_BASE) "TL 200 022")
        (field (name Tension) 10V)
        (field (name Variante) CD))
      (libsource (lib Device) (part C) (description "Unpolarized capacitor"))
      (sheetpath (names /Connector_Hierarchy/Core_MCU/) (tstamps /5D4A0749/5D49F20C/))
      (tstamp 5D4AB899))
    (comp (ref C24006)
      (value 220nF)
      (footprint lib_clavier:C_0402_TL)
      (datasheet ~)
      (fields
        (field (name ID_BASE) "TL 200 022")
        (field (name Tension) 10V)
        (field (name Variante) CD))
      (libsource (lib Device) (part C) (description "Unpolarized capacitor"))
      (sheetpath (names /Connector_Hierarchy/Core_MCU/) (tstamps /5D4A0749/5D49F20C/))
      (tstamp 5D4AB8BB))
    (comp (ref C24005)
      (value 220nF)
      (footprint lib_clavier:C_0402_TL)
      (datasheet ~)
      (fields
        (field (name ID_BASE) "TL 200 022")
        (field (name Tension) 10V)
        (field (name Variante) CD))
      (libsource (lib Device) (part C) (description "Unpolarized capacitor"))
      (sheetpath (names /Connector_Hierarchy/Core_MCU/) (tstamps /5D4A0749/5D49F20C/))
      (tstamp 5D4AB8C3))
    (comp (ref C24004)
      (value 220nF)
      (footprint lib_clavier:C_0402_TL)
      (datasheet ~)
      (fields
        (field (name ID_BASE) "TL 200 022")
        (field (name Tension) 10V)
        (field (name Variante) CD))
      (libsource (lib Device) (part C) (description "Unpolarized capacitor"))
      (sheetpath (names /Connector_Hierarchy/Core_MCU/) (tstamps /5D4A0749/5D49F20C/))
      (tstamp 5D4AB8CB))
    (comp (ref C24003)
      (value 220nF)
      (footprint lib_clavier:C_0402_TL)
      (datasheet ~)
      (fields
        (field (name ID_BASE) "TL 200 022")
        (field (name Tension) 10V)
        (field (name Variante) CD))
      (libsource (lib Device) (part C) (description "Unpolarized capacitor"))
      (sheetpath (names /Connector_Hierarchy/Core_MCU/) (tstamps /5D4A0749/5D49F20C/))
      (tstamp 5D4AB8D3))
    (comp (ref C24001)
      (value 10uF)
      (footprint lib_clavier:C_0805_TL)
      (datasheet ~)
      (fields
        (field (name ID_BASE) "TL 200 024")
        (field (name Tension) 10V)
        (field (name Variante) CD))
      (libsource (lib Device) (part C) (description "Unpolarized capacitor"))
      (sheetpath (names /Connector_Hierarchy/Core_MCU/) (tstamps /5D4A0749/5D49F20C/))
      (tstamp 5D4AB8E3))
    (comp (ref C24009)
      (value 220nF)
      (footprint lib_clavier:C_0402_TL)
      (datasheet ~)
      (fields
        (field (name ID_BASE) "TL 200 022")
        (field (name Tension) 10V)
        (field (name Variante) CD))
      (libsource (lib Device) (part C) (description "Unpolarized capacitor"))
      (sheetpath (names /Connector_Hierarchy/Core_MCU/) (tstamps /5D4A0749/5D49F20C/))
      (tstamp 5D4AB8F3))
    (comp (ref C24010)
      (value 1uF)
      (footprint lib_clavier:C_0603_TL)
      (datasheet ~)
      (fields
        (field (name ID_BASE) "TL 200 023")
        (field (name Tension) 10V)
        (field (name Variante) CD))
      (libsource (lib Device) (part C) (description "Unpolarized capacitor"))
      (sheetpath (names /Connector_Hierarchy/Core_MCU/) (tstamps /5D4A0749/5D49F20C/))
      (tstamp 5D4AB8FB))
    (comp (ref Y24001)
      (value 8MHz)
      (footprint lib_clavier:Crystal_SMD_5032-4pin_5.0x3.2mm_TL)
      (datasheet ~)
      (fields
        (field (name ID_BASE) "TL 200 032")
        (field (name Ref_Fab) ABM3B)
        (field (name Variante) CD))
      (libsource (lib Device) (part Crystal_GND24) (description "Four pin crystal, GND on pins 2 and 4"))
      (sheetpath (names /Connector_Hierarchy/Core_MCU/) (tstamps /5D4A0749/5D49F20C/))
      (tstamp 5D4AB908))
    (comp (ref R24006)
      (value 0)
      (footprint lib_clavier:R_0402_TL)
      (datasheet ~)
      (fields
        (field (name ID_BASE) "TL 200 001")
        (field (name Variante) CD))
      (libsource (lib Device) (part R) (description Resistor))
      (sheetpath (names /Connector_Hierarchy/Core_MCU/) (tstamps /5D4A0749/5D49F20C/))
      (tstamp 5D58E0E8))
    (comp (ref SW24001)
      (value PTS810SJM250)
      (footprint lib_clavier:SW_PTS810_TL)
      (fields
        (field (name ID_BASE) "TL 200 052")
        (field (name Variante) CD))
      (libsource (lib carte_MCU-rescue) (part PTS810-Switch-carte_MCU-rescue) (description ""))
      (sheetpath (names /Connector_Hierarchy/Core_MCU/) (tstamps /5D4A0749/5D49F20C/))
      (tstamp 5D57B0C4))
    (comp (ref R24010)
      (value 0)
      (footprint lib_clavier:R_0402_TL)
      (datasheet ~)
      (fields
        (field (name ID_BASE) "TL 200 001")
        (field (name Variante) G4))
      (libsource (lib Device) (part R) (description Resistor))
      (sheetpath (names /Connector_Hierarchy/Core_MCU/) (tstamps /5D4A0749/5D49F20C/))
      (tstamp 5D630919))
    (comp (ref R24011)
      (value 0)
      (footprint lib_clavier:R_0402_TL)
      (datasheet ~)
      (fields
        (field (name ID_BASE) "TL 200 001")
        (field (name Variante) G4))
      (libsource (lib Device) (part R) (description Resistor))
      (sheetpath (names /Connector_Hierarchy/Core_MCU/) (tstamps /5D4A0749/5D49F20C/))
      (tstamp 5D64F250))
    (comp (ref R24012)
      (value 10k)
      (footprint lib_clavier:R_0402_TL)
      (datasheet ~)
      (fields
        (field (name ID_BASE) "TL 200 008")
        (field (name Variante) G5))
      (libsource (lib Device) (part R) (description Resistor))
      (sheetpath (names /Connector_Hierarchy/Core_MCU/) (tstamps /5D4A0749/5D49F20C/))
      (tstamp 5D5DDA0B))
    (comp (ref R24013)
      (value 10k)
      (footprint lib_clavier:R_0402_TL)
      (datasheet ~)
      (fields
        (field (name ID_BASE) "TL 200 008")
        (field (name Variante) G5))
      (libsource (lib Device) (part R) (description Resistor))
      (sheetpath (names /Connector_Hierarchy/Core_MCU/) (tstamps /5D4A0749/5D49F20C/))
      (tstamp 5D6401A9))
    (comp (ref R24014)
      (value 10k)
      (footprint lib_clavier:R_0402_TL)
      (datasheet ~)
      (fields
        (field (name ID_BASE) "TL 200 008")
        (field (name Variante) G5))
      (libsource (lib Device) (part R) (description Resistor))
      (sheetpath (names /Connector_Hierarchy/Core_MCU/) (tstamps /5D4A0749/5D49F20C/))
      (tstamp 5D64C1D8))
    (comp (ref R24015)
      (value 10k)
      (footprint lib_clavier:R_0402_TL)
      (datasheet ~)
      (fields
        (field (name ID_BASE) "TL 200 008")
        (field (name Variante) G5))
      (libsource (lib Device) (part R) (description Resistor))
      (sheetpath (names /Connector_Hierarchy/Core_MCU/) (tstamps /5D4A0749/5D49F20C/))
      (tstamp 5D6584E5))
    (comp (ref R24016)
      (value 10k)
      (footprint lib_clavier:R_0402_TL)
      (datasheet ~)
      (fields
        (field (name ID_BASE) "TL 200 008")
        (field (name Variante) G5))
      (libsource (lib Device) (part R) (description Resistor))
      (sheetpath (names /Connector_Hierarchy/Core_MCU/) (tstamps /5D4A0749/5D49F20C/))
      (tstamp 5D667964))
    (comp (ref R24017)
      (value 10k)
      (footprint lib_clavier:R_0402_TL)
      (datasheet ~)
      (fields
        (field (name ID_BASE) "TL 200 008")
        (field (name Variante) G5))
      (libsource (lib Device) (part R) (description Resistor))
      (sheetpath (names /Connector_Hierarchy/Core_MCU/) (tstamps /5D4A0749/5D49F20C/))
      (tstamp 5D667971))
    (comp (ref R24018)
      (value 10k)
      (footprint lib_clavier:R_0402_TL)
      (datasheet ~)
      (fields
        (field (name ID_BASE) "TL 200 008")
        (field (name Variante) G5))
      (libsource (lib Device) (part R) (description Resistor))
      (sheetpath (names /Connector_Hierarchy/Core_MCU/) (tstamps /5D4A0749/5D49F20C/))
      (tstamp 5D66797E))
    (comp (ref R24019)
      (value 10k)
      (footprint lib_clavier:R_0402_TL)
      (datasheet ~)
      (fields
        (field (name ID_BASE) "TL 200 008")
        (field (name Variante) G5))
      (libsource (lib Device) (part R) (description Resistor))
      (sheetpath (names /Connector_Hierarchy/Core_MCU/) (tstamps /5D4A0749/5D49F20C/))
      (tstamp 5D66798B))
    (comp (ref C24013)
      (value 1nF)
      (footprint lib_clavier:C_0402_TL)
      (datasheet ~)
      (fields
        (field (name ID_BASE) "TL 200 018")
        (field (name Tension) 50V)
        (field (name Variante) G5))
      (libsource (lib Device) (part C) (description "Unpolarized capacitor"))
      (sheetpath (names /Connector_Hierarchy/Core_MCU/) (tstamps /5D4A0749/5D49F20C/))
      (tstamp 5D90C5B6))
    (comp (ref C24014)
      (value 1nF)
      (footprint lib_clavier:C_0402_TL)
      (datasheet ~)
      (fields
        (field (name ID_BASE) "TL 200 018")
        (field (name Tension) 50V)
        (field (name Variante) G5))
      (libsource (lib Device) (part C) (description "Unpolarized capacitor"))
      (sheetpath (names /Connector_Hierarchy/Core_MCU/) (tstamps /5D4A0749/5D49F20C/))
      (tstamp 5D9976DB))
    (comp (ref C24015)
      (value 1nF)
      (footprint lib_clavier:C_0402_TL)
      (datasheet ~)
      (fields
        (field (name ID_BASE) "TL 200 018")
        (field (name Tension) 50V)
        (field (name Variante) G5))
      (libsource (lib Device) (part C) (description "Unpolarized capacitor"))
      (sheetpath (names /Connector_Hierarchy/Core_MCU/) (tstamps /5D4A0749/5D49F20C/))
      (tstamp 5D9A58B9))
    (comp (ref C24016)
      (value 1nF)
      (footprint lib_clavier:C_0402_TL)
      (datasheet ~)
      (fields
        (field (name ID_BASE) "TL 200 018")
        (field (name Tension) 50V)
        (field (name Variante) G5))
      (libsource (lib Device) (part C) (description "Unpolarized capacitor"))
      (sheetpath (names /Connector_Hierarchy/Core_MCU/) (tstamps /5D4A0749/5D49F20C/))
      (tstamp 5D9B3C9F))
    (comp (ref C24017)
      (value 1nF)
      (footprint lib_clavier:C_0402_TL)
      (datasheet ~)
      (fields
        (field (name ID_BASE) "TL 200 018")
        (field (name Tension) 50V)
        (field (name Variante) G5))
      (libsource (lib Device) (part C) (description "Unpolarized capacitor"))
      (sheetpath (names /Connector_Hierarchy/Core_MCU/) (tstamps /5D4A0749/5D49F20C/))
      (tstamp 5D9C1FD0))
    (comp (ref C24018)
      (value 1nF)
      (footprint lib_clavier:C_0402_TL)
      (datasheet ~)
      (fields
        (field (name ID_BASE) "TL 200 018")
        (field (name Tension) 50V)
        (field (name Variante) G5))
      (libsource (lib Device) (part C) (description "Unpolarized capacitor"))
      (sheetpath (names /Connector_Hierarchy/Core_MCU/) (tstamps /5D4A0749/5D49F20C/))
      (tstamp 5D9DFC58))
    (comp (ref C24019)
      (value 1nF)
      (footprint lib_clavier:C_0402_TL)
      (datasheet ~)
      (fields
        (field (name ID_BASE) "TL 200 018")
        (field (name Tension) 50V)
        (field (name Variante) G5))
      (libsource (lib Device) (part C) (description "Unpolarized capacitor"))
      (sheetpath (names /Connector_Hierarchy/Core_MCU/) (tstamps /5D4A0749/5D49F20C/))
      (tstamp 5D9EE51C))
    (comp (ref C24020)
      (value 1nF)
      (footprint lib_clavier:C_0402_TL)
      (datasheet ~)
      (fields
        (field (name ID_BASE) "TL 200 018")
        (field (name Tension) 50V)
        (field (name Variante) G5))
      (libsource (lib Device) (part C) (description "Unpolarized capacitor"))
      (sheetpath (names /Connector_Hierarchy/Core_MCU/) (tstamps /5D4A0749/5D49F20C/))
      (tstamp 5D9FD92C))
    (comp (ref R24020)
      (value 4.75k)
      (footprint lib_clavier:R_0402_TL)
      (datasheet ~)
      (fields
        (field (name ID_BASE) "TL 200 007")
        (field (name Variante) CD))
      (libsource (lib Device) (part R) (description Resistor))
      (sheetpath (names /Connector_Hierarchy/Core_MCU/) (tstamps /5D4A0749/5D49F20C/))
      (tstamp 5D6D8BB0))
    (comp (ref TP24001)
      (value TestPoint)
      (footprint lib_clavier:Test_Point_TL)
      (datasheet ~)
      (fields
        (field (name Variante) ANM))
      (libsource (lib Connector) (part TestPoint) (description "test point"))
      (sheetpath (names /Connector_Hierarchy/Core_MCU/) (tstamps /5D4A0749/5D49F20C/))
      (tstamp 5D898918))
    (comp (ref TP24002)
      (value TestPoint)
      (footprint lib_clavier:Test_Point_TL)
      (datasheet ~)
      (fields
        (field (name Variante) ANM))
      (libsource (lib Connector) (part TestPoint) (description "test point"))
      (sheetpath (names /Connector_Hierarchy/Core_MCU/) (tstamps /5D4A0749/5D49F20C/))
      (tstamp 5D8DB734))
    (comp (ref TP24003)
      (value TestPoint)
      (footprint lib_clavier:Test_Point_TL)
      (datasheet ~)
      (fields
        (field (name Variante) ANM))
      (libsource (lib Connector) (part TestPoint) (description "test point"))
      (sheetpath (names /Connector_Hierarchy/Core_MCU/) (tstamps /5D4A0749/5D49F20C/))
      (tstamp 5D8DB903))
    (comp (ref TP24004)
      (value TestPoint)
      (footprint lib_clavier:Test_Point_TL)
      (datasheet ~)
      (fields
        (field (name Variante) ANM))
      (libsource (lib Connector) (part TestPoint) (description "test point"))
      (sheetpath (names /Connector_Hierarchy/Core_MCU/) (tstamps /5D4A0749/5D49F20C/))
      (tstamp 5D8DBB9E))
    (comp (ref TP24026)
      (value TestPoint)
      (footprint lib_clavier:Test_Point_TL)
      (datasheet ~)
      (fields
        (field (name Variante) ANM))
      (libsource (lib Connector) (part TestPoint) (description "test point"))
      (sheetpath (names /Connector_Hierarchy/Core_MCU/) (tstamps /5D4A0749/5D49F20C/))
      (tstamp 5D8DD357))
    (comp (ref TP24027)
      (value TestPoint)
      (footprint lib_clavier:Test_Point_TL)
      (datasheet ~)
      (fields
        (field (name Variante) ANM))
      (libsource (lib Connector) (part TestPoint) (description "test point"))
      (sheetpath (names /Connector_Hierarchy/Core_MCU/) (tstamps /5D4A0749/5D49F20C/))
      (tstamp 5D8DD648))
    (comp (ref C25010)
      (value 12pF)
      (footprint lib_clavier:C_0402_TL)
      (datasheet ~)
      (fields
        (field (name ID_BASE) "TL 200 017")
        (field (name Tension) 50V)
        (field (name Variante) G2))
      (libsource (lib Device) (part C) (description "Unpolarized capacitor"))
      (sheetpath (names /Connector_Hierarchy/Bluetooth/) (tstamps /5D4A0749/5D49F20F/))
      (tstamp 5D53D705))
    (comp (ref Y25001)
      (value 16MHz)
      (footprint lib_clavier:Crystal_SMD_3225-4Pin_3.2x2.5mm_TL)
      (datasheet ~)
      (fields
        (field (name ID_BASE) "TL 200 033")
        (field (name Ref_Fab) Q22FA238)
        (field (name Variante) G2))
      (libsource (lib Device) (part Crystal_GND24) (description "Four pin crystal, GND on pins 2 and 4"))
      (sheetpath (names /Connector_Hierarchy/Bluetooth/) (tstamps /5D4A0749/5D49F20F/))
      (tstamp 5D53D736))
    (comp (ref C25011)
      (value 12pF)
      (footprint lib_clavier:C_0402_TL)
      (datasheet ~)
      (fields
        (field (name ID_BASE) "TL 200 017")
        (field (name Tension) 50V)
        (field (name Variante) G2))
      (libsource (lib Device) (part C) (description "Unpolarized capacitor"))
      (sheetpath (names /Connector_Hierarchy/Bluetooth/) (tstamps /5D4A0749/5D49F20F/))
      (tstamp 5D5433BD))
    (comp (ref R25001)
      (value 0)
      (footprint lib_clavier:R_0402_TL)
      (datasheet ~)
      (fields
        (field (name ID_BASE) "TL 200 001")
        (field (name Variante) G2))
      (libsource (lib Device) (part R) (description Resistor))
      (sheetpath (names /Connector_Hierarchy/Bluetooth/) (tstamps /5D4A0749/5D49F20F/))
      (tstamp 5D54610E))
    (comp (ref R25003)
      (value 22.1k)
      (footprint lib_clavier:R_0402_TL)
      (datasheet ~)
      (fields
        (field (name ID_BASE) "TL 200 010")
        (field (name Variante) G2))
      (libsource (lib Device) (part R) (description Resistor))
      (sheetpath (names /Connector_Hierarchy/Bluetooth/) (tstamps /5D4A0749/5D49F20F/))
      (tstamp 5D549A4A))
    (comp (ref C25012)
      (value 33nF)
      (footprint lib_clavier:C_0402_TL)
      (datasheet ~)
      (fields
        (field (name ID_BASE) "TL 200 021")
        (field (name Tension) 16V)
        (field (name Variante) G2))
      (libsource (lib Device) (part C) (description "Unpolarized capacitor"))
      (sheetpath (names /Connector_Hierarchy/Bluetooth/) (tstamps /5D4A0749/5D49F20F/))
      (tstamp 5D549ACB))
    (comp (ref FB25001)
      (value BLM15HD182SN1)
      (footprint lib_clavier:L_0402_TL)
      (datasheet ~)
      (fields
        (field (name Current) 200mA)
        (field (name ID_BASE) "TL 200 029")
        (field (name Variante) G2))
      (libsource (lib Device) (part Ferrite_Bead) (description "Ferrite bead"))
      (sheetpath (names /Connector_Hierarchy/Bluetooth/) (tstamps /5D4A0749/5D49F20F/))
      (tstamp 5D54CAD6))
    (comp (ref C25001)
      (value 10uF)
      (footprint lib_clavier:C_0805_TL)
      (datasheet ~)
      (fields
        (field (name ID_BASE) "TL 200 024")
        (field (name Tension) 10V)
        (field (name Variante) G2))
      (libsource (lib Device) (part C) (description "Unpolarized capacitor"))
      (sheetpath (names /Connector_Hierarchy/Bluetooth/) (tstamps /5D4A0749/5D49F20F/))
      (tstamp 5D54CAE5))
    (comp (ref C25005)
      (value 220nF)
      (footprint lib_clavier:C_0402_TL)
      (datasheet ~)
      (fields
        (field (name ID_BASE) "TL 200 022")
        (field (name Tension) 10V)
        (field (name Variante) G2))
      (libsource (lib Device) (part C) (description "Unpolarized capacitor"))
      (sheetpath (names /Connector_Hierarchy/Bluetooth/) (tstamps /5D4A0749/5D49F20F/))
      (tstamp 5D54DBCA))
    (comp (ref C25004)
      (value 220nF)
      (footprint lib_clavier:C_0402_TL)
      (datasheet ~)
      (fields
        (field (name ID_BASE) "TL 200 022")
        (field (name Tension) 10V)
        (field (name Variante) G2))
      (libsource (lib Device) (part C) (description "Unpolarized capacitor"))
      (sheetpath (names /Connector_Hierarchy/Bluetooth/) (tstamps /5D4A0749/5D49F20F/))
      (tstamp 5D54DBD2))
    (comp (ref C25003)
      (value 220nF)
      (footprint lib_clavier:C_0402_TL)
      (datasheet ~)
      (fields
        (field (name ID_BASE) "TL 200 022")
        (field (name Tension) 10V)
        (field (name Variante) G2))
      (libsource (lib Device) (part C) (description "Unpolarized capacitor"))
      (sheetpath (names /Connector_Hierarchy/Bluetooth/) (tstamps /5D4A0749/5D49F20F/))
      (tstamp 5D54DBDA))
    (comp (ref C25002)
      (value 10uF)
      (footprint lib_clavier:C_0805_TL)
      (datasheet ~)
      (fields
        (field (name ID_BASE) "TL 200 024")
        (field (name Tension) 10V)
        (field (name Variante) G2))
      (libsource (lib Device) (part C) (description "Unpolarized capacitor"))
      (sheetpath (names /Connector_Hierarchy/Bluetooth/) (tstamps /5D4A0749/5D49F20F/))
      (tstamp 5D54DBE2))
    (comp (ref C25006)
      (value 2.2nF)
      (footprint lib_clavier:C_0402_TL)
      (datasheet ~)
      (fields
        (field (name ID_BASE) "TL 200 019")
        (field (name Tension) 50V)
        (field (name Variante) G2))
      (libsource (lib Device) (part C) (description "Unpolarized capacitor"))
      (sheetpath (names /Connector_Hierarchy/Bluetooth/) (tstamps /5D4A0749/5D49F20F/))
      (tstamp 5D55E796))
    (comp (ref C25007)
      (value 4.7pF)
      (footprint lib_clavier:C_0402_TL)
      (datasheet ~)
      (fields
        (field (name ID_BASE) "TL 200 016")
        (field (name Tension) 50V)
        (field (name Variante) G2))
      (libsource (lib Device) (part C) (description "Unpolarized capacitor"))
      (sheetpath (names /Connector_Hierarchy/Bluetooth/) (tstamps /5D4A0749/5D49F20F/))
      (tstamp 5D55E7B4))
    (comp (ref L25001)
      (value 2.4nH)
      (footprint lib_clavier:L_0402_TL)
      (datasheet ~)
      (fields
        (field (name ID_BASE) "TL 200 025")
        (field (name Variante) G2))
      (libsource (lib Device) (part L) (description Inductor))
      (sheetpath (names /Connector_Hierarchy/Bluetooth/) (tstamps /5D4A0749/5D49F20F/))
      (tstamp 5D5649BB))
    (comp (ref L25002)
      (value 8.2nH)
      (footprint lib_clavier:L_0402_TL)
      (datasheet ~)
      (fields
        (field (name ID_BASE) "TL 200 027")
        (field (name Variante) G2))
      (libsource (lib Device) (part L) (description Inductor))
      (sheetpath (names /Connector_Hierarchy/Bluetooth/) (tstamps /5D4A0749/5D49F20F/))
      (tstamp 5D56BED4))
    (comp (ref J25001)
      (value RF_Shield_Two_Pieces)
      (footprint lib_clavier:Laird_BMI-S-102_16.50x16.50mm_TL)
      (datasheet ~)
      (fields
        (field (name ID_BASE) "TL 200 056")
        (field (name Variante) CD))
      (libsource (lib Device) (part RF_Shield_Two_Pieces) (description "Two-piece EMI RF shielding cabinet"))
      (sheetpath (names /Connector_Hierarchy/Bluetooth/) (tstamps /5D4A0749/5D49F20F/))
      (tstamp 5D571B50))
    (comp (ref L25003)
      (value 3.9nH)
      (footprint lib_clavier:L_0402_TL)
      (datasheet ~)
      (fields
        (field (name ID_BASE) "TL 200 026")
        (field (name Variante) G2))
      (libsource (lib Device) (part L) (description Inductor))
      (sheetpath (names /Connector_Hierarchy/Bluetooth/) (tstamps /5D4A0749/5D49F20F/))
      (tstamp 5D581F83))
    (comp (ref C25008)
      (value 1.5pF)
      (footprint lib_clavier:C_0402_TL)
      (datasheet ~)
      (fields
        (field (name ID_BASE) "TL 200 015")
        (field (name Tension) 50V)
        (field (name Variante) G2))
      (libsource (lib Device) (part C) (description "Unpolarized capacitor"))
      (sheetpath (names /Connector_Hierarchy/Bluetooth/) (tstamps /5D4A0749/5D49F20F/))
      (tstamp 5D58205C))
    (comp (ref FB25002)
      (value BLM15HD182SN1)
      (footprint lib_clavier:L_0402_TL)
      (datasheet ~)
      (fields
        (field (name Current) 200mA)
        (field (name ID_BASE) "TL 200 029")
        (field (name Variante) G2))
      (libsource (lib Device) (part Ferrite_Bead) (description "Ferrite bead"))
      (sheetpath (names /Connector_Hierarchy/Bluetooth/) (tstamps /5D4A0749/5D49F20F/))
      (tstamp 5D514C15))
    (comp (ref FB25003)
      (value BLM15HD182SN1)
      (footprint lib_clavier:L_0402_TL)
      (datasheet ~)
      (fields
        (field (name Current) 200mA)
        (field (name ID_BASE) "TL 200 029")
        (field (name Variante) G2))
      (libsource (lib Device) (part Ferrite_Bead) (description "Ferrite bead"))
      (sheetpath (names /Connector_Hierarchy/Bluetooth/) (tstamps /5D4A0749/5D49F20F/))
      (tstamp 5D514E84))
    (comp (ref FB25004)
      (value BLM15HD182SN1)
      (footprint lib_clavier:L_0402_TL)
      (datasheet ~)
      (fields
        (field (name Current) 200mA)
        (field (name ID_BASE) "TL 200 029")
        (field (name Variante) G2))
      (libsource (lib Device) (part Ferrite_Bead) (description "Ferrite bead"))
      (sheetpath (names /Connector_Hierarchy/Bluetooth/) (tstamps /5D4A0749/5D49F20F/))
      (tstamp 5D5175A7))
    (comp (ref FB25005)
      (value BLM15HD182SN1)
      (footprint lib_clavier:L_0402_TL)
      (datasheet ~)
      (fields
        (field (name Current) 200mA)
        (field (name ID_BASE) "TL 200 029")
        (field (name Variante) G2))
      (libsource (lib Device) (part Ferrite_Bead) (description "Ferrite bead"))
      (sheetpath (names /Connector_Hierarchy/Bluetooth/) (tstamps /5D4A0749/5D49F20F/))
      (tstamp 5D519CCF))
    (comp (ref FB25006)
      (value BLM15HD182SN1)
      (footprint lib_clavier:L_0402_TL)
      (datasheet ~)
      (fields
        (field (name Current) 200mA)
        (field (name ID_BASE) "TL 200 029")
        (field (name Variante) G2))
      (libsource (lib Device) (part Ferrite_Bead) (description "Ferrite bead"))
      (sheetpath (names /Connector_Hierarchy/Bluetooth/) (tstamps /5D4A0749/5D49F20F/))
      (tstamp 5D51C400))
    (comp (ref FB25007)
      (value BLM15HD182SN1)
      (footprint lib_clavier:L_0402_TL)
      (datasheet ~)
      (fields
        (field (name Current) 200mA)
        (field (name ID_BASE) "TL 200 029")
        (field (name Variante) G2))
      (libsource (lib Device) (part Ferrite_Bead) (description "Ferrite bead"))
      (sheetpath (names /Connector_Hierarchy/Bluetooth/) (tstamps /5D4A0749/5D49F20F/))
      (tstamp 5D51EB32))
    (comp (ref C25009)
      (value 1pF)
      (footprint lib_clavier:C_0402_TL)
      (datasheet ~)
      (fields
        (field (name ID_BASE) "TL 200 014")
        (field (name Tension) 50V)
        (field (name Variante) G2))
      (libsource (lib Device) (part C) (description "Unpolarized capacitor"))
      (sheetpath (names /Connector_Hierarchy/Bluetooth/) (tstamps /5D4A0749/5D49F20F/))
      (tstamp 5D5820EB))
    (comp (ref C25013)
      (value 1pF)
      (footprint lib_clavier:C_0402_TL)
      (datasheet ~)
      (fields
        (field (name ID_BASE) "TL 200 014")
        (field (name Tension) 50V)
        (field (name Variante) G2))
      (libsource (lib Device) (part C) (description "Unpolarized capacitor"))
      (sheetpath (names /Connector_Hierarchy/Bluetooth/) (tstamps /5D4A0749/5D49F20F/))
      (tstamp 5D6996DE))
    (comp (ref AE25001)
      (value SWRA117D_2.4GHz)
      (footprint lib_clavier:Texas_SWRA117D_2.4GHz_Right_TL)
      (datasheet ~)
      (fields
        (field (name Variante) ANM))
      (libsource (lib carte_MCU-rescue) (part Antenna_1GND-Device) (description ""))
      (sheetpath (names /Connector_Hierarchy/Bluetooth/) (tstamps /5D4A0749/5D49F20F/))
      (tstamp 5D6D5F65))
    (comp (ref U25001)
      (value nRF24L01P)
      (footprint lib_clavier:QFN-20-1EP_4x4mm_Pitch0.5mm_TL)
      (datasheet http://www.nordicsemi.com/eng/content/download/2726/34069/file/nRF24L01P_Product_Specification_1_0.pdf)
      (fields
        (field (name ID_BASE) "TL 200 061")
        (field (name Variante) G2))
      (libsource (lib carte_MCU-rescue) (part NRF24L01_TL) (description "Ultra low power 2.4GHz RF Transceiver, QFN20 4x4mm"))
      (sheetpath (names /Connector_Hierarchy/Bluetooth/) (tstamps /5D4A0749/5D49F20F/))
      (tstamp 5D53D99F)))
  (libparts
    (libpart (lib Connector) (part TestPoint)
      (description "test point")
      (docs ~)
      (footprints
        (fp Pin*)
        (fp Test*))
      (fields
        (field (name Reference) TP)
        (field (name Value) TestPoint))
      (pins
        (pin (num 1) (name 1) (type passive))))
    (libpart (lib Connector_Generic) (part Conn_01x04)
      (description "Generic connector, single row, 01x04, script generated (kicad-library-utils/schlib/autogen/connector/)")
      (docs ~)
      (footprints
        (fp Connector*:*_1x??_*))
      (fields
        (field (name Reference) J)
        (field (name Value) Conn_01x04))
      (pins
        (pin (num 1) (name Pin_1) (type passive))
        (pin (num 2) (name Pin_2) (type passive))
        (pin (num 3) (name Pin_3) (type passive))
        (pin (num 4) (name Pin_4) (type passive))))
    (libpart (lib Connector_Generic) (part Conn_01x10)
      (description "Generic connector, single row, 01x10, script generated (kicad-library-utils/schlib/autogen/connector/)")
      (docs ~)
      (footprints
        (fp Connector*:*_1x??_*))
      (fields
        (field (name Reference) J)
        (field (name Value) Conn_01x10))
      (pins
        (pin (num 1) (name Pin_1) (type passive))
        (pin (num 2) (name Pin_2) (type passive))
        (pin (num 3) (name Pin_3) (type passive))
        (pin (num 4) (name Pin_4) (type passive))
        (pin (num 5) (name Pin_5) (type passive))
        (pin (num 6) (name Pin_6) (type passive))
        (pin (num 7) (name Pin_7) (type passive))
        (pin (num 8) (name Pin_8) (type passive))
        (pin (num 9) (name Pin_9) (type passive))
        (pin (num 10) (name Pin_10) (type passive))))
    (libpart (lib Connector_Generic) (part Conn_01x36)
      (description "Generic connector, single row, 01x36, script generated (kicad-library-utils/schlib/autogen/connector/)")
      (docs ~)
      (footprints
        (fp Connector*:*_1x??_*))
      (fields
        (field (name Reference) J)
        (field (name Value) Conn_01x36))
      (pins
        (pin (num 1) (name Pin_1) (type passive))
        (pin (num 2) (name Pin_2) (type passive))
        (pin (num 3) (name Pin_3) (type passive))
        (pin (num 4) (name Pin_4) (type passive))
        (pin (num 5) (name Pin_5) (type passive))
        (pin (num 6) (name Pin_6) (type passive))
        (pin (num 7) (name Pin_7) (type passive))
        (pin (num 8) (name Pin_8) (type passive))
        (pin (num 9) (name Pin_9) (type passive))
        (pin (num 10) (name Pin_10) (type passive))
        (pin (num 11) (name Pin_11) (type passive))
        (pin (num 12) (name Pin_12) (type passive))
        (pin (num 13) (name Pin_13) (type passive))
        (pin (num 14) (name Pin_14) (type passive))
        (pin (num 15) (name Pin_15) (type passive))
        (pin (num 16) (name Pin_16) (type passive))
        (pin (num 17) (name Pin_17) (type passive))
        (pin (num 18) (name Pin_18) (type passive))
        (pin (num 19) (name Pin_19) (type passive))
        (pin (num 20) (name Pin_20) (type passive))
        (pin (num 21) (name Pin_21) (type passive))
        (pin (num 22) (name Pin_22) (type passive))
        (pin (num 23) (name Pin_23) (type passive))
        (pin (num 24) (name Pin_24) (type passive))
        (pin (num 25) (name Pin_25) (type passive))
        (pin (num 26) (name Pin_26) (type passive))
        (pin (num 27) (name Pin_27) (type passive))
        (pin (num 28) (name Pin_28) (type passive))
        (pin (num 29) (name Pin_29) (type passive))
        (pin (num 30) (name Pin_30) (type passive))
        (pin (num 31) (name Pin_31) (type passive))
        (pin (num 32) (name Pin_32) (type passive))
        (pin (num 33) (name Pin_33) (type passive))
        (pin (num 34) (name Pin_34) (type passive))
        (pin (num 35) (name Pin_35) (type passive))
        (pin (num 36) (name Pin_36) (type passive))))
    (libpart (lib Device) (part C)
      (description "Unpolarized capacitor")
      (docs ~)
      (footprints
        (fp C_*))
      (fields
        (field (name Reference) C)
        (field (name Value) C))
      (pins
        (pin (num 1) (name ~) (type passive))
        (pin (num 2) (name ~) (type passive))))
    (libpart (lib Device) (part Crystal_GND24)
      (description "Four pin crystal, GND on pins 2 and 4")
      (docs ~)
      (footprints
        (fp Crystal*))
      (fields
        (field (name Reference) Y)
        (field (name Value) Crystal_GND24))
      (pins
        (pin (num 1) (name 1) (type passive))
        (pin (num 2) (name 2) (type passive))
        (pin (num 3) (name 3) (type passive))
        (pin (num 4) (name 4) (type passive))))
    (libpart (lib Device) (part D_Schottky)
      (description "Schottky diode")
      (docs ~)
      (footprints
        (fp TO-???*)
        (fp *_Diode_*)
        (fp *SingleDiode*)
        (fp D_*))
      (fields
        (field (name Reference) D)
        (field (name Value) D_Schottky))
      (pins
        (pin (num 1) (name K) (type passive))
        (pin (num 2) (name A) (type passive))))
    (libpart (lib Device) (part Ferrite_Bead)
      (description "Ferrite bead")
      (docs ~)
      (footprints
        (fp Inductor_*)
        (fp L_*)
        (fp *Ferrite*))
      (fields
        (field (name Reference) FB)
        (field (name Value) Ferrite_Bead))
      (pins
        (pin (num 1) (name ~) (type passive))
        (pin (num 2) (name ~) (type passive))))
    (libpart (lib Device) (part L)
      (description Inductor)
      (docs ~)
      (footprints
        (fp Choke_*)
        (fp *Coil*)
        (fp Inductor_*)
        (fp L_*))
      (fields
        (field (name Reference) L)
        (field (name Value) L))
      (pins
        (pin (num 1) (name 1) (type passive))
        (pin (num 2) (name 2) (type passive))))
    (libpart (lib Device) (part LED)
      (description "Light emitting diode")
      (docs ~)
      (footprints
        (fp LED*)
        (fp LED_SMD:*)
        (fp LED_THT:*))
      (fields
        (field (name Reference) D)
        (field (name Value) LED))
      (pins
        (pin (num 1) (name K) (type passive))
        (pin (num 2) (name A) (type passive))))
    (libpart (lib Device) (part L_Core_Ferrite)
      (description "Inductor with ferrite core")
      (docs ~)
      (footprints
        (fp Choke_*)
        (fp *Coil*)
        (fp Inductor_*)
        (fp L_*))
      (fields
        (field (name Reference) L)
        (field (name Value) L_Core_Ferrite))
      (pins
        (pin (num 1) (name 1) (type passive))
        (pin (num 2) (name 2) (type passive))))
    (libpart (lib Device) (part R)
      (description Resistor)
      (docs ~)
      (footprints
        (fp R_*))
      (fields
        (field (name Reference) R)
        (field (name Value) R))
      (pins
        (pin (num 1) (name ~) (type passive))
        (pin (num 2) (name ~) (type passive))))
    (libpart (lib Device) (part RF_Shield_Two_Pieces)
      (description "Two-piece EMI RF shielding cabinet")
      (docs ~)
      (fields
        (field (name Reference) J)
        (field (name Value) RF_Shield_Two_Pieces))
      (pins
        (pin (num 1) (name Shield) (type passive))))
    (libpart (lib carte_MCU-rescue) (part ATmega32U4-AU-MCU_Microchip_ATmega-MCU-rescue-carte_MCU-rescue)
      (footprints
        (fp TQFP*10x10mm*P0.8mm*))
      (fields
        (field (name Reference) U)
        (field (name Value) ATmega32U4-AU-MCU_Microchip_ATmega-MCU-rescue-carte_MCU-rescue)
        (field (name Footprint) Package_QFP:TQFP-44_10x10mm_P0.8mm))
      (pins
        (pin (num 1) (name "(INT6/AIN0)PE6") (type 3state))
        (pin (num 2) (name UVCC) (type power_in))
        (pin (num 3) (name D-) (type BiDi))
        (pin (num 4) (name D+) (type BiDi))
        (pin (num 5) (name UGND) (type passive))
        (pin (num 6) (name UCAP) (type passive))
        (pin (num 7) (name VBUS) (type power_in))
        (pin (num 8) (name "(SS/PCINT0)PB0") (type 3state))
        (pin (num 9) (name "(SCLK/PCINT1)PB1") (type 3state))
        (pin (num 10) (name "(PDI/MOSI/PCINT2)PB2") (type 3state))
        (pin (num 11) (name "(PDO/MISO/PCINT3)PB3") (type 3state))
        (pin (num 12) (name "(OC0A/OC1C/PCINT7/~RTS~)PB7") (type 3state))
        (pin (num 13) (name ~RESET) (type input))
        (pin (num 14) (name VCC) (type power_in))
        (pin (num 15) (name GND) (type power_in))
        (pin (num 16) (name XTAL2) (type output))
        (pin (num 17) (name XTAL1) (type input))
        (pin (num 18) (name "(~INT0~/SCL/OC0B)PD0") (type 3state))
        (pin (num 19) (name "(~INT1~/SDA)PD1") (type 3state))
        (pin (num 20) (name "(~INT2~/RXD1)PD2") (type 3state))
        (pin (num 21) (name "(~INT3~/TXD1)PD3") (type 3state))
        (pin (num 22) (name "(XCK1/~CTS~)PD5") (type 3state))
        (pin (num 23) (name GND) (type passive))
        (pin (num 24) (name AVCC) (type power_in))
        (pin (num 25) (name "(ICP1/ADC8)PD4") (type 3state))
        (pin (num 26) (name "(T1/~OC.4D~/ADC9)PD6") (type 3state))
        (pin (num 27) (name "(T0/OC.4D/ADC10)PD7") (type 3state))
        (pin (num 28) (name "(PCINT4/ADC11)PB4") (type 3state))
        (pin (num 29) (name "(OC1A/PCINT5/~OC.4B~/ADC12)PB5") (type 3state))
        (pin (num 30) (name "(OC1B/PCINT6/OC.4B/ADC13)PB6") (type 3state))
        (pin (num 31) (name "(OC.3A/~OC4A~)PC6") (type 3state))
        (pin (num 32) (name "(ICP3/CLKO/OC4A)PC7") (type 3state))
        (pin (num 33) (name "(~HWB~)PE2") (type 3state))
        (pin (num 34) (name VCC) (type power_in))
        (pin (num 35) (name GND) (type passive))
        (pin (num 36) (name "(ADC7/TDI)PF7") (type 3state))
        (pin (num 37) (name "(ADC6/TDO)PF6") (type 3state))
        (pin (num 38) (name "(ADC5/TMS)PF5") (type 3state))
        (pin (num 39) (name "(ADC4/TCK)PF4") (type 3state))
        (pin (num 40) (name "(ADC1)PF1") (type 3state))
        (pin (num 41) (name "(ADC0)PF0") (type 3state))
        (pin (num 42) (name AREF) (type passive))
        (pin (num 43) (name GND) (type passive))
        (pin (num 44) (name AVCC) (type power_in))))
    (libpart (lib carte_MCU-rescue) (part Antenna_1GND-Device)
      (fields
        (field (name Reference) AE)
        (field (name Value) Antenna_1GND-Device))
      (pins
        (pin (num 1) (name IN) (type input))
        (pin (num 2) (name GND) (type passive))))
    (libpart (lib carte_MCU-rescue) (part Conn_01x02-Connector_Generic-carte_coco_simple-rescue-carte_MCU-rescue)
      (footprints
        (fp Connector*:*_1x??_*))
      (fields
        (field (name Reference) J)
        (field (name Value) Conn_01x02-Connector_Generic-carte_coco_simple-rescue-carte_MCU-rescue))
      (pins
        (pin (num 1) (name Pin_1) (type passive))
        (pin (num 2) (name Pin_2) (type passive))))
    (libpart (lib carte_MCU-rescue) (part D_TVS-Device-carte_coco_simple-rescue-carte_MCU-rescue)
      (footprints
        (fp TO-???*)
        (fp *_Diode_*)
        (fp *SingleDiode*)
        (fp D_*))
      (fields
        (field (name Reference) D)
        (field (name Value) D_TVS-Device-carte_coco_simple-rescue-carte_MCU-rescue))
      (pins
        (pin (num 1) (name A1) (type passive))
        (pin (num 2) (name A2) (type passive))))
    (libpart (lib carte_MCU-rescue) (part NRF24L01_TL)
      (aliases
        (alias nRF24L01P))
      (description "Ultra low power 2.4GHz RF Transceiver, QFN20 4x4mm")
      (docs http://www.nordicsemi.com/eng/content/download/2730/34105/file/nRF24L01_Product_Specification_v2_0.pdf)
      (footprints
        (fp QFN*4x4*0.5mm*))
      (fields
        (field (name Reference) U)
        (field (name Value) NRF24L01_TL)
        (field (name Footprint) Package_DFN_QFN:QFN-20-1EP_4x4mm_P0.5mm_EP2.5x2.5mm))
      (pins
        (pin (num 1) (name CE) (type input))
        (pin (num 2) (name CSN) (type input))
        (pin (num 3) (name SCK) (type input))
        (pin (num 4) (name MOSI) (type input))
        (pin (num 5) (name MISO) (type output))
        (pin (num 6) (name IRQ) (type output))
        (pin (num 7) (name VDD) (type power_in))
        (pin (num 8) (name VSS) (type power_in))
        (pin (num 9) (name XC2) (type passive))
        (pin (num 10) (name XC1) (type passive))
        (pin (num 11) (name VDD_PA) (type power_out))
        (pin (num 12) (name ANT1) (type passive))
        (pin (num 13) (name ANT2) (type passive))
        (pin (num 14) (name VSS) (type power_in))
        (pin (num 15) (name VDD) (type power_in))
        (pin (num 16) (name IREF) (type passive))
        (pin (num 17) (name VSS) (type power_in))
        (pin (num 18) (name VDD) (type power_in))
        (pin (num 19) (name DVDD) (type power_out))
        (pin (num 20) (name VSS) (type power_in))
        (pin (num 21) (name VSS_PAD) (type power_in))))
    (libpart (lib carte_MCU-rescue) (part PTS810-Switch-carte_MCU-rescue)
      (fields
        (field (name Reference) SW)
        (field (name Value) PTS810-Switch-carte_MCU-rescue))
      (pins
        (pin (num 1) (name ~) (type passive))
        (pin (num 2) (name ~) (type passive))
        (pin (num 3) (name ~) (type passive))
        (pin (num 4) (name ~) (type passive))))
    (libpart (lib carte_MCU-rescue) (part TPS63030DSK-Regulator_Switching-carte_MCU-rescue)
      (fields
        (field (name Reference) U)
        (field (name Value) TPS63030DSK-Regulator_Switching-carte_MCU-rescue))
      (pins
        (pin (num 1) (name VOUT) (type power_out))
        (pin (num 2) (name L2) (type passive))
        (pin (num 3) (name PGND) (type power_in))
        (pin (num 4) (name L1) (type passive))
        (pin (num 5) (name VIN) (type power_in))
        (pin (num 6) (name EN) (type input))
        (pin (num 7) (name PS/SYNC) (type input))
        (pin (num 8) (name VINA) (type input))
        (pin (num 9) (name GND) (type power_in))
        (pin (num 10) (name FB) (type input))
        (pin (num 11) (name EGND) (type power_in)))))
  (libraries
    (library (logical Connector)
      (uri /usr/share/kicad/Library/kicad-symbols-master/Connector.lib))
    (library (logical Connector_Generic)
      (uri /usr/share/kicad/Library/kicad-symbols-master/Connector_Generic.lib))
    (library (logical Device)
      (uri /usr/share/kicad/Library/kicad-symbols-master/Device.lib))
    (library (logical carte_MCU-rescue)
      (uri /media/lilian/Tada_Center/ToucheLibre/03_Électronique/01_Schéma/02_Carte_MCU/carte_MCU-rescue.lib)))
  (nets
    (net (code 1) (name /Connector_Hierarchy/USB3_RX_P)
      (node (ref J22004) (pin 6)))
    (net (code 2) (name /Connector_Hierarchy/USB3_RX_N)
      (node (ref J22004) (pin 5)))
    (net (code 3) (name /Connector_Hierarchy/USB3_TX_P)
      (node (ref J22004) (pin 3)))
    (net (code 4) (name /Connector_Hierarchy/USB3_TX_N)
      (node (ref J22004) (pin 2)))
    (net (code 5) (name /Connector_Hierarchy/Lig_D)
      (node (ref C24015) (pin 1))
      (node (ref R24014) (pin 2))
      (node (ref U24001) (pin 39))
      (node (ref J22005) (pin 16)))
    (net (code 6) (name /Connector_Hierarchy/AUDIO_OUT)
      (node (ref J22005) (pin 35)))
    (net (code 7) (name /Connector_Hierarchy/Col_3)
      (node (ref J22005) (pin 29))
      (node (ref U24001) (pin 30)))
    (net (code 8) (name /Connector_Hierarchy/Col_4)
      (node (ref J22005) (pin 28))
      (node (ref U24001) (pin 12)))
    (net (code 9) (name /Connector_Hierarchy/Col_6)
      (node (ref J22005) (pin 25))
      (node (ref U24001) (pin 32)))
    (net (code 10) (name /Connector_Hierarchy/Col_8)
      (node (ref J22005) (pin 22))
      (node (ref U24001) (pin 1)))
    (net (code 11) (name /Connector_Hierarchy/Lig_F)
      (node (ref J22005) (pin 13))
      (node (ref R24012) (pin 2))
      (node (ref U24001) (pin 41))
      (node (ref C24013) (pin 1)))
    (net (code 12) (name /Connector_Hierarchy/Lig_E)
      (node (ref R24013) (pin 2))
      (node (ref C24014) (pin 1))
      (node (ref J22005) (pin 14))
      (node (ref U24001) (pin 40)))
    (net (code 13) (name /Connector_Hierarchy/AUDIO_IN)
      (node (ref J22005) (pin 34)))
    (net (code 14) (name /Connector_Hierarchy/Lig_C)
      (node (ref R24015) (pin 2))
      (node (ref C24016) (pin 1))
      (node (ref J22005) (pin 17))
      (node (ref U24001) (pin 38)))
    (net (code 15) (name /Connector_Hierarchy/Lig_B)
      (node (ref U24001) (pin 37))
      (node (ref R24016) (pin 2))
      (node (ref C24017) (pin 1))
      (node (ref J22005) (pin 19)))
    (net (code 16) (name /Connector_Hierarchy/Lig_X)
      (node (ref R24019) (pin 2))
      (node (ref J22005) (pin 11))
      (node (ref C24020) (pin 1))
      (node (ref U24001) (pin 26)))
    (net (code 17) (name /Connector_Hierarchy/Lig_M)
      (node (ref U24001) (pin 25))
      (node (ref J22005) (pin 10))
      (node (ref C24019) (pin 1))
      (node (ref R24018) (pin 2)))
    (net (code 18) (name /Connector_Hierarchy/Lig_A)
      (node (ref C24018) (pin 1))
      (node (ref U24001) (pin 36))
      (node (ref R24017) (pin 2))
      (node (ref J22005) (pin 20)))
    (net (code 19) (name /Connector_Hierarchy/Bluetooth/SPI_BT_MISO)
      (node (ref TP24004) (pin 1))
      (node (ref U24001) (pin 11))
      (node (ref FB25003) (pin 2)))
    (net (code 20) (name /Connector_Hierarchy/Bluetooth/SPI_BT_MOSI)
      (node (ref TP24003) (pin 1))
      (node (ref U24001) (pin 10))
      (node (ref FB25002) (pin 2)))
    (net (code 21) (name /Connector_Hierarchy/Bluetooth/SPI_BT_SCLK)
      (node (ref TP24002) (pin 1))
      (node (ref FB25004) (pin 2))
      (node (ref U24001) (pin 9)))
    (net (code 22) (name /Connector_Hierarchy/Bluetooth/SPI_BT_CSN)
      (node (ref FB25005) (pin 2))
      (node (ref TP24001) (pin 1))
      (node (ref U24001) (pin 8)))
    (net (code 23) (name GND)
      (node (ref C24013) (pin 2))
      (node (ref C24014) (pin 2))
      (node (ref U24001) (pin 5))
      (node (ref U24001) (pin 43))
      (node (ref C24020) (pin 2))
      (node (ref C23011) (pin 2))
      (node (ref C24019) (pin 2))
      (node (ref C24018) (pin 2))
      (node (ref C24017) (pin 2))
      (node (ref C24016) (pin 2))
      (node (ref C24015) (pin 2))
      (node (ref U23002) (pin 3))
      (node (ref U23002) (pin 9))
      (node (ref J23001) (pin 1))
      (node (ref U25001) (pin 8))
      (node (ref U25001) (pin 21))
      (node (ref U25001) (pin 20))
      (node (ref U25001) (pin 17))
      (node (ref U25001) (pin 14))
      (node (ref J25001) (pin 1))
      (node (ref C23005) (pin 2))
      (node (ref C23010) (pin 2))
      (node (ref C25011) (pin 1))
      (node (ref C25012) (pin 1))
      (node (ref R25003) (pin 2))
      (node (ref C23004) (pin 2))
      (node (ref AE25001) (pin 2))
      (node (ref C25013) (pin 2))
      (node (ref C25009) (pin 2))
      (node (ref C23001) (pin 2))
      (node (ref C23002) (pin 2))
      (node (ref C23003) (pin 2))
      (node (ref U23001) (pin 11))
      (node (ref U23001) (pin 3))
      (node (ref U23001) (pin 9))
      (node (ref C23006) (pin 2))
      (node (ref R23007) (pin 1))
      (node (ref R23009) (pin 1))
      (node (ref C23007) (pin 2))
      (node (ref R23004) (pin 1))
      (node (ref R23005) (pin 1))
      (node (ref C24008) (pin 2))
      (node (ref R24009) (pin 2))
      (node (ref C24012) (pin 2))
      (node (ref C24011) (pin 2))
      (node (ref U24001) (pin 15))
      (node (ref U24001) (pin 23))
      (node (ref U23002) (pin 11))
      (node (ref C23009) (pin 2))
      (node (ref U24001) (pin 35))
      (node (ref R24008) (pin 2))
      (node (ref R24007) (pin 2))
      (node (ref Y25001) (pin 4))
      (node (ref C23008) (pin 2))
      (node (ref C25010) (pin 1))
      (node (ref C25005) (pin 2))
      (node (ref C25004) (pin 2))
      (node (ref C25003) (pin 2))
      (node (ref C25002) (pin 2))
      (node (ref C25001) (pin 2))
      (node (ref C25007) (pin 1))
      (node (ref C25006) (pin 1))
      (node (ref Y25001) (pin 2))
      (node (ref J22005) (pin 33))
      (node (ref J22005) (pin 9))
      (node (ref D22001) (pin 2))
      (node (ref J22005) (pin 5))
      (node (ref J22005) (pin 36))
      (node (ref J22003) (pin 2))
      (node (ref D22002) (pin 2))
      (node (ref J22005) (pin 15))
      (node (ref J22005) (pin 21))
      (node (ref C24003) (pin 2))
      (node (ref C24006) (pin 2))
      (node (ref C24005) (pin 2))
      (node (ref C24004) (pin 2))
      (node (ref SW24001) (pin 3))
      (node (ref C24001) (pin 2))
      (node (ref SW24001) (pin 4))
      (node (ref C24009) (pin 2))
      (node (ref C24010) (pin 2))
      (node (ref Y24001) (pin 2))
      (node (ref Y24001) (pin 4))
      (node (ref J22005) (pin 18))
      (node (ref C22004) (pin 2))
      (node (ref C22002) (pin 2))
      (node (ref J22005) (pin 24))
      (node (ref J22004) (pin 7))
      (node (ref J22004) (pin 4))
      (node (ref J22004) (pin 10))
      (node (ref J22004) (pin 1))
      (node (ref J22005) (pin 27))
      (node (ref J22005) (pin 30))
      (node (ref C24002) (pin 2))
      (node (ref J22002) (pin 2))
      (node (ref C22001) (pin 2))
      (node (ref J22005) (pin 1))
      (node (ref J22001) (pin 4))
      (node (ref J22001) (pin 1))
      (node (ref C24007) (pin 2))
      (node (ref C22003) (pin 2))
      (node (ref J22005) (pin 12)))
    (net (code 24) (name /Connector_Hierarchy/I2C_COCO_SDA)
      (node (ref R24002) (pin 2))
      (node (ref J22005) (pin 7))
      (node (ref U24001) (pin 19)))
    (net (code 25) (name /Connector_Hierarchy/Bluetooth/SPI_BT_IRQ)
      (node (ref FB25007) (pin 2))
      (node (ref R24011) (pin 1))
      (node (ref TP24027) (pin 1)))
    (net (code 26) (name /Connector_Hierarchy/Col_1)
      (node (ref J22005) (pin 32))
      (node (ref U24001) (pin 28)))
    (net (code 27) (name /Connector_Hierarchy/Bluetooth/SPI_BT_CE)
      (node (ref FB25006) (pin 2))
      (node (ref R24010) (pin 1))
      (node (ref TP24026) (pin 1)))
    (net (code 28) (name /Connector_Hierarchy/ON-OFF_2)
      (node (ref J22001) (pin 3))
      (node (ref C22004) (pin 1))
      (node (ref FB23001) (pin 2))
      (node (ref C23004) (pin 1)))
    (net (code 29) (name /Connector_Hierarchy/ON-OFF_1)
      (node (ref D23001) (pin 1))
      (node (ref D23002) (pin 1))
      (node (ref J22001) (pin 2)))
    (net (code 30) (name /Connector_Hierarchy/Col_5)
      (node (ref J22005) (pin 26))
      (node (ref U24001) (pin 31)))
    (net (code 31) (name /Connector_Hierarchy/Col_7)
      (node (ref U24001) (pin 27))
      (node (ref J22005) (pin 23)))
    (net (code 32) (name /Connector_Hierarchy/Col_2)
      (node (ref U24001) (pin 29))
      (node (ref J22005) (pin 31)))
    (net (code 33) (name +3.3V)
      (node (ref J22005) (pin 3))
      (node (ref FB25001) (pin 2))
      (node (ref R24020) (pin 1))
      (node (ref C22002) (pin 1))
      (node (ref R23001) (pin 1))
      (node (ref C25001) (pin 1))
      (node (ref R24001) (pin 1))
      (node (ref R24015) (pin 1))
      (node (ref R24019) (pin 1))
      (node (ref C24006) (pin 1))
      (node (ref C24001) (pin 1))
      (node (ref R24014) (pin 1))
      (node (ref C24003) (pin 1))
      (node (ref R24002) (pin 1))
      (node (ref C24004) (pin 1))
      (node (ref C24005) (pin 1))
      (node (ref U24001) (pin 34))
      (node (ref R24016) (pin 1))
      (node (ref U24001) (pin 24))
      (node (ref R24013) (pin 1))
      (node (ref U24001) (pin 14))
      (node (ref R24017) (pin 1))
      (node (ref R24003) (pin 1))
      (node (ref R24018) (pin 1))
      (node (ref U24001) (pin 44))
      (node (ref R24012) (pin 1)))
    (net (code 34) (name +5V)
      (node (ref C24002) (pin 1))
      (node (ref C22003) (pin 1))
      (node (ref C24007) (pin 1))
      (node (ref U24001) (pin 7))
      (node (ref R23002) (pin 1))
      (node (ref C24008) (pin 1))
      (node (ref U24001) (pin 2))
      (node (ref J22005) (pin 4)))
    (net (code 35) (name VBUS_F)
      (node (ref D23001) (pin 2))
      (node (ref J22005) (pin 2))
      (node (ref C22001) (pin 1)))
    (net (code 36) (name /Connector_Hierarchy/I2C_COCO_SCL)
      (node (ref R24001) (pin 2))
      (node (ref J22005) (pin 6))
      (node (ref U24001) (pin 18)))
    (net (code 37) (name /Connector_Hierarchy/I2C_COCO_INT)
      (node (ref U24001) (pin 20))
      (node (ref J22005) (pin 8))
      (node (ref R24020) (pin 2)))
    (net (code 38) (name VBAT)
      (node (ref D23002) (pin 2))
      (node (ref D22001) (pin 1))
      (node (ref J22003) (pin 1))
      (node (ref J22002) (pin 1))
      (node (ref D22002) (pin 1)))
    (net (code 39) (name /Connector_Hierarchy/USB2_N)
      (node (ref R24005) (pin 2))
      (node (ref J22004) (pin 8)))
    (net (code 40) (name /Connector_Hierarchy/USB2_P)
      (node (ref J22004) (pin 9))
      (node (ref R24004) (pin 2)))
    (net (code 41) (name "Net-(R24006-Pad1)")
      (node (ref U24001) (pin 16))
      (node (ref R24006) (pin 1)))
    (net (code 42) (name "Net-(C24012-Pad1)")
      (node (ref C24012) (pin 1))
      (node (ref Y24001) (pin 1))
      (node (ref R24006) (pin 2)))
    (net (code 43) (name "Net-(R24005-Pad1)")
      (node (ref U24001) (pin 3))
      (node (ref R24005) (pin 1)))
    (net (code 44) (name "Net-(R24004-Pad1)")
      (node (ref R24004) (pin 1))
      (node (ref U24001) (pin 4)))
    (net (code 45) (name "Net-(D24001-Pad2)")
      (node (ref D24001) (pin 2))
      (node (ref R24010) (pin 2))
      (node (ref U24001) (pin 22)))
    (net (code 46) (name "Net-(D24002-Pad2)")
      (node (ref R24011) (pin 2))
      (node (ref U24001) (pin 21))
      (node (ref D24002) (pin 2)))
    (net (code 47) (name "Net-(C24010-Pad1)")
      (node (ref U24001) (pin 6))
      (node (ref C24010) (pin 1)))
    (net (code 48) (name "Net-(C24009-Pad1)")
      (node (ref C24009) (pin 1))
      (node (ref U24001) (pin 42)))
    (net (code 49) (name "Net-(C24011-Pad1)")
      (node (ref Y24001) (pin 3))
      (node (ref C24011) (pin 1))
      (node (ref U24001) (pin 17)))
    (net (code 50) (name "Net-(R24007-Pad1)")
      (node (ref TP24025) (pin 1))
      (node (ref U24001) (pin 33))
      (node (ref R24007) (pin 1)))
    (net (code 51) (name "Net-(D24001-Pad1)")
      (node (ref R24008) (pin 1))
      (node (ref D24001) (pin 1)))
    (net (code 52) (name /Connector_Hierarchy/Core_MCU/RESET)
      (node (ref R24003) (pin 2))
      (node (ref U24001) (pin 13))
      (node (ref SW24001) (pin 2))
      (node (ref SW24001) (pin 1))
      (node (ref TP24008) (pin 1)))
    (net (code 53) (name "Net-(D24002-Pad1)")
      (node (ref R24009) (pin 1))
      (node (ref D24002) (pin 1)))
    (net (code 54) (name "Net-(C25002-Pad1)")
      (node (ref C25002) (pin 1))
      (node (ref U25001) (pin 7))
      (node (ref U25001) (pin 15))
      (node (ref FB25001) (pin 1))
      (node (ref C25005) (pin 1))
      (node (ref C25004) (pin 1))
      (node (ref C25003) (pin 1))
      (node (ref U25001) (pin 18)))
    (net (code 55) (name "Net-(R25001-Pad2)")
      (node (ref U25001) (pin 9))
      (node (ref R25001) (pin 2)))
    (net (code 56) (name "Net-(R25003-Pad1)")
      (node (ref R25003) (pin 1))
      (node (ref U25001) (pin 16)))
    (net (code 57) (name "Net-(C25011-Pad2)")
      (node (ref Y25001) (pin 3))
      (node (ref U25001) (pin 10))
      (node (ref C25011) (pin 2)))
    (net (code 58) (name "Net-(C25010-Pad2)")
      (node (ref R25001) (pin 1))
      (node (ref C25010) (pin 2))
      (node (ref Y25001) (pin 1)))
    (net (code 59) (name "Net-(C25008-Pad2)")
      (node (ref C25008) (pin 2))
      (node (ref C25013) (pin 1))
      (node (ref L25003) (pin 2)))
    (net (code 60) (name "Net-(C25006-Pad2)")
      (node (ref C25007) (pin 2))
      (node (ref C25006) (pin 2))
      (node (ref U25001) (pin 11))
      (node (ref L25001) (pin 1)))
    (net (code 61) (name "Net-(L25001-Pad2)")
      (node (ref U25001) (pin 12))
      (node (ref L25001) (pin 2))
      (node (ref L25002) (pin 1)))
    (net (code 62) (name "Net-(AE25001-Pad1)")
      (node (ref AE25001) (pin 1))
      (node (ref C25008) (pin 1))
      (node (ref C25009) (pin 1)))
    (net (code 63) (name "Net-(FB25004-Pad1)")
      (node (ref U25001) (pin 3))
      (node (ref FB25004) (pin 1)))
    (net (code 64) (name "Net-(C25012-Pad2)")
      (node (ref C25012) (pin 2))
      (node (ref U25001) (pin 19)))
    (net (code 65) (name "Net-(FB25007-Pad1)")
      (node (ref U25001) (pin 6))
      (node (ref FB25007) (pin 1)))
    (net (code 66) (name "Net-(FB25006-Pad1)")
      (node (ref FB25006) (pin 1))
      (node (ref U25001) (pin 1)))
    (net (code 67) (name "Net-(FB25002-Pad1)")
      (node (ref U25001) (pin 4))
      (node (ref FB25002) (pin 1)))
    (net (code 68) (name "Net-(L25002-Pad2)")
      (node (ref L25003) (pin 1))
      (node (ref L25002) (pin 2))
      (node (ref U25001) (pin 13)))
    (net (code 69) (name "Net-(FB25003-Pad1)")
      (node (ref U25001) (pin 5))
      (node (ref FB25003) (pin 1)))
    (net (code 70) (name "Net-(FB25005-Pad1)")
      (node (ref FB25005) (pin 1))
      (node (ref U25001) (pin 2)))
    (net (code 71) (name "Net-(C23005-Pad1)")
      (node (ref FB23002) (pin 1))
      (node (ref R23001) (pin 2))
      (node (ref C23005) (pin 1)))
    (net (code 72) (name "Net-(C23010-Pad1)")
      (node (ref C23010) (pin 1))
      (node (ref R23002) (pin 2))
      (node (ref FB23003) (pin 1)))
    (net (code 73) (name "Net-(L23002-Pad2)")
      (node (ref L23002) (pin 2))
      (node (ref U23002) (pin 2)))
    (net (code 74) (name "Net-(R23006-Pad1)")
      (node (ref R23006) (pin 1))
      (node (ref R23009) (pin 2))
      (node (ref R23007) (pin 2))
      (node (ref U23002) (pin 10)))
    (net (code 75) (name "Net-(R23003-Pad1)")
      (node (ref U23001) (pin 10))
      (node (ref R23003) (pin 1))
      (node (ref R23004) (pin 2))
      (node (ref R23005) (pin 2)))
    (net (code 76) (name "Net-(C23002-Pad1)")
      (node (ref U23001) (pin 1))
      (node (ref FB23002) (pin 2))
      (node (ref R23003) (pin 2))
      (node (ref C23003) (pin 1))
      (node (ref C23002) (pin 1)))
    (net (code 77) (name "Net-(L23001-Pad2)")
      (node (ref U23001) (pin 2))
      (node (ref L23001) (pin 2)))
    (net (code 78) (name "Net-(C23006-Pad1)")
      (node (ref U23001) (pin 6))
      (node (ref C23006) (pin 1))
      (node (ref U23001) (pin 8))
      (node (ref U23001) (pin 7)))
    (net (code 79) (name "Net-(L23001-Pad1)")
      (node (ref L23001) (pin 1))
      (node (ref U23001) (pin 4)))
    (net (code 80) (name "Net-(C23008-Pad1)")
      (node (ref FB23003) (pin 2))
      (node (ref U23002) (pin 1))
      (node (ref C23009) (pin 1))
      (node (ref C23008) (pin 1))
      (node (ref R23006) (pin 2)))
    (net (code 81) (name "Net-(L23002-Pad1)")
      (node (ref L23002) (pin 1))
      (node (ref U23002) (pin 4)))
    (net (code 82) (name "Net-(C23001-Pad1)")
      (node (ref FB23001) (pin 1))
      (node (ref U23002) (pin 5))
      (node (ref C23001) (pin 1))
      (node (ref C23007) (pin 1))
      (node (ref U23001) (pin 5)))
    (net (code 83) (name "Net-(C23011-Pad1)")
      (node (ref U23002) (pin 6))
      (node (ref C23011) (pin 1))
      (node (ref U23002) (pin 7))
      (node (ref U23002) (pin 8)))))