EESchema Schematic File Version 4
LIBS:carte_MCU-cache
EELAYER 30 0
EELAYER END
$Descr A2 23386 16535
encoding utf-8
Sheet 2 5
Title "Schematics"
Date "20 oct 2019"
Rev "B"
Comp "Lilian T."
Comment1 "TL 500 002"
Comment2 "Clavier ToucheLibre"
Comment3 "MCU Board"
Comment4 "Connectors and Hierarchical Blocs"
$EndDescr
$Sheet
S 9950 2000 2200 4300
U 5D55A9E5
F0 "Power_Supplies" 50
F1 "Power_Supplies.sch" 50
F2 "ON-OFF_1" O L 9950 2500 50 
F3 "ON-OFF_2" I L 9950 2600 50 
$EndSheet
$Sheet
S 11150 8750 3600 4950
U 5D49F20C
F0 "Core_MCU" 50
F1 "Core_MCU.sch" 50
F2 "Lig_F" I L 11150 10900 50 
F3 "Lig_E" I L 11150 11000 50 
F4 "Lig_D" I L 11150 11200 50 
F5 "Lig_C" I L 11150 11300 50 
F6 "Lig_B" I L 11150 11500 50 
F7 "Lig_A" I L 11150 11600 50 
F8 "Lig_M" I L 11150 10600 50 
F9 "Lig_X" I L 11150 10700 50 
F10 "Col_1" O L 11150 13100 50 
F11 "Col_2" O L 11150 13000 50 
F12 "Col_3" O L 11150 12800 50 
F13 "Col_4" O L 11150 12700 50 
F14 "Col_5" O L 11150 12500 50 
F15 "Col_6" O L 11150 12400 50 
F16 "Col_7" O L 11150 12200 50 
F17 "Col_8" O L 11150 12100 50 
F18 "I2C_COCO_SCL" O L 11150 9850 50 
F19 "I2C_COCO_SDA" B L 11150 9950 50 
F20 "I2C_COCO_INT" I L 11150 10050 50 
F21 "SPI_BT_MISO" I R 14750 11500 50 
F22 "SPI_BT_MOSI" O R 14750 11400 50 
F23 "SPI_BT_SCLK" O R 14750 11300 50 
F24 "SPI_BT_CE" O R 14750 11700 50 
F25 "SPI_BT_IRQ" I R 14750 11800 50 
F26 "USB2_P" B L 11150 9300 50 
F27 "USB2_N" B L 11150 9200 50 
F28 "SPI_BT_CSN" O R 14750 11200 50 
$EndSheet
$Sheet
S 16500 9750 3050 3000
U 5D49F20F
F0 "Bluetooth" 50
F1 "Bluetooth.sch" 50
F2 "SPI_BT_MISO" O L 16500 11500 50 
F3 "SPI_BT_MOSI" I L 16500 11400 50 
F4 "SPI_BT_SCLK" I L 16500 11300 50 
F5 "SPI_BT_CSN" I L 16500 11200 50 
F6 "SPI_BT_IRQ" O L 16500 11800 50 
F7 "SPI_BT_CE" I L 16500 11700 50 
$EndSheet
$Comp
L carte_MCU-rescue:Conn_01x02-Connector_Generic-carte_coco_simple-rescue-carte_MCU-rescue J?
U 1 1 5D4A69F7
P 5300 4950
AR Path="/5D4A69F7" Ref="J?"  Part="1" 
AR Path="/5D4A0749/5D4A69F7" Ref="J22003"  Part="1" 
F 0 "J22003" H 5150 5200 50  0000 C CNN
F 1 "Conn_01x02" H 5100 5100 50  0000 C CNN
F 2 "lib_clavier:PinBAT_1x02_P2.54mm_TL" H 5300 4950 50  0001 C CNN
F 3 "~" H 5300 4950 50  0001 C CNN
F 4 "CD" H 5300 4950 50  0001 C CNN "Variante"
F 5 "TL 200 068" H 5300 4950 50  0001 C CNN "ID_BASE"
	1    5300 4950
	-1   0    0    -1  
$EndComp
Wire Wire Line
	5500 5050 5550 5050
$Comp
L carte_MCU-rescue:D_TVS-Device-carte_coco_simple-rescue-carte_MCU-rescue D22002
U 1 1 5D4A6A00
P 5850 5200
F 0 "D22002" V 5804 5279 50  0000 L CNN
F 1 "PESD5V0V1BB" V 5895 5279 50  0000 L CNN
F 2 "lib_clavier:D_SOD-523_TL" H 5850 5200 50  0001 C CNN
F 3 "~" H 5850 5200 50  0001 C CNN
F 4 "TL 200 047" H 5850 5200 50  0001 C CNN "ID_BASE"
F 5 "G2" H 5850 5200 50  0001 C CNN "Variante"
	1    5850 5200
	0    1    1    0   
$EndComp
$Comp
L carte_MCU-rescue:GND-power-carte_coco_simple-rescue-carte_MCU-rescue #PWR?
U 1 1 5D4A6A07
P 5850 5400
AR Path="/5D4A0749/5D55A9E5/5D4A6A07" Ref="#PWR?"  Part="1" 
AR Path="/5D4A0749/5D4A6A07" Ref="#PWR02006"  Part="1" 
F 0 "#PWR02006" H 5850 5150 50  0001 C CNN
F 1 "GND-power" H 5855 5227 50  0001 C CNN
F 2 "" H 5850 5400 50  0001 C CNN
F 3 "" H 5850 5400 50  0001 C CNN
	1    5850 5400
	1    0    0    -1  
$EndComp
Wire Wire Line
	5850 5400 5850 5350
Wire Wire Line
	5850 5050 5850 4950
$Comp
L carte_MCU-rescue:GND-power-carte_coco_simple-rescue-carte_MCU-rescue #PWR?
U 1 1 5D4A6A0F
P 5550 5100
AR Path="/5D4A0749/5D55A9E5/5D4A6A0F" Ref="#PWR?"  Part="1" 
AR Path="/5D4A0749/5D4A6A0F" Ref="#PWR02005"  Part="1" 
F 0 "#PWR02005" H 5550 4850 50  0001 C CNN
F 1 "GND-power" H 5555 4927 50  0001 C CNN
F 2 "" H 5550 5100 50  0001 C CNN
F 3 "" H 5550 5100 50  0001 C CNN
	1    5550 5100
	1    0    0    -1  
$EndComp
Wire Wire Line
	5550 5050 5550 5100
$Comp
L carte_MCU-rescue:Conn_01x02-Connector_Generic-carte_coco_simple-rescue-carte_MCU-rescue J?
U 1 1 5D4A6A17
P 5300 4200
AR Path="/5D4A6A17" Ref="J?"  Part="1" 
AR Path="/5D4A0749/5D4A6A17" Ref="J22002"  Part="1" 
F 0 "J22002" H 5150 4450 50  0000 C CNN
F 1 "Conn_01x02" H 5100 4350 50  0000 C CNN
F 2 "lib_clavier:PinBAT_1x02_P2.54mm_TL" H 5300 4200 50  0001 C CNN
F 3 "~" H 5300 4200 50  0001 C CNN
F 4 "CD" H 5300 4200 50  0001 C CNN "Variante"
F 5 "TL 200 068" H 5300 4200 50  0001 C CNN "ID_BASE"
	1    5300 4200
	-1   0    0    -1  
$EndComp
Wire Wire Line
	5500 4300 5550 4300
$Comp
L carte_MCU-rescue:GND-power-carte_coco_simple-rescue-carte_MCU-rescue #PWR?
U 1 1 5D4A6A1F
P 5550 4350
AR Path="/5D4A0749/5D55A9E5/5D4A6A1F" Ref="#PWR?"  Part="1" 
AR Path="/5D4A0749/5D4A6A1F" Ref="#PWR02002"  Part="1" 
F 0 "#PWR02002" H 5550 4100 50  0001 C CNN
F 1 "GND-power" H 5555 4177 50  0001 C CNN
F 2 "" H 5550 4350 50  0001 C CNN
F 3 "" H 5550 4350 50  0001 C CNN
	1    5550 4350
	1    0    0    -1  
$EndComp
Wire Wire Line
	5550 4300 5550 4350
$Comp
L carte_MCU-rescue:VBAT-power-carte_MCU-rescue #PWR?
U 1 1 5D4A6A2C
P 8200 4850
AR Path="/5D4A0749/5D55A9E5/5D4A6A2C" Ref="#PWR?"  Part="1" 
AR Path="/5D4A0749/5D4A6A2C" Ref="#PWR2004"  Part="1" 
F 0 "#PWR2004" H 8450 4950 50  0001 C CNN
F 1 "VBAT" H 8200 5024 50  0000 C CNN
F 2 "" H 8200 4850 50  0001 C CNN
F 3 "" H 8200 4850 50  0001 C CNN
	1    8200 4850
	1    0    0    -1  
$EndComp
Wire Wire Line
	8200 4950 8200 4850
$Comp
L Connector_Generic:Conn_01x36 J22005
U 1 1 5D500C67
P 5300 11400
F 0 "J22005" H 5150 13350 50  0000 C CNN
F 1 "Conn_01x36" H 5100 13250 50  0000 C CNN
F 2 "lib_clavier:InterBoard_1x36_P1.27mm_TL" H 5300 11400 50  0001 C CNN
F 3 "~" H 5300 11400 50  0001 C CNN
F 4 "CD" H 5300 11400 50  0001 C CNN "Variante"
F 5 "TL 200 067" H 5300 11400 50  0001 C CNN "ID_BASE"
	1    5300 11400
	-1   0    0    -1  
$EndComp
$Comp
L carte_MCU-rescue:GND-power-carte_coco_simple-rescue-carte_MCU-rescue #PWR?
U 1 1 5D50102A
P 5550 13400
AR Path="/5D4A0749/5D55A9E5/5D50102A" Ref="#PWR?"  Part="1" 
AR Path="/5D4A0749/5D50102A" Ref="#PWR02014"  Part="1" 
F 0 "#PWR02014" H 5550 13150 50  0001 C CNN
F 1 "GND-power" H 5555 13227 50  0001 C CNN
F 2 "" H 5550 13400 50  0001 C CNN
F 3 "" H 5550 13400 50  0001 C CNN
	1    5550 13400
	1    0    0    -1  
$EndComp
Wire Wire Line
	5500 13200 5550 13200
Wire Wire Line
	5550 13200 5550 13400
Wire Wire Line
	5500 12900 5550 12900
Wire Wire Line
	5550 12900 5550 13200
Wire Wire Line
	5500 12600 5550 12600
Wire Wire Line
	5550 12600 5550 12900
Connection ~ 5550 12900
Wire Wire Line
	5500 12300 5550 12300
Wire Wire Line
	5550 12300 5550 12600
Connection ~ 5550 12600
Wire Wire Line
	5500 12000 5550 12000
Wire Wire Line
	5550 12000 5550 12300
Connection ~ 5550 12300
Wire Wire Line
	5500 11700 5550 11700
Wire Wire Line
	5550 11700 5550 12000
Connection ~ 5550 12000
Wire Wire Line
	5500 11400 5550 11400
Wire Wire Line
	5550 11400 5550 11700
Connection ~ 5550 11700
Wire Wire Line
	5550 11100 5550 11400
Connection ~ 5550 11400
Wire Wire Line
	5500 11100 5550 11100
Wire Wire Line
	5500 10800 5550 10800
Wire Wire Line
	5550 10800 5550 11100
Connection ~ 5550 11100
Wire Wire Line
	5500 10500 5550 10500
Wire Wire Line
	5550 10500 5550 10800
Connection ~ 5550 10800
Wire Wire Line
	5500 10100 5550 10100
Wire Wire Line
	5550 10100 5550 10500
Connection ~ 5550 10500
Wire Wire Line
	5500 9700 5550 9700
Wire Wire Line
	5550 9700 5550 10100
Connection ~ 5550 10100
Wire Wire Line
	8950 9300 11150 9300
Wire Wire Line
	11150 9200 9050 9200
Wire Wire Line
	11150 10050 8250 10050
Wire Wire Line
	8150 10300 8150 9950
Wire Wire Line
	8150 9950 11150 9950
Wire Wire Line
	11150 9850 8050 9850
Text GLabel 9100 6000 2    50   UnSpc ~ 0
VBUS_F
Text GLabel 9100 4950 2    50   UnSpc ~ 0
VBAT
Wire Wire Line
	9100 4950 8200 4950
$Comp
L carte_MCU-rescue:VBUS_F-power-carte_MCU-rescue #PWR2007
U 1 1 5D4B7314
P 8200 5850
F 0 "#PWR2007" H 8350 5750 50  0001 C CNN
F 1 "VBUS_F" H 8195 6024 50  0000 C CNN
F 2 "" H 8200 5850 50  0001 C CNN
F 3 "" H 8200 5850 50  0001 C CNN
	1    8200 5850
	1    0    0    -1  
$EndComp
Wire Wire Line
	5500 9800 5800 9800
Wire Wire Line
	9100 6000 8200 6000
Wire Wire Line
	8200 6000 8200 5850
Wire Wire Line
	5800 9800 5800 9350
Wire Wire Line
	5500 13000 6050 13000
Wire Wire Line
	5500 13100 6100 13100
Wire Notes Line
	5250 7500 5250 13900
Wire Notes Line
	5250 13900 7750 13900
Wire Notes Line
	7750 13900 7750 7500
Wire Notes Line
	5250 3800 7750 3800
Text Notes 5300 3750 0    59   ~ 12
Connecteurs venant des poignets\nConnectors from the wrists
$Comp
L power:+3.3V #PWR02009
U 1 1 5D5D7C19
P 6450 9400
F 0 "#PWR02009" H 6450 9250 50  0001 C CNN
F 1 "+3.3V" H 6465 9573 50  0000 C CNN
F 2 "" H 6450 9400 50  0001 C CNN
F 3 "" H 6450 9400 50  0001 C CNN
	1    6450 9400
	1    0    0    -1  
$EndComp
$Comp
L power:+5V #PWR02010
U 1 1 5D5D7C5F
P 7100 9400
F 0 "#PWR02010" H 7100 9250 50  0001 C CNN
F 1 "+5V" H 7115 9573 50  0000 C CNN
F 2 "" H 7100 9400 50  0001 C CNN
F 3 "" H 7100 9400 50  0001 C CNN
	1    7100 9400
	1    0    0    -1  
$EndComp
Connection ~ 5850 4950
Wire Wire Line
	5500 4950 5850 4950
Connection ~ 6650 4950
Wire Wire Line
	5850 4950 6650 4950
Wire Wire Line
	5500 4200 5850 4200
$Comp
L carte_MCU-rescue:D_TVS-Device-carte_coco_simple-rescue-carte_MCU-rescue D22001
U 1 1 5D5F87D9
P 5850 4450
F 0 "D22001" V 5804 4529 50  0000 L CNN
F 1 "PESD5V0V1BB" V 5895 4529 50  0000 L CNN
F 2 "lib_clavier:D_SOD-523_TL" H 5850 4450 50  0001 C CNN
F 3 "~" H 5850 4450 50  0001 C CNN
F 4 "TL 200 047" H 5850 4450 50  0001 C CNN "ID_BASE"
F 5 "G2" H 5850 4450 50  0001 C CNN "Variante"
	1    5850 4450
	0    1    1    0   
$EndComp
$Comp
L carte_MCU-rescue:GND-power-carte_coco_simple-rescue-carte_MCU-rescue #PWR?
U 1 1 5D5F87E0
P 5850 4650
AR Path="/5D4A0749/5D55A9E5/5D5F87E0" Ref="#PWR?"  Part="1" 
AR Path="/5D4A0749/5D5F87E0" Ref="#PWR02003"  Part="1" 
F 0 "#PWR02003" H 5850 4400 50  0001 C CNN
F 1 "GND-power" H 5855 4477 50  0001 C CNN
F 2 "" H 5850 4650 50  0001 C CNN
F 3 "" H 5850 4650 50  0001 C CNN
	1    5850 4650
	1    0    0    -1  
$EndComp
Wire Wire Line
	5850 4650 5850 4600
Connection ~ 5850 4200
Wire Wire Line
	5850 4200 6650 4200
Wire Wire Line
	5850 4300 5850 4200
Wire Wire Line
	6650 4200 6650 4950
Wire Wire Line
	16500 11200 14750 11200
Wire Wire Line
	14750 11300 16500 11300
Wire Wire Line
	16500 11400 14750 11400
Wire Wire Line
	14750 11500 16500 11500
Text Label 5650 11600 0    60   ~ 0
Lig_A
Text Label 5650 10600 0    60   ~ 0
Lig_M
Text Label 5650 10700 0    60   ~ 0
Lig_X
Text Label 5650 11500 0    60   ~ 0
Lig_B
Text Label 5650 11300 0    60   ~ 0
Lig_C
Text Label 5650 11200 0    60   ~ 0
Lig_D
Text Label 5650 11000 0    60   ~ 0
Lig_E
Text Label 5650 10900 0    60   ~ 0
Lig_F
Text Label 5650 11800 0    60   ~ 0
Col_8
Text Label 5650 11900 0    60   ~ 0
Col_7
Text Label 5650 12100 0    60   ~ 0
Col_6
Text Label 5650 12200 0    60   ~ 0
Col_5
Text Label 5650 12400 0    60   ~ 0
Col_4
Text Label 5650 12500 0    60   ~ 0
Col_3
Text Label 6100 13100 2    60   ~ 0
AUDIO_OUT
Text Label 6050 13000 2    60   ~ 0
AUDIO_IN
Text Label 5650 10400 0    60   ~ 0
I2C_COCO_INT
Text Label 5650 10300 0    60   ~ 0
I2C_COCO_SDA
Text Label 5650 10200 0    60   ~ 0
I2C_COCO_SCL
Wire Wire Line
	5600 8900 5600 8800
Wire Wire Line
	5600 8500 5500 8500
Wire Wire Line
	5500 8800 5600 8800
Connection ~ 5600 8800
Wire Wire Line
	5600 8800 5600 8500
Text Label 6150 8600 2    60   ~ 0
USB2_N
Text Label 6150 8700 2    60   ~ 0
USB2_P
$Comp
L Connector_Generic:Conn_01x10 J22004
U 1 1 5D5D8F3B
P 5300 8300
F 0 "J22004" H 5150 8950 50  0000 C CNN
F 1 "Conn_01x10" H 5100 8850 50  0000 C CNN
F 2 "lib_clavier:InterBoard_1x10_P1.27mm_inverse_TL" H 5300 8300 50  0001 C CNN
F 3 "~" H 5300 8300 50  0001 C CNN
F 4 "CD" H 5300 8300 50  0001 C CNN "Variante"
F 5 "TL 200 066" H 5300 8300 50  0001 C CNN "ID_BASE"
	1    5300 8300
	-1   0    0    -1  
$EndComp
Wire Wire Line
	5600 8500 5600 8200
Wire Wire Line
	5600 8200 5500 8200
Connection ~ 5600 8500
Wire Wire Line
	5600 8200 5600 7900
Wire Wire Line
	5600 7900 5500 7900
Connection ~ 5600 8200
Text Label 6200 8000 2    60   ~ 0
USB3_TX_N
Text Label 6200 8100 2    60   ~ 0
USB3_TX_P
Text Label 6200 8300 2    60   ~ 0
USB3_RX_N
Text Label 6200 8400 2    60   ~ 0
USB3_RX_P
Wire Wire Line
	5500 8000 6200 8000
Wire Wire Line
	5500 8100 6200 8100
Wire Wire Line
	5500 8300 6200 8300
Wire Wire Line
	5500 8400 6200 8400
$Comp
L carte_MCU-rescue:GND-power-carte_coco_simple-rescue-carte_MCU-rescue-carte_clavier-rescue-carte_MCU-rescue #PWR?
U 1 1 5D5ED682
P 5600 8900
AR Path="/5D4A0749/5D55A9E5/5D5ED682" Ref="#PWR?"  Part="1" 
AR Path="/5D4A0749/5D5ED682" Ref="#PWR02008"  Part="1" 
AR Path="/5B24D131/5D5ED682" Ref="#PWR?"  Part="1" 
AR Path="/5D5ED682" Ref="#PWR?"  Part="1" 
F 0 "#PWR02008" H 5600 8650 50  0001 C CNN
F 1 "GND-power" H 5605 8727 50  0001 C CNN
F 2 "" H 5600 8900 50  0001 C CNN
F 3 "" H 5600 8900 50  0001 C CNN
	1    5600 8900
	1    0    0    -1  
$EndComp
Connection ~ 5550 13200
Connection ~ 8200 6000
Wire Wire Line
	5500 8700 8950 8700
Wire Wire Line
	5500 10200 8050 10200
Wire Wire Line
	5500 10300 8150 10300
Wire Wire Line
	5500 10400 8250 10400
Wire Wire Line
	5500 12700 9650 12700
Wire Wire Line
	5500 12500 9850 12500
Wire Wire Line
	5500 12400 9950 12400
Wire Wire Line
	5500 12200 10150 12200
Wire Wire Line
	5500 12100 10250 12100
Wire Wire Line
	5500 11800 10550 11800
Wire Wire Line
	5500 10900 11150 10900
Wire Wire Line
	5500 11000 11150 11000
Wire Wire Line
	5500 11200 11150 11200
Wire Wire Line
	5500 11300 11150 11300
Wire Wire Line
	5500 11500 11150 11500
Wire Wire Line
	5500 11600 11150 11600
Wire Wire Line
	5500 10600 11150 10600
Wire Wire Line
	5500 10700 11150 10700
Wire Wire Line
	6650 4950 8200 4950
Connection ~ 8200 4950
Wire Wire Line
	8050 9850 8050 10200
Wire Wire Line
	8250 10050 8250 10400
Wire Wire Line
	5500 8600 9050 8600
Wire Wire Line
	8950 8700 8950 9300
Wire Wire Line
	9050 8600 9050 9200
Wire Notes Line
	5250 7500 7750 7500
Text Notes 5300 7450 0    59   ~ 12
Connecteurs vers carte Clavier\nConnectors to keyboard
Wire Wire Line
	7350 6000 7350 9100
Wire Notes Line
	5250 3800 5250 5700
Wire Notes Line
	5250 5700 7750 5700
Wire Notes Line
	7750 5700 7750 3800
Wire Wire Line
	7350 6000 8200 6000
Wire Wire Line
	5800 9100 7350 9100
$Comp
L Device:C C?
U 1 1 5D5CFDC4
P 5950 9500
AR Path="/5D5CFDC4" Ref="C?"  Part="1" 
AR Path="/5D4A0749/5D49F20C/5D5CFDC4" Ref="C?"  Part="1" 
AR Path="/5D4A0749/5D55A9E5/5D5CFDC4" Ref="C?"  Part="1" 
AR Path="/5D4A0749/5D5CFDC4" Ref="C22001"  Part="1" 
F 0 "C22001" H 6000 9600 50  0000 L CNN
F 1 "220nF" H 6100 9500 50  0000 L CNN
F 2 "lib_clavier:C_0402_TL" H 5988 9350 50  0001 C CNN
F 3 "~" H 5950 9500 50  0001 C CNN
F 4 "10V" H 6100 9400 50  0000 C CNN "Tension"
F 5 "TL 200 022" H 5950 9500 50  0001 C CNN "ID_BASE"
F 6 "CD" H 5950 9500 50  0001 C CNN "Variante"
	1    5950 9500
	1    0    0    -1  
$EndComp
$Comp
L carte_MCU-rescue:GND-power-carte_coco_simple-rescue-carte_MCU-rescue-carte_clavier-rescue-carte_MCU-rescue #PWR?
U 1 1 5D5D7EF8
P 5950 9700
AR Path="/5D4A0749/5D55A9E5/5D5D7EF8" Ref="#PWR?"  Part="1" 
AR Path="/5D4A0749/5D5D7EF8" Ref="#PWR02011"  Part="1" 
AR Path="/5B24D131/5D5D7EF8" Ref="#PWR?"  Part="1" 
AR Path="/5D5D7EF8" Ref="#PWR?"  Part="1" 
F 0 "#PWR02011" H 5950 9450 50  0001 C CNN
F 1 "GND-power" H 5955 9527 50  0001 C CNN
F 2 "" H 5950 9700 50  0001 C CNN
F 3 "" H 5950 9700 50  0001 C CNN
	1    5950 9700
	1    0    0    -1  
$EndComp
Wire Wire Line
	5950 9700 5950 9650
Wire Wire Line
	5950 9350 5800 9350
Connection ~ 5800 9350
Wire Wire Line
	5800 9100 5800 9350
Wire Wire Line
	6450 9400 6450 9450
Wire Wire Line
	5500 9900 6450 9900
$Comp
L Device:C C?
U 1 1 5D5FD457
P 6600 9600
AR Path="/5D5FD457" Ref="C?"  Part="1" 
AR Path="/5D4A0749/5D49F20C/5D5FD457" Ref="C?"  Part="1" 
AR Path="/5D4A0749/5D55A9E5/5D5FD457" Ref="C?"  Part="1" 
AR Path="/5D4A0749/5D5FD457" Ref="C22002"  Part="1" 
F 0 "C22002" H 6650 9700 50  0000 L CNN
F 1 "220nF" H 6750 9600 50  0000 L CNN
F 2 "lib_clavier:C_0402_TL" H 6638 9450 50  0001 C CNN
F 3 "~" H 6600 9600 50  0001 C CNN
F 4 "10V" H 6750 9500 50  0000 C CNN "Tension"
F 5 "TL 200 022" H 6600 9600 50  0001 C CNN "ID_BASE"
F 6 "CD" H 6600 9600 50  0001 C CNN "Variante"
	1    6600 9600
	1    0    0    -1  
$EndComp
$Comp
L carte_MCU-rescue:GND-power-carte_coco_simple-rescue-carte_MCU-rescue-carte_clavier-rescue-carte_MCU-rescue #PWR?
U 1 1 5D5FD45E
P 6600 9800
AR Path="/5D4A0749/5D55A9E5/5D5FD45E" Ref="#PWR?"  Part="1" 
AR Path="/5D4A0749/5D5FD45E" Ref="#PWR02012"  Part="1" 
AR Path="/5B24D131/5D5FD45E" Ref="#PWR?"  Part="1" 
AR Path="/5D5FD45E" Ref="#PWR?"  Part="1" 
F 0 "#PWR02012" H 6600 9550 50  0001 C CNN
F 1 "GND-power" H 6605 9627 50  0001 C CNN
F 2 "" H 6600 9800 50  0001 C CNN
F 3 "" H 6600 9800 50  0001 C CNN
	1    6600 9800
	1    0    0    -1  
$EndComp
Wire Wire Line
	6600 9800 6600 9750
Wire Wire Line
	6600 9450 6450 9450
Wire Wire Line
	5500 10000 7100 10000
Connection ~ 6450 9450
Wire Wire Line
	6450 9450 6450 9900
$Comp
L Device:C C?
U 1 1 5D60A675
P 7250 9600
AR Path="/5D60A675" Ref="C?"  Part="1" 
AR Path="/5D4A0749/5D49F20C/5D60A675" Ref="C?"  Part="1" 
AR Path="/5D4A0749/5D55A9E5/5D60A675" Ref="C?"  Part="1" 
AR Path="/5D4A0749/5D60A675" Ref="C22003"  Part="1" 
F 0 "C22003" H 7300 9700 50  0000 L CNN
F 1 "220nF" H 7400 9600 50  0000 L CNN
F 2 "lib_clavier:C_0402_TL" H 7288 9450 50  0001 C CNN
F 3 "~" H 7250 9600 50  0001 C CNN
F 4 "10V" H 7400 9500 50  0000 C CNN "Tension"
F 5 "TL 200 022" H 7250 9600 50  0001 C CNN "ID_BASE"
F 6 "CD" H 7250 9600 50  0001 C CNN "Variante"
	1    7250 9600
	1    0    0    -1  
$EndComp
$Comp
L carte_MCU-rescue:GND-power-carte_coco_simple-rescue-carte_MCU-rescue-carte_clavier-rescue-carte_MCU-rescue #PWR?
U 1 1 5D60A67C
P 7250 9800
AR Path="/5D4A0749/5D55A9E5/5D60A67C" Ref="#PWR?"  Part="1" 
AR Path="/5D4A0749/5D60A67C" Ref="#PWR02013"  Part="1" 
AR Path="/5B24D131/5D60A67C" Ref="#PWR?"  Part="1" 
AR Path="/5D60A67C" Ref="#PWR?"  Part="1" 
F 0 "#PWR02013" H 7250 9550 50  0001 C CNN
F 1 "GND-power" H 7255 9627 50  0001 C CNN
F 2 "" H 7250 9800 50  0001 C CNN
F 3 "" H 7250 9800 50  0001 C CNN
	1    7250 9800
	1    0    0    -1  
$EndComp
Wire Wire Line
	7250 9800 7250 9750
Wire Wire Line
	7250 9450 7100 9450
Wire Wire Line
	7100 9400 7100 9450
Connection ~ 7100 9450
Wire Wire Line
	7100 9450 7100 10000
Wire Notes Line
	5250 2000 7750 2000
Text Notes 5300 1950 0    59   ~ 12
Connecteur pour le ON/OFF général\nConnector from global ON/OFF
Wire Notes Line
	5250 2000 5250 3200
Wire Notes Line
	7750 3200 7750 2000
$Comp
L Connector_Generic:Conn_01x04 J22001
U 1 1 5D59FFC8
P 5300 2500
F 0 "J22001" H 5150 2850 50  0000 C CNN
F 1 "Conn_01x04" H 5050 2750 50  0000 C CNN
F 2 "lib_clavier:InterBoard_1x04_P1.27mm_TL" H 5300 2500 50  0001 C CNN
F 3 "~" H 5300 2500 50  0001 C CNN
F 4 "CD" H 5300 2500 50  0001 C CNN "Variante"
F 5 "TL 200 065" H 5300 2500 50  0001 C CNN "ID_BASE"
	1    5300 2500
	-1   0    0    -1  
$EndComp
Wire Notes Line
	5250 3200 7750 3200
Wire Wire Line
	5500 2700 5550 2700
$Comp
L carte_MCU-rescue:GND-power-carte_coco_simple-rescue-carte_MCU-rescue #PWR?
U 1 1 5D5BDA0B
P 5550 2750
AR Path="/5D4A0749/5D55A9E5/5D5BDA0B" Ref="#PWR?"  Part="1" 
AR Path="/5D4A0749/5D5BDA0B" Ref="#PWR02001"  Part="1" 
F 0 "#PWR02001" H 5550 2500 50  0001 C CNN
F 1 "GND-power" H 5555 2577 50  0001 C CNN
F 2 "" H 5550 2750 50  0001 C CNN
F 3 "" H 5550 2750 50  0001 C CNN
	1    5550 2750
	1    0    0    -1  
$EndComp
Wire Wire Line
	5550 2700 5550 2750
Wire Wire Line
	5550 2700 5550 2400
Wire Wire Line
	5550 2400 5500 2400
Connection ~ 5550 2700
Wire Wire Line
	5500 2600 5750 2600
Wire Wire Line
	5500 2500 9950 2500
Text Label 5800 2500 0    50   ~ 0
ON-OFF_1
Text Label 5800 2600 0    50   ~ 0
ON-OFF_2
Text Notes 3900 5100 0    50   ~ 10
Piles (2×1,5V AAA en série)\nBatteries (2×1.5V AAA in series)
Text Notes 3900 4350 0    50   ~ 10
Piles (2×1,5V AAA en série)\nBatteries (2×1.5V AAA in series)
Wire Wire Line
	16500 11700 14750 11700
Wire Wire Line
	14750 11800 16500 11800
Wire Wire Line
	5750 3050 5750 3000
$Comp
L carte_MCU-rescue:GND-power-carte_coco_simple-rescue-carte_MCU-rescue-carte_clavier-rescue-carte_MCU-rescue #PWR?
U 1 1 5D68CB83
P 5750 3050
AR Path="/5D4A0749/5D55A9E5/5D68CB83" Ref="#PWR?"  Part="1" 
AR Path="/5D4A0749/5D68CB83" Ref="#PWR?"  Part="1" 
AR Path="/5B24D131/5D68CB83" Ref="#PWR?"  Part="1" 
AR Path="/5D68CB83" Ref="#PWR?"  Part="1" 
F 0 "#PWR?" H 5750 2800 50  0001 C CNN
F 1 "GND-power" H 5755 2877 50  0001 C CNN
F 2 "" H 5750 3050 50  0001 C CNN
F 3 "" H 5750 3050 50  0001 C CNN
	1    5750 3050
	1    0    0    -1  
$EndComp
$Comp
L Device:C C?
U 1 1 5D68CB7D
P 5750 2850
AR Path="/5D68CB7D" Ref="C?"  Part="1" 
AR Path="/5D4A0749/5D49F20C/5D68CB7D" Ref="C?"  Part="1" 
AR Path="/5D4A0749/5D55A9E5/5D68CB7D" Ref="C?"  Part="1" 
AR Path="/5D4A0749/5D68CB7D" Ref="C22004"  Part="1" 
F 0 "C22004" H 5800 2950 50  0000 L CNN
F 1 "220nF" H 5900 2850 50  0000 L CNN
F 2 "lib_clavier:C_0402_TL" H 5788 2700 50  0001 C CNN
F 3 "~" H 5750 2850 50  0001 C CNN
F 4 "10V" H 5900 2750 50  0000 C CNN "Tension"
F 5 "TL 200 022" H 5750 2850 50  0001 C CNN "ID_BASE"
F 6 "CD" H 5750 2850 50  0001 C CNN "Variante"
	1    5750 2850
	1    0    0    -1  
$EndComp
Wire Wire Line
	5750 2700 5750 2600
Connection ~ 5750 2600
Wire Wire Line
	5750 2600 9950 2600
Wire Wire Line
	5500 12800 9550 12800
Text Label 5650 12800 0    60   ~ 0
Col_1
Text Label 5650 12700 0    60   ~ 0
Col_2
Wire Wire Line
	5500 11900 10450 11900
Wire Wire Line
	11150 12100 10550 12100
Wire Wire Line
	10550 12100 10550 11800
Wire Wire Line
	10450 11900 10450 12200
Wire Wire Line
	10450 12200 11150 12200
Wire Wire Line
	11150 12400 10250 12400
Wire Wire Line
	10250 12400 10250 12100
Wire Wire Line
	10150 12200 10150 12500
Wire Wire Line
	10150 12500 11150 12500
Wire Wire Line
	11150 12700 9950 12700
Wire Wire Line
	9950 12700 9950 12400
Wire Wire Line
	11150 12800 9850 12800
Wire Wire Line
	9850 12800 9850 12500
Wire Wire Line
	11150 13000 9650 13000
Wire Wire Line
	9650 13000 9650 12700
Wire Wire Line
	11150 13100 9550 13100
Wire Wire Line
	9550 13100 9550 12800
$EndSCHEMATC
