EESchema Schematic File Version 4
LIBS:carte_MCU-cache
EELAYER 30 0
EELAYER END
$Descr A2 23386 16535
encoding utf-8
Sheet 4 5
Title "Schematics"
Date "20 oct 2019"
Rev "B"
Comp "Lilian T."
Comment1 "TL 500 002"
Comment2 "Clavier ToucheLibre"
Comment3 "MCU Board"
Comment4 "MCU Core"
$EndDescr
$Comp
L carte_MCU-rescue:ATmega32U4-AU-MCU_Microchip_ATmega-MCU-rescue-carte_MCU-rescue U?
U 1 1 5D4AB5AF
P 9350 9850
AR Path="/5D4AB5AF" Ref="U?"  Part="1" 
AR Path="/5D4A0749/5D49F20C/5D4AB5AF" Ref="U24001"  Part="1" 
F 0 "U24001" H 10750 9750 50  0000 C CNN
F 1 "ATmega32U4-AU" H 10850 9650 50  0000 C CNN
F 2 "lib_clavier:TQFP-44_10x10mm_P0.8mm_TL" H 9350 9850 50  0001 C CIN
F 3 "http://ww1.microchip.com/downloads/en/DeviceDoc/Atmel-7766-8-bit-AVR-ATmega16U4-32U4_Datasheet.pdf" H 9350 9850 50  0001 C CNN
F 4 "TL 200 057" H 9350 9850 50  0001 C CNN "ID_BASE"
F 5 "CD" H 9350 9850 50  0001 C CNN "Variante"
	1    9350 9850
	1    0    0    -1  
$EndComp
$Comp
L power:GND #PWR?
U 1 1 5D4AB5B6
P 10050 10050
AR Path="/5D4AB5B6" Ref="#PWR?"  Part="1" 
AR Path="/5D4A0749/5D49F20C/5D4AB5B6" Ref="#PWR04021"  Part="1" 
F 0 "#PWR04021" H 10050 9800 50  0001 C CNN
F 1 "GND" H 10055 9877 50  0001 C CNN
F 2 "" H 10050 10050 50  0001 C CNN
F 3 "" H 10050 10050 50  0001 C CNN
	1    10050 10050
	1    0    0    -1  
$EndComp
Wire Wire Line
	9850 9950 9850 10000
Wire Wire Line
	9850 10000 9950 10000
Wire Wire Line
	10250 10000 10250 9950
Wire Wire Line
	10150 10000 10150 9950
Connection ~ 10150 10000
Wire Wire Line
	10150 10000 10250 10000
Wire Wire Line
	10050 10000 10050 9950
Connection ~ 10050 10000
Wire Wire Line
	10050 10000 10150 10000
Wire Wire Line
	9950 10000 9950 9950
Connection ~ 9950 10000
Wire Wire Line
	9950 10000 10050 10000
Wire Wire Line
	10050 10050 10050 10000
$Comp
L Device:C C?
U 1 1 5D4AB5CA
P 7600 9550
AR Path="/5D4AB5CA" Ref="C?"  Part="1" 
AR Path="/5D4A0749/5D49F20C/5D4AB5CA" Ref="C24012"  Part="1" 
F 0 "C24012" V 7750 9550 50  0000 C CNN
F 1 "12pF" V 7850 9550 50  0000 C CNN
F 2 "lib_clavier:C_0402_TL" H 7638 9400 50  0001 C CNN
F 3 "~" H 7600 9550 50  0001 C CNN
F 4 "50V" V 7550 9350 50  0000 C CNN "Tension"
F 5 "TL 200 017" H 7600 9550 50  0001 C CNN "ID_BASE"
F 6 "CD" H 7600 9550 50  0001 C CNN "Variante"
	1    7600 9550
	0    1    1    0   
$EndComp
$Comp
L Device:C C?
U 1 1 5D4AB5D2
P 7600 9150
AR Path="/5D4AB5D2" Ref="C?"  Part="1" 
AR Path="/5D4A0749/5D49F20C/5D4AB5D2" Ref="C24011"  Part="1" 
F 0 "C24011" V 7348 9150 50  0000 C CNN
F 1 "12pF" V 7439 9150 50  0000 C CNN
F 2 "lib_clavier:C_0402_TL" H 7638 9000 50  0001 C CNN
F 3 "~" H 7600 9150 50  0001 C CNN
F 4 "50V" V 7550 8950 50  0000 C CNN "Tension"
F 5 "TL 200 017" H 7600 9150 50  0001 C CNN "ID_BASE"
F 6 "CD" H 7600 9150 50  0001 C CNN "Variante"
	1    7600 9150
	0    1    1    0   
$EndComp
$Comp
L power:GND #PWR?
U 1 1 5D4AB5D9
P 8250 9350
AR Path="/5D4AB5D9" Ref="#PWR?"  Part="1" 
AR Path="/5D4A0749/5D49F20C/5D4AB5D9" Ref="#PWR04019"  Part="1" 
F 0 "#PWR04019" H 8250 9100 50  0001 C CNN
F 1 "GND" H 8400 9300 50  0001 C CNN
F 2 "" H 8250 9350 50  0001 C CNN
F 3 "" H 8250 9350 50  0001 C CNN
	1    8250 9350
	1    0    0    -1  
$EndComp
$Comp
L power:GND #PWR?
U 1 1 5D4AB5DF
P 7750 9350
AR Path="/5D4AB5DF" Ref="#PWR?"  Part="1" 
AR Path="/5D4A0749/5D49F20C/5D4AB5DF" Ref="#PWR04018"  Part="1" 
F 0 "#PWR04018" H 7750 9100 50  0001 C CNN
F 1 "GND" H 7600 9300 50  0001 C CNN
F 2 "" H 7750 9350 50  0001 C CNN
F 3 "" H 7750 9350 50  0001 C CNN
	1    7750 9350
	1    0    0    -1  
$EndComp
Wire Wire Line
	7800 9350 7750 9350
Wire Wire Line
	8200 9350 8250 9350
Wire Wire Line
	8000 9550 8000 9500
$Comp
L power:GND #PWR?
U 1 1 5D4AB5E9
P 9050 8750
AR Path="/5D4AB5E9" Ref="#PWR?"  Part="1" 
AR Path="/5D4A0749/5D49F20C/5D4AB5E9" Ref="#PWR04016"  Part="1" 
F 0 "#PWR04016" H 9050 8500 50  0001 C CNN
F 1 "GND" H 9055 8577 50  0001 C CNN
F 2 "" H 9050 8750 50  0001 C CNN
F 3 "" H 9050 8750 50  0001 C CNN
	1    9050 8750
	1    0    0    -1  
$EndComp
Wire Wire Line
	9050 8450 9250 8450
Wire Wire Line
	7750 9150 8000 9150
$Comp
L power:GND #PWR?
U 1 1 5D4AB5F4
P 7350 9550
AR Path="/5D4AB5F4" Ref="#PWR?"  Part="1" 
AR Path="/5D4A0749/5D49F20C/5D4AB5F4" Ref="#PWR04020"  Part="1" 
F 0 "#PWR04020" H 7350 9300 50  0001 C CNN
F 1 "GND" H 7200 9500 50  0001 C CNN
F 2 "" H 7350 9550 50  0001 C CNN
F 3 "" H 7350 9550 50  0001 C CNN
	1    7350 9550
	1    0    0    -1  
$EndComp
$Comp
L power:GND #PWR?
U 1 1 5D4AB5FA
P 7350 9150
AR Path="/5D4AB5FA" Ref="#PWR?"  Part="1" 
AR Path="/5D4A0749/5D49F20C/5D4AB5FA" Ref="#PWR04017"  Part="1" 
F 0 "#PWR04017" H 7350 8900 50  0001 C CNN
F 1 "GND" H 7200 9100 50  0001 C CNN
F 2 "" H 7350 9150 50  0001 C CNN
F 3 "" H 7350 9150 50  0001 C CNN
	1    7350 9150
	1    0    0    -1  
$EndComp
Wire Wire Line
	7350 9150 7450 9150
Wire Wire Line
	7450 9550 7350 9550
$Comp
L power:GND #PWR?
U 1 1 5D4AB602
P 9050 7050
AR Path="/5D4AB602" Ref="#PWR?"  Part="1" 
AR Path="/5D4A0749/5D49F20C/5D4AB602" Ref="#PWR04014"  Part="1" 
F 0 "#PWR04014" H 9050 6800 50  0001 C CNN
F 1 "GND" H 9055 6877 50  0001 C CNN
F 2 "" H 9050 7050 50  0001 C CNN
F 3 "" H 9050 7050 50  0001 C CNN
	1    9050 7050
	1    0    0    -1  
$EndComp
Wire Wire Line
	9050 6750 9250 6750
$Comp
L Device:R R?
U 1 1 5D4AB609
P 8150 8050
AR Path="/5D4AB609" Ref="R?"  Part="1" 
AR Path="/5D4A0749/5D49F20C/5D4AB609" Ref="R24004"  Part="1" 
F 0 "R24004" V 7943 8050 50  0000 C CNN
F 1 "10" V 8034 8050 50  0000 C CNN
F 2 "lib_clavier:R_0402_TL" V 8080 8050 50  0001 C CNN
F 3 "~" H 8150 8050 50  0001 C CNN
F 4 "TL 200 002" H 8150 8050 50  0001 C CNN "ID_BASE"
F 5 "G1" H 8150 8050 50  0001 C CNN "Variante"
	1    8150 8050
	0    1    1    0   
$EndComp
Wire Wire Line
	9700 6200 9700 6150
Wire Wire Line
	9800 6150 9800 6200
Connection ~ 7800 4500
Wire Wire Line
	8950 5200 8950 5300
$Comp
L power:GND #PWR?
U 1 1 5D4AB61D
P 7800 4900
AR Path="/5D4AB61D" Ref="#PWR?"  Part="1" 
AR Path="/5D4A0749/5D49F20C/5D4AB61D" Ref="#PWR04003"  Part="1" 
F 0 "#PWR04003" H 7800 4650 50  0001 C CNN
F 1 "GND" H 7805 4727 50  0001 C CNN
F 2 "" H 7800 4900 50  0001 C CNN
F 3 "" H 7800 4900 50  0001 C CNN
	1    7800 4900
	1    0    0    -1  
$EndComp
Wire Wire Line
	7800 4600 7800 4500
$Comp
L power:GND #PWR?
U 1 1 5D4AB624
P 8950 5600
AR Path="/5D4AB624" Ref="#PWR?"  Part="1" 
AR Path="/5D4A0749/5D49F20C/5D4AB624" Ref="#PWR04007"  Part="1" 
F 0 "#PWR04007" H 8950 5350 50  0001 C CNN
F 1 "GND" H 8955 5427 50  0001 C CNN
F 2 "" H 8950 5600 50  0001 C CNN
F 3 "" H 8950 5600 50  0001 C CNN
	1    8950 5600
	1    0    0    -1  
$EndComp
$Comp
L power:GND #PWR?
U 1 1 5D4AB62A
P 9400 5600
AR Path="/5D4AB62A" Ref="#PWR?"  Part="1" 
AR Path="/5D4A0749/5D49F20C/5D4AB62A" Ref="#PWR04008"  Part="1" 
F 0 "#PWR04008" H 9400 5350 50  0001 C CNN
F 1 "GND" H 9405 5427 50  0001 C CNN
F 2 "" H 9400 5600 50  0001 C CNN
F 3 "" H 9400 5600 50  0001 C CNN
	1    9400 5600
	1    0    0    -1  
$EndComp
$Comp
L Device:C C?
U 1 1 5D4AB631
P 10650 5450
AR Path="/5D4AB631" Ref="C?"  Part="1" 
AR Path="/5D4A0749/5D49F20C/5D4AB631" Ref="C24008"  Part="1" 
F 0 "C24008" H 10300 5550 50  0000 L CNN
F 1 "220nF" H 10350 5350 50  0000 L CNN
F 2 "lib_clavier:C_0402_TL" H 10688 5300 50  0001 C CNN
F 3 "~" H 10650 5450 50  0001 C CNN
F 4 "10V" H 10450 5450 50  0000 C CNN "Tension"
F 5 "TL 200 022" H 10650 5450 50  0001 C CNN "ID_BASE"
F 6 "CD" H 10650 5450 50  0001 C CNN "Variante"
	1    10650 5450
	1    0    0    -1  
$EndComp
$Comp
L power:GND #PWR?
U 1 1 5D4AB638
P 10650 5600
AR Path="/5D4AB638" Ref="#PWR?"  Part="1" 
AR Path="/5D4A0749/5D49F20C/5D4AB638" Ref="#PWR04010"  Part="1" 
F 0 "#PWR04010" H 10650 5350 50  0001 C CNN
F 1 "GND" H 10655 5427 50  0001 C CNN
F 2 "" H 10650 5600 50  0001 C CNN
F 3 "" H 10650 5600 50  0001 C CNN
	1    10650 5600
	1    0    0    -1  
$EndComp
Wire Wire Line
	10650 5200 10650 5300
Wire Wire Line
	9400 5300 9400 5200
$Comp
L power:GND #PWR?
U 1 1 5D4AB64F
P 7350 7350
AR Path="/5D4AB64F" Ref="#PWR?"  Part="1" 
AR Path="/5D4A0749/5D49F20C/5D4AB64F" Ref="#PWR04015"  Part="1" 
F 0 "#PWR04015" H 7350 7100 50  0001 C CNN
F 1 "GND" H 7350 7200 50  0001 C CNN
F 2 "" H 7350 7350 50  0001 C CNN
F 3 "" H 7350 7350 50  0001 C CNN
	1    7350 7350
	1    0    0    -1  
$EndComp
Wire Wire Line
	8150 7350 8150 7150
$Comp
L Device:R R?
U 1 1 5D4AB658
P 8150 7000
AR Path="/5D4AB658" Ref="R?"  Part="1" 
AR Path="/5D4A0749/5D49F20C/5D4AB658" Ref="R24003"  Part="1" 
F 0 "R24003" H 8220 7046 50  0000 L CNN
F 1 "22.1k" H 8220 6955 50  0000 L CNN
F 2 "lib_clavier:R_0402_TL" V 8080 7000 50  0001 C CNN
F 3 "~" H 8150 7000 50  0001 C CNN
F 4 "TL 200 010" H 8150 7000 50  0001 C CNN "ID_BASE"
F 5 "CD" H 8150 7000 50  0001 C CNN "Variante"
	1    8150 7000
	1    0    0    -1  
$EndComp
Wire Wire Line
	8150 6750 8150 6850
Wire Wire Line
	7650 4500 7800 4500
$Comp
L Device:R R?
U 1 1 5D4AB66E
P 12200 11450
AR Path="/5D4AB66E" Ref="R?"  Part="1" 
AR Path="/5D4A0749/5D49F20C/5D4AB66E" Ref="R24008"  Part="1" 
F 0 "R24008" H 11850 11500 50  0000 L CNN
F 1 "150" H 11900 11400 50  0000 L CNN
F 2 "lib_clavier:R_0402_TL" V 12130 11450 50  0001 C CNN
F 3 "~" H 12200 11450 50  0001 C CNN
F 4 "TL 200 004" H 12200 11450 50  0001 C CNN "ID_BASE"
F 5 "G3" H 12200 11450 50  0001 C CNN "Variante"
	1    12200 11450
	1    0    0    -1  
$EndComp
$Comp
L power:GND #PWR?
U 1 1 5D4AB675
P 12200 11600
AR Path="/5D4AB675" Ref="#PWR?"  Part="1" 
AR Path="/5D4A0749/5D49F20C/5D4AB675" Ref="#PWR04023"  Part="1" 
F 0 "#PWR04023" H 12200 11350 50  0001 C CNN
F 1 "GND" H 12205 11427 50  0001 C CNN
F 2 "" H 12200 11600 50  0001 C CNN
F 3 "" H 12200 11600 50  0001 C CNN
	1    12200 11600
	1    0    0    -1  
$EndComp
$Comp
L Device:LED D?
U 1 1 5D4AB67B
P 12200 11050
AR Path="/5D4AB67B" Ref="D?"  Part="1" 
AR Path="/5D4A0749/5D49F20C/5D4AB67B" Ref="D24001"  Part="1" 
F 0 "D24001" V 12250 11400 50  0000 R CNN
F 1 "orange" V 12150 11400 50  0000 R CNN
F 2 "lib_clavier:LED_0603_TL" H 12200 11050 50  0001 C CNN
F 3 "~" H 12200 11050 50  0001 C CNN
F 4 "TL 200 040" H 12200 11050 50  0001 C CNN "ID_BASE"
F 5 "G3" H 12200 11050 50  0001 C CNN "Variante"
	1    12200 11050
	0    -1   -1   0   
$EndComp
$Comp
L Device:R R?
U 1 1 5D4AB682
P 11500 11450
AR Path="/5D4AB682" Ref="R?"  Part="1" 
AR Path="/5D4A0749/5D49F20C/5D4AB682" Ref="R24007"  Part="1" 
F 0 "R24007" H 11150 11500 50  0000 L CNN
F 1 "22.1k" H 11200 11400 50  0000 L CNN
F 2 "lib_clavier:R_0402_TL" V 11430 11450 50  0001 C CNN
F 3 "~" H 11500 11450 50  0001 C CNN
F 4 "TL 200 010" H 11500 11450 50  0001 C CNN "ID_BASE"
F 5 "CD" H 11500 11450 50  0001 C CNN "Variante"
	1    11500 11450
	1    0    0    -1  
$EndComp
$Comp
L power:GND #PWR?
U 1 1 5D4AB689
P 11500 11600
AR Path="/5D4AB689" Ref="#PWR?"  Part="1" 
AR Path="/5D4A0749/5D49F20C/5D4AB689" Ref="#PWR04022"  Part="1" 
F 0 "#PWR04022" H 11500 11350 50  0001 C CNN
F 1 "GND" H 11505 11427 50  0001 C CNN
F 2 "" H 11500 11600 50  0001 C CNN
F 3 "" H 11500 11600 50  0001 C CNN
	1    11500 11600
	1    0    0    -1  
$EndComp
Wire Wire Line
	12200 11200 12200 11300
$Comp
L Device:R R?
U 1 1 5D4AB690
P 12500 11450
AR Path="/5D4AB690" Ref="R?"  Part="1" 
AR Path="/5D4A0749/5D49F20C/5D4AB690" Ref="R24009"  Part="1" 
F 0 "R24009" H 12570 11496 50  0000 L CNN
F 1 "150" H 12570 11405 50  0000 L CNN
F 2 "lib_clavier:R_0402_TL" V 12430 11450 50  0001 C CNN
F 3 "~" H 12500 11450 50  0001 C CNN
F 4 "TL 200 004" H 12500 11450 50  0001 C CNN "ID_BASE"
F 5 "G3" H 12500 11450 50  0001 C CNN "Variante"
	1    12500 11450
	1    0    0    -1  
$EndComp
$Comp
L power:GND #PWR?
U 1 1 5D4AB697
P 12500 11600
AR Path="/5D4AB697" Ref="#PWR?"  Part="1" 
AR Path="/5D4A0749/5D49F20C/5D4AB697" Ref="#PWR04024"  Part="1" 
F 0 "#PWR04024" H 12500 11350 50  0001 C CNN
F 1 "GND" H 12505 11427 50  0001 C CNN
F 2 "" H 12500 11600 50  0001 C CNN
F 3 "" H 12500 11600 50  0001 C CNN
	1    12500 11600
	1    0    0    -1  
$EndComp
$Comp
L Device:LED D?
U 1 1 5D4AB69D
P 12500 11050
AR Path="/5D4AB69D" Ref="D?"  Part="1" 
AR Path="/5D4A0749/5D49F20C/5D4AB69D" Ref="D24002"  Part="1" 
F 0 "D24002" V 12538 10933 50  0000 R CNN
F 1 "red" V 12447 10933 50  0000 R CNN
F 2 "lib_clavier:LED_0603_TL" H 12500 11050 50  0001 C CNN
F 3 "~" H 12500 11050 50  0001 C CNN
F 4 "TL 200 039" H 12500 11050 50  0001 C CNN "ID_BASE"
F 5 "G3" H 12500 11050 50  0001 C CNN "Variante"
	1    12500 11050
	0    -1   -1   0   
$EndComp
Wire Wire Line
	12500 11200 12500 11300
Wire Wire Line
	11500 8850 11300 8850
Wire Wire Line
	11300 8550 11750 8550
Wire Wire Line
	11300 7650 11500 7650
Wire Wire Line
	11300 7750 11600 7750
Wire Wire Line
	11500 7650 11500 7550
Wire Wire Line
	11600 7750 11600 7650
Wire Wire Line
	11750 9850 11750 8550
Wire Wire Line
	11850 8350 11850 9750
Wire Wire Line
	11850 8350 11300 8350
Wire Wire Line
	12900 8950 12900 7850
Wire Wire Line
	12800 7750 12800 8650
Text Notes 15400 9000 0    59   ~ 12
CAN : Lecture des lignes\nADC: Line Reading
Wire Wire Line
	11300 6950 11600 6950
Wire Wire Line
	11300 7050 11700 7050
Wire Wire Line
	11300 6850 11500 6850
Wire Wire Line
	11300 8050 12050 8050
Wire Wire Line
	11950 7950 11300 7950
Text HLabel 16500 9150 2    50   Input ~ 0
Lig_F
Text HLabel 16500 9250 2    50   Input ~ 0
Lig_E
Text HLabel 16500 9350 2    50   Input ~ 0
Lig_D
Text HLabel 16500 9450 2    50   Input ~ 0
Lig_C
Text HLabel 16500 9550 2    50   Input ~ 0
Lig_B
Text HLabel 16500 9650 2    50   Input ~ 0
Lig_A
Text HLabel 16500 9750 2    50   Input ~ 0
Lig_M
Text HLabel 16500 9850 2    50   Input ~ 0
Lig_X
Wire Notes Line
	15350 9050 16900 9050
Wire Notes Line
	15350 9950 16900 9950
Wire Notes Line
	15350 9050 15350 9950
Wire Notes Line
	16900 9950 16900 9050
Text Notes 15400 7000 0    59   ~ 12
Commande des colonnes\nColumn Commande
Wire Notes Line
	15350 7050 16900 7050
Text HLabel 16500 7150 2    50   Output ~ 0
Col_1
Text HLabel 16500 7250 2    50   Output ~ 0
Col_2
Text HLabel 16500 7350 2    50   Output ~ 0
Col_3
Text HLabel 16500 7450 2    50   Output ~ 0
Col_4
Text HLabel 16500 7550 2    50   Output ~ 0
Col_5
Text HLabel 16500 7650 2    50   Output ~ 0
Col_6
Text HLabel 16500 7750 2    50   Output ~ 0
Col_7
Text HLabel 16500 7850 2    50   Output ~ 0
Col_8
Wire Notes Line
	7200 6450 8600 6450
Text Notes 7250 6400 0    59   ~ 12
Reset
Wire Notes Line
	8600 8800 8600 9900
Wire Notes Line
	8600 9900 7200 9900
Wire Notes Line
	7200 9900 7200 8800
Wire Notes Line
	7200 8800 8600 8800
Text Notes 7250 8750 0    59   ~ 12
Quartz
Text HLabel 7700 8050 0    50   BiDi ~ 0
USB2_P
Text HLabel 7700 8200 0    50   BiDi ~ 0
USB2_N
Wire Wire Line
	8000 8050 7700 8050
Wire Wire Line
	8000 8200 7700 8200
$Comp
L Device:R R?
U 1 1 5D4AB6D7
P 8150 8200
AR Path="/5D4AB6D7" Ref="R?"  Part="1" 
AR Path="/5D4A0749/5D49F20C/5D4AB6D7" Ref="R24005"  Part="1" 
F 0 "R24005" V 8250 8200 50  0000 C CNN
F 1 "10" V 8350 8200 50  0000 C CNN
F 2 "lib_clavier:R_0402_TL" V 8080 8200 50  0001 C CNN
F 3 "~" H 8150 8200 50  0001 C CNN
F 4 "TL 200 002" H 8150 8200 50  0001 C CNN "ID_BASE"
F 5 "G1" H 8150 8200 50  0001 C CNN "Variante"
	1    8150 8200
	0    1    1    0   
$EndComp
Wire Notes Line
	7200 7750 8600 7750
Wire Notes Line
	8600 7750 8600 8500
Wire Notes Line
	8600 8500 7200 8500
Wire Notes Line
	7200 8500 7200 7750
Text Notes 7250 7700 0    59   ~ 12
USB
Wire Notes Line
	7200 7500 8600 7500
Wire Notes Line
	8600 6450 8600 7500
Wire Notes Line
	7200 7500 7200 6450
Wire Notes Line
	7200 4050 7200 5750
Wire Notes Line
	11000 4050 7200 4050
Text Label 8700 7350 0    50   ~ 0
RESET
Text Notes 7300 4000 0    59   ~ 12
Alimentation et Filtrage\nPower Supplies and Filtering
Wire Notes Line
	15350 4050 16900 4050
Wire Notes Line
	16900 4050 16900 5400
Wire Notes Line
	16900 5400 15350 5400
Wire Notes Line
	15350 5400 15350 4050
Text HLabel 16250 4450 2    50   Input ~ 0
SPI_BT_MISO
Text HLabel 16250 4350 2    50   Output ~ 0
SPI_BT_MOSI
Text Notes 15400 4000 0    59   ~ 12
Bus SPI pour Bluetooth\nBluetooth by SPI
Text HLabel 16250 6150 2    50   Output ~ 0
I2C_COCO_SCL
Text HLabel 16250 6250 2    50   BiDi ~ 0
I2C_COCO_SDA
Wire Notes Line
	15350 6050 16900 6050
Wire Notes Line
	16900 6050 16900 6450
Wire Notes Line
	16900 6450 15350 6450
Wire Notes Line
	15350 6450 15350 6050
Text Notes 15400 6000 0    59   ~ 12
Bus I2C pour étendeur d’entrées / sorties\nI2C bus for IO Expander
Wire Notes Line
	11800 10900 12950 10900
Wire Notes Line
	12950 10900 12950 11750
Wire Notes Line
	12950 11750 11800 11750
Wire Notes Line
	11800 11750 11800 10900
Wire Notes Line
	11650 10900 11650 11750
Wire Notes Line
	11650 11750 10900 11750
Wire Notes Line
	10900 11750 10900 10900
Wire Notes Line
	10900 10900 11650 10900
Text Notes 11850 10850 0    59   ~ 12
DELs\npour\nDebug
Text Notes 10800 10850 0    59   ~ 12
Hardware\nBootloader\nConfiguration
Wire Wire Line
	12150 8150 11300 8150
Text HLabel 16250 6350 2    50   Input ~ 0
I2C_COCO_INT
Wire Notes Line
	15350 7950 16900 7950
Wire Notes Line
	15350 7050 15350 7950
Wire Notes Line
	16900 7950 16900 7050
$Comp
L Connector:TestPoint TP?
U 1 1 5D4AB7B8
P 11450 11100
AR Path="/5D4AB7B8" Ref="TP?"  Part="1" 
AR Path="/5D4A0749/5D49F20C/5D4AB7B8" Ref="TP24025"  Part="1" 
F 0 "TP24025" V 11450 11300 50  0000 L CNN
F 1 "TestPoint" H 11508 11129 50  0001 L CNN
F 2 "lib_clavier:Test_Point_TL" H 11650 11100 50  0001 C CNN
F 3 "~" H 11650 11100 50  0001 C CNN
F 4 "ANM" H 11450 11100 50  0001 C CNN "Variante"
	1    11450 11100
	0    -1   -1   0   
$EndComp
Wire Wire Line
	11450 11100 11500 11100
Connection ~ 11500 11100
Wire Wire Line
	11500 11100 11500 11300
Text HLabel 16250 4250 2    50   Output ~ 0
SPI_BT_SCLK
Text HLabel 16250 4150 2    50   Output ~ 0
SPI_BT_CSN
Wire Wire Line
	11300 6750 11400 6750
Connection ~ 9800 6150
Wire Wire Line
	13250 6450 13250 6250
$Comp
L Device:R R?
U 1 1 5D4AB81B
P 13250 6100
AR Path="/5D4AB81B" Ref="R?"  Part="1" 
AR Path="/5D4A0749/5D49F20C/5D4AB81B" Ref="R24001"  Part="1" 
F 0 "R24001" H 12900 6150 50  0000 L CNN
F 1 "4.75k" H 12900 6050 50  0000 L CNN
F 2 "lib_clavier:R_0402_TL" V 13180 6100 50  0001 C CNN
F 3 "~" H 13250 6100 50  0001 C CNN
F 4 "TL 200 007" H 13250 6100 50  0001 C CNN "ID_BASE"
F 5 "CD" H 13250 6100 50  0001 C CNN "Variante"
	1    13250 6100
	1    0    0    -1  
$EndComp
Wire Wire Line
	13250 5850 13250 5950
$Comp
L Device:R R?
U 1 1 5D4AB829
P 13450 6100
AR Path="/5D4AB829" Ref="R?"  Part="1" 
AR Path="/5D4A0749/5D49F20C/5D4AB829" Ref="R24002"  Part="1" 
F 0 "R24002" H 13520 6146 50  0000 L CNN
F 1 "4.75k" H 13520 6055 50  0000 L CNN
F 2 "lib_clavier:R_0402_TL" V 13380 6100 50  0001 C CNN
F 3 "~" H 13450 6100 50  0001 C CNN
F 4 "TL 200 007" H 13450 6100 50  0001 C CNN "ID_BASE"
F 5 "CD" H 13450 6100 50  0001 C CNN "Variante"
	1    13450 6100
	1    0    0    -1  
$EndComp
Wire Wire Line
	13450 5850 13450 5950
Wire Wire Line
	13450 6250 13450 6550
$Comp
L Connector:TestPoint TP?
U 1 1 5D4AB83C
P 7850 6650
AR Path="/5D4AB83C" Ref="TP?"  Part="1" 
AR Path="/5D4A0749/5D49F20C/5D4AB83C" Ref="TP24008"  Part="1" 
F 0 "TP24008" V 7850 6850 50  0000 L CNN
F 1 "TestPoint" H 7908 6679 50  0001 L CNN
F 2 "lib_clavier:Test_Point_TL" H 8050 6650 50  0001 C CNN
F 3 "~" H 8050 6650 50  0001 C CNN
F 4 "ANM" H 7850 6650 50  0001 C CNN "Variante"
	1    7850 6650
	0    -1   -1   0   
$EndComp
Wire Wire Line
	7850 6650 8000 6650
Connection ~ 8000 7350
Wire Wire Line
	8000 7350 7900 7350
Wire Wire Line
	7650 4400 7650 4500
Wire Wire Line
	8300 8050 9250 8050
Wire Wire Line
	8300 8200 9250 8200
Wire Wire Line
	11300 8650 12800 8650
Wire Wire Line
	11300 8950 12900 8950
Wire Notes Line
	11000 5750 7200 5750
Wire Wire Line
	8050 5200 8050 5300
$Comp
L power:GND #PWR?
U 1 1 5D4AB85A
P 8050 5600
AR Path="/5D4AB85A" Ref="#PWR?"  Part="1" 
AR Path="/5D4A0749/5D49F20C/5D4AB85A" Ref="#PWR04005"  Part="1" 
F 0 "#PWR04005" H 8050 5350 50  0001 C CNN
F 1 "GND" H 8055 5427 50  0001 C CNN
F 2 "" H 8050 5600 50  0001 C CNN
F 3 "" H 8050 5600 50  0001 C CNN
	1    8050 5600
	1    0    0    -1  
$EndComp
$Comp
L power:GND #PWR?
U 1 1 5D4AB860
P 8500 5600
AR Path="/5D4AB860" Ref="#PWR?"  Part="1" 
AR Path="/5D4A0749/5D49F20C/5D4AB860" Ref="#PWR04006"  Part="1" 
F 0 "#PWR04006" H 8500 5350 50  0001 C CNN
F 1 "GND" H 8505 5427 50  0001 C CNN
F 2 "" H 8500 5600 50  0001 C CNN
F 3 "" H 8500 5600 50  0001 C CNN
	1    8500 5600
	1    0    0    -1  
$EndComp
Wire Wire Line
	8500 5300 8500 5200
Wire Wire Line
	10150 6200 10150 6150
Wire Wire Line
	10050 6200 10050 6150
Connection ~ 10050 6150
Wire Wire Line
	10050 6150 10150 6150
$Comp
L Device:C C?
U 1 1 5D4AB87B
P 9850 4750
AR Path="/5D4AB87B" Ref="C?"  Part="1" 
AR Path="/5D4A0749/5D49F20C/5D4AB87B" Ref="C24002"  Part="1" 
F 0 "C24002" H 9500 4850 50  0000 L CNN
F 1 "10uF" H 9500 4750 50  0000 L CNN
F 2 "lib_clavier:C_0805_TL" H 9888 4600 50  0001 C CNN
F 3 "~" H 9850 4750 50  0001 C CNN
F 4 "10V" H 9600 4650 50  0000 C CNN "Tension"
F 5 "TL 200 024" H 9850 4750 50  0001 C CNN "ID_BASE"
F 6 "CD" H 9850 4750 50  0001 C CNN "Variante"
	1    9850 4750
	1    0    0    -1  
$EndComp
Connection ~ 9850 4500
$Comp
L power:GND #PWR?
U 1 1 5D4AB884
P 9850 4900
AR Path="/5D4AB884" Ref="#PWR?"  Part="1" 
AR Path="/5D4A0749/5D49F20C/5D4AB884" Ref="#PWR04004"  Part="1" 
F 0 "#PWR04004" H 9850 4650 50  0001 C CNN
F 1 "GND" H 9855 4727 50  0001 C CNN
F 2 "" H 9850 4900 50  0001 C CNN
F 3 "" H 9850 4900 50  0001 C CNN
	1    9850 4900
	1    0    0    -1  
$EndComp
Wire Wire Line
	9850 4600 9850 4500
Wire Wire Line
	9700 4500 9850 4500
Wire Wire Line
	8050 5200 8050 4500
Wire Wire Line
	9700 4400 9700 4500
$Comp
L Device:C C?
U 1 1 5D4AB899
P 10200 5450
AR Path="/5D4AB899" Ref="C?"  Part="1" 
AR Path="/5D4A0749/5D49F20C/5D4AB899" Ref="C24007"  Part="1" 
F 0 "C24007" H 9850 5550 50  0000 L CNN
F 1 "220nF" H 9900 5350 50  0000 L CNN
F 2 "lib_clavier:C_0402_TL" H 10238 5300 50  0001 C CNN
F 3 "~" H 10200 5450 50  0001 C CNN
F 4 "10V" H 10000 5450 50  0000 C CNN "Tension"
F 5 "TL 200 022" H 10200 5450 50  0001 C CNN "ID_BASE"
F 6 "CD" H 10200 5450 50  0001 C CNN "Variante"
	1    10200 5450
	1    0    0    -1  
$EndComp
$Comp
L power:GND #PWR?
U 1 1 5D4AB8A0
P 10200 5600
AR Path="/5D4AB8A0" Ref="#PWR?"  Part="1" 
AR Path="/5D4A0749/5D49F20C/5D4AB8A0" Ref="#PWR04009"  Part="1" 
F 0 "#PWR04009" H 10200 5350 50  0001 C CNN
F 1 "GND" H 10205 5427 50  0001 C CNN
F 2 "" H 10200 5600 50  0001 C CNN
F 3 "" H 10200 5600 50  0001 C CNN
	1    10200 5600
	1    0    0    -1  
$EndComp
Wire Wire Line
	10200 5200 10200 5300
Wire Notes Line
	11000 4050 11000 5750
Connection ~ 9400 5200
Connection ~ 8950 5200
Wire Wire Line
	8950 5200 9400 5200
Connection ~ 8500 5200
Wire Wire Line
	8500 5200 8950 5200
$Comp
L Device:C C?
U 1 1 5D4AB8BB
P 9400 5450
AR Path="/5D4AB8BB" Ref="C?"  Part="1" 
AR Path="/5D4A0749/5D49F20C/5D4AB8BB" Ref="C24006"  Part="1" 
F 0 "C24006" H 9050 5550 50  0000 L CNN
F 1 "220nF" H 9100 5350 50  0000 L CNN
F 2 "lib_clavier:C_0402_TL" H 9438 5300 50  0001 C CNN
F 3 "~" H 9400 5450 50  0001 C CNN
F 4 "10V" H 9200 5450 50  0000 C CNN "Tension"
F 5 "TL 200 022" H 9400 5450 50  0001 C CNN "ID_BASE"
F 6 "CD" H 9400 5450 50  0001 C CNN "Variante"
	1    9400 5450
	1    0    0    -1  
$EndComp
$Comp
L Device:C C?
U 1 1 5D4AB8C3
P 8950 5450
AR Path="/5D4AB8C3" Ref="C?"  Part="1" 
AR Path="/5D4A0749/5D49F20C/5D4AB8C3" Ref="C24005"  Part="1" 
F 0 "C24005" H 8600 5550 50  0000 L CNN
F 1 "220nF" H 8650 5350 50  0000 L CNN
F 2 "lib_clavier:C_0402_TL" H 8988 5300 50  0001 C CNN
F 3 "~" H 8950 5450 50  0001 C CNN
F 4 "10V" H 8750 5450 50  0000 C CNN "Tension"
F 5 "TL 200 022" H 8950 5450 50  0001 C CNN "ID_BASE"
F 6 "CD" H 8950 5450 50  0001 C CNN "Variante"
	1    8950 5450
	1    0    0    -1  
$EndComp
$Comp
L Device:C C?
U 1 1 5D4AB8CB
P 8500 5450
AR Path="/5D4AB8CB" Ref="C?"  Part="1" 
AR Path="/5D4A0749/5D49F20C/5D4AB8CB" Ref="C24004"  Part="1" 
F 0 "C24004" H 8150 5550 50  0000 L CNN
F 1 "220nF" H 8200 5350 50  0000 L CNN
F 2 "lib_clavier:C_0402_TL" H 8538 5300 50  0001 C CNN
F 3 "~" H 8500 5450 50  0001 C CNN
F 4 "10V" H 8300 5450 50  0000 C CNN "Tension"
F 5 "TL 200 022" H 8500 5450 50  0001 C CNN "ID_BASE"
F 6 "CD" H 8500 5450 50  0001 C CNN "Variante"
	1    8500 5450
	1    0    0    -1  
$EndComp
$Comp
L Device:C C?
U 1 1 5D4AB8D3
P 8050 5450
AR Path="/5D4AB8D3" Ref="C?"  Part="1" 
AR Path="/5D4A0749/5D49F20C/5D4AB8D3" Ref="C24003"  Part="1" 
F 0 "C24003" H 7700 5550 50  0000 L CNN
F 1 "220nF" H 7750 5350 50  0000 L CNN
F 2 "lib_clavier:C_0402_TL" H 8088 5300 50  0001 C CNN
F 3 "~" H 8050 5450 50  0001 C CNN
F 4 "10V" H 7850 5450 50  0000 C CNN "Tension"
F 5 "TL 200 022" H 8050 5450 50  0001 C CNN "ID_BASE"
F 6 "CD" H 8050 5450 50  0001 C CNN "Variante"
	1    8050 5450
	1    0    0    -1  
$EndComp
$Comp
L Device:C C?
U 1 1 5D4AB8E3
P 7800 4750
AR Path="/5D4AB8E3" Ref="C?"  Part="1" 
AR Path="/5D4A0749/5D49F20C/5D4AB8E3" Ref="C24001"  Part="1" 
F 0 "C24001" H 7450 4850 50  0000 L CNN
F 1 "10uF" H 7450 4750 50  0000 L CNN
F 2 "lib_clavier:C_0805_TL" H 7838 4600 50  0001 C CNN
F 3 "~" H 7800 4750 50  0001 C CNN
F 4 "10V" H 7550 4650 50  0000 C CNN "Tension"
F 5 "TL 200 024" H 7800 4750 50  0001 C CNN "ID_BASE"
F 6 "CD" H 7800 4750 50  0001 C CNN "Variante"
	1    7800 4750
	1    0    0    -1  
$EndComp
$Comp
L Device:C C?
U 1 1 5D4AB8F3
P 9050 6900
AR Path="/5D4AB8F3" Ref="C?"  Part="1" 
AR Path="/5D4A0749/5D49F20C/5D4AB8F3" Ref="C24009"  Part="1" 
F 0 "C24009" H 8700 7000 50  0000 L CNN
F 1 "220nF" H 8750 6800 50  0000 L CNN
F 2 "lib_clavier:C_0402_TL" H 9088 6750 50  0001 C CNN
F 3 "~" H 9050 6900 50  0001 C CNN
F 4 "10V" H 8850 6900 50  0000 C CNN "Tension"
F 5 "TL 200 022" H 9050 6900 50  0001 C CNN "ID_BASE"
F 6 "CD" H 9050 6900 50  0001 C CNN "Variante"
	1    9050 6900
	1    0    0    -1  
$EndComp
$Comp
L Device:C C?
U 1 1 5D4AB8FB
P 9050 8600
AR Path="/5D4AB8FB" Ref="C?"  Part="1" 
AR Path="/5D4A0749/5D49F20C/5D4AB8FB" Ref="C24010"  Part="1" 
F 0 "C24010" H 8700 8700 50  0000 L CNN
F 1 "1uF" H 8750 8500 50  0000 L CNN
F 2 "lib_clavier:C_0603_TL" H 9088 8450 50  0001 C CNN
F 3 "~" H 9050 8600 50  0001 C CNN
F 4 "10V" H 8850 8600 50  0000 C CNN "Tension"
F 5 "TL 200 023" H 9050 8600 50  0001 C CNN "ID_BASE"
F 6 "CD" H 9050 8600 50  0001 C CNN "Variante"
	1    9050 8600
	1    0    0    -1  
$EndComp
$Comp
L Device:Crystal_GND24 Y?
U 1 1 5D4AB908
P 8000 9350
AR Path="/5D4AB908" Ref="Y?"  Part="1" 
AR Path="/5D4A0749/5D49F20C/5D4AB908" Ref="Y24001"  Part="1" 
F 0 "Y24001" V 7700 9500 50  0000 R CNN
F 1 "8MHz" V 7600 9450 50  0000 R CNN
F 2 "lib_clavier:Crystal_SMD_5032-4pin_5.0x3.2mm_TL" H 8000 9350 50  0001 C CNN
F 3 "~" H 8000 9350 50  0001 C CNN
F 4 "ABM3B" V 7500 9300 50  0000 C CNN "Ref_Fab"
F 5 "TL 200 032" H 8000 9350 50  0001 C CNN "ID_BASE"
F 6 "CD" H 8000 9350 50  0001 C CNN "Variante"
	1    8000 9350
	0    -1   -1   0   
$EndComp
Wire Wire Line
	7400 7350 7350 7350
Wire Wire Line
	7900 7150 8000 7150
Connection ~ 8000 7150
Wire Wire Line
	8000 7150 8000 7350
Wire Wire Line
	8000 6650 8000 7150
Wire Wire Line
	9850 4500 10200 4500
Wire Wire Line
	10400 6200 10400 6150
Wire Wire Line
	10400 6150 10800 6150
Wire Wire Line
	10800 6150 10800 6200
Wire Wire Line
	9800 6150 10050 6150
Wire Wire Line
	7800 4500 8050 4500
Wire Wire Line
	10650 5200 10800 5200
Connection ~ 10650 5200
Wire Wire Line
	10200 5200 10200 4500
$Comp
L power:+5V #PWR04002
U 1 1 5D4CFC0D
P 9700 4400
F 0 "#PWR04002" H 9700 4250 50  0001 C CNN
F 1 "+5V" H 9715 4573 50  0000 C CNN
F 2 "" H 9700 4400 50  0001 C CNN
F 3 "" H 9700 4400 50  0001 C CNN
	1    9700 4400
	1    0    0    -1  
$EndComp
$Comp
L power:+3V3 #PWR04001
U 1 1 5D4CFCB7
P 7650 4400
F 0 "#PWR04001" H 7650 4250 50  0001 C CNN
F 1 "+3V3" H 7665 4573 50  0000 C CNN
F 2 "" H 7650 4400 50  0001 C CNN
F 3 "" H 7650 4400 50  0001 C CNN
	1    7650 4400
	1    0    0    -1  
$EndComp
$Comp
L power:+3V3 #PWR04013
U 1 1 5D500E2D
P 8150 6750
F 0 "#PWR04013" H 8150 6600 50  0001 C CNN
F 1 "+3V3" H 8165 6923 50  0000 C CNN
F 2 "" H 8150 6750 50  0001 C CNN
F 3 "" H 8150 6750 50  0001 C CNN
	1    8150 6750
	1    0    0    -1  
$EndComp
$Comp
L power:+3V3 #PWR04011
U 1 1 5D50D3BD
P 13250 5850
F 0 "#PWR04011" H 13250 5700 50  0001 C CNN
F 1 "+3V3" H 13265 6023 50  0000 C CNN
F 2 "" H 13250 5850 50  0001 C CNN
F 3 "" H 13250 5850 50  0001 C CNN
	1    13250 5850
	1    0    0    -1  
$EndComp
$Comp
L power:+3V3 #PWR04012
U 1 1 5D50D650
P 13450 5850
F 0 "#PWR04012" H 13450 5700 50  0001 C CNN
F 1 "+3V3" H 13465 6023 50  0000 C CNN
F 2 "" H 13450 5850 50  0001 C CNN
F 3 "" H 13450 5850 50  0001 C CNN
	1    13450 5850
	1    0    0    -1  
$EndComp
Connection ~ 8050 5200
Wire Wire Line
	8050 5200 8500 5200
Connection ~ 10200 5200
Wire Wire Line
	10200 5200 10650 5200
$Comp
L Device:R R?
U 1 1 5D58E0E8
P 8400 9550
AR Path="/5D4A0749/5D49F20F/5D58E0E8" Ref="R?"  Part="1" 
AR Path="/5D4A0749/5D49F20C/5D58E0E8" Ref="R24006"  Part="1" 
F 0 "R24006" V 8500 9550 50  0000 C CNN
F 1 "0" V 8600 9550 50  0000 C CNN
F 2 "lib_clavier:R_0402_TL" V 8330 9550 50  0001 C CNN
F 3 "~" H 8400 9550 50  0001 C CNN
F 4 "TL 200 001" H 8400 9550 50  0001 C CNN "ID_BASE"
F 5 "CD" H 8400 9550 50  0001 C CNN "Variante"
	1    8400 9550
	0    1    1    0   
$EndComp
Wire Wire Line
	8550 9550 9250 9550
Connection ~ 8000 9550
Wire Wire Line
	8000 9550 7750 9550
Wire Wire Line
	8000 9550 8250 9550
Wire Wire Line
	8000 9200 8000 9150
Connection ~ 8000 9150
Wire Wire Line
	8000 9150 9250 9150
Connection ~ 8150 7350
Wire Wire Line
	8150 7350 8000 7350
Wire Wire Line
	8150 7350 9250 7350
$Comp
L carte_MCU-rescue:PTS810-Switch-carte_MCU-rescue SW24001
U 1 1 5D57B0C4
P 7650 7350
F 0 "SW24001" H 7650 7775 50  0000 C CNN
F 1 "PTS810SJM250" H 7650 7684 50  0000 C CNN
F 2 "lib_clavier:SW_PTS810_TL" H 7650 7350 50  0001 C CNN
F 3 "" H 7650 7350 50  0001 C CNN
F 4 "TL 200 052" H 7650 7350 50  0001 C CNN "ID_BASE"
F 5 "CD" H 7650 7350 50  0001 C CNN "Variante"
	1    7650 7350
	1    0    0    -1  
$EndComp
Wire Wire Line
	7400 7150 7350 7150
Wire Wire Line
	7350 7150 7350 7350
Connection ~ 7350 7350
Text HLabel 16250 4650 2    50   Output ~ 0
SPI_BT_CE
Text HLabel 16250 4750 2    50   Input ~ 0
SPI_BT_IRQ
$Comp
L Device:R R?
U 1 1 5D630919
P 14150 4650
AR Path="/5D630919" Ref="R?"  Part="1" 
AR Path="/5D4A0749/5D49F20C/5D630919" Ref="R24010"  Part="1" 
F 0 "R24010" V 14050 4650 50  0000 C CNN
F 1 "0" V 14150 4650 50  0000 C CNN
F 2 "lib_clavier:R_0402_TL" V 14080 4650 50  0001 C CNN
F 3 "~" H 14150 4650 50  0001 C CNN
F 4 "TL 200 001" H 14150 4650 50  0001 C CNN "ID_BASE"
F 5 "G4" H 14150 4650 50  0001 C CNN "Variante"
	1    14150 4650
	0    1    1    0   
$EndComp
$Comp
L Device:R R?
U 1 1 5D64F250
P 14150 4750
AR Path="/5D64F250" Ref="R?"  Part="1" 
AR Path="/5D4A0749/5D49F20C/5D64F250" Ref="R24011"  Part="1" 
F 0 "R24011" V 14250 4750 50  0000 C CNN
F 1 "0" V 14150 4750 50  0000 C CNN
F 2 "lib_clavier:R_0402_TL" V 14080 4750 50  0001 C CNN
F 3 "~" H 14150 4750 50  0001 C CNN
F 4 "TL 200 001" H 14150 4750 50  0001 C CNN "ID_BASE"
F 5 "G4" H 14150 4750 50  0001 C CNN "Variante"
	1    14150 4750
	0    1    1    0   
$EndComp
Wire Wire Line
	14000 4750 12500 4750
Wire Wire Line
	11400 4150 11400 6750
Wire Wire Line
	11500 4250 11500 6850
Wire Wire Line
	11600 4350 11600 6950
Wire Wire Line
	11700 4450 11700 7050
Wire Wire Line
	9700 5200 9700 6150
Connection ~ 9700 6150
Wire Wire Line
	9700 6150 9800 6150
Wire Wire Line
	10800 5200 10800 6150
Connection ~ 10800 6150
Wire Wire Line
	9400 5200 9700 5200
$Comp
L Device:R R?
U 1 1 5D5DDA0B
P 13400 8800
AR Path="/5D5DDA0B" Ref="R?"  Part="1" 
AR Path="/5D4A0749/5D49F20C/5D5DDA0B" Ref="R24012"  Part="1" 
F 0 "R24012" V 13350 8950 50  0000 L CNN
F 1 "10k" V 13350 8500 50  0000 L CNN
F 2 "lib_clavier:R_0402_TL" V 13330 8800 50  0001 C CNN
F 3 "~" H 13400 8800 50  0001 C CNN
F 4 "TL 200 008" H 13400 8800 50  0001 C CNN "ID_BASE"
F 5 "G5" H 13400 8800 50  0001 C CNN "Variante"
	1    13400 8800
	1    0    0    -1  
$EndComp
Wire Wire Line
	13400 8350 13400 8650
$Comp
L power:+3V3 #PWR0105
U 1 1 5D5DDA12
P 13400 8350
F 0 "#PWR0105" H 13400 8200 50  0001 C CNN
F 1 "+3V3" H 13415 8523 50  0000 C CNN
F 2 "" H 13400 8350 50  0001 C CNN
F 3 "" H 13400 8350 50  0001 C CNN
	1    13400 8350
	1    0    0    -1  
$EndComp
$Comp
L Device:R R?
U 1 1 5D6401A9
P 13600 8800
AR Path="/5D6401A9" Ref="R?"  Part="1" 
AR Path="/5D4A0749/5D49F20C/5D6401A9" Ref="R24013"  Part="1" 
F 0 "R24013" V 13550 8950 50  0000 L CNN
F 1 "10k" V 13550 8500 50  0000 L CNN
F 2 "lib_clavier:R_0402_TL" V 13530 8800 50  0001 C CNN
F 3 "~" H 13600 8800 50  0001 C CNN
F 4 "TL 200 008" H 13600 8800 50  0001 C CNN "ID_BASE"
F 5 "G5" H 13600 8800 50  0001 C CNN "Variante"
	1    13600 8800
	1    0    0    -1  
$EndComp
Wire Wire Line
	13600 8350 13600 8650
$Comp
L power:+3V3 #PWR0106
U 1 1 5D6401B0
P 13600 8350
F 0 "#PWR0106" H 13600 8200 50  0001 C CNN
F 1 "+3V3" H 13615 8523 50  0000 C CNN
F 2 "" H 13600 8350 50  0001 C CNN
F 3 "" H 13600 8350 50  0001 C CNN
	1    13600 8350
	1    0    0    -1  
$EndComp
$Comp
L Device:R R?
U 1 1 5D64C1D8
P 13800 8800
AR Path="/5D64C1D8" Ref="R?"  Part="1" 
AR Path="/5D4A0749/5D49F20C/5D64C1D8" Ref="R24014"  Part="1" 
F 0 "R24014" V 13750 8950 50  0000 L CNN
F 1 "10k" V 13750 8500 50  0000 L CNN
F 2 "lib_clavier:R_0402_TL" V 13730 8800 50  0001 C CNN
F 3 "~" H 13800 8800 50  0001 C CNN
F 4 "TL 200 008" H 13800 8800 50  0001 C CNN "ID_BASE"
F 5 "G5" H 13800 8800 50  0001 C CNN "Variante"
	1    13800 8800
	1    0    0    -1  
$EndComp
Wire Wire Line
	13800 8350 13800 8650
$Comp
L power:+3V3 #PWR0107
U 1 1 5D64C1DF
P 13800 8350
F 0 "#PWR0107" H 13800 8200 50  0001 C CNN
F 1 "+3V3" H 13815 8523 50  0000 C CNN
F 2 "" H 13800 8350 50  0001 C CNN
F 3 "" H 13800 8350 50  0001 C CNN
	1    13800 8350
	1    0    0    -1  
$EndComp
$Comp
L Device:R R?
U 1 1 5D6584E5
P 14000 8800
AR Path="/5D6584E5" Ref="R?"  Part="1" 
AR Path="/5D4A0749/5D49F20C/5D6584E5" Ref="R24015"  Part="1" 
F 0 "R24015" V 13950 8950 50  0000 L CNN
F 1 "10k" V 13950 8500 50  0000 L CNN
F 2 "lib_clavier:R_0402_TL" V 13930 8800 50  0001 C CNN
F 3 "~" H 14000 8800 50  0001 C CNN
F 4 "TL 200 008" H 14000 8800 50  0001 C CNN "ID_BASE"
F 5 "G5" H 14000 8800 50  0001 C CNN "Variante"
	1    14000 8800
	1    0    0    -1  
$EndComp
Wire Wire Line
	14000 8350 14000 8650
$Comp
L power:+3V3 #PWR0108
U 1 1 5D6584EC
P 14000 8350
F 0 "#PWR0108" H 14000 8200 50  0001 C CNN
F 1 "+3V3" H 14015 8523 50  0000 C CNN
F 2 "" H 14000 8350 50  0001 C CNN
F 3 "" H 14000 8350 50  0001 C CNN
	1    14000 8350
	1    0    0    -1  
$EndComp
$Comp
L Device:R R?
U 1 1 5D667964
P 14200 8800
AR Path="/5D667964" Ref="R?"  Part="1" 
AR Path="/5D4A0749/5D49F20C/5D667964" Ref="R24016"  Part="1" 
F 0 "R24016" V 14150 8950 50  0000 L CNN
F 1 "10k" V 14150 8500 50  0000 L CNN
F 2 "lib_clavier:R_0402_TL" V 14130 8800 50  0001 C CNN
F 3 "~" H 14200 8800 50  0001 C CNN
F 4 "TL 200 008" H 14200 8800 50  0001 C CNN "ID_BASE"
F 5 "G5" H 14200 8800 50  0001 C CNN "Variante"
	1    14200 8800
	1    0    0    -1  
$EndComp
Wire Wire Line
	14200 8350 14200 8650
$Comp
L power:+3V3 #PWR0109
U 1 1 5D66796B
P 14200 8350
F 0 "#PWR0109" H 14200 8200 50  0001 C CNN
F 1 "+3V3" H 14215 8523 50  0000 C CNN
F 2 "" H 14200 8350 50  0001 C CNN
F 3 "" H 14200 8350 50  0001 C CNN
	1    14200 8350
	1    0    0    -1  
$EndComp
$Comp
L Device:R R?
U 1 1 5D667971
P 14400 8800
AR Path="/5D667971" Ref="R?"  Part="1" 
AR Path="/5D4A0749/5D49F20C/5D667971" Ref="R24017"  Part="1" 
F 0 "R24017" V 14350 8950 50  0000 L CNN
F 1 "10k" V 14350 8500 50  0000 L CNN
F 2 "lib_clavier:R_0402_TL" V 14330 8800 50  0001 C CNN
F 3 "~" H 14400 8800 50  0001 C CNN
F 4 "TL 200 008" H 14400 8800 50  0001 C CNN "ID_BASE"
F 5 "G5" H 14400 8800 50  0001 C CNN "Variante"
	1    14400 8800
	1    0    0    -1  
$EndComp
Wire Wire Line
	14400 8350 14400 8650
$Comp
L power:+3V3 #PWR0110
U 1 1 5D667978
P 14400 8350
F 0 "#PWR0110" H 14400 8200 50  0001 C CNN
F 1 "+3V3" H 14415 8523 50  0000 C CNN
F 2 "" H 14400 8350 50  0001 C CNN
F 3 "" H 14400 8350 50  0001 C CNN
	1    14400 8350
	1    0    0    -1  
$EndComp
$Comp
L Device:R R?
U 1 1 5D66797E
P 14600 8800
AR Path="/5D66797E" Ref="R?"  Part="1" 
AR Path="/5D4A0749/5D49F20C/5D66797E" Ref="R24018"  Part="1" 
F 0 "R24018" V 14550 8950 50  0000 L CNN
F 1 "10k" V 14550 8500 50  0000 L CNN
F 2 "lib_clavier:R_0402_TL" V 14530 8800 50  0001 C CNN
F 3 "~" H 14600 8800 50  0001 C CNN
F 4 "TL 200 008" H 14600 8800 50  0001 C CNN "ID_BASE"
F 5 "G5" H 14600 8800 50  0001 C CNN "Variante"
	1    14600 8800
	1    0    0    -1  
$EndComp
Wire Wire Line
	14600 8350 14600 8650
$Comp
L power:+3V3 #PWR0111
U 1 1 5D667985
P 14600 8350
F 0 "#PWR0111" H 14600 8200 50  0001 C CNN
F 1 "+3V3" H 14615 8523 50  0000 C CNN
F 2 "" H 14600 8350 50  0001 C CNN
F 3 "" H 14600 8350 50  0001 C CNN
	1    14600 8350
	1    0    0    -1  
$EndComp
$Comp
L Device:R R?
U 1 1 5D66798B
P 14800 8800
AR Path="/5D66798B" Ref="R?"  Part="1" 
AR Path="/5D4A0749/5D49F20C/5D66798B" Ref="R24019"  Part="1" 
F 0 "R24019" V 14750 8950 50  0000 L CNN
F 1 "10k" V 14750 8500 50  0000 L CNN
F 2 "lib_clavier:R_0402_TL" V 14730 8800 50  0001 C CNN
F 3 "~" H 14800 8800 50  0001 C CNN
F 4 "TL 200 008" H 14800 8800 50  0001 C CNN "ID_BASE"
F 5 "G5" H 14800 8800 50  0001 C CNN "Variante"
	1    14800 8800
	1    0    0    -1  
$EndComp
Wire Wire Line
	14800 8350 14800 8650
$Comp
L power:+3V3 #PWR0112
U 1 1 5D667992
P 14800 8350
F 0 "#PWR0112" H 14800 8200 50  0001 C CNN
F 1 "+3V3" H 14815 8523 50  0000 C CNN
F 2 "" H 14800 8350 50  0001 C CNN
F 3 "" H 14800 8350 50  0001 C CNN
	1    14800 8350
	1    0    0    -1  
$EndComp
Wire Wire Line
	11300 9150 13400 9150
Wire Wire Line
	11300 9250 13600 9250
Wire Wire Line
	11300 9350 13800 9350
Wire Wire Line
	11300 9450 14000 9450
Wire Wire Line
	11300 9550 14200 9550
Wire Wire Line
	11300 9650 14400 9650
Wire Wire Line
	11850 9750 14600 9750
Wire Wire Line
	13400 8950 13400 9150
Connection ~ 13400 9150
Wire Wire Line
	13400 9150 13450 9150
Wire Wire Line
	13600 8950 13600 9250
Connection ~ 13600 9250
Wire Wire Line
	13600 9250 13650 9250
Wire Wire Line
	13800 8950 13800 9350
Connection ~ 13800 9350
Wire Wire Line
	13800 9350 13850 9350
Wire Wire Line
	14000 9450 14000 8950
Connection ~ 14000 9450
Wire Wire Line
	14000 9450 14050 9450
Wire Wire Line
	14200 8950 14200 9550
Connection ~ 14200 9550
Wire Wire Line
	14200 9550 14250 9550
Wire Wire Line
	14400 9650 14400 8950
Connection ~ 14400 9650
Wire Wire Line
	14400 9650 14450 9650
Wire Wire Line
	14600 8950 14600 9750
Connection ~ 14600 9750
Wire Wire Line
	14600 9750 14650 9750
Wire Wire Line
	14800 9850 14800 8950
Connection ~ 14800 9850
Wire Wire Line
	14800 9850 14850 9850
Wire Wire Line
	11950 6450 13250 6450
Wire Wire Line
	12050 6550 13450 6550
Wire Wire Line
	12500 8250 12500 4750
Wire Wire Line
	12400 4650 12400 8450
Wire Wire Line
	12400 4650 14000 4650
Wire Wire Line
	11300 8250 12500 8250
Wire Wire Line
	11750 9850 14800 9850
$Comp
L Device:C C?
U 1 1 5D90C5B6
P 13450 10150
AR Path="/5D90C5B6" Ref="C?"  Part="1" 
AR Path="/5D4A0749/5D49F20C/5D90C5B6" Ref="C24013"  Part="1" 
F 0 "C24013" V 13400 9750 50  0000 L CNN
F 1 "1nF" H 13350 9600 50  0000 L CNN
F 2 "lib_clavier:C_0402_TL" H 13488 10000 50  0001 C CNN
F 3 "~" H 13450 10150 50  0001 C CNN
F 4 "50V" H 13400 9500 50  0000 C CNN "Tension"
F 5 "TL 200 018" H 13450 10150 50  0001 C CNN "ID_BASE"
F 6 "G5" H 13450 10150 50  0001 C CNN "Variante"
	1    13450 10150
	1    0    0    -1  
$EndComp
$Comp
L power:GND #PWR?
U 1 1 5D958732
P 13450 10550
AR Path="/5D958732" Ref="#PWR?"  Part="1" 
AR Path="/5D4A0749/5D49F20C/5D958732" Ref="#PWR0113"  Part="1" 
F 0 "#PWR0113" H 13450 10300 50  0001 C CNN
F 1 "GND" H 13455 10377 50  0001 C CNN
F 2 "" H 13450 10550 50  0001 C CNN
F 3 "" H 13450 10550 50  0001 C CNN
	1    13450 10550
	1    0    0    -1  
$EndComp
Wire Wire Line
	13450 10550 13450 10300
$Comp
L Device:C C?
U 1 1 5D9976DB
P 13650 10150
AR Path="/5D9976DB" Ref="C?"  Part="1" 
AR Path="/5D4A0749/5D49F20C/5D9976DB" Ref="C24014"  Part="1" 
F 0 "C24014" V 13600 9750 50  0000 L CNN
F 1 "1nF" H 13550 9600 50  0000 L CNN
F 2 "lib_clavier:C_0402_TL" H 13688 10000 50  0001 C CNN
F 3 "~" H 13650 10150 50  0001 C CNN
F 4 "50V" H 13600 9500 50  0000 C CNN "Tension"
F 5 "TL 200 018" H 13650 10150 50  0001 C CNN "ID_BASE"
F 6 "G5" H 13650 10150 50  0001 C CNN "Variante"
	1    13650 10150
	1    0    0    -1  
$EndComp
$Comp
L power:GND #PWR?
U 1 1 5D9976E1
P 13650 10550
AR Path="/5D9976E1" Ref="#PWR?"  Part="1" 
AR Path="/5D4A0749/5D49F20C/5D9976E1" Ref="#PWR0114"  Part="1" 
F 0 "#PWR0114" H 13650 10300 50  0001 C CNN
F 1 "GND" H 13655 10377 50  0001 C CNN
F 2 "" H 13650 10550 50  0001 C CNN
F 3 "" H 13650 10550 50  0001 C CNN
	1    13650 10550
	1    0    0    -1  
$EndComp
Wire Wire Line
	13650 10550 13650 10300
$Comp
L Device:C C?
U 1 1 5D9A58B9
P 13850 10150
AR Path="/5D9A58B9" Ref="C?"  Part="1" 
AR Path="/5D4A0749/5D49F20C/5D9A58B9" Ref="C24015"  Part="1" 
F 0 "C24015" V 13800 9750 50  0000 L CNN
F 1 "1nF" H 13750 9600 50  0000 L CNN
F 2 "lib_clavier:C_0402_TL" H 13888 10000 50  0001 C CNN
F 3 "~" H 13850 10150 50  0001 C CNN
F 4 "50V" H 13800 9500 50  0000 C CNN "Tension"
F 5 "TL 200 018" H 13850 10150 50  0001 C CNN "ID_BASE"
F 6 "G5" H 13850 10150 50  0001 C CNN "Variante"
	1    13850 10150
	1    0    0    -1  
$EndComp
$Comp
L power:GND #PWR?
U 1 1 5D9A58BF
P 13850 10550
AR Path="/5D9A58BF" Ref="#PWR?"  Part="1" 
AR Path="/5D4A0749/5D49F20C/5D9A58BF" Ref="#PWR0115"  Part="1" 
F 0 "#PWR0115" H 13850 10300 50  0001 C CNN
F 1 "GND" H 13855 10377 50  0001 C CNN
F 2 "" H 13850 10550 50  0001 C CNN
F 3 "" H 13850 10550 50  0001 C CNN
	1    13850 10550
	1    0    0    -1  
$EndComp
Wire Wire Line
	13850 10550 13850 10300
$Comp
L Device:C C?
U 1 1 5D9B3C9F
P 14050 10150
AR Path="/5D9B3C9F" Ref="C?"  Part="1" 
AR Path="/5D4A0749/5D49F20C/5D9B3C9F" Ref="C24016"  Part="1" 
F 0 "C24016" V 14000 9750 50  0000 L CNN
F 1 "1nF" H 13950 9600 50  0000 L CNN
F 2 "lib_clavier:C_0402_TL" H 14088 10000 50  0001 C CNN
F 3 "~" H 14050 10150 50  0001 C CNN
F 4 "50V" H 14000 9500 50  0000 C CNN "Tension"
F 5 "TL 200 018" H 14050 10150 50  0001 C CNN "ID_BASE"
F 6 "G5" H 14050 10150 50  0001 C CNN "Variante"
	1    14050 10150
	1    0    0    -1  
$EndComp
$Comp
L power:GND #PWR?
U 1 1 5D9B3CA5
P 14050 10550
AR Path="/5D9B3CA5" Ref="#PWR?"  Part="1" 
AR Path="/5D4A0749/5D49F20C/5D9B3CA5" Ref="#PWR0116"  Part="1" 
F 0 "#PWR0116" H 14050 10300 50  0001 C CNN
F 1 "GND" H 14055 10377 50  0001 C CNN
F 2 "" H 14050 10550 50  0001 C CNN
F 3 "" H 14050 10550 50  0001 C CNN
	1    14050 10550
	1    0    0    -1  
$EndComp
Wire Wire Line
	14050 10550 14050 10300
$Comp
L Device:C C?
U 1 1 5D9C1FD0
P 14250 10150
AR Path="/5D9C1FD0" Ref="C?"  Part="1" 
AR Path="/5D4A0749/5D49F20C/5D9C1FD0" Ref="C24017"  Part="1" 
F 0 "C24017" V 14200 9750 50  0000 L CNN
F 1 "1nF" H 14150 9600 50  0000 L CNN
F 2 "lib_clavier:C_0402_TL" H 14288 10000 50  0001 C CNN
F 3 "~" H 14250 10150 50  0001 C CNN
F 4 "50V" H 14200 9500 50  0000 C CNN "Tension"
F 5 "TL 200 018" H 14250 10150 50  0001 C CNN "ID_BASE"
F 6 "G5" H 14250 10150 50  0001 C CNN "Variante"
	1    14250 10150
	1    0    0    -1  
$EndComp
$Comp
L power:GND #PWR?
U 1 1 5D9C1FD6
P 14250 10550
AR Path="/5D9C1FD6" Ref="#PWR?"  Part="1" 
AR Path="/5D4A0749/5D49F20C/5D9C1FD6" Ref="#PWR0117"  Part="1" 
F 0 "#PWR0117" H 14250 10300 50  0001 C CNN
F 1 "GND" H 14255 10377 50  0001 C CNN
F 2 "" H 14250 10550 50  0001 C CNN
F 3 "" H 14250 10550 50  0001 C CNN
	1    14250 10550
	1    0    0    -1  
$EndComp
Wire Wire Line
	14250 10550 14250 10300
$Comp
L Device:C C?
U 1 1 5D9DFC58
P 14450 10150
AR Path="/5D9DFC58" Ref="C?"  Part="1" 
AR Path="/5D4A0749/5D49F20C/5D9DFC58" Ref="C24018"  Part="1" 
F 0 "C24018" V 14400 9750 50  0000 L CNN
F 1 "1nF" H 14350 9600 50  0000 L CNN
F 2 "lib_clavier:C_0402_TL" H 14488 10000 50  0001 C CNN
F 3 "~" H 14450 10150 50  0001 C CNN
F 4 "50V" H 14400 9500 50  0000 C CNN "Tension"
F 5 "TL 200 018" H 14450 10150 50  0001 C CNN "ID_BASE"
F 6 "G5" H 14450 10150 50  0001 C CNN "Variante"
	1    14450 10150
	1    0    0    -1  
$EndComp
$Comp
L power:GND #PWR?
U 1 1 5D9DFC5E
P 14450 10550
AR Path="/5D9DFC5E" Ref="#PWR?"  Part="1" 
AR Path="/5D4A0749/5D49F20C/5D9DFC5E" Ref="#PWR0118"  Part="1" 
F 0 "#PWR0118" H 14450 10300 50  0001 C CNN
F 1 "GND" H 14455 10377 50  0001 C CNN
F 2 "" H 14450 10550 50  0001 C CNN
F 3 "" H 14450 10550 50  0001 C CNN
	1    14450 10550
	1    0    0    -1  
$EndComp
Wire Wire Line
	14450 10550 14450 10300
$Comp
L Device:C C?
U 1 1 5D9EE51C
P 14650 10150
AR Path="/5D9EE51C" Ref="C?"  Part="1" 
AR Path="/5D4A0749/5D49F20C/5D9EE51C" Ref="C24019"  Part="1" 
F 0 "C24019" V 14600 9750 50  0000 L CNN
F 1 "1nF" H 14550 9600 50  0000 L CNN
F 2 "lib_clavier:C_0402_TL" H 14688 10000 50  0001 C CNN
F 3 "~" H 14650 10150 50  0001 C CNN
F 4 "50V" H 14600 9500 50  0000 C CNN "Tension"
F 5 "TL 200 018" H 14650 10150 50  0001 C CNN "ID_BASE"
F 6 "G5" H 14650 10150 50  0001 C CNN "Variante"
	1    14650 10150
	1    0    0    -1  
$EndComp
$Comp
L power:GND #PWR?
U 1 1 5D9EE522
P 14650 10550
AR Path="/5D9EE522" Ref="#PWR?"  Part="1" 
AR Path="/5D4A0749/5D49F20C/5D9EE522" Ref="#PWR0119"  Part="1" 
F 0 "#PWR0119" H 14650 10300 50  0001 C CNN
F 1 "GND" H 14655 10377 50  0001 C CNN
F 2 "" H 14650 10550 50  0001 C CNN
F 3 "" H 14650 10550 50  0001 C CNN
	1    14650 10550
	1    0    0    -1  
$EndComp
Wire Wire Line
	14650 10550 14650 10300
$Comp
L Device:C C?
U 1 1 5D9FD92C
P 14850 10150
AR Path="/5D9FD92C" Ref="C?"  Part="1" 
AR Path="/5D4A0749/5D49F20C/5D9FD92C" Ref="C24020"  Part="1" 
F 0 "C24020" V 14800 9750 50  0000 L CNN
F 1 "1nF" H 14750 9600 50  0000 L CNN
F 2 "lib_clavier:C_0402_TL" H 14888 10000 50  0001 C CNN
F 3 "~" H 14850 10150 50  0001 C CNN
F 4 "50V" H 14800 9500 50  0000 C CNN "Tension"
F 5 "TL 200 018" H 14850 10150 50  0001 C CNN "ID_BASE"
F 6 "G5" H 14850 10150 50  0001 C CNN "Variante"
	1    14850 10150
	1    0    0    -1  
$EndComp
$Comp
L power:GND #PWR?
U 1 1 5D9FD932
P 14850 10550
AR Path="/5D9FD932" Ref="#PWR?"  Part="1" 
AR Path="/5D4A0749/5D49F20C/5D9FD932" Ref="#PWR0120"  Part="1" 
F 0 "#PWR0120" H 14850 10300 50  0001 C CNN
F 1 "GND" H 14855 10377 50  0001 C CNN
F 2 "" H 14850 10550 50  0001 C CNN
F 3 "" H 14850 10550 50  0001 C CNN
	1    14850 10550
	1    0    0    -1  
$EndComp
Wire Wire Line
	14850 10550 14850 10300
Wire Wire Line
	13450 10000 13450 9150
Connection ~ 13450 9150
Wire Wire Line
	13650 10000 13650 9250
Connection ~ 13650 9250
Wire Wire Line
	13850 9350 13850 10000
Connection ~ 13850 9350
Wire Wire Line
	14050 10000 14050 9450
Connection ~ 14050 9450
Wire Wire Line
	14250 9550 14250 10000
Connection ~ 14250 9550
Wire Wire Line
	14450 10000 14450 9650
Connection ~ 14450 9650
Wire Wire Line
	14650 9750 14650 10000
Connection ~ 14650 9750
Wire Wire Line
	14850 10000 14850 9850
Connection ~ 14850 9850
Wire Notes Line
	13200 8050 15050 8050
Wire Notes Line
	15050 8050 15050 10900
Wire Notes Line
	15050 10900 13200 10900
Wire Notes Line
	13200 10900 13200 8050
Wire Wire Line
	11300 8450 12200 8450
Wire Wire Line
	11500 8850 11500 11100
Wire Wire Line
	12200 8450 12200 10900
Connection ~ 12200 8450
Wire Wire Line
	12200 8450 12400 8450
Wire Wire Line
	12500 8250 12500 10900
Connection ~ 12500 8250
Wire Wire Line
	14850 6450 14850 6150
Wire Wire Line
	15050 6650 15050 6350
Wire Wire Line
	12150 6650 14050 6650
Wire Wire Line
	11950 6450 11950 7950
Wire Wire Line
	12050 6550 12050 8050
Wire Wire Line
	12150 6650 12150 8150
Text Notes 13300 11650 0    59   ~ 12
CAN : Filtrage de l’échantillonnage\net Mise au potentiel des lignes\npour la matrice analogique\n\nADC: Filter to Sampling and\nPull-up resistors on reading lines\nto analogical matrix
Wire Notes Line
	12800 5550 14500 5550
Wire Notes Line
	14500 5550 14500 6750
Wire Notes Line
	14500 6750 12800 6750
Wire Notes Line
	12800 6750 12800 5550
Text Notes 12850 5500 0    59   ~ 12
Résistance de tirage pour bus I2C\nPull-up resistor to I2C bus
Text Notes 12600 10850 0    59   ~ 12
Debugging\nLEDs
Connection ~ 13250 6450
Connection ~ 13450 6550
Wire Wire Line
	13250 6450 14850 6450
Wire Wire Line
	13450 6550 14950 6550
$Comp
L Device:R R?
U 1 1 5D6D8BB0
P 14050 6100
AR Path="/5D6D8BB0" Ref="R?"  Part="1" 
AR Path="/5D4A0749/5D49F20C/5D6D8BB0" Ref="R24020"  Part="1" 
F 0 "R24020" H 14120 6146 50  0000 L CNN
F 1 "4.75k" H 14120 6055 50  0000 L CNN
F 2 "lib_clavier:R_0402_TL" V 13980 6100 50  0001 C CNN
F 3 "~" H 14050 6100 50  0001 C CNN
F 4 "TL 200 007" H 14050 6100 50  0001 C CNN "ID_BASE"
F 5 "CD" H 14050 6100 50  0001 C CNN "Variante"
	1    14050 6100
	1    0    0    -1  
$EndComp
Wire Wire Line
	14050 5850 14050 5950
$Comp
L power:+3V3 #PWR0121
U 1 1 5D6D8BB7
P 14050 5850
F 0 "#PWR0121" H 14050 5700 50  0001 C CNN
F 1 "+3V3" H 14065 6023 50  0000 C CNN
F 2 "" H 14050 5850 50  0001 C CNN
F 3 "" H 14050 5850 50  0001 C CNN
	1    14050 5850
	1    0    0    -1  
$EndComp
Wire Wire Line
	14050 6250 14050 6650
Connection ~ 14050 6650
Wire Wire Line
	14050 6650 15050 6650
Wire Wire Line
	13650 9250 16500 9250
Wire Wire Line
	14050 9450 16500 9450
Wire Wire Line
	14450 9650 16500 9650
Wire Wire Line
	14850 9850 16500 9850
Wire Wire Line
	13450 9150 16500 9150
Wire Wire Line
	13850 9350 16500 9350
Wire Wire Line
	14250 9550 16500 9550
Wire Wire Line
	14650 9750 16500 9750
Wire Wire Line
	11300 7250 16500 7250
Wire Wire Line
	11300 7450 16500 7450
Wire Wire Line
	11600 7650 16500 7650
Wire Wire Line
	12900 7850 16500 7850
Wire Wire Line
	11300 7150 16500 7150
Wire Wire Line
	11300 7350 16500 7350
Wire Wire Line
	11500 7550 16500 7550
Wire Wire Line
	12800 7750 16500 7750
Wire Wire Line
	14850 6150 16250 6150
Wire Wire Line
	14950 6250 16250 6250
Wire Wire Line
	15050 6350 16250 6350
Wire Wire Line
	11500 4250 15600 4250
Wire Wire Line
	11700 4450 15800 4450
Wire Wire Line
	11400 4150 15500 4150
Wire Wire Line
	11600 4350 15700 4350
Wire Wire Line
	14300 4650 16000 4650
$Comp
L Connector:TestPoint TP?
U 1 1 5D898918
P 15500 4800
AR Path="/5D898918" Ref="TP?"  Part="1" 
AR Path="/5D4A0749/5D49F20C/5D898918" Ref="TP24001"  Part="1" 
F 0 "TP24001" V 15500 5000 50  0000 L CNN
F 1 "TestPoint" H 15558 4829 50  0001 L CNN
F 2 "lib_clavier:Test_Point_TL" H 15700 4800 50  0001 C CNN
F 3 "~" H 15700 4800 50  0001 C CNN
F 4 "ANM" H 15500 4800 50  0001 C CNN "Variante"
	1    15500 4800
	-1   0    0    1   
$EndComp
$Comp
L Connector:TestPoint TP?
U 1 1 5D8DB734
P 15600 4800
AR Path="/5D8DB734" Ref="TP?"  Part="1" 
AR Path="/5D4A0749/5D49F20C/5D8DB734" Ref="TP24002"  Part="1" 
F 0 "TP24002" V 15600 5000 50  0000 L CNN
F 1 "TestPoint" H 15658 4829 50  0001 L CNN
F 2 "lib_clavier:Test_Point_TL" H 15800 4800 50  0001 C CNN
F 3 "~" H 15800 4800 50  0001 C CNN
F 4 "ANM" H 15600 4800 50  0001 C CNN "Variante"
	1    15600 4800
	-1   0    0    1   
$EndComp
$Comp
L Connector:TestPoint TP?
U 1 1 5D8DB903
P 15700 4800
AR Path="/5D8DB903" Ref="TP?"  Part="1" 
AR Path="/5D4A0749/5D49F20C/5D8DB903" Ref="TP24003"  Part="1" 
F 0 "TP24003" V 15700 5000 50  0000 L CNN
F 1 "TestPoint" H 15758 4829 50  0001 L CNN
F 2 "lib_clavier:Test_Point_TL" H 15900 4800 50  0001 C CNN
F 3 "~" H 15900 4800 50  0001 C CNN
F 4 "ANM" H 15700 4800 50  0001 C CNN "Variante"
	1    15700 4800
	-1   0    0    1   
$EndComp
$Comp
L Connector:TestPoint TP?
U 1 1 5D8DBB9E
P 15800 4800
AR Path="/5D8DBB9E" Ref="TP?"  Part="1" 
AR Path="/5D4A0749/5D49F20C/5D8DBB9E" Ref="TP24004"  Part="1" 
F 0 "TP24004" V 15800 5000 50  0000 L CNN
F 1 "TestPoint" H 15858 4829 50  0001 L CNN
F 2 "lib_clavier:Test_Point_TL" H 16000 4800 50  0001 C CNN
F 3 "~" H 16000 4800 50  0001 C CNN
F 4 "ANM" H 15800 4800 50  0001 C CNN "Variante"
	1    15800 4800
	-1   0    0    1   
$EndComp
Wire Wire Line
	14300 4750 16100 4750
$Comp
L Connector:TestPoint TP?
U 1 1 5D8DD357
P 16000 4800
AR Path="/5D8DD357" Ref="TP?"  Part="1" 
AR Path="/5D4A0749/5D49F20C/5D8DD357" Ref="TP24026"  Part="1" 
F 0 "TP24026" V 16000 5000 50  0000 L CNN
F 1 "TestPoint" H 16058 4829 50  0001 L CNN
F 2 "lib_clavier:Test_Point_TL" H 16200 4800 50  0001 C CNN
F 3 "~" H 16200 4800 50  0001 C CNN
F 4 "ANM" H 16000 4800 50  0001 C CNN "Variante"
	1    16000 4800
	-1   0    0    1   
$EndComp
$Comp
L Connector:TestPoint TP?
U 1 1 5D8DD648
P 16100 4800
AR Path="/5D8DD648" Ref="TP?"  Part="1" 
AR Path="/5D4A0749/5D49F20C/5D8DD648" Ref="TP24027"  Part="1" 
F 0 "TP24027" V 16100 5000 50  0000 L CNN
F 1 "TestPoint" H 16158 4829 50  0001 L CNN
F 2 "lib_clavier:Test_Point_TL" H 16300 4800 50  0001 C CNN
F 3 "~" H 16300 4800 50  0001 C CNN
F 4 "ANM" H 16100 4800 50  0001 C CNN "Variante"
	1    16100 4800
	-1   0    0    1   
$EndComp
Wire Wire Line
	15500 4800 15500 4150
Connection ~ 15500 4150
Wire Wire Line
	15500 4150 16250 4150
Wire Wire Line
	15600 4800 15600 4250
Connection ~ 15600 4250
Wire Wire Line
	15600 4250 16250 4250
Wire Wire Line
	15700 4800 15700 4350
Connection ~ 15700 4350
Wire Wire Line
	15700 4350 16250 4350
Wire Wire Line
	15800 4800 15800 4450
Connection ~ 15800 4450
Wire Wire Line
	15800 4450 16250 4450
Wire Wire Line
	16000 4800 16000 4650
Connection ~ 16000 4650
Wire Wire Line
	16000 4650 16250 4650
Wire Wire Line
	16100 4800 16100 4750
Connection ~ 16100 4750
Wire Wire Line
	16100 4750 16250 4750
Wire Wire Line
	14950 6250 14950 6550
$EndSCHEMATC
