EESchema Schematic File Version 4
LIBS:carte_MCU-cache
EELAYER 30 0
EELAYER END
$Descr A2 23386 16535
encoding utf-8
Sheet 3 5
Title "Schematics"
Date "20 oct 2019"
Rev "B"
Comp "Lilian T."
Comment1 "TL 500 002"
Comment2 "Clavier ToucheLibre"
Comment3 "MCU Board"
Comment4 "Power Supplies to all the keyboard"
$EndDescr
Wire Notes Line
	9800 4400 13500 4400
Wire Notes Line
	13500 4400 13500 6500
Wire Notes Line
	13500 6500 9800 6500
Wire Notes Line
	9800 6500 9800 4400
Text Notes 9900 4350 0    59   ~ 12
Alimentation abaisseur-élevateur 3,3V\nBuck-Boost power supply 3.3V
$Comp
L Device:L_Core_Ferrite L23001
U 1 1 5D4B573E
P 11250 4850
F 0 "L23001" V 11600 4850 50  0000 C CNN
F 1 "1.5uH" V 11500 4850 50  0000 C CNN
F 2 "lib_clavier:L_Murata_LQH2MC_TL" H 11250 4850 50  0001 C CNN
F 3 "~" H 11250 4850 50  0001 C CNN
F 4 "LQH2MCN1R5M52" V 11250 4850 50  0001 C CNN "Ref_Fab"
F 5 "540mA" V 11400 4850 50  0000 C CNN "Current"
F 6 "TL 200 028" H 11250 4850 50  0001 C CNN "ID_BASE"
F 7 "CD" H 11250 4850 50  0001 C CNN "Variante"
	1    11250 4850
	0    -1   -1   0   
$EndComp
$Comp
L power:GND #PWR03010
U 1 1 5D4B5812
P 11250 6250
F 0 "#PWR03010" H 11250 6000 50  0001 C CNN
F 1 "GND" H 11255 6077 50  0001 C CNN
F 2 "" H 11250 6250 50  0001 C CNN
F 3 "" H 11250 6250 50  0001 C CNN
	1    11250 6250
	1    0    0    -1  
$EndComp
Wire Wire Line
	11150 6150 11150 6200
Wire Wire Line
	11150 6200 11250 6200
Wire Wire Line
	11350 6200 11350 6150
Wire Wire Line
	11250 6150 11250 6200
Connection ~ 11250 6200
Wire Wire Line
	11250 6200 11350 6200
Wire Wire Line
	11250 6250 11250 6200
Wire Wire Line
	10850 5100 10800 5100
Wire Wire Line
	10800 5100 10800 4850
Wire Wire Line
	10800 4850 11100 4850
Wire Wire Line
	11400 4850 11700 4850
Wire Wire Line
	11700 4850 11700 5100
Wire Wire Line
	11700 5100 11650 5100
Wire Wire Line
	10850 5500 10800 5500
Wire Wire Line
	10800 5500 10800 5600
Wire Wire Line
	10800 5700 10850 5700
Wire Wire Line
	10850 5600 10800 5600
Connection ~ 10800 5600
Wire Wire Line
	10800 5600 10800 5700
Wire Wire Line
	12800 5450 12800 5300
Wire Wire Line
	10250 5450 10250 5300
Connection ~ 10250 5300
Wire Wire Line
	13300 5450 13300 5300
Wire Wire Line
	10700 5700 10800 5700
Wire Wire Line
	10700 5700 10700 5900
Connection ~ 10800 5700
$Comp
L power:GND #PWR?
U 1 1 5D4B8853
P 10250 5750
AR Path="/5D4B8853" Ref="#PWR?"  Part="1" 
AR Path="/5D4A0749/5D49F20C/5D4B8853" Ref="#PWR?"  Part="1" 
AR Path="/5D4A0749/5D55A9E5/5D4B8853" Ref="#PWR03004"  Part="1" 
F 0 "#PWR03004" H 10250 5500 50  0001 C CNN
F 1 "GND" H 10255 5577 50  0001 C CNN
F 2 "" H 10250 5750 50  0001 C CNN
F 3 "" H 10250 5750 50  0001 C CNN
	1    10250 5750
	1    0    0    -1  
$EndComp
$Comp
L power:GND #PWR?
U 1 1 5D4B885A
P 10700 6200
AR Path="/5D4B885A" Ref="#PWR?"  Part="1" 
AR Path="/5D4A0749/5D49F20C/5D4B885A" Ref="#PWR?"  Part="1" 
AR Path="/5D4A0749/5D55A9E5/5D4B885A" Ref="#PWR03009"  Part="1" 
F 0 "#PWR03009" H 10700 5950 50  0001 C CNN
F 1 "GND" H 10705 6027 50  0001 C CNN
F 2 "" H 10700 6200 50  0001 C CNN
F 3 "" H 10700 6200 50  0001 C CNN
	1    10700 6200
	1    0    0    -1  
$EndComp
$Comp
L Device:C C?
U 1 1 5D4B8861
P 10700 6050
AR Path="/5D4B8861" Ref="C?"  Part="1" 
AR Path="/5D4A0749/5D49F20C/5D4B8861" Ref="C?"  Part="1" 
AR Path="/5D4A0749/5D55A9E5/5D4B8861" Ref="C23006"  Part="1" 
F 0 "C23006" H 10350 6150 50  0000 L CNN
F 1 "220nF" H 10350 6050 50  0000 L CNN
F 2 "lib_clavier:C_0402_TL" H 10738 5900 50  0001 C CNN
F 3 "~" H 10700 6050 50  0001 C CNN
F 4 "10V" H 10500 5950 50  0000 C CNN "Tension"
F 5 "TL 200 022" H 10700 6050 50  0001 C CNN "ID_BASE"
F 6 "CD" H 10700 6050 50  0001 C CNN "Variante"
	1    10700 6050
	1    0    0    -1  
$EndComp
$Comp
L Device:C C?
U 1 1 5D4B8869
P 10250 5600
AR Path="/5D4B8869" Ref="C?"  Part="1" 
AR Path="/5D4A0749/5D49F20C/5D4B8869" Ref="C?"  Part="1" 
AR Path="/5D4A0749/5D55A9E5/5D4B8869" Ref="C23001"  Part="1" 
F 0 "C23001" H 9900 5700 50  0000 L CNN
F 1 "10uF" H 9900 5600 50  0000 L CNN
F 2 "lib_clavier:C_0805_TL" H 10288 5450 50  0001 C CNN
F 3 "~" H 10250 5600 50  0001 C CNN
F 4 "10V" H 10000 5500 50  0000 C CNN "Tension"
F 5 "TL 200 024" H 10250 5600 50  0001 C CNN "ID_BASE"
F 6 "CD" H 10250 5600 50  0001 C CNN "Variante"
	1    10250 5600
	1    0    0    -1  
$EndComp
$Comp
L Device:C C?
U 1 1 5D4BAD23
P 12800 5600
AR Path="/5D4BAD23" Ref="C?"  Part="1" 
AR Path="/5D4A0749/5D49F20C/5D4BAD23" Ref="C?"  Part="1" 
AR Path="/5D4A0749/5D55A9E5/5D4BAD23" Ref="C23002"  Part="1" 
F 0 "C23002" H 12450 5700 50  0000 L CNN
F 1 "10uF" H 12450 5600 50  0000 L CNN
F 2 "lib_clavier:C_0805_TL" H 12838 5450 50  0001 C CNN
F 3 "~" H 12800 5600 50  0001 C CNN
F 4 "10V" H 12550 5500 50  0000 C CNN "Tension"
F 5 "TL 200 024" H 12800 5600 50  0001 C CNN "ID_BASE"
F 6 "CD" H 12800 5600 50  0001 C CNN "Variante"
	1    12800 5600
	1    0    0    -1  
$EndComp
$Comp
L power:GND #PWR?
U 1 1 5D4BB0F4
P 13300 5750
AR Path="/5D4BB0F4" Ref="#PWR?"  Part="1" 
AR Path="/5D4A0749/5D49F20C/5D4BB0F4" Ref="#PWR?"  Part="1" 
AR Path="/5D4A0749/5D55A9E5/5D4BB0F4" Ref="#PWR03006"  Part="1" 
F 0 "#PWR03006" H 13300 5500 50  0001 C CNN
F 1 "GND" H 13305 5577 50  0001 C CNN
F 2 "" H 13300 5750 50  0001 C CNN
F 3 "" H 13300 5750 50  0001 C CNN
	1    13300 5750
	1    0    0    -1  
$EndComp
$Comp
L Device:C C?
U 1 1 5D4BB0FB
P 13300 5600
AR Path="/5D4BB0FB" Ref="C?"  Part="1" 
AR Path="/5D4A0749/5D49F20C/5D4BB0FB" Ref="C?"  Part="1" 
AR Path="/5D4A0749/5D55A9E5/5D4BB0FB" Ref="C23003"  Part="1" 
F 0 "C23003" H 12950 5700 50  0000 L CNN
F 1 "10uF" H 12950 5600 50  0000 L CNN
F 2 "lib_clavier:C_0805_TL" H 13338 5450 50  0001 C CNN
F 3 "~" H 13300 5600 50  0001 C CNN
F 4 "10V" H 13050 5500 50  0000 C CNN "Tension"
F 5 "TL 200 024" H 13300 5600 50  0001 C CNN "ID_BASE"
F 6 "CD" H 13300 5600 50  0001 C CNN "Variante"
	1    13300 5600
	1    0    0    -1  
$EndComp
Connection ~ 12800 5300
Wire Wire Line
	12800 5300 13300 5300
$Comp
L carte_MCU-rescue:VBAT-power-carte_MCU-rescue #PWR3003
U 1 1 5D4BF14A
P 5250 5500
F 0 "#PWR3003" H 5500 5600 50  0001 C CNN
F 1 "VBAT" H 5250 5674 50  0000 C CNN
F 2 "" H 5250 5500 50  0001 C CNN
F 3 "" H 5250 5500 50  0001 C CNN
	1    5250 5500
	1    0    0    -1  
$EndComp
Wire Wire Line
	5250 5600 5250 5500
Wire Wire Line
	5250 4900 5250 5000
Text Notes 5850 4750 0    59   ~ 12
Coupleur d’alimentation et\nProtection inversion de piles\n\nPower Supply Coupler and\nReverse Battery Protection
Wire Notes Line
	5900 4800 7100 4800
Wire Notes Line
	7100 4800 7100 5800
Wire Notes Line
	7100 5800 5900 5800
Wire Notes Line
	5900 5800 5900 4800
Wire Wire Line
	15700 5300 15700 5200
$Comp
L carte_MCU-rescue:TPS63030DSK-Regulator_Switching-carte_MCU-rescue U?
U 1 1 5D4ACF24
P 10950 6050
AR Path="/5D4ACF24" Ref="U?"  Part="1" 
AR Path="/5D4A0749/5D55A9E5/5D4ACF24" Ref="U23001"  Part="1" 
F 0 "U23001" H 11600 5950 50  0000 C CNN
F 1 "TPS63030DSK" H 11700 5850 50  0000 C CNN
F 2 "lib_clavier:VSON-10-1EP_2.5x2.5mm_Pitch0.5mm_TL" H 10950 6050 50  0001 C CNN
F 3 "" H 10950 6050 50  0001 C CNN
F 4 "TL 200 060" H 10950 6050 50  0001 C CNN "ID_BASE"
F 5 "CD" H 10950 6050 50  0001 C CNN "Variante"
	1    10950 6050
	1    0    0    -1  
$EndComp
Wire Notes Line
	9800 7400 13500 7400
Wire Notes Line
	13500 7400 13500 9500
Wire Notes Line
	13500 9500 9800 9500
Wire Notes Line
	9800 9500 9800 7400
Text Notes 9900 7350 0    59   ~ 12
Alimentation abaisseur-élevateur 5V\nBuck-Boost power supply 5V
$Comp
L power:GND #PWR03017
U 1 1 5D4AD187
P 11250 9250
F 0 "#PWR03017" H 11250 9000 50  0001 C CNN
F 1 "GND" H 11255 9077 50  0001 C CNN
F 2 "" H 11250 9250 50  0001 C CNN
F 3 "" H 11250 9250 50  0001 C CNN
	1    11250 9250
	1    0    0    -1  
$EndComp
Wire Wire Line
	11150 9150 11150 9200
Wire Wire Line
	11150 9200 11250 9200
Wire Wire Line
	11350 9200 11350 9150
Wire Wire Line
	11250 9150 11250 9200
Connection ~ 11250 9200
Wire Wire Line
	11250 9200 11350 9200
Wire Wire Line
	11250 9250 11250 9200
Wire Wire Line
	10850 8100 10800 8100
Wire Wire Line
	10800 8100 10800 7850
Wire Wire Line
	10800 7850 11100 7850
Wire Wire Line
	11400 7850 11700 7850
Wire Wire Line
	11700 7850 11700 8100
Wire Wire Line
	11700 8100 11650 8100
Wire Wire Line
	10850 8500 10800 8500
Wire Wire Line
	10800 8500 10800 8600
Wire Wire Line
	10800 8700 10850 8700
Wire Wire Line
	10850 8600 10800 8600
Connection ~ 10800 8600
Wire Wire Line
	10800 8600 10800 8700
Wire Wire Line
	10850 8300 10250 8300
Wire Wire Line
	12800 8450 12800 8300
Wire Wire Line
	10250 8450 10250 8300
Connection ~ 10250 8300
Wire Wire Line
	13300 8450 13300 8300
Wire Wire Line
	10700 8700 10800 8700
Wire Wire Line
	10700 8700 10700 8900
Connection ~ 10800 8700
$Comp
L power:GND #PWR?
U 1 1 5D4AD1AC
P 10250 8750
AR Path="/5D4AD1AC" Ref="#PWR?"  Part="1" 
AR Path="/5D4A0749/5D49F20C/5D4AD1AC" Ref="#PWR?"  Part="1" 
AR Path="/5D4A0749/5D55A9E5/5D4AD1AC" Ref="#PWR03012"  Part="1" 
F 0 "#PWR03012" H 10250 8500 50  0001 C CNN
F 1 "GND" H 10255 8577 50  0001 C CNN
F 2 "" H 10250 8750 50  0001 C CNN
F 3 "" H 10250 8750 50  0001 C CNN
	1    10250 8750
	1    0    0    -1  
$EndComp
$Comp
L power:GND #PWR?
U 1 1 5D4AD1B2
P 10700 9200
AR Path="/5D4AD1B2" Ref="#PWR?"  Part="1" 
AR Path="/5D4A0749/5D49F20C/5D4AD1B2" Ref="#PWR?"  Part="1" 
AR Path="/5D4A0749/5D55A9E5/5D4AD1B2" Ref="#PWR03016"  Part="1" 
F 0 "#PWR03016" H 10700 8950 50  0001 C CNN
F 1 "GND" H 10705 9027 50  0001 C CNN
F 2 "" H 10700 9200 50  0001 C CNN
F 3 "" H 10700 9200 50  0001 C CNN
	1    10700 9200
	1    0    0    -1  
$EndComp
$Comp
L Device:C C?
U 1 1 5D4AD1B9
P 10700 9050
AR Path="/5D4AD1B9" Ref="C?"  Part="1" 
AR Path="/5D4A0749/5D49F20C/5D4AD1B9" Ref="C?"  Part="1" 
AR Path="/5D4A0749/5D55A9E5/5D4AD1B9" Ref="C23011"  Part="1" 
F 0 "C23011" H 10350 9150 50  0000 L CNN
F 1 "220nF" H 10350 9050 50  0000 L CNN
F 2 "lib_clavier:C_0402_TL" H 10738 8900 50  0001 C CNN
F 3 "~" H 10700 9050 50  0001 C CNN
F 4 "10V" H 10500 8950 50  0000 C CNN "Tension"
F 5 "TL 200 022" H 10700 9050 50  0001 C CNN "ID_BASE"
F 6 "CD" H 10700 9050 50  0001 C CNN "Variante"
	1    10700 9050
	1    0    0    -1  
$EndComp
$Comp
L Device:C C?
U 1 1 5D4AD1C1
P 10250 8600
AR Path="/5D4AD1C1" Ref="C?"  Part="1" 
AR Path="/5D4A0749/5D49F20C/5D4AD1C1" Ref="C?"  Part="1" 
AR Path="/5D4A0749/5D55A9E5/5D4AD1C1" Ref="C23007"  Part="1" 
F 0 "C23007" H 9900 8700 50  0000 L CNN
F 1 "10uF" H 9900 8600 50  0000 L CNN
F 2 "lib_clavier:C_0805_TL" H 10288 8450 50  0001 C CNN
F 3 "~" H 10250 8600 50  0001 C CNN
F 4 "10V" H 10000 8500 50  0000 C CNN "Tension"
F 5 "TL 200 024" H 10250 8600 50  0001 C CNN "ID_BASE"
F 6 "CD" H 10250 8600 50  0001 C CNN "Variante"
	1    10250 8600
	1    0    0    -1  
$EndComp
$Comp
L power:GND #PWR?
U 1 1 5D4AD1C8
P 12800 8750
AR Path="/5D4AD1C8" Ref="#PWR?"  Part="1" 
AR Path="/5D4A0749/5D49F20C/5D4AD1C8" Ref="#PWR?"  Part="1" 
AR Path="/5D4A0749/5D55A9E5/5D4AD1C8" Ref="#PWR03013"  Part="1" 
F 0 "#PWR03013" H 12800 8500 50  0001 C CNN
F 1 "GND" H 12805 8577 50  0001 C CNN
F 2 "" H 12800 8750 50  0001 C CNN
F 3 "" H 12800 8750 50  0001 C CNN
	1    12800 8750
	1    0    0    -1  
$EndComp
$Comp
L Device:C C?
U 1 1 5D4AD1CF
P 12800 8600
AR Path="/5D4AD1CF" Ref="C?"  Part="1" 
AR Path="/5D4A0749/5D49F20C/5D4AD1CF" Ref="C?"  Part="1" 
AR Path="/5D4A0749/5D55A9E5/5D4AD1CF" Ref="C23008"  Part="1" 
F 0 "C23008" H 12450 8700 50  0000 L CNN
F 1 "10uF" H 12450 8600 50  0000 L CNN
F 2 "lib_clavier:C_0805_TL" H 12838 8450 50  0001 C CNN
F 3 "~" H 12800 8600 50  0001 C CNN
F 4 "10V" H 12550 8500 50  0000 C CNN "Tension"
F 5 "TL 200 024" H 12800 8600 50  0001 C CNN "ID_BASE"
F 6 "CD" H 12800 8600 50  0001 C CNN "Variante"
	1    12800 8600
	1    0    0    -1  
$EndComp
$Comp
L power:GND #PWR?
U 1 1 5D4AD1D6
P 13300 8750
AR Path="/5D4AD1D6" Ref="#PWR?"  Part="1" 
AR Path="/5D4A0749/5D49F20C/5D4AD1D6" Ref="#PWR?"  Part="1" 
AR Path="/5D4A0749/5D55A9E5/5D4AD1D6" Ref="#PWR03014"  Part="1" 
F 0 "#PWR03014" H 13300 8500 50  0001 C CNN
F 1 "GND" H 13305 8577 50  0001 C CNN
F 2 "" H 13300 8750 50  0001 C CNN
F 3 "" H 13300 8750 50  0001 C CNN
	1    13300 8750
	1    0    0    -1  
$EndComp
$Comp
L Device:C C?
U 1 1 5D4AD1DD
P 13300 8600
AR Path="/5D4AD1DD" Ref="C?"  Part="1" 
AR Path="/5D4A0749/5D49F20C/5D4AD1DD" Ref="C?"  Part="1" 
AR Path="/5D4A0749/5D55A9E5/5D4AD1DD" Ref="C23009"  Part="1" 
F 0 "C23009" H 12950 8700 50  0000 L CNN
F 1 "10uF" H 12950 8600 50  0000 L CNN
F 2 "lib_clavier:C_0805_TL" H 13338 8450 50  0001 C CNN
F 3 "~" H 13300 8600 50  0001 C CNN
F 4 "10V" H 13050 8500 50  0000 C CNN "Tension"
F 5 "TL 200 024" H 13300 8600 50  0001 C CNN "ID_BASE"
F 6 "CD" H 13300 8600 50  0001 C CNN "Variante"
	1    13300 8600
	1    0    0    -1  
$EndComp
Connection ~ 12800 8300
Wire Wire Line
	12800 8300 13300 8300
Wire Wire Line
	15700 8300 15700 8200
$Comp
L carte_MCU-rescue:TPS63030DSK-Regulator_Switching-carte_MCU-rescue U?
U 1 1 5D4AD1F1
P 10950 9050
AR Path="/5D4AD1F1" Ref="U?"  Part="1" 
AR Path="/5D4A0749/5D55A9E5/5D4AD1F1" Ref="U23002"  Part="1" 
F 0 "U23002" H 11600 8950 50  0000 C CNN
F 1 "TPS63030DSK" H 11700 8850 50  0000 C CNN
F 2 "lib_clavier:VSON-10-1EP_2.5x2.5mm_Pitch0.5mm_TL" H 10950 9050 50  0001 C CNN
F 3 "" H 10950 9050 50  0001 C CNN
F 4 "TL 200 060" H 10950 9050 50  0001 C CNN "ID_BASE"
F 5 "CD" H 10950 9050 50  0001 C CNN "Variante"
	1    10950 9050
	1    0    0    -1  
$EndComp
$Comp
L power:+5V #PWR03011
U 1 1 5D4B585E
P 15700 8200
F 0 "#PWR03011" H 15700 8050 50  0001 C CNN
F 1 "+5V" H 15715 8373 50  0000 C CNN
F 2 "" H 15700 8200 50  0001 C CNN
F 3 "" H 15700 8200 50  0001 C CNN
	1    15700 8200
	1    0    0    -1  
$EndComp
$Comp
L Device:RF_Shield_Two_Pieces J23001
U 1 1 5D4B5CAB
P 11300 10700
F 0 "J23001" H 11950 10500 50  0000 L CNN
F 1 "RF_Shield_Two_Pieces" H 11950 10400 50  0000 L CNN
F 2 "lib_clavier:Laird_BMI-S-209-F_29.36x18.50mm_TL" H 11300 10600 50  0001 C CNN
F 3 "~" H 11300 10600 50  0001 C CNN
F 4 "CD" H 11300 10700 50  0001 C CNN "Variante"
F 5 "TL 200 055" H 11300 10700 50  0001 C CNN "ID_BASE"
	1    11300 10700
	1    0    0    -1  
$EndComp
$Comp
L power:GND #PWR03018
U 1 1 5D4B5D22
P 11300 11100
F 0 "#PWR03018" H 11300 10850 50  0001 C CNN
F 1 "GND" H 11305 10927 50  0001 C CNN
F 2 "" H 11300 11100 50  0001 C CNN
F 3 "" H 11300 11100 50  0001 C CNN
	1    11300 11100
	1    0    0    -1  
$EndComp
Wire Notes Line width 8 style dash_dot rgb(107, 194, 0)
	10700 10700 8000 10700
Wire Notes Line width 8 style dash_dot rgb(107, 194, 0)
	8000 10700 8000 4000
Wire Notes Line width 8 style dash_dot rgb(107, 194, 0)
	8000 4000 14900 4000
Wire Notes Line width 8 style dash_dot rgb(102, 185, 0)
	14900 4000 14900 10700
Wire Notes Line width 8 style dash_dot rgb(107, 194, 0)
	14900 10700 11900 10700
$Comp
L power:GND #PWR?
U 1 1 5D4C46D0
P 14500 5800
AR Path="/5D4C46D0" Ref="#PWR?"  Part="1" 
AR Path="/5D4A0749/5D49F20C/5D4C46D0" Ref="#PWR?"  Part="1" 
AR Path="/5D4A0749/5D55A9E5/5D4C46D0" Ref="#PWR03008"  Part="1" 
F 0 "#PWR03008" H 14500 5550 50  0001 C CNN
F 1 "GND" H 14505 5627 50  0001 C CNN
F 2 "" H 14500 5800 50  0001 C CNN
F 3 "" H 14500 5800 50  0001 C CNN
	1    14500 5800
	1    0    0    -1  
$EndComp
Wire Wire Line
	14300 5300 14500 5300
$Comp
L Device:C C?
U 1 1 5D4C471C
P 14500 5650
AR Path="/5D4C471C" Ref="C?"  Part="1" 
AR Path="/5D4A0749/5D49F20C/5D4C471C" Ref="C?"  Part="1" 
AR Path="/5D4A0749/5D55A9E5/5D4C471C" Ref="C23005"  Part="1" 
F 0 "C23005" H 14150 5750 50  0000 L CNN
F 1 "10uF" H 14150 5650 50  0000 L CNN
F 2 "lib_clavier:C_0805_TL" H 14538 5500 50  0001 C CNN
F 3 "~" H 14500 5650 50  0001 C CNN
F 4 "10V" H 14250 5550 50  0000 C CNN "Tension"
F 5 "TL 200 024" H 14500 5650 50  0001 C CNN "ID_BASE"
F 6 "CD" H 14500 5650 50  0001 C CNN "Variante"
	1    14500 5650
	1    0    0    -1  
$EndComp
Wire Wire Line
	9500 8300 10250 8300
Connection ~ 13300 5300
Wire Notes Line
	13700 4700 13700 6000
Wire Wire Line
	13300 5300 14000 5300
Wire Notes Line
	14700 4700 14700 6000
Wire Notes Line
	13700 4700 14700 4700
Wire Notes Line
	14700 6000 13700 6000
Text Notes 13800 4650 0    59   ~ 12
Filtre CEM  3,3V\nEMC Filter 3.3V
$Comp
L power:GND #PWR?
U 1 1 5D4F1815
P 14500 8800
AR Path="/5D4F1815" Ref="#PWR?"  Part="1" 
AR Path="/5D4A0749/5D49F20C/5D4F1815" Ref="#PWR?"  Part="1" 
AR Path="/5D4A0749/5D55A9E5/5D4F1815" Ref="#PWR03015"  Part="1" 
F 0 "#PWR03015" H 14500 8550 50  0001 C CNN
F 1 "GND" H 14505 8627 50  0001 C CNN
F 2 "" H 14500 8800 50  0001 C CNN
F 3 "" H 14500 8800 50  0001 C CNN
	1    14500 8800
	1    0    0    -1  
$EndComp
Wire Wire Line
	14300 8300 14500 8300
$Comp
L Device:C C?
U 1 1 5D4F181E
P 14500 8650
AR Path="/5D4F181E" Ref="C?"  Part="1" 
AR Path="/5D4A0749/5D49F20C/5D4F181E" Ref="C?"  Part="1" 
AR Path="/5D4A0749/5D55A9E5/5D4F181E" Ref="C23010"  Part="1" 
F 0 "C23010" H 14150 8750 50  0000 L CNN
F 1 "10uF" H 14150 8650 50  0000 L CNN
F 2 "lib_clavier:C_0805_TL" H 14538 8500 50  0001 C CNN
F 3 "~" H 14500 8650 50  0001 C CNN
F 4 "10V" H 14250 8550 50  0000 C CNN "Tension"
F 5 "TL 200 024" H 14500 8650 50  0001 C CNN "ID_BASE"
F 6 "CD" H 14500 8650 50  0001 C CNN "Variante"
	1    14500 8650
	1    0    0    -1  
$EndComp
Wire Notes Line
	13700 7700 13700 9000
Wire Wire Line
	13300 8300 14000 8300
Wire Notes Line
	14700 7700 14700 9000
Wire Notes Line
	13700 7700 14700 7700
Wire Notes Line
	14700 9000 13700 9000
Text Notes 13800 7650 0    59   ~ 12
Filter CEM  5V\nEMC Filter 5V
Connection ~ 13300 8300
Text GLabel 16100 5300 2    50   UnSpc ~ 0
+3.3V
Wire Wire Line
	15700 5300 16100 5300
Connection ~ 15700 5300
Text GLabel 16100 8300 2    50   UnSpc ~ 0
+5V
Wire Wire Line
	15700 8300 16100 8300
$Comp
L power:+3.3V #PWR03002
U 1 1 5D52A24C
P 15700 5200
F 0 "#PWR03002" H 15700 5050 50  0001 C CNN
F 1 "+3.3V" H 15715 5373 50  0000 C CNN
F 2 "" H 15700 5200 50  0001 C CNN
F 3 "" H 15700 5200 50  0001 C CNN
	1    15700 5200
	1    0    0    -1  
$EndComp
$Comp
L carte_MCU-rescue:VBUS_F-power-carte_MCU-rescue #PWR3001
U 1 1 5D52C171
P 5250 4900
F 0 "#PWR3001" H 5400 4800 50  0001 C CNN
F 1 "VBUS_F" H 5245 5074 50  0000 C CNN
F 2 "" H 5250 4900 50  0001 C CNN
F 3 "" H 5250 4900 50  0001 C CNN
	1    5250 4900
	1    0    0    -1  
$EndComp
Wire Wire Line
	5250 5000 6000 5000
Wire Wire Line
	5250 5600 6000 5600
$Comp
L Device:Ferrite_Bead FB?
U 1 1 5D53B144
P 8650 5300
AR Path="/5D53B144" Ref="FB?"  Part="1" 
AR Path="/5D4A0749/5D49F20C/5D53B144" Ref="FB?"  Part="1" 
AR Path="/5D4A0749/5D55A9E5/5D53B144" Ref="FB23001"  Part="1" 
F 0 "FB23001" V 8250 5300 50  0000 C CNN
F 1 "BLM15HD182SN1" V 8350 5300 50  0000 C CNN
F 2 "lib_clavier:L_0402_TL" V 8580 5300 50  0001 C CNN
F 3 "~" H 8650 5300 50  0001 C CNN
F 4 "200mA" V 8450 5350 50  0000 C CNN "Current"
F 5 "TL 200 029" H 8650 5300 50  0001 C CNN "ID_BASE"
F 6 "CD" H 8650 5300 50  0001 C CNN "Variante"
	1    8650 5300
	0    1    1    0   
$EndComp
$Comp
L power:GND #PWR?
U 1 1 5D53B14C
P 8350 5800
AR Path="/5D53B14C" Ref="#PWR?"  Part="1" 
AR Path="/5D4A0749/5D49F20C/5D53B14C" Ref="#PWR?"  Part="1" 
AR Path="/5D4A0749/5D55A9E5/5D53B14C" Ref="#PWR03007"  Part="1" 
F 0 "#PWR03007" H 8350 5550 50  0001 C CNN
F 1 "GND" H 8355 5627 50  0001 C CNN
F 2 "" H 8350 5800 50  0001 C CNN
F 3 "" H 8350 5800 50  0001 C CNN
	1    8350 5800
	1    0    0    -1  
$EndComp
$Comp
L Device:C C?
U 1 1 5D53B155
P 8350 5650
AR Path="/5D53B155" Ref="C?"  Part="1" 
AR Path="/5D4A0749/5D49F20C/5D53B155" Ref="C?"  Part="1" 
AR Path="/5D4A0749/5D55A9E5/5D53B155" Ref="C23004"  Part="1" 
F 0 "C23004" H 8400 5750 50  0000 L CNN
F 1 "10uF" H 8500 5650 50  0000 L CNN
F 2 "lib_clavier:C_0805_TL" H 8388 5500 50  0001 C CNN
F 3 "~" H 8350 5650 50  0001 C CNN
F 4 "10V" H 8550 5550 50  0000 C CNN "Tension"
F 5 "TL 200 024" H 8350 5650 50  0001 C CNN "ID_BASE"
F 6 "CD" H 8350 5650 50  0001 C CNN "Variante"
	1    8350 5650
	1    0    0    -1  
$EndComp
Wire Notes Line
	8200 4700 8200 6000
Wire Notes Line
	9200 4700 9200 6000
Wire Notes Line
	8200 4700 9200 4700
Wire Notes Line
	9200 6000 8200 6000
Text Notes 8300 4650 0    59   ~ 12
Filtre CEM d’entrée\nEMC Input Filter
Connection ~ 8350 5300
Wire Wire Line
	8350 5300 8500 5300
Wire Wire Line
	8800 5300 9500 5300
Connection ~ 9500 5300
Wire Wire Line
	9500 5300 10250 5300
$Comp
L Device:Ferrite_Bead FB?
U 1 1 5D564109
P 14150 5300
AR Path="/5D564109" Ref="FB?"  Part="1" 
AR Path="/5D4A0749/5D49F20C/5D564109" Ref="FB?"  Part="1" 
AR Path="/5D4A0749/5D55A9E5/5D564109" Ref="FB23002"  Part="1" 
F 0 "FB23002" V 13750 5300 50  0000 C CNN
F 1 "BLM15HD182SN1" V 13850 5300 50  0000 C CNN
F 2 "lib_clavier:L_0402_TL" V 14080 5300 50  0001 C CNN
F 3 "~" H 14150 5300 50  0001 C CNN
F 4 "200mA" V 13950 5350 50  0000 C CNN "Current"
F 5 "TL 200 029" H 14150 5300 50  0001 C CNN "ID_BASE"
F 6 "CD" H 14150 5300 50  0001 C CNN "Variante"
	1    14150 5300
	0    1    1    0   
$EndComp
$Comp
L Device:Ferrite_Bead FB?
U 1 1 5D564185
P 14150 8300
AR Path="/5D564185" Ref="FB?"  Part="1" 
AR Path="/5D4A0749/5D49F20C/5D564185" Ref="FB?"  Part="1" 
AR Path="/5D4A0749/5D55A9E5/5D564185" Ref="FB23003"  Part="1" 
F 0 "FB23003" V 13750 8300 50  0000 C CNN
F 1 "BLM15HD182SN1" V 13850 8300 50  0000 C CNN
F 2 "lib_clavier:L_0402_TL" V 14080 8300 50  0001 C CNN
F 3 "~" H 14150 8300 50  0001 C CNN
F 4 "200mA" V 13950 8350 50  0000 C CNN "Current"
F 5 "TL 200 029" H 14150 8300 50  0001 C CNN "ID_BASE"
F 6 "CD" H 14150 8300 50  0001 C CNN "Variante"
	1    14150 8300
	0    1    1    0   
$EndComp
Wire Wire Line
	9500 5300 9500 8300
Connection ~ 15700 8300
$Comp
L Device:R R23001
U 1 1 5D4C4E68
P 15250 5300
F 0 "R23001" V 15043 5300 50  0000 C CNN
F 1 "0" V 15134 5300 50  0000 C CNN
F 2 "lib_clavier:R_0402_TL" V 15180 5300 50  0001 C CNN
F 3 "~" H 15250 5300 50  0001 C CNN
F 4 "TL 200 001" H 15250 5300 50  0001 C CNN "ID_BASE"
F 5 "CD" H 15250 5300 50  0001 C CNN "Variante"
	1    15250 5300
	0    1    1    0   
$EndComp
Wire Wire Line
	15400 5300 15700 5300
$Comp
L Device:R R23002
U 1 1 5D4C4F35
P 15250 8300
F 0 "R23002" V 15043 8300 50  0000 C CNN
F 1 "0" V 15134 8300 50  0000 C CNN
F 2 "lib_clavier:R_0402_TL" V 15180 8300 50  0001 C CNN
F 3 "~" H 15250 8300 50  0001 C CNN
F 4 "TL 200 001" H 15250 8300 50  0001 C CNN "ID_BASE"
F 5 "CD" H 15250 8300 50  0001 C CNN "Variante"
	1    15250 8300
	0    1    1    0   
$EndComp
Wire Wire Line
	15400 8300 15700 8300
Wire Wire Line
	14500 5300 15100 5300
Connection ~ 14500 5300
Wire Wire Line
	14500 8300 15100 8300
Connection ~ 14500 8300
$Comp
L Device:L_Core_Ferrite L23002
U 1 1 5D532C8D
P 11250 7850
F 0 "L23002" V 11600 7850 50  0000 C CNN
F 1 "1.5uH" V 11500 7850 50  0000 C CNN
F 2 "lib_clavier:L_Murata_LQH2MC_TL" H 11250 7850 50  0001 C CNN
F 3 "~" H 11250 7850 50  0001 C CNN
F 4 "LQH2MCN1R5M52" V 11250 7850 50  0001 C CNN "Ref_Fab"
F 5 "540mA" V 11400 7850 50  0000 C CNN "Current"
F 6 "TL 200 028" H 11250 7850 50  0001 C CNN "ID_BASE"
F 7 "CD" H 11250 7850 50  0001 C CNN "Variante"
	1    11250 7850
	0    -1   -1   0   
$EndComp
Wire Wire Line
	14500 5300 14500 5500
Wire Wire Line
	8350 5300 8350 5500
Wire Wire Line
	14500 8300 14500 8500
Wire Wire Line
	10250 5300 10850 5300
Text Notes 5950 3150 0    59   ~ 12
Interrupteur ON/OFF\nON/OFF Switch
Wire Notes Line
	5900 3200 7100 3200
Wire Notes Line
	7100 3200 7100 3800
Wire Notes Line
	7100 3800 5900 3800
Wire Notes Line
	5900 3800 5900 3200
Text HLabel 6700 3600 0    50   Output ~ 0
ON-OFF_1
Text HLabel 6700 3450 0    50   Input ~ 0
ON-OFF_2
Wire Wire Line
	7650 5300 8350 5300
$Comp
L Device:D_Schottky D23002
U 1 1 5D5BBDA8
P 6150 5600
F 0 "D23002" H 5750 5550 50  0000 C CNN
F 1 "PMEG4010EGWX" H 5600 5650 50  0000 C CNN
F 2 "lib_clavier:D_SOD-123_TL" H 6150 5600 50  0001 C CNN
F 3 "~" H 6150 5600 50  0001 C CNN
F 4 "TL 200 037" H 6150 5600 50  0001 C CNN "ID_BASE"
F 5 "G2" H 6150 5600 50  0001 C CNN "Variante"
F 6 "1A" H 6150 5600 50  0001 C CNN "Current"
	1    6150 5600
	-1   0    0    1   
$EndComp
$Comp
L Device:D_Schottky D23001
U 1 1 5D5C150D
P 6150 5000
F 0 "D23001" H 5750 4950 50  0000 C CNN
F 1 "PMEG4010EGWX" H 5600 5050 50  0000 C CNN
F 2 "lib_clavier:D_SOD-123_TL" H 6150 5000 50  0001 C CNN
F 3 "~" H 6150 5000 50  0001 C CNN
F 4 "TL 200 037" H 6150 5000 50  0001 C CNN "ID_BASE"
F 5 "G1" H 6150 5000 50  0001 C CNN "Variante"
F 6 "1A" H 6150 5000 50  0001 C CNN "Current"
	1    6150 5000
	-1   0    0    1   
$EndComp
Wire Wire Line
	6350 5300 6350 5000
Wire Wire Line
	6350 5000 6300 5000
Wire Wire Line
	6350 5300 6350 5600
Wire Wire Line
	6350 5600 6300 5600
Connection ~ 6350 5300
Wire Wire Line
	6350 5300 7500 5300
Wire Wire Line
	6700 3600 7500 3600
Wire Wire Line
	6700 3450 7650 3450
Wire Wire Line
	7500 3600 7500 5300
Wire Wire Line
	7650 3450 7650 5300
$Comp
L Device:R R23003
U 1 1 5D635840
P 11850 5500
F 0 "R23003" H 11600 5450 50  0000 C CNN
F 1 "46.4k" H 11650 5550 50  0000 C CNN
F 2 "lib_clavier:R_0402_TL" V 11780 5500 50  0001 C CNN
F 3 "~" H 11850 5500 50  0001 C CNN
F 4 "TL 200 062" H 11850 5500 50  0001 C CNN "ID_BASE"
F 5 "CD" H 11850 5500 50  0001 C CNN "Variante"
	1    11850 5500
	-1   0    0    1   
$EndComp
$Comp
L Device:R R23004
U 1 1 5D63B9E9
P 12050 5900
F 0 "R23004" H 12300 5850 50  0000 C CNN
F 1 "16.2k" H 12250 5950 50  0000 C CNN
F 2 "lib_clavier:R_0402_TL" V 11980 5900 50  0001 C CNN
F 3 "~" H 12050 5900 50  0001 C CNN
F 4 "TL 200 009" H 12050 5900 50  0001 C CNN "ID_BASE"
F 5 "CD" H 12050 5900 50  0001 C CNN "Variante"
	1    12050 5900
	-1   0    0    1   
$EndComp
$Comp
L Device:R R23005
U 1 1 5D63D1A5
P 12200 5900
F 0 "R23005" H 11950 5850 50  0000 C CNN
F 1 "16.2k" H 12000 5950 50  0000 C CNN
F 2 "lib_clavier:R_0402_TL" V 12130 5900 50  0001 C CNN
F 3 "~" H 12200 5900 50  0001 C CNN
F 4 "TL 200 009" H 12200 5900 50  0001 C CNN "ID_BASE"
F 5 "CD" H 12200 5900 50  0001 C CNN "Variante"
	1    12200 5900
	-1   0    0    1   
$EndComp
$Comp
L power:GND #PWR?
U 1 1 5D4BAD1C
P 12800 5750
AR Path="/5D4BAD1C" Ref="#PWR?"  Part="1" 
AR Path="/5D4A0749/5D49F20C/5D4BAD1C" Ref="#PWR?"  Part="1" 
AR Path="/5D4A0749/5D55A9E5/5D4BAD1C" Ref="#PWR03005"  Part="1" 
F 0 "#PWR03005" H 12800 5500 50  0001 C CNN
F 1 "GND" H 12805 5577 50  0001 C CNN
F 2 "" H 12800 5750 50  0001 C CNN
F 3 "" H 12800 5750 50  0001 C CNN
	1    12800 5750
	1    0    0    -1  
$EndComp
$Comp
L power:GND #PWR?
U 1 1 5D644FB1
P 12050 6100
AR Path="/5D644FB1" Ref="#PWR?"  Part="1" 
AR Path="/5D4A0749/5D49F20C/5D644FB1" Ref="#PWR?"  Part="1" 
AR Path="/5D4A0749/5D55A9E5/5D644FB1" Ref="#PWR0101"  Part="1" 
F 0 "#PWR0101" H 12050 5850 50  0001 C CNN
F 1 "GND" H 12055 5927 50  0001 C CNN
F 2 "" H 12050 6100 50  0001 C CNN
F 3 "" H 12050 6100 50  0001 C CNN
	1    12050 6100
	1    0    0    -1  
$EndComp
$Comp
L power:GND #PWR?
U 1 1 5D6453C6
P 12200 6100
AR Path="/5D6453C6" Ref="#PWR?"  Part="1" 
AR Path="/5D4A0749/5D49F20C/5D6453C6" Ref="#PWR?"  Part="1" 
AR Path="/5D4A0749/5D55A9E5/5D6453C6" Ref="#PWR0102"  Part="1" 
F 0 "#PWR0102" H 12200 5850 50  0001 C CNN
F 1 "GND" H 12205 5927 50  0001 C CNN
F 2 "" H 12200 6100 50  0001 C CNN
F 3 "" H 12200 6100 50  0001 C CNN
	1    12200 6100
	1    0    0    -1  
$EndComp
Wire Wire Line
	12050 6100 12050 6050
Wire Wire Line
	12200 6100 12200 6050
Wire Wire Line
	12050 5750 12050 5700
Wire Wire Line
	12050 5700 12200 5700
Wire Wire Line
	12200 5700 12200 5750
Wire Wire Line
	11650 5700 11850 5700
Connection ~ 12050 5700
Wire Wire Line
	11850 5700 11850 5650
Connection ~ 11850 5700
Wire Wire Line
	11850 5700 12050 5700
Wire Wire Line
	11650 5300 11850 5300
Wire Wire Line
	11850 5350 11850 5300
Connection ~ 11850 5300
Wire Wire Line
	11850 5300 12800 5300
$Comp
L Device:R R23006
U 1 1 5D661F64
P 11850 8500
F 0 "R23006" H 11600 8450 50  0000 C CNN
F 1 "73.2k" H 11650 8550 50  0000 C CNN
F 2 "lib_clavier:R_0402_TL" V 11780 8500 50  0001 C CNN
F 3 "~" H 11850 8500 50  0001 C CNN
F 4 "TL 200 063" H 11850 8500 50  0001 C CNN "ID_BASE"
F 5 "CD" H 11850 8500 50  0001 C CNN "Variante"
	1    11850 8500
	-1   0    0    1   
$EndComp
$Comp
L Device:R R23007
U 1 1 5D661F6C
P 12050 8900
F 0 "R23007" H 12300 8850 50  0000 C CNN
F 1 "16.2k" H 12250 8950 50  0000 C CNN
F 2 "lib_clavier:R_0402_TL" V 11980 8900 50  0001 C CNN
F 3 "~" H 12050 8900 50  0001 C CNN
F 4 "TL 200 009" H 12050 8900 50  0001 C CNN "ID_BASE"
F 5 "CD" H 12050 8900 50  0001 C CNN "Variante"
	1    12050 8900
	-1   0    0    1   
$EndComp
$Comp
L Device:R R23009
U 1 1 5D661F74
P 12200 8900
F 0 "R23009" H 11950 8850 50  0000 C CNN
F 1 "16.2k" H 12000 8950 50  0000 C CNN
F 2 "lib_clavier:R_0402_TL" V 12130 8900 50  0001 C CNN
F 3 "~" H 12200 8900 50  0001 C CNN
F 4 "TL 200 009" H 12200 8900 50  0001 C CNN "ID_BASE"
F 5 "CD" H 12200 8900 50  0001 C CNN "Variante"
	1    12200 8900
	-1   0    0    1   
$EndComp
$Comp
L power:GND #PWR?
U 1 1 5D661F7A
P 12050 9100
AR Path="/5D661F7A" Ref="#PWR?"  Part="1" 
AR Path="/5D4A0749/5D49F20C/5D661F7A" Ref="#PWR?"  Part="1" 
AR Path="/5D4A0749/5D55A9E5/5D661F7A" Ref="#PWR0103"  Part="1" 
F 0 "#PWR0103" H 12050 8850 50  0001 C CNN
F 1 "GND" H 12055 8927 50  0001 C CNN
F 2 "" H 12050 9100 50  0001 C CNN
F 3 "" H 12050 9100 50  0001 C CNN
	1    12050 9100
	1    0    0    -1  
$EndComp
$Comp
L power:GND #PWR?
U 1 1 5D661F80
P 12200 9100
AR Path="/5D661F80" Ref="#PWR?"  Part="1" 
AR Path="/5D4A0749/5D49F20C/5D661F80" Ref="#PWR?"  Part="1" 
AR Path="/5D4A0749/5D55A9E5/5D661F80" Ref="#PWR0104"  Part="1" 
F 0 "#PWR0104" H 12200 8850 50  0001 C CNN
F 1 "GND" H 12205 8927 50  0001 C CNN
F 2 "" H 12200 9100 50  0001 C CNN
F 3 "" H 12200 9100 50  0001 C CNN
	1    12200 9100
	1    0    0    -1  
$EndComp
Wire Wire Line
	12050 9100 12050 9050
Wire Wire Line
	12200 9100 12200 9050
Wire Wire Line
	12050 8750 12050 8700
Wire Wire Line
	12050 8700 12200 8700
Wire Wire Line
	12200 8700 12200 8750
Wire Wire Line
	11650 8700 11850 8700
Connection ~ 12050 8700
Wire Wire Line
	11850 8700 11850 8650
Connection ~ 11850 8700
Wire Wire Line
	11850 8700 12050 8700
Wire Wire Line
	11850 8350 11850 8300
Wire Wire Line
	11650 8300 11850 8300
Wire Wire Line
	11850 8300 12800 8300
Connection ~ 11850 8300
Text GLabel 5000 5600 0    50   UnSpc ~ 0
VBAT
Text GLabel 5000 5000 0    50   UnSpc ~ 0
VBUS_F
Wire Wire Line
	5000 5600 5250 5600
Connection ~ 5250 5600
Wire Wire Line
	5000 5000 5250 5000
Connection ~ 5250 5000
$EndSCHEMATC
