G04 #@! TF.GenerationSoftware,KiCad,Pcbnew,5.1.4-e60b266~84~ubuntu18.04.1*
G04 #@! TF.CreationDate,2019-10-24T21:31:02+02:00*
G04 #@! TF.ProjectId,carte_MCU,63617274-655f-44d4-9355-2e6b69636164,A*
G04 #@! TF.SameCoordinates,Original*
G04 #@! TF.FileFunction,Paste,Bot*
G04 #@! TF.FilePolarity,Positive*
%FSLAX46Y46*%
G04 Gerber Fmt 4.6, Leading zero omitted, Abs format (unit mm)*
G04 Created by KiCad (PCBNEW 5.1.4-e60b266~84~ubuntu18.04.1) date 2019-10-24 21:31:02*
%MOMM*%
%LPD*%
G04 APERTURE LIST*
%ADD10R,0.600000X0.600000*%
%ADD11R,1.200000X1.350000*%
%ADD12R,0.800000X0.900000*%
G04 APERTURE END LIST*
D10*
X139010000Y-102000000D03*
X137910000Y-102000000D03*
X139010000Y-102885000D03*
X137910000Y-102885000D03*
X141645000Y-102005000D03*
X142745000Y-102005000D03*
D11*
X161515000Y-116025000D03*
X159315000Y-116025000D03*
X156595000Y-114085000D03*
X158795000Y-114085000D03*
D10*
X163900000Y-110660000D03*
X162800000Y-110660000D03*
X156920000Y-121005000D03*
X158020000Y-121005000D03*
X164900000Y-119250000D03*
X164900000Y-120350000D03*
X155240000Y-110555000D03*
X156340000Y-110555000D03*
X154310000Y-116205000D03*
X154310000Y-115105000D03*
X154315000Y-112810000D03*
X154315000Y-113910000D03*
D12*
X151465000Y-115525000D03*
X153265000Y-115525000D03*
D10*
X157960000Y-109560000D03*
X157960000Y-110660000D03*
X158760000Y-109560000D03*
X158760000Y-110660000D03*
X159560000Y-109560000D03*
X159560000Y-110660000D03*
X160360000Y-109560000D03*
X160360000Y-110660000D03*
X161160000Y-109560000D03*
X161160000Y-110660000D03*
X161960000Y-109560000D03*
X161960000Y-110660000D03*
X165640000Y-118220000D03*
X164540000Y-118220000D03*
X165640000Y-117420000D03*
X164540000Y-117420000D03*
D11*
X200620000Y-115250000D03*
X202820000Y-115250000D03*
D10*
X204220000Y-117335000D03*
X203120000Y-117335000D03*
X198830000Y-116905000D03*
X199930000Y-116905000D03*
X202825000Y-120405000D03*
X202825000Y-119305000D03*
X148070000Y-107710000D03*
X146970000Y-107710000D03*
M02*
