%!PS-Adobe-3.0
%%Creator: PCBNEW
%%CreationDate: Sun Oct 13 14:25:24 2019
%%Title: /media/lilian/Tada_Center/ToucheLibre/03_Électronique/01_Schéma/02_Carte_MCU/carte_MCU-NPTH-drl_map.ps
%%Pages: 1
%%PageOrder: Ascend
%%BoundingBox: 0 0 596 842
%%DocumentMedia: A4 595 842 0 () ()
%%Orientation: Landscape
%%EndComments
%%BeginProlog
/line { newpath moveto lineto stroke } bind def
/cir0 { newpath 0 360 arc stroke } bind def
/cir1 { newpath 0 360 arc gsave fill grestore stroke } bind def
/cir2 { newpath 0 360 arc gsave fill grestore stroke } bind def
/arc0 { newpath arc stroke } bind def
/arc1 { newpath 4 index 4 index moveto arc closepath gsave fill
    grestore stroke } bind def
/arc2 { newpath 4 index 4 index moveto arc closepath gsave fill
    grestore stroke } bind def
/poly0 { stroke } bind def
/poly1 { closepath gsave fill grestore stroke } bind def
/poly2 { closepath gsave fill grestore stroke } bind def
/rect0 { rectstroke } bind def
/rect1 { rectfill } bind def
/rect2 { rectfill } bind def
/linemode0 { 0 setlinecap 0 setlinejoin 0 setlinewidth } bind def
/linemode1 { 1 setlinecap 1 setlinejoin } bind def
/dashedline { [200] 100 setdash } bind def
/solidline { [] 0 setdash } bind def
/phantomshow { moveto
    /KicadFont findfont 0.000001 scalefont setfont
    show } bind def
/textshow { gsave
    findfont exch scalefont setfont concat 1 scale 0 0 moveto show
    } bind def
/reencodefont {
  findfont dup length dict begin
  { 1 index /FID ne
    { def }
    { pop pop } ifelse
  } forall
  /Encoding ISOLatin1Encoding def
  currentdict
  end } bind def
/KicadFont /Helvetica reencodefont definefont pop
/KicadFont-Bold /Helvetica-Bold reencodefont definefont pop
/KicadFont-Oblique /Helvetica-Oblique reencodefont definefont pop
/KicadFont-BoldOblique /Helvetica-BoldOblique reencodefont definefont pop
%%EndProlog
%%Page: 1 1
%%BeginPageSetup
gsave
0.0072 0.0072 scale
linemode1
82680 0 translate 90 rotate
107.04 setlinewidth
%%EndPageSetup
0 0 0 setrgbcolor
42.1416 setlinewidth
newpath
109035 72625.6 moveto
7895.09 72625.6 lineto
stroke
0 0 0 setrgbcolor
newpath
7895.09 43126.4 moveto
7895.09 72625.6 lineto
stroke
0 0 0 setrgbcolor
newpath
109035 43126.4 moveto
7895.09 43126.4 lineto
stroke
0 0 0 setrgbcolor
newpath
109035 43126.4 moveto
109035 72625.6 lineto
stroke
78.7399 setlinewidth
118.11 setlinewidth
0 0 0 setrgbcolor
0 0 0 setrgbcolor
newpath
9001.69 41271.8 moveto
9001.69 42453 lineto
9282.9 42453 lineto
9451.63 42396.7 lineto
9564.12 42284.2 lineto
9620.36 42171.7 lineto
9676.6 41946.8 lineto
9676.6 41778 lineto
9620.36 41553.1 lineto
9564.12 41440.6 lineto
9451.63 41328.1 lineto
9282.9 41271.8 lineto
9001.69 41271.8 lineto
stroke
newpath
10182.8 41271.8 moveto
10182.8 42059.3 lineto
stroke
newpath
10182.8 41834.3 moveto
10239 41946.8 lineto
10295.3 42003 lineto
10407.8 42059.3 lineto
10520.2 42059.3 lineto
stroke
newpath
10913.9 41271.8 moveto
10913.9 42059.3 lineto
stroke
newpath
10913.9 42453 moveto
10857.7 42396.7 lineto
10913.9 42340.5 lineto
10970.2 42396.7 lineto
10913.9 42453 lineto
10913.9 42340.5 lineto
stroke
newpath
11645.1 41271.8 moveto
11532.6 41328.1 lineto
11476.4 41440.6 lineto
11476.4 42453 lineto
stroke
newpath
12263.8 41271.8 moveto
12151.3 41328.1 lineto
12095.1 41440.6 lineto
12095.1 42453 lineto
stroke
newpath
13613.6 41271.8 moveto
13613.6 42453 lineto
14007.3 41609.3 lineto
14401 42453 lineto
14401 41271.8 lineto
stroke
newpath
15469.6 41271.8 moveto
15469.6 41890.5 lineto
15413.4 42003 lineto
15300.9 42059.3 lineto
15075.9 42059.3 lineto
14963.4 42003 lineto
stroke
newpath
15469.6 41328.1 moveto
15357.1 41271.8 lineto
15075.9 41271.8 lineto
14963.4 41328.1 lineto
14907.2 41440.6 lineto
14907.2 41553.1 lineto
14963.4 41665.6 lineto
15075.9 41721.8 lineto
15357.1 41721.8 lineto
15469.6 41778 lineto
stroke
newpath
16032.1 42059.3 moveto
16032.1 40878.1 lineto
stroke
newpath
16032.1 42003 moveto
16144.5 42059.3 lineto
16369.5 42059.3 lineto
16482 42003 lineto
16538.2 41946.8 lineto
16594.5 41834.3 lineto
16594.5 41496.8 lineto
16538.2 41384.3 lineto
16482 41328.1 lineto
16369.5 41271.8 lineto
16144.5 41271.8 lineto
16032.1 41328.1 lineto
stroke
newpath
17100.7 41384.3 moveto
17156.9 41328.1 lineto
17100.7 41271.8 lineto
17044.4 41328.1 lineto
17100.7 41384.3 lineto
17100.7 41271.8 lineto
stroke
newpath
17100.7 42003 moveto
17156.9 41946.8 lineto
17100.7 41890.5 lineto
17044.4 41946.8 lineto
17100.7 42003 lineto
17100.7 41890.5 lineto
stroke
showpage
grestore
%%EOF
