%!PS-Adobe-3.0
%%Creator: PCBNEW
%%CreationDate: Sun Oct 13 14:25:24 2019
%%Title: /media/lilian/Tada_Center/ToucheLibre/03_Électronique/01_Schéma/02_Carte_MCU/carte_MCU-PTH-drl_map.ps
%%Pages: 1
%%PageOrder: Ascend
%%BoundingBox: 0 0 596 842
%%DocumentMedia: A4 595 842 0 () ()
%%Orientation: Landscape
%%EndComments
%%BeginProlog
/line { newpath moveto lineto stroke } bind def
/cir0 { newpath 0 360 arc stroke } bind def
/cir1 { newpath 0 360 arc gsave fill grestore stroke } bind def
/cir2 { newpath 0 360 arc gsave fill grestore stroke } bind def
/arc0 { newpath arc stroke } bind def
/arc1 { newpath 4 index 4 index moveto arc closepath gsave fill
    grestore stroke } bind def
/arc2 { newpath 4 index 4 index moveto arc closepath gsave fill
    grestore stroke } bind def
/poly0 { stroke } bind def
/poly1 { closepath gsave fill grestore stroke } bind def
/poly2 { closepath gsave fill grestore stroke } bind def
/rect0 { rectstroke } bind def
/rect1 { rectfill } bind def
/rect2 { rectfill } bind def
/linemode0 { 0 setlinecap 0 setlinejoin 0 setlinewidth } bind def
/linemode1 { 1 setlinecap 1 setlinejoin } bind def
/dashedline { [200] 100 setdash } bind def
/solidline { [] 0 setdash } bind def
/phantomshow { moveto
    /KicadFont findfont 0.000001 scalefont setfont
    show } bind def
/textshow { gsave
    findfont exch scalefont setfont concat 1 scale 0 0 moveto show
    } bind def
/reencodefont {
  findfont dup length dict begin
  { 1 index /FID ne
    { def }
    { pop pop } ifelse
  } forall
  /Encoding ISOLatin1Encoding def
  currentdict
  end } bind def
/KicadFont /Helvetica reencodefont definefont pop
/KicadFont-Bold /Helvetica-Bold reencodefont definefont pop
/KicadFont-Oblique /Helvetica-Oblique reencodefont definefont pop
/KicadFont-BoldOblique /Helvetica-BoldOblique reencodefont definefont pop
%%EndProlog
%%Page: 1 1
%%BeginPageSetup
gsave
0.0072 0.0072 scale
linemode1
82680 0 translate 90 rotate
107.04 setlinewidth
%%EndPageSetup
0 0 0 setrgbcolor
42.1416 setlinewidth
newpath
109035 72625.6 moveto
7895.09 72625.6 lineto
stroke
0 0 0 setrgbcolor
newpath
7895.09 43126.4 moveto
7895.09 72625.6 lineto
stroke
0 0 0 setrgbcolor
newpath
109035 43126.4 moveto
7895.09 43126.4 lineto
stroke
0 0 0 setrgbcolor
newpath
109035 43126.4 moveto
109035 72625.6 lineto
stroke
78.7399 setlinewidth
newpath
16702.7 70139.2 moveto
16955.5 69886.4 lineto
stroke
newpath
16955.5 70139.2 moveto
16702.7 69886.4 lineto
stroke
newpath
44006.2 64024.5 moveto
44259.1 63771.6 lineto
stroke
newpath
44259.1 64024.5 moveto
44006.2 63771.6 lineto
stroke
newpath
44516.1 62819.2 moveto
44769 62566.4 lineto
stroke
newpath
44769 62819.2 moveto
44516.1 62566.4 lineto
stroke
newpath
45999.5 66266.4 moveto
46252.4 66013.5 lineto
stroke
newpath
46252.4 66266.4 moveto
45999.5 66013.5 lineto
stroke
newpath
46079.6 64374.2 moveto
46332.4 64121.4 lineto
stroke
newpath
46332.4 64374.2 moveto
46079.6 64121.4 lineto
stroke
newpath
47099.4 65402.5 moveto
47352.3 65149.6 lineto
stroke
newpath
47352.3 65402.5 moveto
47099.4 65149.6 lineto
stroke
newpath
50542.4 56738.2 moveto
50795.2 56485.3 lineto
stroke
newpath
50795.2 56738.2 moveto
50542.4 56485.3 lineto
stroke
newpath
50546.6 58090.9 moveto
50799.4 57838.1 lineto
stroke
newpath
50799.4 58090.9 moveto
50546.6 57838.1 lineto
stroke
newpath
51709.7 62798.1 moveto
51962.6 62545.3 lineto
stroke
newpath
51962.6 62798.1 moveto
51709.7 62545.3 lineto
stroke
newpath
51722.3 57404 moveto
51975.2 57151.2 lineto
stroke
newpath
51975.2 57404 moveto
51722.3 57151.2 lineto
stroke
newpath
51756.1 56055.5 moveto
52008.9 55802.6 lineto
stroke
newpath
52008.9 56055.5 moveto
51756.1 55802.6 lineto
stroke
newpath
51916.2 58748.3 moveto
52169 58495.5 lineto
stroke
newpath
52169 58748.3 moveto
51916.2 58495.5 lineto
stroke
newpath
56619.2 65461.5 moveto
56872 65208.6 lineto
stroke
newpath
56872 65461.5 moveto
56619.2 65208.6 lineto
stroke
newpath
57297.7 66485.5 moveto
57550.5 66232.7 lineto
stroke
newpath
57550.5 66485.5 moveto
57297.7 66232.7 lineto
stroke
newpath
57967.7 65457.3 moveto
58220.6 65204.4 lineto
stroke
newpath
58220.6 65457.3 moveto
57967.7 65204.4 lineto
stroke
newpath
58642 66489.7 moveto
58894.8 66236.9 lineto
stroke
newpath
58894.8 66489.7 moveto
58642 66236.9 lineto
stroke
newpath
58642 53455.3 moveto
58894.8 53202.5 lineto
stroke
newpath
58894.8 53455.3 moveto
58642 53202.5 lineto
stroke
newpath
59316.3 65457.3 moveto
59569.1 65204.4 lineto
stroke
newpath
59569.1 65457.3 moveto
59316.3 65204.4 lineto
stroke
newpath
59316.3 52401.8 moveto
59569.1 52149 lineto
stroke
newpath
59569.1 52401.8 moveto
59316.3 52149 lineto
stroke
newpath
59990.5 66494 moveto
60243.4 66241.1 lineto
stroke
newpath
60243.4 66494 moveto
59990.5 66241.1 lineto
stroke
newpath
59990.5 53670.3 moveto
60243.4 53417.4 lineto
stroke
newpath
60243.4 53670.3 moveto
59990.5 53417.4 lineto
stroke
newpath
61587.7 66839.5 moveto
61840.5 66586.7 lineto
stroke
newpath
61840.5 66839.5 moveto
61587.7 66586.7 lineto
stroke
newpath
62342 51377.8 moveto
62594.9 51124.9 lineto
stroke
newpath
62594.9 51377.8 moveto
62342 51124.9 lineto
stroke
newpath
63833.8 57404 moveto
64086.7 57151.2 lineto
stroke
newpath
64086.7 57404 moveto
63833.8 57151.2 lineto
stroke
newpath
64192 66949.1 moveto
64444.9 66696.2 lineto
stroke
newpath
64444.9 66949.1 moveto
64192 66696.2 lineto
stroke
newpath
64305.8 50151.4 moveto
64558.7 49898.6 lineto
stroke
newpath
64558.7 50151.4 moveto
64305.8 49898.6 lineto
stroke
newpath
64343.8 53143.5 moveto
64596.6 52890.6 lineto
stroke
newpath
64596.6 53143.5 moveto
64343.8 52890.6 lineto
stroke
newpath
64725.4 58078.3 moveto
64978.3 57825.4 lineto
stroke
newpath
64978.3 58078.3 moveto
64725.4 57825.4 lineto
stroke
newpath
65629.1 50741.4 moveto
65881.9 50488.6 lineto
stroke
newpath
65881.9 50741.4 moveto
65629.1 50488.6 lineto
stroke
newpath
66501.4 53143.5 moveto
66754.3 52890.6 lineto
stroke
newpath
66754.3 53143.5 moveto
66501.4 52890.6 lineto
stroke
newpath
67504.4 68095.3 moveto
67757.2 67842.5 lineto
stroke
newpath
67757.2 68095.3 moveto
67504.4 67842.5 lineto
stroke
newpath
67525.4 50973.2 moveto
67778.3 50720.4 lineto
stroke
newpath
67778.3 50973.2 moveto
67525.4 50720.4 lineto
stroke
newpath
68254.5 62886.6 moveto
68507.3 62633.8 lineto
stroke
newpath
68507.3 62886.6 moveto
68254.5 62633.8 lineto
stroke
newpath
88212.8 68976.1 moveto
88465.6 68723.2 lineto
stroke
newpath
88465.6 68976.1 moveto
88212.8 68723.2 lineto
stroke
newpath
89502.3 69368 moveto
89755.1 69115.2 lineto
stroke
newpath
89755.1 69368 moveto
89502.3 69115.2 lineto
stroke
newpath
89502.3 54357.2 moveto
89755.1 54104.3 lineto
stroke
newpath
89755.1 54357.2 moveto
89502.3 54104.3 lineto
stroke
newpath
89847.8 65086.4 moveto
90100.7 64833.6 lineto
stroke
newpath
90100.7 65086.4 moveto
89847.8 64833.6 lineto
stroke
newpath
89881.6 67046 moveto
90134.4 66793.2 lineto
stroke
newpath
90134.4 67046 moveto
89881.6 66793.2 lineto
stroke
newpath
90421 56329.4 moveto
90673.8 56076.6 lineto
stroke
newpath
90673.8 56329.4 moveto
90421 56076.6 lineto
stroke
newpath
90431.5 58548.2 moveto
90684.4 58295.3 lineto
stroke
newpath
90684.4 58548.2 moveto
90431.5 58295.3 lineto
stroke
newpath
92085.6 48562.7 moveto
92338.4 48309.9 lineto
stroke
newpath
92338.4 48562.7 moveto
92085.6 48309.9 lineto
stroke
newpath
92089.8 50922.6 moveto
92342.6 50669.8 lineto
stroke
newpath
92342.6 50922.6 moveto
92089.8 50669.8 lineto
stroke
newpath
92178.3 69224.7 moveto
92431.1 68971.9 lineto
stroke
newpath
92431.1 69224.7 moveto
92178.3 68971.9 lineto
stroke
newpath
92578.6 49245.4 moveto
92831.5 48992.6 lineto
stroke
newpath
92831.5 49245.4 moveto
92578.6 48992.6 lineto
stroke
newpath
92582.8 50252.6 moveto
92835.7 49999.7 lineto
stroke
newpath
92835.7 50252.6 moveto
92582.8 49999.7 lineto
stroke
newpath
92625 58820 moveto
92877.8 58567.1 lineto
stroke
newpath
92877.8 58820 moveto
92625 58567.1 lineto
stroke
newpath
93705.9 68969.8 moveto
93958.8 68716.9 lineto
stroke
newpath
93958.8 68969.8 moveto
93705.9 68716.9 lineto
stroke
newpath
94247.4 57176.4 moveto
94500.3 56923.6 lineto
stroke
newpath
94500.3 57176.4 moveto
94247.4 56923.6 lineto
stroke
newpath
94258 58809.4 moveto
94510.8 58556.6 lineto
stroke
newpath
94510.8 58809.4 moveto
94258 58556.6 lineto
stroke
newpath
94913.3 65082.2 moveto
95166.1 64829.4 lineto
stroke
newpath
95166.1 65082.2 moveto
94913.3 64829.4 lineto
stroke
newpath
94955.4 67012.3 moveto
95208.3 66759.4 lineto
stroke
newpath
95208.3 67012.3 moveto
94955.4 66759.4 lineto
stroke
newpath
94959.6 54972.4 moveto
95212.5 54719.6 lineto
stroke
newpath
95212.5 54972.4 moveto
94959.6 54719.6 lineto
stroke
newpath
94959.6 54167.5 moveto
95212.5 53914.7 lineto
stroke
newpath
95212.5 54167.5 moveto
94959.6 53914.7 lineto
stroke
newpath
94959.6 53371.1 moveto
95212.5 53118.2 lineto
stroke
newpath
95212.5 53371.1 moveto
94959.6 53118.2 lineto
stroke
newpath
94959.6 51171.3 moveto
95212.5 50918.4 lineto
stroke
newpath
95212.5 51171.3 moveto
94959.6 50918.4 lineto
stroke
newpath
94959.6 50261 moveto
95212.5 50008.2 lineto
stroke
newpath
95212.5 50261 moveto
94959.6 50008.2 lineto
stroke
newpath
94959.6 49338.1 moveto
95212.5 49085.3 lineto
stroke
newpath
95212.5 49338.1 moveto
94959.6 49085.3 lineto
stroke
newpath
94959.6 48385.7 moveto
95212.5 48132.9 lineto
stroke
newpath
95212.5 48385.7 moveto
94959.6 48132.9 lineto
stroke
newpath
95102.9 55853.2 moveto
95355.8 55600.4 lineto
stroke
newpath
95355.8 55853.2 moveto
95102.9 55600.4 lineto
stroke
newpath
96266 58099.4 moveto
96518.9 57846.5 lineto
stroke
newpath
96518.9 58099.4 moveto
96266 57846.5 lineto
stroke
newpath
95465.3 47846.3 moveto
95718.2 47593.5 lineto
stroke
newpath
95718.2 47846.3 moveto
95465.3 47593.5 lineto
stroke
8737.92 68832.8 168.566 cir0
8737.92 65461.5 168.566 cir0
8737.92 62090.2 168.566 cir0
8737.92 58718.8 168.566 cir0
8737.92 55347.5 168.566 cir0
8737.92 51976.2 168.566 cir0
9749.32 56822.5 168.566 cir0
9833.6 53451.1 168.566 cir0
10044.3 63775.8 168.566 cir0
10086.5 60404.5 168.566 cir0
11266.4 51554.8 168.566 cir0
11266.4 50711.9 168.566 cir0
11350.7 47340.6 168.566 cir0
11797.4 65941.9 168.566 cir0
12109.2 45654.9 168.566 cir0
12109.2 43969.3 168.566 cir0
12193.5 48099.2 168.566 cir0
12277.8 59308.8 168.566 cir0
12303.1 61525.5 168.566 cir0
12488.5 55558.2 168.566 cir0
12488.5 54083.3 168.566 cir0
13116.4 69979.1 168.566 cir0
13407.2 57336.6 168.566 cir0
13407.2 52288 168.566 cir0
13938.2 63641 168.566 cir0
14427 61584.5 168.566 cir0
14469.2 59056 168.566 cir0
14469.2 54841.8 168.566 cir0
14637.7 65040.1 168.566 cir0
15459.5 68879.2 168.566 cir0
15480.6 45654.9 168.566 cir0
15480.6 43969.3 168.566 cir0
15632.3 61466.5 168.566 cir0
15682.9 63615.7 168.566 cir0
16348.7 68879.2 168.566 cir0
16433 61466.5 168.566 cir0
16437.2 51706.5 168.566 cir0
16744.8 56190.3 168.566 cir0
16955.5 50332.7 168.566 cir0
17284.2 51710.7 168.566 cir0
17393.8 59216.1 168.566 cir0
17709.9 52663.1 168.566 cir0
18118.6 62570.6 168.566 cir0
18122.9 47146.8 168.566 cir0
18430.5 71782.7 168.566 cir0
18438.9 60320.2 168.566 cir0
18641.2 70054.9 168.566 cir0
18725.5 65292.9 168.566 cir0
18851.9 45654.9 168.566 cir0
18851.9 43969.3 168.566 cir0
19357.6 58676.7 168.566 cir0
19484 50585.5 168.566 cir0
19905.4 61458 168.566 cir0
19930.7 63506.1 168.566 cir0
20200.4 66810 168.566 cir0
20242.6 68074.3 168.566 cir0
20672.4 52671.5 168.566 cir0
20959 71782.7 168.566 cir0
21043.3 66810 168.566 cir0
21216 58739.9 168.566 cir0
21296.1 65419.3 168.566 cir0
21334 63506.1 168.566 cir0
21338.3 61373.8 168.566 cir0
21844 70012.8 168.566 cir0
22012.5 49911.2 168.566 cir0
22223.2 45654.9 168.566 cir0
22223.2 43969.3 168.566 cir0
22261.2 57631.6 168.566 cir0
22265.4 59873.5 168.566 cir0
22610.9 51731.8 168.566 cir0
22981.8 56148.2 168.566 cir0
23066.1 68622.1 168.566 cir0
23141.9 62566.4 168.566 cir0
23184.1 47146.8 168.566 cir0
23458 51736 168.566 cir0
24119.6 61411.7 168.566 cir0
24140.7 52806.4 168.566 cir0
24836 54420.4 168.566 cir0
24878.2 50838.4 168.566 cir0
24962.4 61407.5 168.566 cir0
25093.1 63501.9 168.566 cir0
25426 56274.6 168.566 cir0
25468.1 59983.1 168.566 cir0
25510.3 65377.2 168.566 cir0
25594.6 57960.3 168.566 cir0
25594.6 45654.9 168.566 cir0
25594.6 43969.3 168.566 cir0
26568 63506.1 168.566 cir0
26774.5 69296.4 168.566 cir0
26816.7 55600.4 168.566 cir0
27187.5 49970.2 168.566 cir0
27195.9 59856.7 168.566 cir0
27322.4 52776.9 168.566 cir0
27448.8 57454.6 168.566 cir0
27815.4 63029.9 168.566 cir0
28106.2 51719.1 168.566 cir0
28241 47146.8 168.566 cir0
28713 55853.2 168.566 cir0
28953.2 51723.3 168.566 cir0
28965.9 45654.9 168.566 cir0
28965.9 43969.3 168.566 cir0
29374.7 52671.5 168.566 cir0
29387.3 57876 168.566 cir0
29387.3 50206.2 168.566 cir0
30019.4 61668.7 168.566 cir0
30230.1 66936.4 168.566 cir0
31157.2 50606.6 168.566 cir0
31199.4 60235.9 168.566 cir0
31831.5 61626.6 168.566 cir0
31873.7 63607.3 168.566 cir0
32337.2 45654.9 168.566 cir0
32337.2 43969.3 168.566 cir0
32341.4 52679.9 168.566 cir0
32885.1 58714.6 168.566 cir0
33180 68200.7 168.566 cir0
33264.3 62570.6 168.566 cir0
33277 47142.5 168.566 cir0
33727.9 49915.5 168.566 cir0
33934.4 59835.6 168.566 cir0
33938.6 57652.7 168.566 cir0
34254.7 51761.3 168.566 cir0
34638.1 61500.2 168.566 cir0
35101.7 51765.5 168.566 cir0
35245 63607.3 168.566 cir0
35666.4 67400 168.566 cir0
35708.5 71782.7 168.566 cir0
35708.5 45654.9 168.566 cir0
35708.5 43969.3 168.566 cir0
35788.6 61411.7 168.566 cir0
35792.8 52819 168.566 cir0
36656.7 61411.7 168.566 cir0
36837.9 49974.5 168.566 cir0
36888.5 54841.8 168.566 cir0
37141.4 63607.3 168.566 cir0
37394.2 71782.7 168.566 cir0
37579.6 69591.4 168.566 cir0
37984.2 57412.4 168.566 cir0
37988.4 52292.2 168.566 cir0
38068.5 68327.1 168.566 cir0
38447.7 69591.4 168.566 cir0
38827 67147.2 168.566 cir0
39071.4 70750.3 168.566 cir0
39079.9 45654.9 168.566 cir0
39079.9 43969.3 168.566 cir0
39109.4 49974.5 168.566 cir0
39122 62975.1 168.566 cir0
39122 58676.7 168.566 cir0
39143.1 60219.1 168.566 cir0
39922.7 54926.1 168.566 cir0
39922.7 47340.6 168.566 cir0
40221.9 68354.9 168.566 cir0
40221.9 67560.1 168.566 cir0
40512.7 57876 168.566 cir0
41481.9 65461.5 168.566 cir0
41692.6 66894.3 168.566 cir0
41873.9 70109.7 168.566 cir0
41945.5 60067.4 168.566 cir0
42278.4 49970.2 168.566 cir0
42451.2 52397.6 168.566 cir0
42451.2 43969.3 168.566 cir0
42914.8 56822.5 168.566 cir0
42944.3 69410.2 168.566 cir0
42944.3 66038.8 168.566 cir0
42944.3 65212.9 168.566 cir0
44014.6 70160.3 168.566 cir0
44166.4 68251.3 168.566 cir0
44642.6 65040.1 168.566 cir0
45232.5 55558.2 168.566 cir0
45485.4 49978.7 168.566 cir0
45822.5 43969.3 168.566 cir0
46117.5 52987.6 168.566 cir0
47761 56738.2 168.566 cir0
47845.3 51512.6 168.566 cir0
48148.7 68596.8 168.566 cir0
48300.4 70168.7 168.566 cir0
48308.9 63270.1 168.566 cir0
48435.3 66902.7 168.566 cir0
48435.3 59270.9 168.566 cir0
49193.8 43969.3 168.566 cir0
49771.2 50606.6 168.566 cir0
49868.1 57328.2 168.566 cir0
50121 65040.1 168.566 cir0
50121 59224.5 168.566 cir0
50626.7 63017.3 168.566 cir0
51048.1 55853.2 168.566 cir0
51520.1 70172.9 168.566 cir0
51646.5 68605.2 168.566 cir0
51663.3 50433.8 168.566 cir0
52565.2 43969.3 168.566 cir0
53408 47340.6 168.566 cir0
53648.2 64104.5 168.566 cir0
53858.9 54264.5 168.566 cir0
54457.3 59207.7 168.566 cir0
54503.7 60408.7 168.566 cir0
54524.8 61972.2 168.566 cir0
54571.1 68605.2 168.566 cir0
54714.4 70160.3 168.566 cir0
54958.8 61538.1 168.566 cir0
54975.7 50467.5 168.566 cir0
55229.8 59762.7 168.566 cir0
55380.2 62920.3 168.566 cir0
55835.4 51537.9 168.566 cir0
55877.5 55731 168.566 cir0
55936.5 45654.9 168.566 cir0
55936.5 43969.3 168.566 cir0
56779.3 55731 168.566 cir0
56851 59119.2 168.566 cir0
57070.1 62861.4 168.566 cir0
57934 70151.8 168.566 cir0
58068.9 68601 168.566 cir0
58427.1 60754.3 168.566 cir0
58443.9 62869.8 168.566 cir0
59493.3 47614.5 168.566 cir0
59763 51542.1 168.566 cir0
59800.9 62844.5 168.566 cir0
60525.7 57607.1 168.566 cir0
60677.4 48444.7 168.566 cir0
60787 65267.6 168.566 cir0
60791.2 62869.8 168.566 cir0
60917.6 59119.2 168.566 cir0
60989.3 68575.8 168.566 cir0
60993.5 46497.8 168.566 cir0
60993.5 43969.3 168.566 cir0
61141 70160.3 168.566 cir0
61275.8 62048 168.566 cir0
61452.8 57652.6 168.566 cir0
61667.8 62975.1 168.566 cir0
61667.8 56392.6 168.566 cir0
63024.7 65284.5 168.566 cir0
63404 55229.5 168.566 cir0
64348 70160.3 168.566 cir0
64360.6 46729.5 168.566 cir0
65713.4 59182.4 168.566 cir0
66809 55684.6 168.566 cir0
67230.5 69001.4 168.566 cir0
67563.4 70160.3 168.566 cir0
67567.6 65756.5 168.566 cir0
67736.2 49447.7 168.566 cir0
67736.2 46497.8 168.566 cir0
67736.2 43969.3 168.566 cir0
67862.6 58171 168.566 cir0
68705.4 67779.3 168.566 cir0
69421.8 50711.9 168.566 cir0
69632.5 55895.3 168.566 cir0
69674.7 62890.8 168.566 cir0
70728.2 68537.8 168.566 cir0
70783 70164.5 168.566 cir0
71107.5 49447.7 168.566 cir0
71107.5 46497.8 168.566 cir0
71107.5 43969.3 168.566 cir0
71360.3 58508.1 168.566 cir0
71587.9 52966.5 168.566 cir0
71697.5 65335.1 168.566 cir0
73046 56738.2 168.566 cir0
73762.4 62975.1 168.566 cir0
73973.1 68285 168.566 cir0
73994.2 70164.5 168.566 cir0
74478.8 59730.2 168.566 cir0
74478.8 48183.4 168.566 cir0
74478.8 46076.4 168.566 cir0
74478.8 43969.3 168.566 cir0
75532.3 65292.9 168.566 cir0
75658.8 56190.3 168.566 cir0
76754.5 63059.4 168.566 cir0
76754.5 58339.6 168.566 cir0
77205.4 70160.3 168.566 cir0
77218 68032.1 168.566 cir0
77428.7 54083.3 168.566 cir0
77850.1 48183.4 168.566 cir0
79325.1 55971.2 168.566 cir0
79367.2 59342.5 168.566 cir0
79392.5 62933 168.566 cir0
79535.8 49869.1 168.566 cir0
79704.4 69759.9 168.566 cir0
80007.8 65672.2 168.566 cir0
81221.5 71782.7 168.566 cir0
81221.5 48183.4 168.566 cir0
81744 67534.9 168.566 cir0
82907.1 49869.1 168.566 cir0
83311.7 65394.1 168.566 cir0
83345.4 63413.4 168.566 cir0
83387.5 59940.9 168.566 cir0
83396 58145.7 168.566 cir0
83412.8 54723.8 168.566 cir0
83421.3 52760 168.566 cir0
83783.7 69203.7 168.566 cir0
84407.4 56561.2 168.566 cir0
84592.8 71782.7 168.566 cir0
84592.8 48183.4 168.566 cir0
85279.7 56059.7 168.566 cir0
85460.9 53198.3 168.566 cir0
85486.2 59502.7 168.566 cir0
85503 66953.3 168.566 cir0
85975 61369.5 168.566 cir0
85975 60573.1 168.566 cir0
86236.3 54989.3 168.566 cir0
86278.5 49869.1 168.566 cir0
87104.4 53189.9 168.566 cir0
87433.1 66978.6 168.566 cir0
87850.3 59119.2 168.566 cir0
87964.1 71782.7 168.566 cir0
87964.1 48183.4 168.566 cir0
88773.2 52397.6 168.566 cir0
88908.1 60927.1 168.566 cir0
89051.4 59115 168.566 cir0
89072.4 54896.6 168.566 cir0
89649.8 49869.1 168.566 cir0
89721.4 60927.1 168.566 cir0
89763.6 53307.9 168.566 cir0
89772 55617.2 168.566 cir0
90804.5 66936.4 168.566 cir0
90871.9 64812.5 168.566 cir0
91335.4 71782.7 168.566 cir0
91335.4 48183.4 168.566 cir0
91811.6 60126.4 168.566 cir0
91828.5 53303.6 168.566 cir0
92195.1 67003.9 168.566 cir0
92372.1 64846.2 168.566 cir0
94706.8 71782.7 168.566 cir0
95596 60130.6 168.566 cir0
95604.4 59388.9 168.566 cir0
95996.3 66995.4 168.566 cir0
96215.4 50880.5 168.566 cir0
96379.8 49654.2 168.566 cir0
96683.2 69899 168.566 cir0
97041.4 64753.5 168.566 cir0
97134.1 62941.4 168.566 cir0
97564 67029.2 168.566 cir0
98073.9 50872.1 168.566 cir0
98078.1 71782.7 168.566 cir0
98078.1 48183.4 168.566 cir0
98196.1 61609.7 168.566 cir0
98221.4 56493.8 168.566 cir0
99215.9 66995.4 168.566 cir0
99283.3 55060.9 168.566 cir0
99283.3 53274.1 168.566 cir0
99300.2 59848.2 168.566 cir0
99300.2 57951.9 168.566 cir0
99317.1 64964.2 168.566 cir0
99317.1 63042.6 168.566 cir0
99763.8 49869.1 168.566 cir0
99923.9 69861.1 168.566 cir0
101449 71782.7 168.566 cir0
101449 48183.4 168.566 cir0
102039 66936.4 168.566 cir0
102082 60488.8 168.566 cir0
102166 57412.4 168.566 cir0
102208 54631.1 168.566 cir0
102292 63607.3 168.566 cir0
103135 49869.1 168.566 cir0
103350 70017 168.566 cir0
104821 71782.7 168.566 cir0
104821 65882.9 168.566 cir0
104821 62511.6 168.566 cir0
104821 59140.2 168.566 cir0
104821 55768.9 168.566 cir0
104821 53240.4 168.566 cir0
104821 48183.4 168.566 cir0
105411 47172 168.566 cir0
105411 45570.7 168.566 cir0
105411 43969.3 168.566 cir0
105647 51352.5 168.566 cir0
105647 50560.2 168.566 cir0
106506 67568.6 168.566 cir0
106506 54083.3 168.566 cir0
108192 68832.8 168.566 cir0
108192 65461.5 168.566 cir0
108192 62090.2 168.566 cir0
108192 58718.8 168.566 cir0
108192 55347.5 168.566 cir0
108192 51976.2 168.566 cir0
newpath
13112.2 72225.2 moveto
13112.2 71677.4 lineto
stroke
newpath
12838.3 71951.3 moveto
13386.1 71951.3 lineto
stroke
newpath
14182.6 72225.2 moveto
14182.6 71677.4 lineto
stroke
newpath
13908.7 71951.3 moveto
14456.5 71951.3 lineto
stroke
newpath
15253 72225.2 moveto
15253 71677.4 lineto
stroke
newpath
14979.1 71951.3 moveto
15526.9 71951.3 lineto
stroke
newpath
16323.4 72225.2 moveto
16323.4 71677.4 lineto
stroke
newpath
16049.5 71951.3 moveto
16597.3 71951.3 lineto
stroke
newpath
23546.5 72225.2 moveto
23546.5 71677.4 lineto
stroke
newpath
23272.6 71951.3 moveto
23820.4 71951.3 lineto
stroke
newpath
24616.9 72225.2 moveto
24616.9 71677.4 lineto
stroke
newpath
24343 71951.3 moveto
24890.8 71951.3 lineto
stroke
newpath
25687.3 72225.2 moveto
25687.3 71677.4 lineto
stroke
newpath
25413.3 71951.3 moveto
25961.2 71951.3 lineto
stroke
newpath
26757.7 72225.2 moveto
26757.7 71677.4 lineto
stroke
newpath
26483.7 71951.3 moveto
27031.6 71951.3 lineto
stroke
newpath
27828.1 72225.2 moveto
27828.1 71677.4 lineto
stroke
newpath
27554.1 71951.3 moveto
28102 71951.3 lineto
stroke
newpath
28898.5 72225.2 moveto
28898.5 71677.4 lineto
stroke
newpath
28624.5 71951.3 moveto
29172.4 71951.3 lineto
stroke
newpath
29968.9 72225.2 moveto
29968.9 71677.4 lineto
stroke
newpath
29694.9 71951.3 moveto
30242.8 71951.3 lineto
stroke
newpath
31039.3 72225.2 moveto
31039.3 71677.4 lineto
stroke
newpath
30765.3 71951.3 moveto
31313.2 71951.3 lineto
stroke
newpath
32109.6 72225.2 moveto
32109.6 71677.4 lineto
stroke
newpath
31835.7 71951.3 moveto
32383.6 71951.3 lineto
stroke
newpath
33209.5 72225.2 moveto
33209.5 71677.4 lineto
stroke
newpath
32935.6 71951.3 moveto
33483.5 71951.3 lineto
stroke
newpath
39733.1 72225.2 moveto
39733.1 71677.4 lineto
stroke
newpath
39459.1 71951.3 moveto
40007 71951.3 lineto
stroke
newpath
40803.5 72225.2 moveto
40803.5 71677.4 lineto
stroke
newpath
40529.5 71951.3 moveto
41077.4 71951.3 lineto
stroke
newpath
41873.9 72225.2 moveto
41873.9 71677.4 lineto
stroke
newpath
41599.9 71951.3 moveto
42147.8 71951.3 lineto
stroke
newpath
42944.3 72225.2 moveto
42944.3 71677.4 lineto
stroke
newpath
42670.3 71951.3 moveto
43218.2 71951.3 lineto
stroke
newpath
44014.6 72225.2 moveto
44014.6 71677.4 lineto
stroke
newpath
43740.7 71951.3 moveto
44288.6 71951.3 lineto
stroke
newpath
45085 72225.2 moveto
45085 71677.4 lineto
stroke
newpath
44811.1 71951.3 moveto
45359 71951.3 lineto
stroke
newpath
46155.4 72225.2 moveto
46155.4 71677.4 lineto
stroke
newpath
45881.5 71951.3 moveto
46429.4 71951.3 lineto
stroke
newpath
47225.8 72225.2 moveto
47225.8 71677.4 lineto
stroke
newpath
46951.9 71951.3 moveto
47499.8 71951.3 lineto
stroke
newpath
48296.2 72225.2 moveto
48296.2 71677.4 lineto
stroke
newpath
48022.3 71951.3 moveto
48570.2 71951.3 lineto
stroke
newpath
49366.6 72225.2 moveto
49366.6 71677.4 lineto
stroke
newpath
49092.7 71951.3 moveto
49640.6 71951.3 lineto
stroke
newpath
50437 72225.2 moveto
50437 71677.4 lineto
stroke
newpath
50163.1 71951.3 moveto
50710.9 71951.3 lineto
stroke
newpath
51507.4 72225.2 moveto
51507.4 71677.4 lineto
stroke
newpath
51233.5 71951.3 moveto
51781.3 71951.3 lineto
stroke
newpath
52577.8 72225.2 moveto
52577.8 71677.4 lineto
stroke
newpath
52303.9 71951.3 moveto
52851.7 71951.3 lineto
stroke
newpath
53648.2 72225.2 moveto
53648.2 71677.4 lineto
stroke
newpath
53374.3 71951.3 moveto
53922.1 71951.3 lineto
stroke
newpath
54718.6 72225.2 moveto
54718.6 71677.4 lineto
stroke
newpath
54444.7 71951.3 moveto
54992.5 71951.3 lineto
stroke
newpath
55789 72225.2 moveto
55789 71677.4 lineto
stroke
newpath
55515.1 71951.3 moveto
56062.9 71951.3 lineto
stroke
newpath
56859.4 72225.2 moveto
56859.4 71677.4 lineto
stroke
newpath
56585.5 71951.3 moveto
57133.3 71951.3 lineto
stroke
newpath
57929.8 72225.2 moveto
57929.8 71677.4 lineto
stroke
newpath
57655.9 71951.3 moveto
58203.7 71951.3 lineto
stroke
newpath
59000.2 72225.2 moveto
59000.2 71677.4 lineto
stroke
newpath
58726.3 71951.3 moveto
59274.1 71951.3 lineto
stroke
newpath
60070.6 72225.2 moveto
60070.6 71677.4 lineto
stroke
newpath
59796.7 71951.3 moveto
60344.5 71951.3 lineto
stroke
newpath
61141 72225.2 moveto
61141 71677.4 lineto
stroke
newpath
60867.1 71951.3 moveto
61414.9 71951.3 lineto
stroke
newpath
62211.4 72225.2 moveto
62211.4 71677.4 lineto
stroke
newpath
61937.5 71951.3 moveto
62485.3 71951.3 lineto
stroke
newpath
63281.8 72225.2 moveto
63281.8 71677.4 lineto
stroke
newpath
63007.9 71951.3 moveto
63555.7 71951.3 lineto
stroke
newpath
64352.2 72225.2 moveto
64352.2 71677.4 lineto
stroke
newpath
64078.3 71951.3 moveto
64626.1 71951.3 lineto
stroke
newpath
65422.6 72225.2 moveto
65422.6 71677.4 lineto
stroke
newpath
65148.7 71951.3 moveto
65696.5 71951.3 lineto
stroke
newpath
66493 72225.2 moveto
66493 71677.4 lineto
stroke
newpath
66219.1 71951.3 moveto
66766.9 71951.3 lineto
stroke
newpath
67563.4 72225.2 moveto
67563.4 71677.4 lineto
stroke
newpath
67289.5 71951.3 moveto
67837.3 71951.3 lineto
stroke
newpath
68633.8 72225.2 moveto
68633.8 71677.4 lineto
stroke
newpath
68359.8 71951.3 moveto
68907.7 71951.3 lineto
stroke
newpath
69704.2 72225.2 moveto
69704.2 71677.4 lineto
stroke
newpath
69430.2 71951.3 moveto
69978.1 71951.3 lineto
stroke
newpath
70774.6 72225.2 moveto
70774.6 71677.4 lineto
stroke
newpath
70500.6 71951.3 moveto
71048.5 71951.3 lineto
stroke
newpath
71845 72225.2 moveto
71845 71677.4 lineto
stroke
newpath
71571 71951.3 moveto
72118.9 71951.3 lineto
stroke
newpath
72915.4 72225.2 moveto
72915.4 71677.4 lineto
stroke
newpath
72641.4 71951.3 moveto
73189.3 71951.3 lineto
stroke
newpath
73985.7 72225.2 moveto
73985.7 71677.4 lineto
stroke
newpath
73711.8 71951.3 moveto
74259.7 71951.3 lineto
stroke
newpath
75056.1 72225.2 moveto
75056.1 71677.4 lineto
stroke
newpath
74782.2 71951.3 moveto
75330.1 71951.3 lineto
stroke
newpath
76126.5 72225.2 moveto
76126.5 71677.4 lineto
stroke
newpath
75852.6 71951.3 moveto
76400.5 71951.3 lineto
stroke
newpath
77196.9 72225.2 moveto
77196.9 71677.4 lineto
stroke
newpath
76923 71951.3 moveto
77470.9 71951.3 lineto
stroke
newpath
31070.8 53322.6 moveto
31070.8 53739.8 lineto
30653.7 53739.8 lineto
30653.7 53322.6 lineto
31070.8 53322.6 lineto
poly0
newpath
19397.6 53305.8 moveto
19397.6 53722.9 lineto
18980.4 53722.9 lineto
18980.4 53305.8 lineto
19397.6 53305.8 lineto
poly0
newpath
9580.75 49447.7 moveto
10002.2 49869.1 lineto
9580.75 50290.5 lineto
9159.34 49869.1 lineto
9580.75 49447.7 lineto
poly0
newpath
9580.75 47306.9 moveto
10002.2 47728.3 lineto
9580.75 48149.7 lineto
9159.34 47728.3 lineto
9580.75 47306.9 lineto
poly0
newpath
107349 49447.7 moveto
107771 49869.1 lineto
107349 50290.5 lineto
106928 49869.1 lineto
107349 49447.7 lineto
poly0
newpath
107349 47306.9 moveto
107771 47728.3 lineto
107349 48149.7 lineto
106928 47728.3 lineto
107349 47306.9 lineto
poly0
newpath
93568.9 57446.2 moveto
93990.4 57867.6 lineto
93568.9 58289 lineto
93147.5 57867.6 lineto
93568.9 57446.2 lineto
poly0
newpath
8737.92 71782.7 moveto
10423.6 70097.1 lineto
stroke
newpath
10423.6 71782.7 moveto
8737.92 70097.1 lineto
stroke
9580.75 70939.9 842.832 cir0
newpath
8737.92 45654.9 moveto
10423.6 43969.3 lineto
stroke
newpath
10423.6 45654.9 moveto
8737.92 43969.3 lineto
stroke
9580.75 44812.1 842.832 cir0
newpath
57622.2 45654.9 moveto
59307.8 43969.3 lineto
stroke
newpath
59307.8 45654.9 moveto
57622.2 43969.3 lineto
stroke
58465 44812.1 842.832 cir0
newpath
106506 71782.7 moveto
108192 70097.1 lineto
stroke
newpath
108192 71782.7 moveto
106506 70097.1 lineto
stroke
107349 70939.9 842.832 cir0
newpath
106506 45654.9 moveto
108192 43969.3 lineto
stroke
newpath
108192 45654.9 moveto
106506 43969.3 lineto
stroke
107349 44812.1 842.832 cir0
118.11 setlinewidth
0 0 0 setrgbcolor
0 0 0 setrgbcolor
newpath
9001.69 41271.8 moveto
9001.69 42453 lineto
9282.9 42453 lineto
9451.63 42396.7 lineto
9564.12 42284.2 lineto
9620.36 42171.7 lineto
9676.6 41946.8 lineto
9676.6 41778 lineto
9620.36 41553.1 lineto
9564.12 41440.6 lineto
9451.63 41328.1 lineto
9282.9 41271.8 lineto
9001.69 41271.8 lineto
stroke
newpath
10182.8 41271.8 moveto
10182.8 42059.3 lineto
stroke
newpath
10182.8 41834.3 moveto
10239 41946.8 lineto
10295.3 42003 lineto
10407.8 42059.3 lineto
10520.2 42059.3 lineto
stroke
newpath
10913.9 41271.8 moveto
10913.9 42059.3 lineto
stroke
newpath
10913.9 42453 moveto
10857.7 42396.7 lineto
10913.9 42340.5 lineto
10970.2 42396.7 lineto
10913.9 42453 lineto
10913.9 42340.5 lineto
stroke
newpath
11645.1 41271.8 moveto
11532.6 41328.1 lineto
11476.4 41440.6 lineto
11476.4 42453 lineto
stroke
newpath
12263.8 41271.8 moveto
12151.3 41328.1 lineto
12095.1 41440.6 lineto
12095.1 42453 lineto
stroke
newpath
13613.6 41271.8 moveto
13613.6 42453 lineto
14007.3 41609.3 lineto
14401 42453 lineto
14401 41271.8 lineto
stroke
newpath
15469.6 41271.8 moveto
15469.6 41890.5 lineto
15413.4 42003 lineto
15300.9 42059.3 lineto
15075.9 42059.3 lineto
14963.4 42003 lineto
stroke
newpath
15469.6 41328.1 moveto
15357.1 41271.8 lineto
15075.9 41271.8 lineto
14963.4 41328.1 lineto
14907.2 41440.6 lineto
14907.2 41553.1 lineto
14963.4 41665.6 lineto
15075.9 41721.8 lineto
15357.1 41721.8 lineto
15469.6 41778 lineto
stroke
newpath
16032.1 42059.3 moveto
16032.1 40878.1 lineto
stroke
newpath
16032.1 42003 moveto
16144.5 42059.3 lineto
16369.5 42059.3 lineto
16482 42003 lineto
16538.2 41946.8 lineto
16594.5 41834.3 lineto
16594.5 41496.8 lineto
16538.2 41384.3 lineto
16482 41328.1 lineto
16369.5 41271.8 lineto
16144.5 41271.8 lineto
16032.1 41328.1 lineto
stroke
newpath
17100.7 41384.3 moveto
17156.9 41328.1 lineto
17100.7 41271.8 lineto
17044.4 41328.1 lineto
17100.7 41384.3 lineto
17100.7 41271.8 lineto
stroke
newpath
17100.7 42003 moveto
17156.9 41946.8 lineto
17100.7 41890.5 lineto
17044.4 41946.8 lineto
17100.7 42003 lineto
17100.7 41890.5 lineto
stroke
newpath
7621.17 39452.3 moveto
7874.02 39199.4 lineto
stroke
newpath
7874.02 39452.3 moveto
7621.17 39199.4 lineto
stroke
0 0 0 setrgbcolor
0 0 0 setrgbcolor
newpath
9226.66 39972.6 moveto
9339.14 39972.6 lineto
9451.63 39916.4 lineto
9507.87 39860.2 lineto
9564.12 39747.7 lineto
9620.36 39522.7 lineto
9620.36 39241.5 lineto
9564.12 39016.5 lineto
9507.87 38904 lineto
9451.63 38847.8 lineto
9339.14 38791.5 lineto
9226.66 38791.5 lineto
9114.17 38847.8 lineto
9057.93 38904 lineto
9001.69 39016.5 lineto
8945.44 39241.5 lineto
8945.44 39522.7 lineto
9001.69 39747.7 lineto
9057.93 39860.2 lineto
9114.17 39916.4 lineto
9226.66 39972.6 lineto
stroke
newpath
10126.5 38904 moveto
10182.8 38847.8 lineto
10126.5 38791.5 lineto
10070.3 38847.8 lineto
10126.5 38904 lineto
10126.5 38791.5 lineto
stroke
newpath
10576.5 39972.6 moveto
11307.6 39972.6 lineto
10913.9 39522.7 lineto
11082.7 39522.7 lineto
11195.2 39466.5 lineto
11251.4 39410.2 lineto
11307.6 39297.7 lineto
11307.6 39016.5 lineto
11251.4 38904 lineto
11195.2 38847.8 lineto
11082.7 38791.5 lineto
10745.2 38791.5 lineto
10632.7 38847.8 lineto
10576.5 38904 lineto
stroke
newpath
12038.8 39972.6 moveto
12151.3 39972.6 lineto
12263.8 39916.4 lineto
12320 39860.2 lineto
12376.3 39747.7 lineto
12432.5 39522.7 lineto
12432.5 39241.5 lineto
12376.3 39016.5 lineto
12320 38904 lineto
12263.8 38847.8 lineto
12151.3 38791.5 lineto
12038.8 38791.5 lineto
11926.3 38847.8 lineto
11870.1 38904 lineto
11813.8 39016.5 lineto
11757.6 39241.5 lineto
11757.6 39522.7 lineto
11813.8 39747.7 lineto
11870.1 39860.2 lineto
11926.3 39916.4 lineto
12038.8 39972.6 lineto
stroke
newpath
12938.7 38791.5 moveto
12938.7 39578.9 lineto
stroke
newpath
12938.7 39466.5 moveto
12994.9 39522.7 lineto
13107.4 39578.9 lineto
13276.2 39578.9 lineto
13388.6 39522.7 lineto
13444.9 39410.2 lineto
13444.9 38791.5 lineto
stroke
newpath
13444.9 39410.2 moveto
13501.1 39522.7 lineto
13613.6 39578.9 lineto
13782.3 39578.9 lineto
13894.8 39522.7 lineto
13951.1 39410.2 lineto
13951.1 38791.5 lineto
stroke
newpath
14513.5 38791.5 moveto
14513.5 39578.9 lineto
stroke
newpath
14513.5 39466.5 moveto
14569.7 39522.7 lineto
14682.2 39578.9 lineto
14851 39578.9 lineto
14963.4 39522.7 lineto
15019.7 39410.2 lineto
15019.7 38791.5 lineto
stroke
newpath
15019.7 39410.2 moveto
15075.9 39522.7 lineto
15188.4 39578.9 lineto
15357.1 39578.9 lineto
15469.6 39522.7 lineto
15525.9 39410.2 lineto
15525.9 38791.5 lineto
stroke
newpath
17831.8 40028.9 moveto
16819.5 38510.3 lineto
stroke
newpath
19350.4 39972.6 moveto
19462.9 39972.6 lineto
19575.4 39916.4 lineto
19631.6 39860.2 lineto
19687.9 39747.7 lineto
19744.1 39522.7 lineto
19744.1 39241.5 lineto
19687.9 39016.5 lineto
19631.6 38904 lineto
19575.4 38847.8 lineto
19462.9 38791.5 lineto
19350.4 38791.5 lineto
19237.9 38847.8 lineto
19181.7 38904 lineto
19125.4 39016.5 lineto
19069.2 39241.5 lineto
19069.2 39522.7 lineto
19125.4 39747.7 lineto
19181.7 39860.2 lineto
19237.9 39916.4 lineto
19350.4 39972.6 lineto
stroke
newpath
20250.3 38904 moveto
20306.5 38847.8 lineto
20250.3 38791.5 lineto
20194 38847.8 lineto
20250.3 38904 lineto
20250.3 38791.5 lineto
stroke
newpath
21037.7 39972.6 moveto
21150.2 39972.6 lineto
21262.7 39916.4 lineto
21318.9 39860.2 lineto
21375.1 39747.7 lineto
21431.4 39522.7 lineto
21431.4 39241.5 lineto
21375.1 39016.5 lineto
21318.9 38904 lineto
21262.7 38847.8 lineto
21150.2 38791.5 lineto
21037.7 38791.5 lineto
20925.2 38847.8 lineto
20869 38904 lineto
20812.7 39016.5 lineto
20756.5 39241.5 lineto
20756.5 39522.7 lineto
20812.7 39747.7 lineto
20869 39860.2 lineto
20925.2 39916.4 lineto
21037.7 39972.6 lineto
stroke
newpath
22556.2 38791.5 moveto
21881.3 38791.5 lineto
stroke
newpath
22218.8 38791.5 moveto
22218.8 39972.6 lineto
22106.3 39803.9 lineto
21993.8 39691.4 lineto
21881.3 39635.2 lineto
stroke
newpath
23006.2 39860.2 moveto
23062.4 39916.4 lineto
23174.9 39972.6 lineto
23456.1 39972.6 lineto
23568.6 39916.4 lineto
23624.9 39860.2 lineto
23681.1 39747.7 lineto
23681.1 39635.2 lineto
23624.9 39466.5 lineto
22949.9 38791.5 lineto
23681.1 38791.5 lineto
stroke
newpath
24131 39972.6 moveto
24131 39747.7 lineto
stroke
newpath
24581 39972.6 moveto
24581 39747.7 lineto
stroke
newpath
26324.5 38341.6 moveto
26268.3 38397.8 lineto
26155.8 38566.6 lineto
26099.6 38679 lineto
26043.3 38847.8 lineto
25987.1 39129 lineto
25987.1 39354 lineto
26043.3 39635.2 lineto
26099.6 39803.9 lineto
26155.8 39916.4 lineto
26268.3 40085.1 lineto
26324.5 40141.4 lineto
stroke
newpath
27280.7 39972.6 moveto
27055.7 39972.6 lineto
26943.2 39916.4 lineto
26887 39860.2 lineto
26774.5 39691.4 lineto
26718.2 39466.5 lineto
26718.2 39016.5 lineto
26774.5 38904 lineto
26830.7 38847.8 lineto
26943.2 38791.5 lineto
27168.2 38791.5 lineto
27280.7 38847.8 lineto
27336.9 38904 lineto
27393.1 39016.5 lineto
27393.1 39297.7 lineto
27336.9 39410.2 lineto
27280.7 39466.5 lineto
27168.2 39522.7 lineto
26943.2 39522.7 lineto
26830.7 39466.5 lineto
26774.5 39410.2 lineto
26718.2 39297.7 lineto
stroke
newpath
28518 38791.5 moveto
27843.1 38791.5 lineto
stroke
newpath
28180.5 38791.5 moveto
28180.5 39972.6 lineto
28068.1 39803.9 lineto
27955.6 39691.4 lineto
27843.1 39635.2 lineto
stroke
newpath
29924.1 38791.5 moveto
29924.1 39972.6 lineto
stroke
newpath
30430.3 38791.5 moveto
30430.3 39410.2 lineto
30374 39522.7 lineto
30261.5 39578.9 lineto
30092.8 39578.9 lineto
29980.3 39522.7 lineto
29924.1 39466.5 lineto
stroke
newpath
31161.4 38791.5 moveto
31048.9 38847.8 lineto
30992.7 38904 lineto
30936.4 39016.5 lineto
30936.4 39354 lineto
30992.7 39466.5 lineto
31048.9 39522.7 lineto
31161.4 39578.9 lineto
31330.1 39578.9 lineto
31442.6 39522.7 lineto
31498.9 39466.5 lineto
31555.1 39354 lineto
31555.1 39016.5 lineto
31498.9 38904 lineto
31442.6 38847.8 lineto
31330.1 38791.5 lineto
31161.4 38791.5 lineto
stroke
newpath
32230 38791.5 moveto
32117.5 38847.8 lineto
32061.3 38960.3 lineto
32061.3 39972.6 lineto
stroke
newpath
33129.9 38847.8 moveto
33017.4 38791.5 lineto
32792.5 38791.5 lineto
32680 38847.8 lineto
32623.7 38960.3 lineto
32623.7 39410.2 lineto
32680 39522.7 lineto
32792.5 39578.9 lineto
33017.4 39578.9 lineto
33129.9 39522.7 lineto
33186.2 39410.2 lineto
33186.2 39297.7 lineto
32623.7 39185.2 lineto
stroke
newpath
33636.1 38847.8 moveto
33748.6 38791.5 lineto
33973.6 38791.5 lineto
34086.1 38847.8 lineto
34142.3 38960.3 lineto
34142.3 39016.5 lineto
34086.1 39129 lineto
33973.6 39185.2 lineto
33804.8 39185.2 lineto
33692.4 39241.5 lineto
33636.1 39354 lineto
33636.1 39410.2 lineto
33692.4 39522.7 lineto
33804.8 39578.9 lineto
33973.6 39578.9 lineto
34086.1 39522.7 lineto
stroke
newpath
34536 38341.6 moveto
34592.2 38397.8 lineto
34704.7 38566.6 lineto
34761 38679 lineto
34817.2 38847.8 lineto
34873.5 39129 lineto
34873.5 39354 lineto
34817.2 39635.2 lineto
34761 39803.9 lineto
34704.7 39916.4 lineto
34592.2 40085.1 lineto
34536 40141.4 lineto
stroke
7705.45 37766.8 168.566 cir0
0 0 0 setrgbcolor
0 0 0 setrgbcolor
newpath
9226.66 38413.6 moveto
9339.14 38413.6 lineto
9451.63 38357.3 lineto
9507.87 38301.1 lineto
9564.12 38188.6 lineto
9620.36 37963.6 lineto
9620.36 37682.4 lineto
9564.12 37457.5 lineto
9507.87 37345 lineto
9451.63 37288.7 lineto
9339.14 37232.5 lineto
9226.66 37232.5 lineto
9114.17 37288.7 lineto
9057.93 37345 lineto
9001.69 37457.5 lineto
8945.44 37682.4 lineto
8945.44 37963.6 lineto
9001.69 38188.6 lineto
9057.93 38301.1 lineto
9114.17 38357.3 lineto
9226.66 38413.6 lineto
stroke
newpath
10126.5 37345 moveto
10182.8 37288.7 lineto
10126.5 37232.5 lineto
10070.3 37288.7 lineto
10126.5 37345 lineto
10126.5 37232.5 lineto
stroke
newpath
11195.2 38019.9 moveto
11195.2 37232.5 lineto
stroke
newpath
10913.9 38469.8 moveto
10632.7 37626.2 lineto
11363.9 37626.2 lineto
stroke
newpath
12038.8 38413.6 moveto
12151.3 38413.6 lineto
12263.8 38357.3 lineto
12320 38301.1 lineto
12376.3 38188.6 lineto
12432.5 37963.6 lineto
12432.5 37682.4 lineto
12376.3 37457.5 lineto
12320 37345 lineto
12263.8 37288.7 lineto
12151.3 37232.5 lineto
12038.8 37232.5 lineto
11926.3 37288.7 lineto
11870.1 37345 lineto
11813.8 37457.5 lineto
11757.6 37682.4 lineto
11757.6 37963.6 lineto
11813.8 38188.6 lineto
11870.1 38301.1 lineto
11926.3 38357.3 lineto
12038.8 38413.6 lineto
stroke
newpath
12938.7 37232.5 moveto
12938.7 38019.9 lineto
stroke
newpath
12938.7 37907.4 moveto
12994.9 37963.6 lineto
13107.4 38019.9 lineto
13276.2 38019.9 lineto
13388.6 37963.6 lineto
13444.9 37851.2 lineto
13444.9 37232.5 lineto
stroke
newpath
13444.9 37851.2 moveto
13501.1 37963.6 lineto
13613.6 38019.9 lineto
13782.3 38019.9 lineto
13894.8 37963.6 lineto
13951.1 37851.2 lineto
13951.1 37232.5 lineto
stroke
newpath
14513.5 37232.5 moveto
14513.5 38019.9 lineto
stroke
newpath
14513.5 37907.4 moveto
14569.7 37963.6 lineto
14682.2 38019.9 lineto
14851 38019.9 lineto
14963.4 37963.6 lineto
15019.7 37851.2 lineto
15019.7 37232.5 lineto
stroke
newpath
15019.7 37851.2 moveto
15075.9 37963.6 lineto
15188.4 38019.9 lineto
15357.1 38019.9 lineto
15469.6 37963.6 lineto
15525.9 37851.2 lineto
15525.9 37232.5 lineto
stroke
newpath
17831.8 38469.8 moveto
16819.5 36951.3 lineto
stroke
newpath
19350.4 38413.6 moveto
19462.9 38413.6 lineto
19575.4 38357.3 lineto
19631.6 38301.1 lineto
19687.9 38188.6 lineto
19744.1 37963.6 lineto
19744.1 37682.4 lineto
19687.9 37457.5 lineto
19631.6 37345 lineto
19575.4 37288.7 lineto
19462.9 37232.5 lineto
19350.4 37232.5 lineto
19237.9 37288.7 lineto
19181.7 37345 lineto
19125.4 37457.5 lineto
19069.2 37682.4 lineto
19069.2 37963.6 lineto
19125.4 38188.6 lineto
19181.7 38301.1 lineto
19237.9 38357.3 lineto
19350.4 38413.6 lineto
stroke
newpath
20250.3 37345 moveto
20306.5 37288.7 lineto
20250.3 37232.5 lineto
20194 37288.7 lineto
20250.3 37345 lineto
20250.3 37232.5 lineto
stroke
newpath
21037.7 38413.6 moveto
21150.2 38413.6 lineto
21262.7 38357.3 lineto
21318.9 38301.1 lineto
21375.1 38188.6 lineto
21431.4 37963.6 lineto
21431.4 37682.4 lineto
21375.1 37457.5 lineto
21318.9 37345 lineto
21262.7 37288.7 lineto
21150.2 37232.5 lineto
21037.7 37232.5 lineto
20925.2 37288.7 lineto
20869 37345 lineto
20812.7 37457.5 lineto
20756.5 37682.4 lineto
20756.5 37963.6 lineto
20812.7 38188.6 lineto
20869 38301.1 lineto
20925.2 38357.3 lineto
21037.7 38413.6 lineto
stroke
newpath
22556.2 37232.5 moveto
21881.3 37232.5 lineto
stroke
newpath
22218.8 37232.5 moveto
22218.8 38413.6 lineto
22106.3 38244.9 lineto
21993.8 38132.4 lineto
21881.3 38076.1 lineto
stroke
newpath
23568.6 38413.6 moveto
23343.6 38413.6 lineto
23231.2 38357.3 lineto
23174.9 38301.1 lineto
23062.4 38132.4 lineto
23006.2 37907.4 lineto
23006.2 37457.5 lineto
23062.4 37345 lineto
23118.7 37288.7 lineto
23231.2 37232.5 lineto
23456.1 37232.5 lineto
23568.6 37288.7 lineto
23624.9 37345 lineto
23681.1 37457.5 lineto
23681.1 37738.7 lineto
23624.9 37851.2 lineto
23568.6 37907.4 lineto
23456.1 37963.6 lineto
23231.2 37963.6 lineto
23118.7 37907.4 lineto
23062.4 37851.2 lineto
23006.2 37738.7 lineto
stroke
newpath
24131 38413.6 moveto
24131 38188.6 lineto
stroke
newpath
24581 38413.6 moveto
24581 38188.6 lineto
stroke
newpath
26324.5 36782.5 moveto
26268.3 36838.8 lineto
26155.8 37007.5 lineto
26099.6 37120 lineto
26043.3 37288.7 lineto
25987.1 37569.9 lineto
25987.1 37794.9 lineto
26043.3 38076.1 lineto
26099.6 38244.9 lineto
26155.8 38357.3 lineto
26268.3 38526.1 lineto
26324.5 38582.3 lineto
stroke
newpath
26662 38413.6 moveto
27393.1 38413.6 lineto
26999.4 37963.6 lineto
27168.2 37963.6 lineto
27280.7 37907.4 lineto
27336.9 37851.2 lineto
27393.1 37738.7 lineto
27393.1 37457.5 lineto
27336.9 37345 lineto
27280.7 37288.7 lineto
27168.2 37232.5 lineto
26830.7 37232.5 lineto
26718.2 37288.7 lineto
26662 37345 lineto
stroke
newpath
27786.8 38413.6 moveto
28574.2 38413.6 lineto
28068.1 37232.5 lineto
stroke
newpath
29642.9 37232.5 moveto
28967.9 37232.5 lineto
stroke
newpath
29305.4 37232.5 moveto
29305.4 38413.6 lineto
29192.9 38244.9 lineto
29080.4 38132.4 lineto
28967.9 38076.1 lineto
stroke
newpath
31048.9 37232.5 moveto
31048.9 38413.6 lineto
stroke
newpath
31555.1 37232.5 moveto
31555.1 37851.2 lineto
31498.9 37963.6 lineto
31386.4 38019.9 lineto
31217.7 38019.9 lineto
31105.2 37963.6 lineto
31048.9 37907.4 lineto
stroke
newpath
32286.3 37232.5 moveto
32173.8 37288.7 lineto
32117.5 37345 lineto
32061.3 37457.5 lineto
32061.3 37794.9 lineto
32117.5 37907.4 lineto
32173.8 37963.6 lineto
32286.3 38019.9 lineto
32455 38019.9 lineto
32567.5 37963.6 lineto
32623.7 37907.4 lineto
32680 37794.9 lineto
32680 37457.5 lineto
32623.7 37345 lineto
32567.5 37288.7 lineto
32455 37232.5 lineto
32286.3 37232.5 lineto
stroke
newpath
33354.9 37232.5 moveto
33242.4 37288.7 lineto
33186.2 37401.2 lineto
33186.2 38413.6 lineto
stroke
newpath
34254.8 37288.7 moveto
34142.3 37232.5 lineto
33917.3 37232.5 lineto
33804.8 37288.7 lineto
33748.6 37401.2 lineto
33748.6 37851.2 lineto
33804.8 37963.6 lineto
33917.3 38019.9 lineto
34142.3 38019.9 lineto
34254.8 37963.6 lineto
34311 37851.2 lineto
34311 37738.7 lineto
33748.6 37626.2 lineto
stroke
newpath
34761 37288.7 moveto
34873.5 37232.5 lineto
35098.4 37232.5 lineto
35210.9 37288.7 lineto
35267.2 37401.2 lineto
35267.2 37457.5 lineto
35210.9 37569.9 lineto
35098.4 37626.2 lineto
34929.7 37626.2 lineto
34817.2 37682.4 lineto
34761 37794.9 lineto
34761 37851.2 lineto
34817.2 37963.6 lineto
34929.7 38019.9 lineto
35098.4 38019.9 lineto
35210.9 37963.6 lineto
stroke
newpath
35660.9 36782.5 moveto
35717.1 36838.8 lineto
35829.6 37007.5 lineto
35885.8 37120 lineto
35942.1 37288.7 lineto
35998.3 37569.9 lineto
35998.3 37794.9 lineto
35942.1 38076.1 lineto
35885.8 38244.9 lineto
35829.6 38357.3 lineto
35717.1 38526.1 lineto
35660.9 38582.3 lineto
stroke
newpath
7600.1 36481.7 moveto
7600.1 35933.8 lineto
stroke
newpath
7326.18 36207.7 moveto
7874.02 36207.7 lineto
stroke
0 0 0 setrgbcolor
0 0 0 setrgbcolor
newpath
9226.66 36854.5 moveto
9339.14 36854.5 lineto
9451.63 36798.3 lineto
9507.87 36742 lineto
9564.12 36629.6 lineto
9620.36 36404.6 lineto
9620.36 36123.4 lineto
9564.12 35898.4 lineto
9507.87 35785.9 lineto
9451.63 35729.7 lineto
9339.14 35673.4 lineto
9226.66 35673.4 lineto
9114.17 35729.7 lineto
9057.93 35785.9 lineto
9001.69 35898.4 lineto
8945.44 36123.4 lineto
8945.44 36404.6 lineto
9001.69 36629.6 lineto
9057.93 36742 lineto
9114.17 36798.3 lineto
9226.66 36854.5 lineto
stroke
newpath
10126.5 35785.9 moveto
10182.8 35729.7 lineto
10126.5 35673.4 lineto
10070.3 35729.7 lineto
10126.5 35785.9 lineto
10126.5 35673.4 lineto
stroke
newpath
11195.2 36854.5 moveto
10970.2 36854.5 lineto
10857.7 36798.3 lineto
10801.5 36742 lineto
10689 36573.3 lineto
10632.7 36348.3 lineto
10632.7 35898.4 lineto
10689 35785.9 lineto
10745.2 35729.7 lineto
10857.7 35673.4 lineto
11082.7 35673.4 lineto
11195.2 35729.7 lineto
11251.4 35785.9 lineto
11307.6 35898.4 lineto
11307.6 36179.6 lineto
11251.4 36292.1 lineto
11195.2 36348.3 lineto
11082.7 36404.6 lineto
10857.7 36404.6 lineto
10745.2 36348.3 lineto
10689 36292.1 lineto
10632.7 36179.6 lineto
stroke
newpath
12376.3 36854.5 moveto
11813.8 36854.5 lineto
11757.6 36292.1 lineto
11813.8 36348.3 lineto
11926.3 36404.6 lineto
12207.5 36404.6 lineto
12320 36348.3 lineto
12376.3 36292.1 lineto
12432.5 36179.6 lineto
12432.5 35898.4 lineto
12376.3 35785.9 lineto
12320 35729.7 lineto
12207.5 35673.4 lineto
11926.3 35673.4 lineto
11813.8 35729.7 lineto
11757.6 35785.9 lineto
stroke
newpath
12938.7 35673.4 moveto
12938.7 36460.8 lineto
stroke
newpath
12938.7 36348.3 moveto
12994.9 36404.6 lineto
13107.4 36460.8 lineto
13276.2 36460.8 lineto
13388.6 36404.6 lineto
13444.9 36292.1 lineto
13444.9 35673.4 lineto
stroke
newpath
13444.9 36292.1 moveto
13501.1 36404.6 lineto
13613.6 36460.8 lineto
13782.3 36460.8 lineto
13894.8 36404.6 lineto
13951.1 36292.1 lineto
13951.1 35673.4 lineto
stroke
newpath
14513.5 35673.4 moveto
14513.5 36460.8 lineto
stroke
newpath
14513.5 36348.3 moveto
14569.7 36404.6 lineto
14682.2 36460.8 lineto
14851 36460.8 lineto
14963.4 36404.6 lineto
15019.7 36292.1 lineto
15019.7 35673.4 lineto
stroke
newpath
15019.7 36292.1 moveto
15075.9 36404.6 lineto
15188.4 36460.8 lineto
15357.1 36460.8 lineto
15469.6 36404.6 lineto
15525.9 36292.1 lineto
15525.9 35673.4 lineto
stroke
newpath
17831.8 36910.8 moveto
16819.5 35392.2 lineto
stroke
newpath
19350.4 36854.5 moveto
19462.9 36854.5 lineto
19575.4 36798.3 lineto
19631.6 36742 lineto
19687.9 36629.6 lineto
19744.1 36404.6 lineto
19744.1 36123.4 lineto
19687.9 35898.4 lineto
19631.6 35785.9 lineto
19575.4 35729.7 lineto
19462.9 35673.4 lineto
19350.4 35673.4 lineto
19237.9 35729.7 lineto
19181.7 35785.9 lineto
19125.4 35898.4 lineto
19069.2 36123.4 lineto
19069.2 36404.6 lineto
19125.4 36629.6 lineto
19181.7 36742 lineto
19237.9 36798.3 lineto
19350.4 36854.5 lineto
stroke
newpath
20250.3 35785.9 moveto
20306.5 35729.7 lineto
20250.3 35673.4 lineto
20194 35729.7 lineto
20250.3 35785.9 lineto
20250.3 35673.4 lineto
stroke
newpath
21037.7 36854.5 moveto
21150.2 36854.5 lineto
21262.7 36798.3 lineto
21318.9 36742 lineto
21375.1 36629.6 lineto
21431.4 36404.6 lineto
21431.4 36123.4 lineto
21375.1 35898.4 lineto
21318.9 35785.9 lineto
21262.7 35729.7 lineto
21150.2 35673.4 lineto
21037.7 35673.4 lineto
20925.2 35729.7 lineto
20869 35785.9 lineto
20812.7 35898.4 lineto
20756.5 36123.4 lineto
20756.5 36404.6 lineto
20812.7 36629.6 lineto
20869 36742 lineto
20925.2 36798.3 lineto
21037.7 36854.5 lineto
stroke
newpath
21881.3 36742 moveto
21937.6 36798.3 lineto
22050.1 36854.5 lineto
22331.3 36854.5 lineto
22443.8 36798.3 lineto
22500 36742 lineto
22556.2 36629.6 lineto
22556.2 36517.1 lineto
22500 36348.3 lineto
21825.1 35673.4 lineto
22556.2 35673.4 lineto
stroke
newpath
23568.6 36854.5 moveto
23343.6 36854.5 lineto
23231.2 36798.3 lineto
23174.9 36742 lineto
23062.4 36573.3 lineto
23006.2 36348.3 lineto
23006.2 35898.4 lineto
23062.4 35785.9 lineto
23118.7 35729.7 lineto
23231.2 35673.4 lineto
23456.1 35673.4 lineto
23568.6 35729.7 lineto
23624.9 35785.9 lineto
23681.1 35898.4 lineto
23681.1 36179.6 lineto
23624.9 36292.1 lineto
23568.6 36348.3 lineto
23456.1 36404.6 lineto
23231.2 36404.6 lineto
23118.7 36348.3 lineto
23062.4 36292.1 lineto
23006.2 36179.6 lineto
stroke
newpath
24131 36854.5 moveto
24131 36629.6 lineto
stroke
newpath
24581 36854.5 moveto
24581 36629.6 lineto
stroke
newpath
26324.5 35223.5 moveto
26268.3 35279.7 lineto
26155.8 35448.5 lineto
26099.6 35560.9 lineto
26043.3 35729.7 lineto
25987.1 36010.9 lineto
25987.1 36235.9 lineto
26043.3 36517.1 lineto
26099.6 36685.8 lineto
26155.8 36798.3 lineto
26268.3 36967 lineto
26324.5 37023.3 lineto
stroke
newpath
27336.9 36854.5 moveto
26774.5 36854.5 lineto
26718.2 36292.1 lineto
26774.5 36348.3 lineto
26887 36404.6 lineto
27168.2 36404.6 lineto
27280.7 36348.3 lineto
27336.9 36292.1 lineto
27393.1 36179.6 lineto
27393.1 35898.4 lineto
27336.9 35785.9 lineto
27280.7 35729.7 lineto
27168.2 35673.4 lineto
26887 35673.4 lineto
26774.5 35729.7 lineto
26718.2 35785.9 lineto
stroke
newpath
28124.3 36854.5 moveto
28236.8 36854.5 lineto
28349.3 36798.3 lineto
28405.5 36742 lineto
28461.8 36629.6 lineto
28518 36404.6 lineto
28518 36123.4 lineto
28461.8 35898.4 lineto
28405.5 35785.9 lineto
28349.3 35729.7 lineto
28236.8 35673.4 lineto
28124.3 35673.4 lineto
28011.8 35729.7 lineto
27955.6 35785.9 lineto
27899.3 35898.4 lineto
27843.1 36123.4 lineto
27843.1 36404.6 lineto
27899.3 36629.6 lineto
27955.6 36742 lineto
28011.8 36798.3 lineto
28124.3 36854.5 lineto
stroke
newpath
29924.1 35673.4 moveto
29924.1 36854.5 lineto
stroke
newpath
30430.3 35673.4 moveto
30430.3 36292.1 lineto
30374 36404.6 lineto
30261.5 36460.8 lineto
30092.8 36460.8 lineto
29980.3 36404.6 lineto
29924.1 36348.3 lineto
stroke
newpath
31161.4 35673.4 moveto
31048.9 35729.7 lineto
30992.7 35785.9 lineto
30936.4 35898.4 lineto
30936.4 36235.9 lineto
30992.7 36348.3 lineto
31048.9 36404.6 lineto
31161.4 36460.8 lineto
31330.1 36460.8 lineto
31442.6 36404.6 lineto
31498.9 36348.3 lineto
31555.1 36235.9 lineto
31555.1 35898.4 lineto
31498.9 35785.9 lineto
31442.6 35729.7 lineto
31330.1 35673.4 lineto
31161.4 35673.4 lineto
stroke
newpath
32230 35673.4 moveto
32117.5 35729.7 lineto
32061.3 35842.2 lineto
32061.3 36854.5 lineto
stroke
newpath
33129.9 35729.7 moveto
33017.4 35673.4 lineto
32792.5 35673.4 lineto
32680 35729.7 lineto
32623.7 35842.2 lineto
32623.7 36292.1 lineto
32680 36404.6 lineto
32792.5 36460.8 lineto
33017.4 36460.8 lineto
33129.9 36404.6 lineto
33186.2 36292.1 lineto
33186.2 36179.6 lineto
32623.7 36067.1 lineto
stroke
newpath
33636.1 35729.7 moveto
33748.6 35673.4 lineto
33973.6 35673.4 lineto
34086.1 35729.7 lineto
34142.3 35842.2 lineto
34142.3 35898.4 lineto
34086.1 36010.9 lineto
33973.6 36067.1 lineto
33804.8 36067.1 lineto
33692.4 36123.4 lineto
33636.1 36235.9 lineto
33636.1 36292.1 lineto
33692.4 36404.6 lineto
33804.8 36460.8 lineto
33973.6 36460.8 lineto
34086.1 36404.6 lineto
stroke
newpath
34536 35223.5 moveto
34592.2 35279.7 lineto
34704.7 35448.5 lineto
34761 35560.9 lineto
34817.2 35729.7 lineto
34873.5 36010.9 lineto
34873.5 36235.9 lineto
34817.2 36517.1 lineto
34761 36685.8 lineto
34704.7 36798.3 lineto
34592.2 36967 lineto
34536 37023.3 lineto
stroke
newpath
7787.62 34440.1 moveto
7787.62 34857.3 lineto
7370.43 34857.3 lineto
7370.43 34440.1 lineto
7787.62 34440.1 lineto
poly0
0 0 0 setrgbcolor
0 0 0 setrgbcolor
newpath
9226.66 35295.5 moveto
9339.14 35295.5 lineto
9451.63 35239.2 lineto
9507.87 35183 lineto
9564.12 35070.5 lineto
9620.36 34845.5 lineto
9620.36 34564.3 lineto
9564.12 34339.3 lineto
9507.87 34226.9 lineto
9451.63 34170.6 lineto
9339.14 34114.4 lineto
9226.66 34114.4 lineto
9114.17 34170.6 lineto
9057.93 34226.9 lineto
9001.69 34339.3 lineto
8945.44 34564.3 lineto
8945.44 34845.5 lineto
9001.69 35070.5 lineto
9057.93 35183 lineto
9114.17 35239.2 lineto
9226.66 35295.5 lineto
stroke
newpath
10126.5 34226.9 moveto
10182.8 34170.6 lineto
10126.5 34114.4 lineto
10070.3 34170.6 lineto
10126.5 34226.9 lineto
10126.5 34114.4 lineto
stroke
newpath
10576.5 35295.5 moveto
11363.9 35295.5 lineto
10857.7 34114.4 lineto
stroke
newpath
12038.8 35295.5 moveto
12151.3 35295.5 lineto
12263.8 35239.2 lineto
12320 35183 lineto
12376.3 35070.5 lineto
12432.5 34845.5 lineto
12432.5 34564.3 lineto
12376.3 34339.3 lineto
12320 34226.9 lineto
12263.8 34170.6 lineto
12151.3 34114.4 lineto
12038.8 34114.4 lineto
11926.3 34170.6 lineto
11870.1 34226.9 lineto
11813.8 34339.3 lineto
11757.6 34564.3 lineto
11757.6 34845.5 lineto
11813.8 35070.5 lineto
11870.1 35183 lineto
11926.3 35239.2 lineto
12038.8 35295.5 lineto
stroke
newpath
12938.7 34114.4 moveto
12938.7 34901.8 lineto
stroke
newpath
12938.7 34789.3 moveto
12994.9 34845.5 lineto
13107.4 34901.8 lineto
13276.2 34901.8 lineto
13388.6 34845.5 lineto
13444.9 34733 lineto
13444.9 34114.4 lineto
stroke
newpath
13444.9 34733 moveto
13501.1 34845.5 lineto
13613.6 34901.8 lineto
13782.3 34901.8 lineto
13894.8 34845.5 lineto
13951.1 34733 lineto
13951.1 34114.4 lineto
stroke
newpath
14513.5 34114.4 moveto
14513.5 34901.8 lineto
stroke
newpath
14513.5 34789.3 moveto
14569.7 34845.5 lineto
14682.2 34901.8 lineto
14851 34901.8 lineto
14963.4 34845.5 lineto
15019.7 34733 lineto
15019.7 34114.4 lineto
stroke
newpath
15019.7 34733 moveto
15075.9 34845.5 lineto
15188.4 34901.8 lineto
15357.1 34901.8 lineto
15469.6 34845.5 lineto
15525.9 34733 lineto
15525.9 34114.4 lineto
stroke
newpath
17831.8 35351.7 moveto
16819.5 33833.2 lineto
stroke
newpath
19350.4 35295.5 moveto
19462.9 35295.5 lineto
19575.4 35239.2 lineto
19631.6 35183 lineto
19687.9 35070.5 lineto
19744.1 34845.5 lineto
19744.1 34564.3 lineto
19687.9 34339.3 lineto
19631.6 34226.9 lineto
19575.4 34170.6 lineto
19462.9 34114.4 lineto
19350.4 34114.4 lineto
19237.9 34170.6 lineto
19181.7 34226.9 lineto
19125.4 34339.3 lineto
19069.2 34564.3 lineto
19069.2 34845.5 lineto
19125.4 35070.5 lineto
19181.7 35183 lineto
19237.9 35239.2 lineto
19350.4 35295.5 lineto
stroke
newpath
20250.3 34226.9 moveto
20306.5 34170.6 lineto
20250.3 34114.4 lineto
20194 34170.6 lineto
20250.3 34226.9 lineto
20250.3 34114.4 lineto
stroke
newpath
21037.7 35295.5 moveto
21150.2 35295.5 lineto
21262.7 35239.2 lineto
21318.9 35183 lineto
21375.1 35070.5 lineto
21431.4 34845.5 lineto
21431.4 34564.3 lineto
21375.1 34339.3 lineto
21318.9 34226.9 lineto
21262.7 34170.6 lineto
21150.2 34114.4 lineto
21037.7 34114.4 lineto
20925.2 34170.6 lineto
20869 34226.9 lineto
20812.7 34339.3 lineto
20756.5 34564.3 lineto
20756.5 34845.5 lineto
20812.7 35070.5 lineto
20869 35183 lineto
20925.2 35239.2 lineto
21037.7 35295.5 lineto
stroke
newpath
21881.3 35183 moveto
21937.6 35239.2 lineto
22050.1 35295.5 lineto
22331.3 35295.5 lineto
22443.8 35239.2 lineto
22500 35183 lineto
22556.2 35070.5 lineto
22556.2 34958 lineto
22500 34789.3 lineto
21825.1 34114.4 lineto
22556.2 34114.4 lineto
stroke
newpath
23231.2 34789.3 moveto
23118.7 34845.5 lineto
23062.4 34901.8 lineto
23006.2 35014.3 lineto
23006.2 35070.5 lineto
23062.4 35183 lineto
23118.7 35239.2 lineto
23231.2 35295.5 lineto
23456.1 35295.5 lineto
23568.6 35239.2 lineto
23624.9 35183 lineto
23681.1 35070.5 lineto
23681.1 35014.3 lineto
23624.9 34901.8 lineto
23568.6 34845.5 lineto
23456.1 34789.3 lineto
23231.2 34789.3 lineto
23118.7 34733 lineto
23062.4 34676.8 lineto
23006.2 34564.3 lineto
23006.2 34339.3 lineto
23062.4 34226.9 lineto
23118.7 34170.6 lineto
23231.2 34114.4 lineto
23456.1 34114.4 lineto
23568.6 34170.6 lineto
23624.9 34226.9 lineto
23681.1 34339.3 lineto
23681.1 34564.3 lineto
23624.9 34676.8 lineto
23568.6 34733 lineto
23456.1 34789.3 lineto
stroke
newpath
24131 35295.5 moveto
24131 35070.5 lineto
stroke
newpath
24581 35295.5 moveto
24581 35070.5 lineto
stroke
newpath
26324.5 33664.4 moveto
26268.3 33720.7 lineto
26155.8 33889.4 lineto
26099.6 34001.9 lineto
26043.3 34170.6 lineto
25987.1 34451.8 lineto
25987.1 34676.8 lineto
26043.3 34958 lineto
26099.6 35126.7 lineto
26155.8 35239.2 lineto
26268.3 35408 lineto
26324.5 35464.2 lineto
stroke
newpath
26718.2 35183 moveto
26774.5 35239.2 lineto
26887 35295.5 lineto
27168.2 35295.5 lineto
27280.7 35239.2 lineto
27336.9 35183 lineto
27393.1 35070.5 lineto
27393.1 34958 lineto
27336.9 34789.3 lineto
26662 34114.4 lineto
27393.1 34114.4 lineto
stroke
newpath
28799.2 34114.4 moveto
28799.2 35295.5 lineto
stroke
newpath
29305.4 34114.4 moveto
29305.4 34733 lineto
29249.2 34845.5 lineto
29136.7 34901.8 lineto
28967.9 34901.8 lineto
28855.5 34845.5 lineto
28799.2 34789.3 lineto
stroke
newpath
30036.6 34114.4 moveto
29924.1 34170.6 lineto
29867.8 34226.9 lineto
29811.6 34339.3 lineto
29811.6 34676.8 lineto
29867.8 34789.3 lineto
29924.1 34845.5 lineto
30036.6 34901.8 lineto
30205.3 34901.8 lineto
30317.8 34845.5 lineto
30374 34789.3 lineto
30430.3 34676.8 lineto
30430.3 34339.3 lineto
30374 34226.9 lineto
30317.8 34170.6 lineto
30205.3 34114.4 lineto
30036.6 34114.4 lineto
stroke
newpath
31105.2 34114.4 moveto
30992.7 34170.6 lineto
30936.4 34283.1 lineto
30936.4 35295.5 lineto
stroke
newpath
32005.1 34170.6 moveto
31892.6 34114.4 lineto
31667.6 34114.4 lineto
31555.1 34170.6 lineto
31498.9 34283.1 lineto
31498.9 34733 lineto
31555.1 34845.5 lineto
31667.6 34901.8 lineto
31892.6 34901.8 lineto
32005.1 34845.5 lineto
32061.3 34733 lineto
32061.3 34620.6 lineto
31498.9 34508.1 lineto
stroke
newpath
32511.3 34170.6 moveto
32623.7 34114.4 lineto
32848.7 34114.4 lineto
32961.2 34170.6 lineto
33017.4 34283.1 lineto
33017.4 34339.3 lineto
32961.2 34451.8 lineto
32848.7 34508.1 lineto
32680 34508.1 lineto
32567.5 34564.3 lineto
32511.3 34676.8 lineto
32511.3 34733 lineto
32567.5 34845.5 lineto
32680 34901.8 lineto
32848.7 34901.8 lineto
32961.2 34845.5 lineto
stroke
newpath
33411.1 33664.4 moveto
33467.4 33720.7 lineto
33579.9 33889.4 lineto
33636.1 34001.9 lineto
33692.4 34170.6 lineto
33748.6 34451.8 lineto
33748.6 34676.8 lineto
33692.4 34958 lineto
33636.1 35126.7 lineto
33579.9 35239.2 lineto
33467.4 35408 lineto
33411.1 35464.2 lineto
stroke
newpath
7452.6 32668.2 moveto
7874.02 33089.6 lineto
7452.6 33511 lineto
7031.18 33089.6 lineto
7452.6 32668.2 lineto
poly0
0 0 0 setrgbcolor
0 0 0 setrgbcolor
newpath
9620.36 32555.3 moveto
8945.44 32555.3 lineto
stroke
newpath
9282.9 32555.3 moveto
9282.9 33736.4 lineto
9170.42 33567.7 lineto
9057.93 33455.2 lineto
8945.44 33399 lineto
stroke
newpath
10126.5 32667.8 moveto
10182.8 32611.6 lineto
10126.5 32555.3 lineto
10070.3 32611.6 lineto
10126.5 32667.8 lineto
10126.5 32555.3 lineto
stroke
newpath
10913.9 33736.4 moveto
11026.4 33736.4 lineto
11138.9 33680.2 lineto
11195.2 33623.9 lineto
11251.4 33511.4 lineto
11307.6 33286.5 lineto
11307.6 33005.3 lineto
11251.4 32780.3 lineto
11195.2 32667.8 lineto
11138.9 32611.6 lineto
11026.4 32555.3 lineto
10913.9 32555.3 lineto
10801.5 32611.6 lineto
10745.2 32667.8 lineto
10689 32780.3 lineto
10632.7 33005.3 lineto
10632.7 33286.5 lineto
10689 33511.4 lineto
10745.2 33623.9 lineto
10801.5 33680.2 lineto
10913.9 33736.4 lineto
stroke
newpath
12038.8 33736.4 moveto
12151.3 33736.4 lineto
12263.8 33680.2 lineto
12320 33623.9 lineto
12376.3 33511.4 lineto
12432.5 33286.5 lineto
12432.5 33005.3 lineto
12376.3 32780.3 lineto
12320 32667.8 lineto
12263.8 32611.6 lineto
12151.3 32555.3 lineto
12038.8 32555.3 lineto
11926.3 32611.6 lineto
11870.1 32667.8 lineto
11813.8 32780.3 lineto
11757.6 33005.3 lineto
11757.6 33286.5 lineto
11813.8 33511.4 lineto
11870.1 33623.9 lineto
11926.3 33680.2 lineto
12038.8 33736.4 lineto
stroke
newpath
12938.7 32555.3 moveto
12938.7 33342.7 lineto
stroke
newpath
12938.7 33230.2 moveto
12994.9 33286.5 lineto
13107.4 33342.7 lineto
13276.2 33342.7 lineto
13388.6 33286.5 lineto
13444.9 33174 lineto
13444.9 32555.3 lineto
stroke
newpath
13444.9 33174 moveto
13501.1 33286.5 lineto
13613.6 33342.7 lineto
13782.3 33342.7 lineto
13894.8 33286.5 lineto
13951.1 33174 lineto
13951.1 32555.3 lineto
stroke
newpath
14513.5 32555.3 moveto
14513.5 33342.7 lineto
stroke
newpath
14513.5 33230.2 moveto
14569.7 33286.5 lineto
14682.2 33342.7 lineto
14851 33342.7 lineto
14963.4 33286.5 lineto
15019.7 33174 lineto
15019.7 32555.3 lineto
stroke
newpath
15019.7 33174 moveto
15075.9 33286.5 lineto
15188.4 33342.7 lineto
15357.1 33342.7 lineto
15469.6 33286.5 lineto
15525.9 33174 lineto
15525.9 32555.3 lineto
stroke
newpath
17831.8 33792.7 moveto
16819.5 32274.1 lineto
stroke
newpath
19350.4 33736.4 moveto
19462.9 33736.4 lineto
19575.4 33680.2 lineto
19631.6 33623.9 lineto
19687.9 33511.4 lineto
19744.1 33286.5 lineto
19744.1 33005.3 lineto
19687.9 32780.3 lineto
19631.6 32667.8 lineto
19575.4 32611.6 lineto
19462.9 32555.3 lineto
19350.4 32555.3 lineto
19237.9 32611.6 lineto
19181.7 32667.8 lineto
19125.4 32780.3 lineto
19069.2 33005.3 lineto
19069.2 33286.5 lineto
19125.4 33511.4 lineto
19181.7 33623.9 lineto
19237.9 33680.2 lineto
19350.4 33736.4 lineto
stroke
newpath
20250.3 32667.8 moveto
20306.5 32611.6 lineto
20250.3 32555.3 lineto
20194 32611.6 lineto
20250.3 32667.8 lineto
20250.3 32555.3 lineto
stroke
newpath
21037.7 33736.4 moveto
21150.2 33736.4 lineto
21262.7 33680.2 lineto
21318.9 33623.9 lineto
21375.1 33511.4 lineto
21431.4 33286.5 lineto
21431.4 33005.3 lineto
21375.1 32780.3 lineto
21318.9 32667.8 lineto
21262.7 32611.6 lineto
21150.2 32555.3 lineto
21037.7 32555.3 lineto
20925.2 32611.6 lineto
20869 32667.8 lineto
20812.7 32780.3 lineto
20756.5 33005.3 lineto
20756.5 33286.5 lineto
20812.7 33511.4 lineto
20869 33623.9 lineto
20925.2 33680.2 lineto
21037.7 33736.4 lineto
stroke
newpath
21825.1 33736.4 moveto
22556.2 33736.4 lineto
22162.5 33286.5 lineto
22331.3 33286.5 lineto
22443.8 33230.2 lineto
22500 33174 lineto
22556.2 33061.5 lineto
22556.2 32780.3 lineto
22500 32667.8 lineto
22443.8 32611.6 lineto
22331.3 32555.3 lineto
21993.8 32555.3 lineto
21881.3 32611.6 lineto
21825.1 32667.8 lineto
stroke
newpath
23118.7 32555.3 moveto
23343.6 32555.3 lineto
23456.1 32611.6 lineto
23512.4 32667.8 lineto
23624.9 32836.5 lineto
23681.1 33061.5 lineto
23681.1 33511.4 lineto
23624.9 33623.9 lineto
23568.6 33680.2 lineto
23456.1 33736.4 lineto
23231.2 33736.4 lineto
23118.7 33680.2 lineto
23062.4 33623.9 lineto
23006.2 33511.4 lineto
23006.2 33230.2 lineto
23062.4 33117.7 lineto
23118.7 33061.5 lineto
23231.2 33005.3 lineto
23456.1 33005.3 lineto
23568.6 33061.5 lineto
23624.9 33117.7 lineto
23681.1 33230.2 lineto
stroke
newpath
24131 33736.4 moveto
24131 33511.4 lineto
stroke
newpath
24581 33736.4 moveto
24581 33511.4 lineto
stroke
newpath
26324.5 32105.4 moveto
26268.3 32161.6 lineto
26155.8 32330.3 lineto
26099.6 32442.8 lineto
26043.3 32611.6 lineto
25987.1 32892.8 lineto
25987.1 33117.7 lineto
26043.3 33399 lineto
26099.6 33567.7 lineto
26155.8 33680.2 lineto
26268.3 33848.9 lineto
26324.5 33905.1 lineto
stroke
newpath
27336.9 33736.4 moveto
26774.5 33736.4 lineto
26718.2 33174 lineto
26774.5 33230.2 lineto
26887 33286.5 lineto
27168.2 33286.5 lineto
27280.7 33230.2 lineto
27336.9 33174 lineto
27393.1 33061.5 lineto
27393.1 32780.3 lineto
27336.9 32667.8 lineto
27280.7 32611.6 lineto
27168.2 32555.3 lineto
26887 32555.3 lineto
26774.5 32611.6 lineto
26718.2 32667.8 lineto
stroke
newpath
28799.2 32555.3 moveto
28799.2 33736.4 lineto
stroke
newpath
29305.4 32555.3 moveto
29305.4 33174 lineto
29249.2 33286.5 lineto
29136.7 33342.7 lineto
28967.9 33342.7 lineto
28855.5 33286.5 lineto
28799.2 33230.2 lineto
stroke
newpath
30036.6 32555.3 moveto
29924.1 32611.6 lineto
29867.8 32667.8 lineto
29811.6 32780.3 lineto
29811.6 33117.7 lineto
29867.8 33230.2 lineto
29924.1 33286.5 lineto
30036.6 33342.7 lineto
30205.3 33342.7 lineto
30317.8 33286.5 lineto
30374 33230.2 lineto
30430.3 33117.7 lineto
30430.3 32780.3 lineto
30374 32667.8 lineto
30317.8 32611.6 lineto
30205.3 32555.3 lineto
30036.6 32555.3 lineto
stroke
newpath
31105.2 32555.3 moveto
30992.7 32611.6 lineto
30936.4 32724 lineto
30936.4 33736.4 lineto
stroke
newpath
32005.1 32611.6 moveto
31892.6 32555.3 lineto
31667.6 32555.3 lineto
31555.1 32611.6 lineto
31498.9 32724 lineto
31498.9 33174 lineto
31555.1 33286.5 lineto
31667.6 33342.7 lineto
31892.6 33342.7 lineto
32005.1 33286.5 lineto
32061.3 33174 lineto
32061.3 33061.5 lineto
31498.9 32949 lineto
stroke
newpath
32511.3 32611.6 moveto
32623.7 32555.3 lineto
32848.7 32555.3 lineto
32961.2 32611.6 lineto
33017.4 32724 lineto
33017.4 32780.3 lineto
32961.2 32892.8 lineto
32848.7 32949 lineto
32680 32949 lineto
32567.5 33005.3 lineto
32511.3 33117.7 lineto
32511.3 33174 lineto
32567.5 33286.5 lineto
32680 33342.7 lineto
32848.7 33342.7 lineto
32961.2 33286.5 lineto
stroke
newpath
33411.1 32105.4 moveto
33467.4 32161.6 lineto
33579.9 32330.3 lineto
33636.1 32442.8 lineto
33692.4 32611.6 lineto
33748.6 32892.8 lineto
33748.6 33117.7 lineto
33692.4 33399 lineto
33636.1 33567.7 lineto
33579.9 33680.2 lineto
33467.4 33848.9 lineto
33411.1 33905.1 lineto
stroke
newpath
6188.35 32373.4 moveto
7874.02 30687.7 lineto
stroke
newpath
7874.02 32373.4 moveto
6188.35 30687.7 lineto
stroke
7031.18 31530.6 842.832 cir0
0 0 0 setrgbcolor
0 0 0 setrgbcolor
newpath
8945.44 32064.9 moveto
9001.69 32121.1 lineto
9114.17 32177.4 lineto
9395.39 32177.4 lineto
9507.87 32121.1 lineto
9564.12 32064.9 lineto
9620.36 31952.4 lineto
9620.36 31839.9 lineto
9564.12 31671.2 lineto
8889.2 30996.3 lineto
9620.36 30996.3 lineto
stroke
newpath
10126.5 31108.7 moveto
10182.8 31052.5 lineto
10126.5 30996.3 lineto
10070.3 31052.5 lineto
10126.5 31108.7 lineto
10126.5 30996.3 lineto
stroke
newpath
10913.9 32177.4 moveto
11026.4 32177.4 lineto
11138.9 32121.1 lineto
11195.2 32064.9 lineto
11251.4 31952.4 lineto
11307.6 31727.4 lineto
11307.6 31446.2 lineto
11251.4 31221.2 lineto
11195.2 31108.7 lineto
11138.9 31052.5 lineto
11026.4 30996.3 lineto
10913.9 30996.3 lineto
10801.5 31052.5 lineto
10745.2 31108.7 lineto
10689 31221.2 lineto
10632.7 31446.2 lineto
10632.7 31727.4 lineto
10689 31952.4 lineto
10745.2 32064.9 lineto
10801.5 32121.1 lineto
10913.9 32177.4 lineto
stroke
newpath
12038.8 32177.4 moveto
12151.3 32177.4 lineto
12263.8 32121.1 lineto
12320 32064.9 lineto
12376.3 31952.4 lineto
12432.5 31727.4 lineto
12432.5 31446.2 lineto
12376.3 31221.2 lineto
12320 31108.7 lineto
12263.8 31052.5 lineto
12151.3 30996.3 lineto
12038.8 30996.3 lineto
11926.3 31052.5 lineto
11870.1 31108.7 lineto
11813.8 31221.2 lineto
11757.6 31446.2 lineto
11757.6 31727.4 lineto
11813.8 31952.4 lineto
11870.1 32064.9 lineto
11926.3 32121.1 lineto
12038.8 32177.4 lineto
stroke
newpath
12938.7 30996.3 moveto
12938.7 31783.7 lineto
stroke
newpath
12938.7 31671.2 moveto
12994.9 31727.4 lineto
13107.4 31783.7 lineto
13276.2 31783.7 lineto
13388.6 31727.4 lineto
13444.9 31614.9 lineto
13444.9 30996.3 lineto
stroke
newpath
13444.9 31614.9 moveto
13501.1 31727.4 lineto
13613.6 31783.7 lineto
13782.3 31783.7 lineto
13894.8 31727.4 lineto
13951.1 31614.9 lineto
13951.1 30996.3 lineto
stroke
newpath
14513.5 30996.3 moveto
14513.5 31783.7 lineto
stroke
newpath
14513.5 31671.2 moveto
14569.7 31727.4 lineto
14682.2 31783.7 lineto
14851 31783.7 lineto
14963.4 31727.4 lineto
15019.7 31614.9 lineto
15019.7 30996.3 lineto
stroke
newpath
15019.7 31614.9 moveto
15075.9 31727.4 lineto
15188.4 31783.7 lineto
15357.1 31783.7 lineto
15469.6 31727.4 lineto
15525.9 31614.9 lineto
15525.9 30996.3 lineto
stroke
newpath
17831.8 32233.6 moveto
16819.5 30715 lineto
stroke
newpath
19350.4 32177.4 moveto
19462.9 32177.4 lineto
19575.4 32121.1 lineto
19631.6 32064.9 lineto
19687.9 31952.4 lineto
19744.1 31727.4 lineto
19744.1 31446.2 lineto
19687.9 31221.2 lineto
19631.6 31108.7 lineto
19575.4 31052.5 lineto
19462.9 30996.3 lineto
19350.4 30996.3 lineto
19237.9 31052.5 lineto
19181.7 31108.7 lineto
19125.4 31221.2 lineto
19069.2 31446.2 lineto
19069.2 31727.4 lineto
19125.4 31952.4 lineto
19181.7 32064.9 lineto
19237.9 32121.1 lineto
19350.4 32177.4 lineto
stroke
newpath
20250.3 31108.7 moveto
20306.5 31052.5 lineto
20250.3 30996.3 lineto
20194 31052.5 lineto
20250.3 31108.7 lineto
20250.3 30996.3 lineto
stroke
newpath
21037.7 32177.4 moveto
21150.2 32177.4 lineto
21262.7 32121.1 lineto
21318.9 32064.9 lineto
21375.1 31952.4 lineto
21431.4 31727.4 lineto
21431.4 31446.2 lineto
21375.1 31221.2 lineto
21318.9 31108.7 lineto
21262.7 31052.5 lineto
21150.2 30996.3 lineto
21037.7 30996.3 lineto
20925.2 31052.5 lineto
20869 31108.7 lineto
20812.7 31221.2 lineto
20756.5 31446.2 lineto
20756.5 31727.4 lineto
20812.7 31952.4 lineto
20869 32064.9 lineto
20925.2 32121.1 lineto
21037.7 32177.4 lineto
stroke
newpath
21825.1 32177.4 moveto
22612.5 32177.4 lineto
22106.3 30996.3 lineto
stroke
newpath
23118.7 30996.3 moveto
23343.6 30996.3 lineto
23456.1 31052.5 lineto
23512.4 31108.7 lineto
23624.9 31277.5 lineto
23681.1 31502.4 lineto
23681.1 31952.4 lineto
23624.9 32064.9 lineto
23568.6 32121.1 lineto
23456.1 32177.4 lineto
23231.2 32177.4 lineto
23118.7 32121.1 lineto
23062.4 32064.9 lineto
23006.2 31952.4 lineto
23006.2 31671.2 lineto
23062.4 31558.7 lineto
23118.7 31502.4 lineto
23231.2 31446.2 lineto
23456.1 31446.2 lineto
23568.6 31502.4 lineto
23624.9 31558.7 lineto
23681.1 31671.2 lineto
stroke
newpath
24131 32177.4 moveto
24131 31952.4 lineto
stroke
newpath
24581 32177.4 moveto
24581 31952.4 lineto
stroke
newpath
26324.5 30546.3 moveto
26268.3 30602.6 lineto
26155.8 30771.3 lineto
26099.6 30883.8 lineto
26043.3 31052.5 lineto
25987.1 31333.7 lineto
25987.1 31558.7 lineto
26043.3 31839.9 lineto
26099.6 32008.6 lineto
26155.8 32121.1 lineto
26268.3 32289.8 lineto
26324.5 32346.1 lineto
stroke
newpath
27336.9 32177.4 moveto
26774.5 32177.4 lineto
26718.2 31614.9 lineto
26774.5 31671.2 lineto
26887 31727.4 lineto
27168.2 31727.4 lineto
27280.7 31671.2 lineto
27336.9 31614.9 lineto
27393.1 31502.4 lineto
27393.1 31221.2 lineto
27336.9 31108.7 lineto
27280.7 31052.5 lineto
27168.2 30996.3 lineto
26887 30996.3 lineto
26774.5 31052.5 lineto
26718.2 31108.7 lineto
stroke
newpath
28799.2 30996.3 moveto
28799.2 32177.4 lineto
stroke
newpath
29305.4 30996.3 moveto
29305.4 31614.9 lineto
29249.2 31727.4 lineto
29136.7 31783.7 lineto
28967.9 31783.7 lineto
28855.5 31727.4 lineto
28799.2 31671.2 lineto
stroke
newpath
30036.6 30996.3 moveto
29924.1 31052.5 lineto
29867.8 31108.7 lineto
29811.6 31221.2 lineto
29811.6 31558.7 lineto
29867.8 31671.2 lineto
29924.1 31727.4 lineto
30036.6 31783.7 lineto
30205.3 31783.7 lineto
30317.8 31727.4 lineto
30374 31671.2 lineto
30430.3 31558.7 lineto
30430.3 31221.2 lineto
30374 31108.7 lineto
30317.8 31052.5 lineto
30205.3 30996.3 lineto
30036.6 30996.3 lineto
stroke
newpath
31105.2 30996.3 moveto
30992.7 31052.5 lineto
30936.4 31165 lineto
30936.4 32177.4 lineto
stroke
newpath
32005.1 31052.5 moveto
31892.6 30996.3 lineto
31667.6 30996.3 lineto
31555.1 31052.5 lineto
31498.9 31165 lineto
31498.9 31614.9 lineto
31555.1 31727.4 lineto
31667.6 31783.7 lineto
31892.6 31783.7 lineto
32005.1 31727.4 lineto
32061.3 31614.9 lineto
32061.3 31502.4 lineto
31498.9 31390 lineto
stroke
newpath
32511.3 31052.5 moveto
32623.7 30996.3 lineto
32848.7 30996.3 lineto
32961.2 31052.5 lineto
33017.4 31165 lineto
33017.4 31221.2 lineto
32961.2 31333.7 lineto
32848.7 31390 lineto
32680 31390 lineto
32567.5 31446.2 lineto
32511.3 31558.7 lineto
32511.3 31614.9 lineto
32567.5 31727.4 lineto
32680 31783.7 lineto
32848.7 31783.7 lineto
32961.2 31727.4 lineto
stroke
newpath
33411.1 30546.3 moveto
33467.4 30602.6 lineto
33579.9 30771.3 lineto
33636.1 30883.8 lineto
33692.4 31052.5 lineto
33748.6 31333.7 lineto
33748.6 31558.7 lineto
33692.4 31839.9 lineto
33636.1 32008.6 lineto
33579.9 32121.1 lineto
33467.4 32289.8 lineto
33411.1 32346.1 lineto
stroke
showpage
grestore
%%EOF
