EESchema Schematic File Version 4
LIBS:carte_clavier-cache
EELAYER 30 0
EELAYER END
$Descr A2 23386 16535
encoding utf-8
Sheet 3 4
Title "Schematic"
Date "20 oct 2019"
Rev "B"
Comp "Lilian T."
Comment1 "TL 500 001"
Comment2 "Clavier ToucheLibre"
Comment3 "Clavier Board"
Comment4 "GPIO Expander to Logical Matrix"
$EndDescr
$Comp
L carte_clavier-rescue:ECE1099-Interface_Expansion U13001
U 1 1 5C2960EC
P 10150 9550
AR Path="/5C2960EC" Ref="U13001"  Part="1" 
AR Path="/5B24D131/5B24D537/5C2960EC" Ref="U13001"  Part="1" 
F 0 "U13001" H 10350 13750 60  0000 C CNN
F 1 "ECE1099" H 10400 13650 60  0000 C CNN
F 2 "lib_clavier:QFN-40-1EP_6x6mm_Pitch0.5mm_TL" H 10250 13700 60  0001 C CNN
F 3 "" H 10250 13700 60  0001 C CNN
F 4 "G2" H 10150 9550 50  0001 C CNN "Variante"
F 5 "TL 200 058" H 10150 9550 50  0001 C CNN "ID_Base"
	1    10150 9550
	1    0    0    -1  
$EndComp
Text HLabel 15500 8300 2    60   Input ~ 12
Lig_A
Text HLabel 15500 8400 2    60   Input ~ 12
Lig_B
Text HLabel 15500 8500 2    60   Input ~ 12
Lig_C
Text HLabel 15500 8600 2    60   Input ~ 12
Lig_D
Text HLabel 15500 8700 2    60   Input ~ 12
Lig_E
Text HLabel 15500 8800 2    60   Input ~ 12
Lig_F
Text HLabel 15500 5750 2    60   Output ~ 12
Col_1
Text HLabel 15500 5850 2    60   Output ~ 12
Col_1bis
Text HLabel 15500 5950 2    60   Output ~ 12
Col_2
Text HLabel 15500 6050 2    60   Output ~ 12
Col_2bis
Text HLabel 15500 6150 2    60   Output ~ 12
Col_3
Text HLabel 15500 6250 2    60   Output ~ 12
Col_3bis
Text HLabel 15500 6350 2    60   Output ~ 12
Col_4
Text HLabel 15500 7150 2    60   Output ~ 12
Col_8
Text HLabel 15500 7250 2    60   Output ~ 12
Col_8bis
Text HLabel 15500 6450 2    60   Output ~ 12
Col_4bis
Text HLabel 15500 6550 2    60   Output ~ 12
Col_5
Text HLabel 15500 6650 2    60   Output ~ 12
Col_5bis
Text HLabel 15500 6750 2    60   Output ~ 12
Col_6
Text HLabel 15500 6850 2    60   Output ~ 12
Col_6bis
Text HLabel 15500 6950 2    60   Output ~ 12
Col_7
Text HLabel 15500 7050 2    60   Output ~ 12
Col_7bis
Text HLabel 15500 9000 2    60   Input ~ 12
Lig_X
Text HLabel 15500 8900 2    60   Input ~ 12
Lig_M
Wire Wire Line
	15500 8300 14400 8300
Wire Wire Line
	12100 8400 14500 8400
Wire Wire Line
	15500 8500 14600 8500
Wire Wire Line
	15500 8700 14800 8700
Wire Wire Line
	12100 8800 14900 8800
Wire Wire Line
	12100 8900 15000 8900
Wire Wire Line
	12100 9000 15100 9000
Wire Wire Line
	12100 5750 12300 5750
Wire Wire Line
	15500 5850 12400 5850
Wire Wire Line
	12100 5950 12500 5950
Wire Wire Line
	15500 6050 12600 6050
Wire Wire Line
	12100 6150 12700 6150
Wire Wire Line
	15500 6250 12800 6250
Wire Wire Line
	12100 6350 12900 6350
Wire Wire Line
	15500 6450 13000 6450
Wire Wire Line
	12100 6550 13100 6550
Wire Wire Line
	15500 6650 13200 6650
Wire Wire Line
	12100 6750 13300 6750
Wire Wire Line
	15500 6850 13400 6850
Wire Wire Line
	12100 6950 13500 6950
Wire Wire Line
	15500 7050 13600 7050
Wire Wire Line
	12100 7150 13700 7150
Wire Wire Line
	15500 7250 13800 7250
NoConn ~ 12100 7550
NoConn ~ 12100 7650
NoConn ~ 12100 7750
NoConn ~ 12100 7850
NoConn ~ 12100 7950
$Comp
L power:GND #PWR03005
U 1 1 5C2A4028
P 10850 9750
F 0 "#PWR03005" H 10850 9500 50  0001 C CNN
F 1 "GND" H 10855 9577 50  0001 C CNN
F 2 "" H 10850 9750 50  0001 C CNN
F 3 "" H 10850 9750 50  0001 C CNN
	1    10850 9750
	1    0    0    -1  
$EndComp
Wire Wire Line
	10850 5350 10850 5300
Wire Wire Line
	10950 5300 10950 5350
Wire Wire Line
	10850 5300 10850 4800
Connection ~ 10850 5300
Wire Wire Line
	10850 5300 10950 5300
NoConn ~ 10950 9750
$Comp
L Device:R R13002
U 1 1 5C2A7568
P 9700 7150
F 0 "R13002" H 9770 7196 50  0000 L CNN
F 1 "22.1k" H 9770 7105 50  0000 L CNN
F 2 "lib_clavier:R_0402_TL" V 9630 7150 50  0001 C CNN
F 3 "~" H 9700 7150 50  0001 C CNN
F 4 "G2" H 9700 7150 50  0001 C CNN "Variante"
F 5 "TL 200 010" H 600 -100 50  0001 C CNN "ID_Base"
	1    9700 7150
	1    0    0    -1  
$EndComp
Wire Wire Line
	9950 6850 9700 6850
Wire Wire Line
	9700 6850 9700 7000
$Comp
L power:GND #PWR03004
U 1 1 5C2A7E9D
P 9700 7350
F 0 "#PWR03004" H 9700 7100 50  0001 C CNN
F 1 "GND" H 9705 7177 50  0001 C CNN
F 2 "" H 9700 7350 50  0001 C CNN
F 3 "" H 9700 7350 50  0001 C CNN
	1    9700 7350
	1    0    0    -1  
$EndComp
Wire Wire Line
	9700 7300 9700 7350
Text HLabel 7300 6550 0    60   BiDi ~ 0
I2C_KSCAN_SDA
Text HLabel 7300 6650 0    60   Input ~ 0
I2C_KSCAN_SCL
Text HLabel 7300 8000 0    60   Output ~ 0
I2C_KSCAN_INT
$Comp
L Device:R R13001
U 1 1 5CB3ADC0
P 9700 6200
F 0 "R13001" H 9770 6246 50  0000 L CNN
F 1 "22.1k" H 9770 6155 50  0000 L CNN
F 2 "lib_clavier:R_0402_TL" V 9630 6200 50  0001 C CNN
F 3 "~" H 9700 6200 50  0001 C CNN
F 4 "ANM" H 9700 6200 50  0001 C CNN "Variante"
F 5 "TL 200 010" H 600 -100 50  0001 C CNN "ID_Base"
	1    9700 6200
	1    0    0    -1  
$EndComp
Wire Wire Line
	9700 5950 9700 6050
Wire Wire Line
	9700 6350 9700 6850
Connection ~ 9700 6850
$Comp
L Connector:TestPoint TP13001
U 1 1 5CB450EF
P 12300 5650
F 0 "TP13001" V 12300 5850 50  0000 L CNN
F 1 "TestPoint" V 12300 6250 50  0001 L CNN
F 2 "lib_clavier:Test_Point_TL" H 12500 5650 50  0001 C CNN
F 3 "~" H 12500 5650 50  0001 C CNN
F 4 "ANM" H 12300 5650 50  0001 C CNN "Variante"
	1    12300 5650
	1    0    0    -1  
$EndComp
Wire Wire Line
	12300 5650 12300 5750
Connection ~ 12300 5750
Wire Wire Line
	12300 5750 15500 5750
Wire Wire Line
	12400 5650 12400 5850
Connection ~ 12400 5850
Wire Wire Line
	12400 5850 12100 5850
Wire Wire Line
	12500 5650 12500 5950
Connection ~ 12500 5950
Wire Wire Line
	12500 5950 15500 5950
Wire Wire Line
	12600 5650 12600 6050
Connection ~ 12600 6050
Wire Wire Line
	12600 6050 12100 6050
Wire Wire Line
	12700 5650 12700 6150
Connection ~ 12700 6150
Wire Wire Line
	12700 6150 15500 6150
Wire Wire Line
	12800 5650 12800 6250
Connection ~ 12800 6250
Wire Wire Line
	12800 6250 12100 6250
Wire Wire Line
	12900 5650 12900 6350
Connection ~ 12900 6350
Wire Wire Line
	12900 6350 15500 6350
Wire Wire Line
	13000 5650 13000 6450
Connection ~ 13000 6450
Wire Wire Line
	13000 6450 12100 6450
Wire Wire Line
	13100 5650 13100 6550
Connection ~ 13100 6550
Wire Wire Line
	13100 6550 15500 6550
Wire Wire Line
	13200 5650 13200 6650
Connection ~ 13200 6650
Wire Wire Line
	13200 6650 12100 6650
Wire Wire Line
	13300 5650 13300 6750
Connection ~ 13300 6750
Wire Wire Line
	13300 6750 15500 6750
Wire Wire Line
	13400 5650 13400 6850
Connection ~ 13400 6850
Wire Wire Line
	13400 6850 12100 6850
Wire Wire Line
	13500 5650 13500 6950
Connection ~ 13500 6950
Wire Wire Line
	13500 6950 15500 6950
Wire Wire Line
	13600 5650 13600 7050
Connection ~ 13600 7050
Wire Wire Line
	13600 7050 12100 7050
Wire Wire Line
	13700 5650 13700 7150
Connection ~ 13700 7150
Wire Wire Line
	13700 7150 15500 7150
Wire Wire Line
	13800 5650 13800 7250
Connection ~ 13800 7250
Wire Wire Line
	13800 7250 12100 7250
Wire Wire Line
	14400 5650 14400 8300
Connection ~ 14400 8300
Wire Wire Line
	14400 8300 12100 8300
Wire Wire Line
	14500 5650 14500 8400
Connection ~ 14500 8400
Wire Wire Line
	14500 8400 15500 8400
Wire Wire Line
	14700 5650 14700 8600
Connection ~ 14700 8600
Wire Wire Line
	14700 8600 15500 8600
Wire Wire Line
	12100 8600 14700 8600
Wire Wire Line
	14600 5650 14600 8500
Connection ~ 14600 8500
Wire Wire Line
	14600 8500 12100 8500
Wire Wire Line
	14800 5650 14800 8700
Connection ~ 14800 8700
Wire Wire Line
	14800 8700 12100 8700
Wire Wire Line
	14900 5650 14900 8800
Connection ~ 14900 8800
Wire Wire Line
	14900 8800 15500 8800
Wire Wire Line
	15000 5650 15000 8900
Connection ~ 15000 8900
Wire Wire Line
	15000 8900 15500 8900
Wire Wire Line
	15100 5650 15100 9000
Connection ~ 15100 9000
Wire Wire Line
	15100 9000 15500 9000
$Comp
L Connector:TestPoint TP13027
U 1 1 5CBB6490
P 7750 7950
F 0 "TP13027" V 7750 8150 50  0000 L CNN
F 1 "TestPoint" V 7750 8550 50  0001 L CNN
F 2 "lib_clavier:Test_Point_TL" H 7950 7950 50  0001 C CNN
F 3 "~" H 7950 7950 50  0001 C CNN
F 4 "ANM" H 7750 7950 50  0001 C CNN "Variante"
	1    7750 7950
	1    0    0    -1  
$EndComp
$Comp
L Connector:TestPoint TP13026
U 1 1 5CBB8C76
P 7800 6400
F 0 "TP13026" V 7800 6600 50  0000 L CNN
F 1 "TestPoint" V 7800 7000 50  0001 L CNN
F 2 "lib_clavier:Test_Point_TL" H 8000 6400 50  0001 C CNN
F 3 "~" H 8000 6400 50  0001 C CNN
F 4 "ANM" H 7800 6400 50  0001 C CNN "Variante"
	1    7800 6400
	1    0    0    -1  
$EndComp
$Comp
L Connector:TestPoint TP13025
U 1 1 5CBBB457
P 7700 6400
F 0 "TP13025" V 7700 6600 50  0000 L CNN
F 1 "TestPoint" V 7700 7000 50  0001 L CNN
F 2 "lib_clavier:Test_Point_TL" H 7900 6400 50  0001 C CNN
F 3 "~" H 7900 6400 50  0001 C CNN
F 4 "ANM" H 7700 6400 50  0001 C CNN "Variante"
	1    7700 6400
	1    0    0    -1  
$EndComp
Wire Wire Line
	7700 6400 7700 6550
Wire Notes Line
	15300 4500 15300 10000
Wire Notes Line
	15300 10000 7500 10000
Wire Notes Line
	7500 10000 7500 4500
Wire Notes Line
	7500 4500 15300 4500
Text Notes 7550 4450 0    59   ~ 12
Extention GPIO pour Scanner des Touches\nGPIO Expander to Key Scanning
$Comp
L Device:C C13002
U 1 1 5CA6A2FE
P 11050 5000
F 0 "C13002" H 11100 5100 50  0000 L CNN
F 1 "220nF" H 11200 5000 50  0000 L CNN
F 2 "lib_clavier:C_0402_TL" H 11088 4850 50  0001 C CNN
F 3 "~" H 11050 5000 50  0001 C CNN
F 4 "10V" H 11200 4900 50  0000 C CNN "Tension"
F 5 "G2" H 11050 5000 50  0001 C CNN "Variante"
F 6 "TL 200 022" H 11050 5000 50  0001 C CNN "ID_Base"
	1    11050 5000
	1    0    0    -1  
$EndComp
$Comp
L power:GND #PWR03002
U 1 1 5CA6A3D3
P 11050 5150
F 0 "#PWR03002" H 11050 4900 50  0001 C CNN
F 1 "GND" H 11055 4977 50  0001 C CNN
F 2 "" H 11050 5150 50  0001 C CNN
F 3 "" H 11050 5150 50  0001 C CNN
	1    11050 5150
	1    0    0    -1  
$EndComp
$Comp
L Device:C C13003
U 1 1 5CA6E35E
P 11600 5000
F 0 "C13003" H 11650 5100 50  0000 L CNN
F 1 "220nF" H 11750 5000 50  0000 L CNN
F 2 "lib_clavier:C_0402_TL" H 11638 4850 50  0001 C CNN
F 3 "~" H 11600 5000 50  0001 C CNN
F 4 "10V" H 11750 4900 50  0000 C CNN "Tension"
F 5 "G2" H 11600 5000 50  0001 C CNN "Variante"
F 6 "TL 200 022" H 11600 5000 50  0001 C CNN "ID_Base"
	1    11600 5000
	1    0    0    -1  
$EndComp
$Comp
L power:GND #PWR03003
U 1 1 5CA6E365
P 11600 5150
F 0 "#PWR03003" H 11600 4900 50  0001 C CNN
F 1 "GND" H 11605 4977 50  0001 C CNN
F 2 "" H 11600 5150 50  0001 C CNN
F 3 "" H 11600 5150 50  0001 C CNN
	1    11600 5150
	1    0    0    -1  
$EndComp
$Comp
L Device:C C13001
U 1 1 5CA71277
P 9750 5000
F 0 "C13001" H 9800 5100 50  0000 L CNN
F 1 "10uF" H 9900 5000 50  0000 L CNN
F 2 "lib_clavier:C_0805_TL" H 9788 4850 50  0001 C CNN
F 3 "~" H 9750 5000 50  0001 C CNN
F 4 "10V" H 9900 4900 50  0000 C CNN "Tension"
F 5 "G2" H 9750 5000 50  0001 C CNN "Variante"
F 6 "TL 200 024" H 9750 5000 50  0001 C CNN "ID_Base"
	1    9750 5000
	1    0    0    -1  
$EndComp
$Comp
L power:GND #PWR03001
U 1 1 5CA7127E
P 9750 5150
F 0 "#PWR03001" H 9750 4900 50  0001 C CNN
F 1 "GND" H 9755 4977 50  0001 C CNN
F 2 "" H 9750 5150 50  0001 C CNN
F 3 "" H 9750 5150 50  0001 C CNN
	1    9750 5150
	1    0    0    -1  
$EndComp
Wire Wire Line
	10850 4800 11050 4800
Wire Wire Line
	11050 4800 11050 4850
Wire Wire Line
	11050 4800 11600 4800
Wire Wire Line
	11600 4800 11600 4850
Connection ~ 11050 4800
$Comp
L power:+3.3V #P3V03002
U 1 1 5CA8EA09
P 9700 5950
F 0 "#P3V03002" H 9700 5800 50  0001 C CNN
F 1 "+3.3V" H 9600 6100 50  0000 L CNN
F 2 "" H 9700 5950 50  0001 C CNN
F 3 "" H 9700 5950 50  0001 C CNN
	1    9700 5950
	1    0    0    -1  
$EndComp
Text Notes 9100 6450 0    50   ~ 0
Sélection \nde l’Adresse\n\nAdress \nSelection\n
$Comp
L Connector:TestPoint TP13002
U 1 1 5D8F07A3
P 12400 5650
F 0 "TP13002" V 12400 5850 50  0000 L CNN
F 1 "TestPoint" V 12400 6250 50  0001 L CNN
F 2 "lib_clavier:Test_Point_TL" H 12600 5650 50  0001 C CNN
F 3 "~" H 12600 5650 50  0001 C CNN
F 4 "ANM" H 12400 5650 50  0001 C CNN "Variante"
	1    12400 5650
	1    0    0    -1  
$EndComp
$Comp
L Connector:TestPoint TP13003
U 1 1 5D8F3DDB
P 12500 5650
F 0 "TP13003" V 12500 5850 50  0000 L CNN
F 1 "TestPoint" V 12500 6250 50  0001 L CNN
F 2 "lib_clavier:Test_Point_TL" H 12700 5650 50  0001 C CNN
F 3 "~" H 12700 5650 50  0001 C CNN
F 4 "ANM" H 12500 5650 50  0001 C CNN "Variante"
	1    12500 5650
	1    0    0    -1  
$EndComp
$Comp
L Connector:TestPoint TP13004
U 1 1 5D8F7414
P 12600 5650
F 0 "TP13004" V 12600 5850 50  0000 L CNN
F 1 "TestPoint" V 12600 6250 50  0001 L CNN
F 2 "lib_clavier:Test_Point_TL" H 12800 5650 50  0001 C CNN
F 3 "~" H 12800 5650 50  0001 C CNN
F 4 "ANM" H 12600 5650 50  0001 C CNN "Variante"
	1    12600 5650
	1    0    0    -1  
$EndComp
$Comp
L Connector:TestPoint TP13005
U 1 1 5D8FAA4E
P 12700 5650
F 0 "TP13005" V 12700 5850 50  0000 L CNN
F 1 "TestPoint" V 12700 6250 50  0001 L CNN
F 2 "lib_clavier:Test_Point_TL" H 12900 5650 50  0001 C CNN
F 3 "~" H 12900 5650 50  0001 C CNN
F 4 "ANM" H 12700 5650 50  0001 C CNN "Variante"
	1    12700 5650
	1    0    0    -1  
$EndComp
$Comp
L Connector:TestPoint TP13006
U 1 1 5D8FE089
P 12800 5650
F 0 "TP13006" V 12800 5850 50  0000 L CNN
F 1 "TestPoint" V 12800 6250 50  0001 L CNN
F 2 "lib_clavier:Test_Point_TL" H 13000 5650 50  0001 C CNN
F 3 "~" H 13000 5650 50  0001 C CNN
F 4 "ANM" H 12800 5650 50  0001 C CNN "Variante"
	1    12800 5650
	1    0    0    -1  
$EndComp
$Comp
L Connector:TestPoint TP13007
U 1 1 5D9016C5
P 12900 5650
F 0 "TP13007" V 12900 5850 50  0000 L CNN
F 1 "TestPoint" V 12900 6250 50  0001 L CNN
F 2 "lib_clavier:Test_Point_TL" H 13100 5650 50  0001 C CNN
F 3 "~" H 13100 5650 50  0001 C CNN
F 4 "ANM" H 12900 5650 50  0001 C CNN "Variante"
	1    12900 5650
	1    0    0    -1  
$EndComp
$Comp
L Connector:TestPoint TP13008
U 1 1 5D904D02
P 13000 5650
F 0 "TP13008" V 13000 5850 50  0000 L CNN
F 1 "TestPoint" V 13000 6250 50  0001 L CNN
F 2 "lib_clavier:Test_Point_TL" H 13200 5650 50  0001 C CNN
F 3 "~" H 13200 5650 50  0001 C CNN
F 4 "ANM" H 13000 5650 50  0001 C CNN "Variante"
	1    13000 5650
	1    0    0    -1  
$EndComp
$Comp
L Connector:TestPoint TP13009
U 1 1 5D908340
P 13100 5650
F 0 "TP13009" V 13100 5850 50  0000 L CNN
F 1 "TestPoint" V 13100 6250 50  0001 L CNN
F 2 "lib_clavier:Test_Point_TL" H 13300 5650 50  0001 C CNN
F 3 "~" H 13300 5650 50  0001 C CNN
F 4 "ANM" H 13100 5650 50  0001 C CNN "Variante"
	1    13100 5650
	1    0    0    -1  
$EndComp
$Comp
L Connector:TestPoint TP13010
U 1 1 5D90B97F
P 13200 5650
F 0 "TP13010" V 13200 5850 50  0000 L CNN
F 1 "TestPoint" V 13200 6250 50  0001 L CNN
F 2 "lib_clavier:Test_Point_TL" H 13400 5650 50  0001 C CNN
F 3 "~" H 13400 5650 50  0001 C CNN
F 4 "ANM" H 13200 5650 50  0001 C CNN "Variante"
	1    13200 5650
	1    0    0    -1  
$EndComp
$Comp
L Connector:TestPoint TP13011
U 1 1 5D90EFBF
P 13300 5650
F 0 "TP13011" V 13300 5850 50  0000 L CNN
F 1 "TestPoint" V 13300 6250 50  0001 L CNN
F 2 "lib_clavier:Test_Point_TL" H 13500 5650 50  0001 C CNN
F 3 "~" H 13500 5650 50  0001 C CNN
F 4 "ANM" H 13300 5650 50  0001 C CNN "Variante"
	1    13300 5650
	1    0    0    -1  
$EndComp
$Comp
L Connector:TestPoint TP13012
U 1 1 5D912600
P 13400 5650
F 0 "TP13012" V 13400 5850 50  0000 L CNN
F 1 "TestPoint" V 13400 6250 50  0001 L CNN
F 2 "lib_clavier:Test_Point_TL" H 13600 5650 50  0001 C CNN
F 3 "~" H 13600 5650 50  0001 C CNN
F 4 "ANM" H 13400 5650 50  0001 C CNN "Variante"
	1    13400 5650
	1    0    0    -1  
$EndComp
$Comp
L Connector:TestPoint TP13013
U 1 1 5D915C42
P 13500 5650
F 0 "TP13013" V 13500 5850 50  0000 L CNN
F 1 "TestPoint" V 13500 6250 50  0001 L CNN
F 2 "lib_clavier:Test_Point_TL" H 13700 5650 50  0001 C CNN
F 3 "~" H 13700 5650 50  0001 C CNN
F 4 "ANM" H 13500 5650 50  0001 C CNN "Variante"
	1    13500 5650
	1    0    0    -1  
$EndComp
$Comp
L Connector:TestPoint TP13014
U 1 1 5D919285
P 13600 5650
F 0 "TP13014" V 13600 5850 50  0000 L CNN
F 1 "TestPoint" V 13600 6250 50  0001 L CNN
F 2 "lib_clavier:Test_Point_TL" H 13800 5650 50  0001 C CNN
F 3 "~" H 13800 5650 50  0001 C CNN
F 4 "ANM" H 13600 5650 50  0001 C CNN "Variante"
	1    13600 5650
	1    0    0    -1  
$EndComp
$Comp
L Connector:TestPoint TP13015
U 1 1 5D91C8C9
P 13700 5650
F 0 "TP13015" V 13700 5850 50  0000 L CNN
F 1 "TestPoint" V 13700 6250 50  0001 L CNN
F 2 "lib_clavier:Test_Point_TL" H 13900 5650 50  0001 C CNN
F 3 "~" H 13900 5650 50  0001 C CNN
F 4 "ANM" H 13700 5650 50  0001 C CNN "Variante"
	1    13700 5650
	1    0    0    -1  
$EndComp
$Comp
L Connector:TestPoint TP13016
U 1 1 5D91FF0E
P 13800 5650
F 0 "TP13016" V 13800 5850 50  0000 L CNN
F 1 "TestPoint" V 13800 6250 50  0001 L CNN
F 2 "lib_clavier:Test_Point_TL" H 14000 5650 50  0001 C CNN
F 3 "~" H 14000 5650 50  0001 C CNN
F 4 "ANM" H 13800 5650 50  0001 C CNN "Variante"
	1    13800 5650
	1    0    0    -1  
$EndComp
Text Notes 7950 6900 0    50   ~ 0
Les résistances \nde tirage sont \ncôté μ-contrôleur\n\n\n\nPull-up Resistors\non MCU side
$Comp
L Connector:TestPoint TP13017
U 1 1 5D92F144
P 14400 5650
F 0 "TP13017" V 14400 5850 50  0000 L CNN
F 1 "TestPoint" V 14400 6250 50  0001 L CNN
F 2 "lib_clavier:Test_Point_TL" H 14600 5650 50  0001 C CNN
F 3 "~" H 14600 5650 50  0001 C CNN
F 4 "ANM" H 14400 5650 50  0001 C CNN "Variante"
	1    14400 5650
	1    0    0    -1  
$EndComp
$Comp
L Connector:TestPoint TP13018
U 1 1 5D93238A
P 14500 5650
F 0 "TP13018" V 14500 5850 50  0000 L CNN
F 1 "TestPoint" V 14500 6250 50  0001 L CNN
F 2 "lib_clavier:Test_Point_TL" H 14700 5650 50  0001 C CNN
F 3 "~" H 14700 5650 50  0001 C CNN
F 4 "ANM" H 14500 5650 50  0001 C CNN "Variante"
	1    14500 5650
	1    0    0    -1  
$EndComp
$Comp
L Connector:TestPoint TP13019
U 1 1 5D9355D1
P 14600 5650
F 0 "TP13019" V 14600 5850 50  0000 L CNN
F 1 "TestPoint" V 14600 6250 50  0001 L CNN
F 2 "lib_clavier:Test_Point_TL" H 14800 5650 50  0001 C CNN
F 3 "~" H 14800 5650 50  0001 C CNN
F 4 "ANM" H 14600 5650 50  0001 C CNN "Variante"
	1    14600 5650
	1    0    0    -1  
$EndComp
$Comp
L Connector:TestPoint TP13020
U 1 1 5D938819
P 14700 5650
F 0 "TP13020" V 14700 5850 50  0000 L CNN
F 1 "TestPoint" V 14700 6250 50  0001 L CNN
F 2 "lib_clavier:Test_Point_TL" H 14900 5650 50  0001 C CNN
F 3 "~" H 14900 5650 50  0001 C CNN
F 4 "ANM" H 14700 5650 50  0001 C CNN "Variante"
	1    14700 5650
	1    0    0    -1  
$EndComp
$Comp
L Connector:TestPoint TP13021
U 1 1 5D93BA62
P 14800 5650
F 0 "TP13021" V 14800 5850 50  0000 L CNN
F 1 "TestPoint" V 14800 6250 50  0001 L CNN
F 2 "lib_clavier:Test_Point_TL" H 15000 5650 50  0001 C CNN
F 3 "~" H 15000 5650 50  0001 C CNN
F 4 "ANM" H 14800 5650 50  0001 C CNN "Variante"
	1    14800 5650
	1    0    0    -1  
$EndComp
$Comp
L Connector:TestPoint TP13022
U 1 1 5D93ECAC
P 14900 5650
F 0 "TP13022" V 14900 5850 50  0000 L CNN
F 1 "TestPoint" V 14900 6250 50  0001 L CNN
F 2 "lib_clavier:Test_Point_TL" H 15100 5650 50  0001 C CNN
F 3 "~" H 15100 5650 50  0001 C CNN
F 4 "ANM" H 14900 5650 50  0001 C CNN "Variante"
	1    14900 5650
	1    0    0    -1  
$EndComp
$Comp
L Connector:TestPoint TP13023
U 1 1 5D941EF7
P 15000 5650
F 0 "TP13023" V 15000 5850 50  0000 L CNN
F 1 "TestPoint" V 15000 6250 50  0001 L CNN
F 2 "lib_clavier:Test_Point_TL" H 15200 5650 50  0001 C CNN
F 3 "~" H 15200 5650 50  0001 C CNN
F 4 "ANM" H 15000 5650 50  0001 C CNN "Variante"
	1    15000 5650
	1    0    0    -1  
$EndComp
$Comp
L Connector:TestPoint TP13024
U 1 1 5D945143
P 15100 5650
F 0 "TP13024" V 15100 5850 50  0000 L CNN
F 1 "TestPoint" V 15100 6250 50  0001 L CNN
F 2 "lib_clavier:Test_Point_TL" H 15300 5650 50  0001 C CNN
F 3 "~" H 15300 5650 50  0001 C CNN
F 4 "ANM" H 15100 5650 50  0001 C CNN "Variante"
	1    15100 5650
	1    0    0    -1  
$EndComp
NoConn ~ 12100 7350
NoConn ~ 12100 7450
NoConn ~ 12100 9350
$Comp
L power:+3.3V #P3V03001
U 1 1 5CA8B1B2
P 9750 4750
F 0 "#P3V03001" H 9750 4600 50  0001 C CNN
F 1 "+3.3V" H 9650 4900 50  0000 L CNN
F 2 "" H 9750 4750 50  0001 C CNN
F 3 "" H 9750 4750 50  0001 C CNN
	1    9750 4750
	1    0    0    -1  
$EndComp
Wire Wire Line
	9750 4750 9750 4800
Wire Wire Line
	9750 4800 10850 4800
Connection ~ 9750 4800
Wire Wire Line
	9750 4800 9750 4850
Connection ~ 10850 4800
$Comp
L power:GND #PWR0108
U 1 1 5D62BBB2
P 7900 8500
F 0 "#PWR0108" H 7900 8250 50  0001 C CNN
F 1 "GND" H 7905 8327 50  0001 C CNN
F 2 "" H 7900 8500 50  0001 C CNN
F 3 "" H 7900 8500 50  0001 C CNN
	1    7900 8500
	1    0    0    -1  
$EndComp
Wire Wire Line
	7900 8500 7900 8450
$Comp
L Device:Q_NPN_BEC Q13001
U 1 1 5D6278BA
P 8000 8250
F 0 "Q13001" H 7700 8050 50  0000 L CNN
F 1 "BC847BT" H 7650 7950 50  0000 L CNN
F 2 "lib_clavier:SOT-416_TL" H 8200 8350 50  0001 C CNN
F 3 "~" H 8000 8250 50  0001 C CNN
F 4 "TL 200 038" H 8000 8250 50  0001 C CNN "ID_Base"
F 5 "G2" H 8000 8250 50  0001 C CNN "Variante"
	1    8000 8250
	-1   0    0    -1  
$EndComp
$Comp
L power:GND #PWR0109
U 1 1 5D63B4B2
P 8500 8500
F 0 "#PWR0109" H 8500 8250 50  0001 C CNN
F 1 "GND" H 8505 8327 50  0001 C CNN
F 2 "" H 8500 8500 50  0001 C CNN
F 3 "" H 8500 8500 50  0001 C CNN
	1    8500 8500
	1    0    0    -1  
$EndComp
Wire Wire Line
	8500 8500 8500 8450
$Comp
L Device:Q_NPN_BEC Q13002
U 1 1 5D63B4B9
P 8600 8250
F 0 "Q13002" H 8300 8050 50  0000 L CNN
F 1 "BC847BT" H 8250 7950 50  0000 L CNN
F 2 "lib_clavier:SOT-416_TL" H 8800 8350 50  0001 C CNN
F 3 "~" H 8600 8250 50  0001 C CNN
F 4 "TL 200 038" H 8600 8250 50  0001 C CNN "ID_Base"
F 5 "G2" H 8600 8250 50  0001 C CNN "Variante"
	1    8600 8250
	-1   0    0    -1  
$EndComp
Wire Wire Line
	8200 8250 8250 8250
Wire Wire Line
	8250 8250 8250 8000
Wire Wire Line
	8250 8000 8500 8000
Wire Wire Line
	8500 8000 8500 8050
Wire Wire Line
	7900 8050 7900 8000
$Comp
L Device:R R13003
U 1 1 5D64B920
P 8250 7800
F 0 "R13003" H 8320 7846 50  0000 L CNN
F 1 "10k" H 8320 7755 50  0000 L CNN
F 2 "lib_clavier:R_0402_TL" V 8180 7800 50  0001 C CNN
F 3 "~" H 8250 7800 50  0001 C CNN
F 4 "G2" H 8250 7800 50  0001 C CNN "Variante"
F 5 "TL 200 008" H -850 1500 50  0001 C CNN "ID_Base"
	1    8250 7800
	1    0    0    -1  
$EndComp
Wire Wire Line
	8250 7600 8250 7650
$Comp
L power:+3.3V #P3V0101
U 1 1 5D64B927
P 8250 7600
F 0 "#P3V0101" H 8250 7450 50  0001 C CNN
F 1 "+3.3V" H 8150 7750 50  0000 L CNN
F 2 "" H 8250 7600 50  0001 C CNN
F 3 "" H 8250 7600 50  0001 C CNN
	1    8250 7600
	1    0    0    -1  
$EndComp
Wire Wire Line
	8250 7950 8250 8000
Connection ~ 8250 8000
Wire Wire Line
	7750 7950 7750 8000
Connection ~ 7750 8000
Wire Wire Line
	7750 8000 7900 8000
Wire Wire Line
	9500 6750 9950 6750
Wire Notes Line
	7650 7300 7650 8700
Wire Notes Line
	7650 8700 9350 8700
Wire Notes Line
	9350 8700 9350 7300
Wire Notes Line
	9350 7300 7650 7300
Text Notes 7700 7250 0    49   ~ 0
Conversion en Collecteur Ouvert\nOpen Collector Conversion
Wire Wire Line
	9950 8900 9850 8900
$Comp
L Connector:TestPoint TP13028
U 1 1 5CBC600F
P 9850 8900
F 0 "TP13028" V 9850 9100 50  0000 L CNN
F 1 "TestPoint" V 9750 9100 50  0001 L CNN
F 2 "lib_clavier:Test_Point_TL" H 10050 8900 50  0001 C CNN
F 3 "~" H 10050 8900 50  0001 C CNN
F 4 "ANM" H 9850 8900 50  0001 C CNN "Variante"
	1    9850 8900
	0    -1   -1   0   
$EndComp
Wire Wire Line
	7300 8000 7750 8000
Wire Wire Line
	9500 6750 9500 8250
Connection ~ 7700 6550
Wire Wire Line
	7700 6550 7300 6550
$Comp
L Device:R R13004
U 1 1 5D9253AC
P 9100 8250
F 0 "R13004" V 9000 8100 50  0000 L CNN
F 1 "10k" V 9200 8150 50  0000 L CNN
F 2 "lib_clavier:R_0402_TL" V 9030 8250 50  0001 C CNN
F 3 "~" H 9100 8250 50  0001 C CNN
F 4 "G2" H 9100 8250 50  0001 C CNN "Variante"
F 5 "TL 200 008" H 0   1950 50  0001 C CNN "ID_Base"
	1    9100 8250
	0    1    1    0   
$EndComp
Wire Wire Line
	8800 8250 8950 8250
Wire Wire Line
	9250 8250 9500 8250
Wire Wire Line
	7300 6650 7800 6650
Wire Wire Line
	7700 6550 9950 6550
Wire Wire Line
	7800 6400 7800 6650
Connection ~ 7800 6650
Wire Wire Line
	7800 6650 9950 6650
$EndSCHEMATC
