EESchema Schematic File Version 4
LIBS:carte_coco_simple-cache
EELAYER 30 0
EELAYER END
$Descr A2 23386 16535
encoding utf-8
Sheet 2 3
Title "Schematics"
Date "20 oct 2019"
Rev "B"
Comp "Lilian T."
Comment1 "TL 500 003"
Comment2 "Clavier ToucheLibre"
Comment3 "CoCo Board"
Comment4 "Connectors and Hierarchical Blocs"
$EndDescr
$Comp
L carte_coco_simple-rescue:USB_B_Micro-Connector J?
U 1 1 5CA9F1C2
P 6100 5150
AR Path="/5BBF869B/5CA9DCAF/5CA9F1C2" Ref="J?"  Part="1" 
AR Path="/5BBF869B/5CA9F1C2" Ref="J32001"  Part="1" 
AR Path="/5CA9F1C2" Ref="J?"  Part="1" 
F 0 "J32001" H 6100 5650 50  0000 C CNN
F 1 "USB_B_Micro" H 6155 5526 50  0000 C CNN
F 2 "lib_clavier:USB_Micro-B_Molex_47491-001_TL" H 6250 5100 50  0001 C CNN
F 3 "~" H 6250 5100 50  0001 C CNN
F 4 "TL 200 054" H 6100 5150 50  0001 C CNN "ID_BASE"
F 5 "G3" H 6100 5150 50  0001 C CNN "Variante"
	1    6100 5150
	1    0    0    -1  
$EndComp
Wire Notes Line
	11800 15000 11800 8050
Wire Notes Line
	11800 4000 5900 4000
Wire Notes Line
	5900 8050 5900 15000
Wire Notes Line
	5900 15000 11800 15000
Text Notes 6000 3950 0    59   ~ 12
Connecteurs vers Ordinateur\nConnectors to Computer
$Comp
L carte_coco_simple-rescue:GND-power #PWR02003
U 1 1 5CA9F2B5
P 6000 5700
F 0 "#PWR02003" H 6000 5450 50  0001 C CNN
F 1 "GND-power" H 6005 5527 50  0001 C CNN
F 2 "" H 6000 5700 50  0001 C CNN
F 3 "" H 6000 5700 50  0001 C CNN
	1    6000 5700
	1    0    0    -1  
$EndComp
Wire Wire Line
	6000 5600 6100 5600
Wire Wire Line
	6100 5600 6100 5550
NoConn ~ 6400 5350
Text GLabel 12300 4950 2    50   UnSpc ~ 10
VBUS_F
$Comp
L carte_coco_simple-rescue:VBUS-power #PWR02001
U 1 1 5CA9F397
P 6500 4850
F 0 "#PWR02001" H 6500 4700 50  0001 C CNN
F 1 "VBUS" H 6515 5023 50  0000 C CNN
F 2 "" H 6500 4850 50  0001 C CNN
F 3 "" H 6500 4850 50  0001 C CNN
	1    6500 4850
	1    0    0    -1  
$EndComp
Wire Wire Line
	6500 4850 6500 4950
$Comp
L carte_coco_simple-rescue:NUP2202-Power_Protection U32001
U 1 1 5CB3F8EB
P 7050 5600
F 0 "U32001" H 7200 5400 50  0000 L CNN
F 1 "NUP2202" H 7150 5300 50  0000 L CNN
F 2 "lib_clavier:SOT-363_SC-70-6_TL" H 7130 5675 50  0001 C CNN
F 3 "http://www.onsemi.ru.com/pub_link/Collateral/NUP2202W1-D.PDF" H 7130 5675 50  0001 C CNN
F 4 "TL 200 048" H 7050 5600 50  0001 C CNN "ID_BASE"
F 5 "G3" H 7050 5600 50  0001 C CNN "Variante"
	1    7050 5600
	1    0    0    -1  
$EndComp
Wire Wire Line
	6850 5600 6800 5600
Wire Wire Line
	7250 5600 7300 5600
Wire Wire Line
	7050 5800 7050 5900
$Comp
L carte_coco_simple-rescue:GND-power #PWR02004
U 1 1 5CB40B62
P 7050 5900
F 0 "#PWR02004" H 7050 5650 50  0001 C CNN
F 1 "GND-power" H 7055 5727 50  0001 C CNN
F 2 "" H 7050 5900 50  0001 C CNN
F 3 "" H 7050 5900 50  0001 C CNN
	1    7050 5900
	1    0    0    -1  
$EndComp
Wire Notes Line
	7550 4550 7550 6050
Wire Notes Line
	7550 6050 6650 6050
Wire Notes Line
	6650 6050 6650 4550
Wire Notes Line
	6650 4550 7550 4550
$Comp
L carte_coco_simple-rescue:GND-power #PWR02017
U 1 1 5CB48AF1
P 6250 13050
F 0 "#PWR02017" H 6250 12800 50  0001 C CNN
F 1 "GND-power" H 6255 12877 50  0001 C CNN
F 2 "" H 6250 13050 50  0001 C CNN
F 3 "" H 6250 13050 50  0001 C CNN
	1    6250 13050
	1    0    0    -1  
$EndComp
Wire Wire Line
	6250 13050 6250 12950
Wire Wire Line
	6250 12950 6150 12950
Connection ~ 6250 12950
Wire Wire Line
	6250 12050 6150 12050
$Comp
L carte_coco_simple-rescue:+5V-power #PWR02015
U 1 1 5CB4EB6F
P 8250 11900
F 0 "#PWR02015" H 8250 11750 50  0001 C CNN
F 1 "+5V" H 8250 12050 50  0000 C CNN
F 2 "" H 8250 11900 50  0001 C CNN
F 3 "" H 8250 11900 50  0001 C CNN
	1    8250 11900
	1    0    0    -1  
$EndComp
$Comp
L carte_coco_simple-rescue:+3.3V-power #PWR02016
U 1 1 5CB4EBAA
P 7950 11900
F 0 "#PWR02016" H 7950 11750 50  0001 C CNN
F 1 "+3.3V" H 7950 12050 50  0000 C CNN
F 2 "" H 7950 11900 50  0001 C CNN
F 3 "" H 7950 11900 50  0001 C CNN
	1    7950 11900
	1    0    0    -1  
$EndComp
$Comp
L carte_coco_simple-rescue:GND-power #PWR?
U 1 1 5CB512F3
P 8250 13250
AR Path="/5BBF869B/5CA9DCAF/5CB512F3" Ref="#PWR?"  Part="1" 
AR Path="/5BBF869B/5CB512F3" Ref="#PWR02018"  Part="1" 
F 0 "#PWR02018" H 8250 13000 50  0001 C CNN
F 1 "GND-power" H 8255 13077 50  0001 C CNN
F 2 "" H 8250 13250 50  0001 C CNN
F 3 "" H 8250 13250 50  0001 C CNN
	1    8250 13250
	1    0    0    -1  
$EndComp
$Comp
L carte_coco_simple-rescue:C-Device C?
U 1 1 5CB512F9
P 7950 13050
AR Path="/5BBF869B/5CA9DCAF/5CB512F9" Ref="C?"  Part="1" 
AR Path="/5BBF869B/5CB512F9" Ref="C32007"  Part="1" 
F 0 "C32007" H 7600 13150 50  0000 L CNN
F 1 "220nF" H 7600 13050 50  0000 L CNN
F 2 "lib_clavier:C_0402_TL" H 7988 12900 50  0001 C CNN
F 3 "~" H 7950 13050 50  0001 C CNN
F 4 "10V" H 7750 12950 50  0000 C CNN "Tension"
F 5 "TL 200 022" H 7950 13050 50  0001 C CNN "ID_BASE"
F 6 "CD" H 7950 13050 50  0001 C CNN "Variante"
	1    7950 13050
	1    0    0    -1  
$EndComp
Wire Wire Line
	8250 13200 8250 13250
$Comp
L carte_coco_simple-rescue:GND-power #PWR?
U 1 1 5CB51301
P 7950 13250
AR Path="/5BBF869B/5CA9DCAF/5CB51301" Ref="#PWR?"  Part="1" 
AR Path="/5BBF869B/5CB51301" Ref="#PWR02019"  Part="1" 
F 0 "#PWR02019" H 7950 13000 50  0001 C CNN
F 1 "GND-power" H 7955 13077 50  0001 C CNN
F 2 "" H 7950 13250 50  0001 C CNN
F 3 "" H 7950 13250 50  0001 C CNN
	1    7950 13250
	1    0    0    -1  
$EndComp
$Comp
L carte_coco_simple-rescue:C-Device C?
U 1 1 5CB51307
P 8250 13050
AR Path="/5BBF869B/5CA9DCAF/5CB51307" Ref="C?"  Part="1" 
AR Path="/5BBF869B/5CB51307" Ref="C32008"  Part="1" 
F 0 "C32008" H 8300 13150 50  0000 L CNN
F 1 "220nF" H 8400 13050 50  0000 L CNN
F 2 "lib_clavier:C_0402_TL" H 8288 12900 50  0001 C CNN
F 3 "~" H 8250 13050 50  0001 C CNN
F 4 "10V" H 8450 12950 50  0000 C CNN "Tension"
F 5 "TL 200 022" H 8250 13050 50  0001 C CNN "ID_BASE"
F 6 "CD" H 8250 13050 50  0001 C CNN "Variante"
	1    8250 13050
	1    0    0    -1  
$EndComp
Wire Wire Line
	7950 13200 7950 13250
Text Label 11550 5150 2    50   ~ 0
USB2_F_P
Text Label 11550 5250 2    50   ~ 0
USB2_F_N
$Sheet
S 14600 10450 2500 3050
U 5BBF872B
F0 "IO_Expander" 60
F1 "IO_Expander.sch" 60
F2 "I2C_COCO_SDA" B L 14600 12250 50 
F3 "I2C_COCO_SCL" I L 14600 12350 50 
F4 "I2C_COCO_INT" O L 14600 12150 50 
F5 "Col_5bis_SW" I L 14600 10850 50 
F6 "Lig_Fbis_SW" O L 14600 10750 50 
$EndSheet
$Comp
L Connector:TestPoint TP32001
U 1 1 5CD75CA4
P 11000 4900
F 0 "TP32001" H 11058 5020 50  0000 L CNN
F 1 "TestPoint" H 11058 4929 50  0001 L CNN
F 2 "lib_clavier:Test_Point_TL" H 11200 4900 50  0001 C CNN
F 3 "~" H 11200 4900 50  0001 C CNN
F 4 "ANM" H 11000 4900 50  0001 C CNN "Variante"
	1    11000 4900
	1    0    0    -1  
$EndComp
$Comp
L Device:Varistor RV32001
U 1 1 5D4B0B9D
P 8200 5700
F 0 "RV32001" H 7750 5750 50  0000 L CNN
F 1 "MLV0603E" H 7700 5650 50  0000 L CNN
F 2 "lib_clavier:RV_0603_CT0603M6G_TL" V 8130 5700 50  0001 C CNN
F 3 "~" H 8200 5700 50  0001 C CNN
F 4 "TL 200 035" H 8200 5700 50  0001 C CNN "ID_BASE"
F 5 "G3" H 8200 5700 50  0001 C CNN "Variante"
	1    8200 5700
	1    0    0    -1  
$EndComp
$Comp
L carte_coco_simple-rescue:GND-power #PWR02005
U 1 1 5D4B9B90
P 8200 5900
F 0 "#PWR02005" H 8200 5650 50  0001 C CNN
F 1 "GND-power" H 8205 5727 50  0001 C CNN
F 2 "" H 8200 5900 50  0001 C CNN
F 3 "" H 8200 5900 50  0001 C CNN
	1    8200 5900
	1    0    0    -1  
$EndComp
Wire Wire Line
	8200 5900 8200 5850
Text Notes 6700 4500 0    50   ~ 10
ESD Protection
Wire Notes Line
	7650 4550 7650 6050
Wire Notes Line
	7650 6050 8350 6050
Wire Notes Line
	8350 6050 8350 4550
Wire Notes Line
	8350 4550 7650 4550
Text Notes 7600 4500 0    50   ~ 10
Overvoltage and\nOvercurrent Protection
$Comp
L power:GND #PWR?
U 1 1 5D4D2003
P 9600 5900
AR Path="/5D4D2003" Ref="#PWR?"  Part="1" 
AR Path="/5D4A0749/5D49F20C/5D4D2003" Ref="#PWR?"  Part="1" 
AR Path="/5D4A0749/5D55A9E5/5D4D2003" Ref="#PWR?"  Part="1" 
AR Path="/5BBF869B/5D4D2003" Ref="#PWR02008"  Part="1" 
F 0 "#PWR02008" H 9600 5650 50  0001 C CNN
F 1 "GND" H 9605 5727 50  0001 C CNN
F 2 "" H 9600 5900 50  0001 C CNN
F 3 "" H 9600 5900 50  0001 C CNN
	1    9600 5900
	1    0    0    -1  
$EndComp
$Comp
L Device:C C?
U 1 1 5D4D200A
P 9600 5700
AR Path="/5D4D200A" Ref="C?"  Part="1" 
AR Path="/5D4A0749/5D49F20C/5D4D200A" Ref="C?"  Part="1" 
AR Path="/5D4A0749/5D55A9E5/5D4D200A" Ref="C?"  Part="1" 
AR Path="/5BBF869B/5D4D200A" Ref="C32002"  Part="1" 
F 0 "C32002" H 9650 5800 50  0000 L CNN
F 1 "10uF" H 9700 5700 50  0000 L CNN
F 2 "lib_clavier:C_0805_TL" H 9638 5550 50  0001 C CNN
F 3 "~" H 9600 5700 50  0001 C CNN
F 4 "10V" H 9750 5600 50  0000 C CNN "Tension"
F 5 "TL 200 024" H 9600 5700 50  0001 C CNN "ID_BASE"
F 6 "G3" H 9600 5700 50  0001 C CNN "Variante"
	1    9600 5700
	1    0    0    -1  
$EndComp
$Comp
L Device:Ferrite_Bead FB?
U 1 1 5D4D2013
P 10000 4950
AR Path="/5D4D2013" Ref="FB?"  Part="1" 
AR Path="/5D4A0749/5D49F20C/5D4D2013" Ref="FB?"  Part="1" 
AR Path="/5D4A0749/5D55A9E5/5D4D2013" Ref="FB?"  Part="1" 
AR Path="/5BBF869B/5D4D2013" Ref="FB32001"  Part="1" 
F 0 "FB32001" V 9726 4950 50  0000 C CNN
F 1 "BLM18HE152SN1" V 9817 4950 50  0000 C CNN
F 2 "lib_clavier:L_0603_TL" V 9930 4950 50  0001 C CNN
F 3 "~" H 10000 4950 50  0001 C CNN
F 4 "500mA" V 9950 5200 50  0000 C CNN "Current"
F 5 "TL 200 030" H 10000 4950 50  0001 C CNN "ID_BASE"
F 6 "G3" H 10000 4950 50  0001 C CNN "Variante"
	1    10000 4950
	0    1    1    0   
$EndComp
$Comp
L power:GND #PWR?
U 1 1 5D4D201B
P 10600 5900
AR Path="/5D4D201B" Ref="#PWR?"  Part="1" 
AR Path="/5D4A0749/5D49F20C/5D4D201B" Ref="#PWR?"  Part="1" 
AR Path="/5D4A0749/5D55A9E5/5D4D201B" Ref="#PWR?"  Part="1" 
AR Path="/5BBF869B/5D4D201B" Ref="#PWR02009"  Part="1" 
F 0 "#PWR02009" H 10600 5650 50  0001 C CNN
F 1 "GND" H 10605 5727 50  0001 C CNN
F 2 "" H 10600 5900 50  0001 C CNN
F 3 "" H 10600 5900 50  0001 C CNN
	1    10600 5900
	1    0    0    -1  
$EndComp
$Comp
L Device:C C?
U 1 1 5D4D2024
P 10600 5700
AR Path="/5D4D2024" Ref="C?"  Part="1" 
AR Path="/5D4A0749/5D49F20C/5D4D2024" Ref="C?"  Part="1" 
AR Path="/5D4A0749/5D55A9E5/5D4D2024" Ref="C?"  Part="1" 
AR Path="/5BBF869B/5D4D2024" Ref="C32003"  Part="1" 
F 0 "C32003" H 10250 5800 50  0000 L CNN
F 1 "10uF" H 10250 5700 50  0000 L CNN
F 2 "lib_clavier:C_0805_TL" H 10638 5550 50  0001 C CNN
F 3 "~" H 10600 5700 50  0001 C CNN
F 4 "10V" H 10350 5600 50  0000 C CNN "Tension"
F 5 "TL 200 024" H 10600 5700 50  0001 C CNN "ID_BASE"
F 6 "G3" H 10600 5700 50  0001 C CNN "Variante"
	1    10600 5700
	1    0    0    -1  
$EndComp
Wire Wire Line
	9600 5900 9600 5850
Wire Wire Line
	10600 5850 10600 5900
Wire Wire Line
	6400 4950 6500 4950
$Comp
L Device:R R32001
U 1 1 5D50026B
P 8900 5700
F 0 "R32001" H 8550 5750 50  0000 L CNN
F 1 "47k" H 8650 5650 50  0000 L CNN
F 2 "lib_clavier:R_0402_TL" V 8830 5700 50  0001 C CNN
F 3 "~" H 8900 5700 50  0001 C CNN
F 4 "TL 200 011" H 8900 5700 50  0001 C CNN "ID_BASE"
F 5 "G3" H 8900 5700 50  0001 C CNN "Variante"
	1    8900 5700
	1    0    0    -1  
$EndComp
$Comp
L power:GND #PWR?
U 1 1 5D500C92
P 9350 5900
AR Path="/5D500C92" Ref="#PWR?"  Part="1" 
AR Path="/5D4A0749/5D49F20C/5D500C92" Ref="#PWR?"  Part="1" 
AR Path="/5D4A0749/5D55A9E5/5D500C92" Ref="#PWR?"  Part="1" 
AR Path="/5BBF869B/5D4D1C79/5D500C92" Ref="#PWR?"  Part="1" 
AR Path="/5BBF869B/5D500C92" Ref="#PWR02007"  Part="1" 
F 0 "#PWR02007" H 9350 5650 50  0001 C CNN
F 1 "GND" H 9355 5727 50  0001 C CNN
F 2 "" H 9350 5900 50  0001 C CNN
F 3 "" H 9350 5900 50  0001 C CNN
	1    9350 5900
	1    0    0    -1  
$EndComp
$Comp
L Device:C C?
U 1 1 5D500C99
P 9350 5700
AR Path="/5D500C99" Ref="C?"  Part="1" 
AR Path="/5D4A0749/5D49F20C/5D500C99" Ref="C?"  Part="1" 
AR Path="/5D4A0749/5D55A9E5/5D500C99" Ref="C?"  Part="1" 
AR Path="/5BBF869B/5D4D1C79/5D500C99" Ref="C?"  Part="1" 
AR Path="/5BBF869B/5D500C99" Ref="C32001"  Part="1" 
F 0 "C32001" H 9050 5800 50  0000 L CNN
F 1 "220nF" H 9000 5700 50  0000 L CNN
F 2 "lib_clavier:C_0402_TL" H 9388 5550 50  0001 C CNN
F 3 "~" H 9350 5700 50  0001 C CNN
F 4 "10V" H 9150 5600 50  0000 C CNN "Tension"
F 5 "TL 200 022" H 9350 5700 50  0001 C CNN "ID_BASE"
F 6 "G3" H 9350 5700 50  0001 C CNN "Variante"
	1    9350 5700
	1    0    0    -1  
$EndComp
$Comp
L power:GND #PWR?
U 1 1 5D504FF9
P 8900 5900
AR Path="/5D504FF9" Ref="#PWR?"  Part="1" 
AR Path="/5D4A0749/5D49F20C/5D504FF9" Ref="#PWR?"  Part="1" 
AR Path="/5D4A0749/5D55A9E5/5D504FF9" Ref="#PWR?"  Part="1" 
AR Path="/5BBF869B/5D4D1C79/5D504FF9" Ref="#PWR?"  Part="1" 
AR Path="/5BBF869B/5D504FF9" Ref="#PWR02006"  Part="1" 
F 0 "#PWR02006" H 8900 5650 50  0001 C CNN
F 1 "GND" H 8905 5727 50  0001 C CNN
F 2 "" H 8900 5900 50  0001 C CNN
F 3 "" H 8900 5900 50  0001 C CNN
	1    8900 5900
	1    0    0    -1  
$EndComp
Wire Wire Line
	8900 5900 8900 5850
Wire Wire Line
	9350 5900 9350 5850
Connection ~ 9600 4950
Wire Wire Line
	9600 4950 9850 4950
Wire Notes Line
	8500 4550 8500 6050
Wire Notes Line
	8500 6050 10800 6050
Wire Notes Line
	10800 6050 10800 4550
Wire Notes Line
	8500 4550 10800 4550
Text Notes 9050 4500 0    50   ~ 10
EMC Filter
Connection ~ 9350 4950
Wire Wire Line
	9350 4950 9600 4950
Connection ~ 8900 4950
Wire Wire Line
	8900 4950 9350 4950
$Comp
L carte_coco_simple-rescue:GND-power #PWR02010
U 1 1 5D551F5F
P 6250 11050
F 0 "#PWR02010" H 6250 10800 50  0001 C CNN
F 1 "GND-power" H 6255 10877 50  0001 C CNN
F 2 "" H 6250 11050 50  0001 C CNN
F 3 "" H 6250 11050 50  0001 C CNN
	1    6250 11050
	1    0    0    -1  
$EndComp
Wire Wire Line
	6250 11050 6250 10950
Wire Wire Line
	6150 9400 6250 9400
Wire Wire Line
	6250 9400 6250 9100
$Comp
L Device:R R32002
U 1 1 5D555984
P 8350 9200
F 0 "R32002" V 8150 9200 50  0000 C CNN
F 1 "10" V 8250 9150 50  0000 C CNN
F 2 "lib_clavier:R_0402_TL" V 8280 9200 50  0001 C CNN
F 3 "~" H 8350 9200 50  0001 C CNN
F 4 "TL 200 002" H 8350 9200 50  0001 C CNN "ID_BASE"
F 5 "G3" H 8350 9200 50  0001 C CNN "Variante"
	1    8350 9200
	0    1    1    0   
$EndComp
$Comp
L Device:R R32003
U 1 1 5D55598C
P 8350 9300
F 0 "R32003" V 8450 9300 50  0000 C CNN
F 1 "10" V 8550 9250 50  0000 C CNN
F 2 "lib_clavier:R_0402_TL" V 8280 9300 50  0001 C CNN
F 3 "~" H 8350 9300 50  0001 C CNN
F 4 "TL 200 002" H 8350 9300 50  0001 C CNN "ID_BASE"
F 5 "G3" H 8350 9300 50  0001 C CNN "Variante"
	1    8350 9300
	0    1    1    0   
$EndComp
Wire Wire Line
	11000 4900 11000 4950
Connection ~ 11000 4950
Wire Wire Line
	11000 4950 12050 4950
Connection ~ 6500 4950
$Comp
L carte_coco_simple-rescue:VBUS_F-power #PWR2002
U 1 1 5D573F15
P 12050 4850
F 0 "#PWR2002" H 12200 4750 50  0001 C CNN
F 1 "VBUS_F" H 12045 5024 50  0000 C CNN
F 2 "" H 12050 4850 50  0001 C CNN
F 3 "" H 12050 4850 50  0001 C CNN
	1    12050 4850
	1    0    0    -1  
$EndComp
Wire Wire Line
	12050 4850 12050 4950
Connection ~ 12050 4950
Text Label 6700 9200 2    50   ~ 0
USB2_N
Text Label 6700 9300 2    50   ~ 0
USB2_P
$Comp
L power:GND #PWR?
U 1 1 5D586A4E
P 7550 9900
AR Path="/5D586A4E" Ref="#PWR?"  Part="1" 
AR Path="/5D4A0749/5D49F20C/5D586A4E" Ref="#PWR?"  Part="1" 
AR Path="/5D4A0749/5D55A9E5/5D586A4E" Ref="#PWR?"  Part="1" 
AR Path="/5BBF869B/5D4D1C79/5D586A4E" Ref="#PWR?"  Part="1" 
AR Path="/5BBF869B/5D586A4E" Ref="#PWR02011"  Part="1" 
F 0 "#PWR02011" H 7550 9650 50  0001 C CNN
F 1 "GND" H 7555 9727 50  0001 C CNN
F 2 "" H 7550 9900 50  0001 C CNN
F 3 "" H 7550 9900 50  0001 C CNN
	1    7550 9900
	1    0    0    -1  
$EndComp
$Comp
L Device:C C?
U 1 1 5D586A55
P 7550 9700
AR Path="/5D586A55" Ref="C?"  Part="1" 
AR Path="/5D4A0749/5D49F20C/5D586A55" Ref="C?"  Part="1" 
AR Path="/5D4A0749/5D55A9E5/5D586A55" Ref="C?"  Part="1" 
AR Path="/5BBF869B/5D4D1C79/5D586A55" Ref="C?"  Part="1" 
AR Path="/5BBF869B/5D586A55" Ref="C32004"  Part="1" 
F 0 "C32004" H 7200 9800 50  0000 L CNN
F 1 "1pF" H 7250 9700 50  0000 L CNN
F 2 "lib_clavier:C_0402_TL" H 7588 9550 50  0001 C CNN
F 3 "~" H 7550 9700 50  0001 C CNN
F 4 "50V" H 7350 9600 50  0000 C CNN "Tension"
F 5 "TL 200 014" H 7550 9700 50  0001 C CNN "ID_BASE"
F 6 "G3" H 7550 9700 50  0001 C CNN "Variante"
	1    7550 9700
	1    0    0    -1  
$EndComp
Wire Wire Line
	7550 9900 7550 9850
$Comp
L power:GND #PWR?
U 1 1 5D58D4C8
P 7850 9900
AR Path="/5D58D4C8" Ref="#PWR?"  Part="1" 
AR Path="/5D4A0749/5D49F20C/5D58D4C8" Ref="#PWR?"  Part="1" 
AR Path="/5D4A0749/5D55A9E5/5D58D4C8" Ref="#PWR?"  Part="1" 
AR Path="/5BBF869B/5D4D1C79/5D58D4C8" Ref="#PWR?"  Part="1" 
AR Path="/5BBF869B/5D58D4C8" Ref="#PWR02012"  Part="1" 
F 0 "#PWR02012" H 7850 9650 50  0001 C CNN
F 1 "GND" H 7855 9727 50  0001 C CNN
F 2 "" H 7850 9900 50  0001 C CNN
F 3 "" H 7850 9900 50  0001 C CNN
	1    7850 9900
	1    0    0    -1  
$EndComp
$Comp
L Device:C C?
U 1 1 5D58D4CF
P 7850 9700
AR Path="/5D58D4CF" Ref="C?"  Part="1" 
AR Path="/5D4A0749/5D49F20C/5D58D4CF" Ref="C?"  Part="1" 
AR Path="/5D4A0749/5D55A9E5/5D58D4CF" Ref="C?"  Part="1" 
AR Path="/5BBF869B/5D4D1C79/5D58D4CF" Ref="C?"  Part="1" 
AR Path="/5BBF869B/5D58D4CF" Ref="C32005"  Part="1" 
F 0 "C32005" H 7900 9800 50  0000 L CNN
F 1 "1pF" H 8000 9700 50  0000 L CNN
F 2 "lib_clavier:C_0402_TL" H 7888 9550 50  0001 C CNN
F 3 "~" H 7850 9700 50  0001 C CNN
F 4 "50V" H 8000 9600 50  0000 C CNN "Tension"
F 5 "TL 200 014" H 7850 9700 50  0001 C CNN "ID_BASE"
F 6 "G3" H 7850 9700 50  0001 C CNN "Variante"
	1    7850 9700
	1    0    0    -1  
$EndComp
Wire Wire Line
	7850 9900 7850 9850
Wire Wire Line
	7850 9550 7850 9300
Connection ~ 7850 9300
Wire Wire Line
	7850 9300 8200 9300
Wire Wire Line
	7550 9550 7550 9200
Connection ~ 7550 9200
Wire Wire Line
	7550 9200 8200 9200
Text Label 9600 9200 2    50   ~ 0
USB2_F_N
Text Label 9600 9300 2    50   ~ 0
USB2_F_P
Wire Wire Line
	8500 9200 9600 9200
Wire Wire Line
	8500 9300 9600 9300
Wire Notes Line
	7150 8700 7150 10200
Wire Notes Line
	7150 8700 8650 8700
Wire Notes Line
	8650 8700 8650 10200
Text Notes 7300 8650 0    50   ~ 10
Adaptation / Matching
Text Notes 7500 9100 0    50   ~ 0
Capacitor\ncould be\nnot mounted
Wire Wire Line
	12050 4950 12300 4950
$Comp
L Device:Polyfuse F32001
U 1 1 5D5CDD13
P 7950 4950
F 0 "F32001" V 8250 4900 50  0000 L CNN
F 1 "1206L050/15" V 8150 4650 50  0000 L CNN
F 2 "lib_clavier:Polyfuse_PTC1206L050_TL" H 8000 4750 50  0001 L CNN
F 3 "~" H 7950 4950 50  0001 C CNN
F 4 "1A" V 8100 5050 50  0000 R BNN "Trip Current"
F 5 "TL 200 034" H 7950 4950 50  0001 C CNN "ID_BASE"
F 6 "G3" H 7950 4950 50  0001 C CNN "Variante"
	1    7950 4950
	0    -1   -1   0   
$EndComp
Connection ~ 8200 4950
Wire Wire Line
	8200 4950 8900 4950
Wire Wire Line
	8100 4950 8200 4950
Wire Wire Line
	10600 4950 10600 5550
Wire Wire Line
	9600 4950 9600 5550
Wire Wire Line
	9350 4950 9350 5550
Wire Wire Line
	8900 4950 8900 5550
Wire Wire Line
	8200 4950 8200 5550
Wire Wire Line
	6400 5150 6800 5150
Wire Wire Line
	6500 4950 7050 4950
Wire Wire Line
	6400 5250 7300 5250
Wire Wire Line
	6800 5600 6800 5150
Connection ~ 6800 5150
Wire Wire Line
	6800 5150 9900 5150
Wire Wire Line
	7050 4950 7050 5400
Connection ~ 7050 4950
Wire Wire Line
	7050 4950 7800 4950
Wire Wire Line
	7300 5250 7300 5600
Connection ~ 7300 5250
Wire Wire Line
	7300 5250 9900 5250
$Comp
L carte_coco_simple-rescue:VBUS_F-power #PWR2013
U 1 1 5D687E6A
P 7050 11900
F 0 "#PWR2013" H 7200 11800 50  0001 C CNN
F 1 "VBUS_F" H 7045 12074 50  0000 C CNN
F 2 "" H 7050 11900 50  0001 C CNN
F 3 "" H 7050 11900 50  0001 C CNN
	1    7050 11900
	1    0    0    -1  
$EndComp
$Comp
L Connector_Generic:Conn_01x10 J32004
U 1 1 5D6911EC
P 5950 12450
F 0 "J32004" H 5800 13100 50  0000 C CNN
F 1 "Conn_01x10" H 5750 13000 50  0000 C CNN
F 2 "lib_clavier:InterBoard_1x10_P1.27mm_TL" H 5950 12450 50  0001 C CNN
F 3 "~" H 5950 12450 50  0001 C CNN
F 4 "CD" H 5950 12450 50  0001 C CNN "Variante"
F 5 "TL 200 066" H 5950 12450 50  0001 C CNN "ID_BASE"
	1    5950 12450
	-1   0    0    -1  
$EndComp
$Comp
L carte_coco_simple-rescue:GND-power #PWR?
U 1 1 5D6BE4A9
P 7050 13250
AR Path="/5BBF869B/5CA9DCAF/5D6BE4A9" Ref="#PWR?"  Part="1" 
AR Path="/5BBF869B/5D6BE4A9" Ref="#PWR02014"  Part="1" 
F 0 "#PWR02014" H 7050 13000 50  0001 C CNN
F 1 "GND-power" H 7055 13077 50  0001 C CNN
F 2 "" H 7050 13250 50  0001 C CNN
F 3 "" H 7050 13250 50  0001 C CNN
	1    7050 13250
	1    0    0    -1  
$EndComp
$Comp
L carte_coco_simple-rescue:C-Device C?
U 1 1 5D6BE4AF
P 7050 13050
AR Path="/5BBF869B/5CA9DCAF/5D6BE4AF" Ref="C?"  Part="1" 
AR Path="/5BBF869B/5D6BE4AF" Ref="C32006"  Part="1" 
F 0 "C32006" H 7100 13150 50  0000 L CNN
F 1 "220nF" H 7200 13050 50  0000 L CNN
F 2 "lib_clavier:C_0402_TL" H 7088 12900 50  0001 C CNN
F 3 "~" H 7050 13050 50  0001 C CNN
F 4 "10V" H 7250 12950 50  0000 C CNN "Tension"
F 5 "TL 200 022" H 7050 13050 50  0001 C CNN "ID_BASE"
F 6 "CD" H 7050 13050 50  0001 C CNN "Variante"
	1    7050 13050
	1    0    0    -1  
$EndComp
Wire Wire Line
	7050 13200 7050 13250
Wire Wire Line
	6000 5550 6000 5600
Connection ~ 6000 5600
Wire Wire Line
	6000 5600 6000 5700
Wire Wire Line
	6150 10750 14600 10750
Wire Wire Line
	6150 10850 14600 10850
Wire Wire Line
	6150 12350 14600 12350
Wire Wire Line
	6150 12250 14600 12250
Wire Wire Line
	6150 12150 14600 12150
Wire Notes Line
	11800 8050 5900 8050
Text Notes 6000 8000 0    59   ~ 12
Connecteurs vers carte Clavier\nConnectors to Keyboard
Wire Notes Line
	11800 6450 5900 6450
Wire Notes Line
	5900 4000 5900 6450
Wire Notes Line
	11800 6450 11800 4000
$Comp
L carte_coco_simple-rescue:SW_Slide_ON-OFF-Switch-carte_coco_simple-rescue SW32001
U 1 1 5D599E17
P 9000 1850
AR Path="/5D599E17" Ref="SW32001"  Part="1" 
AR Path="/5BBF869B/5D599E17" Ref="SW32001"  Part="1" 
F 0 "SW32001" H 9700 2000 50  0000 C CNN
F 1 "SW_Slide_ON-OFF" H 9850 1900 50  0000 C CNN
F 2 "lib_clavier:SW_SPDT_PCM12_TL" H 9000 1850 50  0001 C CNN
F 3 "" H 9000 1850 50  0001 C CNN
F 4 "TL 200 053" H 9000 1850 50  0001 C CNN "ID_BASE"
F 5 "G4" H 9000 1850 50  0001 C CNN "Variante"
	1    9000 1850
	1    0    0    -1  
$EndComp
Wire Notes Line
	11800 1500 5900 1500
Text Notes 6000 1450 0    59   ~ 12
Interrupteur ON/OFF Général\nGlobal ON/OFF Switch
Wire Notes Line
	11800 3000 5900 3000
Wire Notes Line
	11800 3000 11800 1500
Wire Notes Line
	5900 3000 5900 1500
Wire Wire Line
	8550 2550 8550 1850
Wire Wire Line
	8550 1850 8650 1850
$Comp
L carte_coco_simple-rescue:GND-power #PWR?
U 1 1 5D5EF692
P 6800 2250
AR Path="/5BBF869B/5CA9DCAF/5D5EF692" Ref="#PWR?"  Part="1" 
AR Path="/5BBF869B/5D5EF692" Ref="#PWR0101"  Part="1" 
F 0 "#PWR0101" H 6800 2000 50  0001 C CNN
F 1 "GND-power" H 6805 2077 50  0001 C CNN
F 2 "" H 6800 2250 50  0001 C CNN
F 3 "" H 6800 2250 50  0001 C CNN
	1    6800 2250
	1    0    0    -1  
$EndComp
$Comp
L carte_coco_simple-rescue:C-Device C?
U 1 1 5D5EF699
P 6800 2050
AR Path="/5BBF869B/5CA9DCAF/5D5EF699" Ref="C?"  Part="1" 
AR Path="/5BBF869B/5D5EF699" Ref="C32009"  Part="1" 
F 0 "C32009" H 6850 2150 50  0000 L CNN
F 1 "220nF" H 6950 2050 50  0000 L CNN
F 2 "lib_clavier:C_0402_TL" H 6838 1900 50  0001 C CNN
F 3 "~" H 6800 2050 50  0001 C CNN
F 4 "10V" H 7000 1950 50  0000 C CNN "Tension"
F 5 "TL 200 022" H 6800 2050 50  0001 C CNN "ID_BASE"
F 6 "G4" H 6800 2050 50  0001 C CNN "Variante"
	1    6800 2050
	1    0    0    -1  
$EndComp
Wire Wire Line
	6800 2200 6800 2250
Wire Wire Line
	6800 1900 6800 1850
Wire Wire Line
	6800 1850 6550 1850
$Comp
L power:GND #PWR0102
U 1 1 5D5FCA50
P 9000 2350
F 0 "#PWR0102" H 9000 2100 50  0001 C CNN
F 1 "GND" H 9000 2200 50  0001 C CNN
F 2 "" H 9000 2350 50  0001 C CNN
F 3 "" H 9000 2350 50  0001 C CNN
	1    9000 2350
	1    0    0    -1  
$EndComp
Wire Wire Line
	8850 2200 8850 2250
Wire Wire Line
	8850 2250 8950 2250
Wire Wire Line
	9150 2250 9150 2200
Wire Wire Line
	9050 2200 9050 2250
Connection ~ 9050 2250
Wire Wire Line
	9050 2250 9150 2250
Wire Wire Line
	8950 2200 8950 2250
Connection ~ 8950 2250
Wire Wire Line
	8950 2250 9000 2250
Wire Wire Line
	9000 2350 9000 2250
Connection ~ 9000 2250
Wire Wire Line
	9000 2250 9050 2250
Wire Wire Line
	6150 2650 9450 2650
$Comp
L Connector_Generic:Conn_01x04 J35005
U 1 1 5D618335
P 5950 2550
F 0 "J35005" H 5800 2900 50  0000 C CNN
F 1 "Conn_01x04" H 5700 2800 50  0000 C CNN
F 2 "lib_clavier:InterBoard_1x04_P1.27mm_inverse_TL" H 5950 2550 50  0001 C CNN
F 3 "~" H 5950 2550 50  0001 C CNN
F 4 "G4" H 5950 2550 50  0001 C CNN "Variante"
F 5 "TL 200 065" H 5950 2550 50  0001 C CNN "ID_BASE"
	1    5950 2550
	-1   0    0    -1  
$EndComp
$Comp
L carte_coco_simple-rescue:GND-power #PWR?
U 1 1 5D61E515
P 6250 2850
AR Path="/5BBF869B/5CA9DCAF/5D61E515" Ref="#PWR?"  Part="1" 
AR Path="/5BBF869B/5D61E515" Ref="#PWR0103"  Part="1" 
F 0 "#PWR0103" H 6250 2600 50  0001 C CNN
F 1 "GND-power" H 6255 2677 50  0001 C CNN
F 2 "" H 6250 2850 50  0001 C CNN
F 3 "" H 6250 2850 50  0001 C CNN
	1    6250 2850
	1    0    0    -1  
$EndComp
Wire Wire Line
	6250 2850 6250 2750
Wire Wire Line
	6250 2450 6150 2450
Wire Wire Line
	6150 2750 6250 2750
Connection ~ 6250 2750
Wire Wire Line
	6250 2750 6250 2450
Text Label 6350 10750 0    50   ~ 0
Lig_Fbis_SW
Text Label 6350 10850 0    50   ~ 0
Col_5bis_SW
Text Label 6350 12350 0    50   ~ 0
I2C_COCO_SCL
Text Label 6350 12250 0    50   ~ 0
I2C_COCO_SDA
Text Label 6350 12150 0    50   ~ 0
I2C_COCO_INT
Text Label 6650 2550 0    50   ~ 0
ON-OFF_1
Text Label 6650 2650 0    50   ~ 0
ON-OFF_2
Wire Wire Line
	6550 2550 6550 1850
Connection ~ 6550 2550
Wire Wire Line
	6550 2550 8550 2550
Wire Wire Line
	6150 2550 6550 2550
$Comp
L Connector_Generic:Conn_01x04 J32003
U 1 1 5D68CA4B
P 5950 10750
F 0 "J32003" H 5800 11050 50  0000 C CNN
F 1 "Conn_01x04" H 5700 10950 50  0000 C CNN
F 2 "lib_clavier:InterBoard_1x04_P1.27mm_inverse_TL" H 5950 10750 50  0001 C CNN
F 3 "~" H 5950 10750 50  0001 C CNN
F 4 "CD" H 5950 10750 50  0001 C CNN "Variante"
F 5 "TL 200 065" H 5950 10750 50  0001 C CNN "ID_BASE"
	1    5950 10750
	-1   0    0    -1  
$EndComp
Wire Wire Line
	6150 10950 6250 10950
Wire Wire Line
	6250 10950 6250 10650
Wire Wire Line
	6250 10650 6150 10650
Connection ~ 6250 10950
$Comp
L Connector_Generic:Conn_01x10 J32002
U 1 1 5D6A050B
P 5950 8900
F 0 "J32002" H 5800 9550 50  0000 C CNN
F 1 "Conn_01x10" H 5750 9450 50  0000 C CNN
F 2 "lib_clavier:InterBoard_1x10_P1.27mm_TL" H 5950 8900 50  0001 C CNN
F 3 "~" H 5950 8900 50  0001 C CNN
F 4 "G3" H 5950 8900 50  0001 C CNN "Variante"
F 5 "TL 200 066" H 5950 8900 50  0001 C CNN "ID_BASE"
	1    5950 8900
	-1   0    0    -1  
$EndComp
$Comp
L Connector_Generic:Conn_01x04 J32006
U 1 1 5D6AA270
P 5950 14300
F 0 "J32006" H 5800 14600 50  0000 C CNN
F 1 "Conn_01x04" H 5700 14500 50  0000 C CNN
F 2 "lib_clavier:InterBoard_1x04_P1.27mm_inverse_TL" H 5950 14300 50  0001 C CNN
F 3 "~" H 5950 14300 50  0001 C CNN
F 4 "ANM" H 5950 14300 50  0001 C CNN "Variante"
F 5 "TL 200 065" H 5950 14300 50  0001 C CNN "ID_BASE"
	1    5950 14300
	-1   0    0    -1  
$EndComp
$Comp
L carte_coco_simple-rescue:GND-power #PWR0104
U 1 1 5D6B55B8
P 6250 14600
F 0 "#PWR0104" H 6250 14350 50  0001 C CNN
F 1 "GND-power" H 6255 14427 50  0001 C CNN
F 2 "" H 6250 14600 50  0001 C CNN
F 3 "" H 6250 14600 50  0001 C CNN
	1    6250 14600
	1    0    0    -1  
$EndComp
Wire Wire Line
	6250 14600 6250 14500
Wire Wire Line
	6250 14500 6150 14500
Wire Wire Line
	6250 14500 6250 14200
Connection ~ 6250 14500
Wire Wire Line
	6150 14200 6250 14200
Wire Wire Line
	6150 14300 7000 14300
Wire Wire Line
	7000 14400 6150 14400
Text Label 7000 14300 2    50   ~ 0
AUDIO_IN
Text Label 7000 14400 2    50   ~ 0
AUDIO_OUT
Wire Wire Line
	6250 9100 6150 9100
$Comp
L carte_coco_simple-rescue:GND-power #PWR0105
U 1 1 5D6EA987
P 6250 9500
F 0 "#PWR0105" H 6250 9250 50  0001 C CNN
F 1 "GND-power" H 6255 9327 50  0001 C CNN
F 2 "" H 6250 9500 50  0001 C CNN
F 3 "" H 6250 9500 50  0001 C CNN
	1    6250 9500
	1    0    0    -1  
$EndComp
Wire Wire Line
	6250 9500 6250 9400
Connection ~ 6250 9400
Wire Wire Line
	6250 9100 6250 8800
Wire Wire Line
	6250 8800 6150 8800
Connection ~ 6250 9100
Wire Wire Line
	6250 8800 6250 8500
Wire Wire Line
	6250 8500 6150 8500
Connection ~ 6250 8800
Wire Wire Line
	6150 9200 7550 9200
Wire Wire Line
	6150 9300 7850 9300
Text Label 6800 8600 2    50   ~ 0
USB3_TX_N
Text Label 6800 8700 2    50   ~ 0
USB3_TX_P
Text Label 6800 8900 2    50   ~ 0
USB3_RX_N
Text Label 6800 9000 2    50   ~ 0
USB3_RX_P
Wire Wire Line
	6800 8600 6150 8600
Wire Wire Line
	6800 8700 6150 8700
Wire Wire Line
	6800 8900 6150 8900
Wire Wire Line
	6150 9000 6800 9000
Wire Notes Line
	7150 10200 8650 10200
Wire Wire Line
	10100 5150 11550 5150
Wire Wire Line
	10100 5250 11550 5250
$Comp
L carte_coco_simple-rescue:L_Core_Ferrite_Coupled_Small_1243-Device L32001
U 1 1 5D4F49D8
P 10000 5200
AR Path="/5D4F49D8" Ref="L32001"  Part="1" 
AR Path="/5BBF869B/5D4F49D8" Ref="L32001"  Part="1" 
F 0 "L32001" H 10000 5350 50  0000 C CNN
F 1 "WE-CNSW_744232090" H 10100 5450 50  0000 C CNN
F 2 "lib_clavier:L_CommonMode_WE-CNSW_TL" H 10000 5200 50  0001 C CNN
F 3 "~" H 10000 5200 50  0001 C CNN
F 4 "TL 200 031" H 10000 5200 50  0001 C CNN "ID_BASE"
F 5 "G3" H 10000 5200 50  0001 C CNN "Variante"
	1    10000 5200
	1    0    0    1   
$EndComp
Connection ~ 10600 4950
Wire Wire Line
	10600 4950 11000 4950
Wire Wire Line
	10150 4950 10600 4950
Wire Wire Line
	6150 12750 6250 12750
Connection ~ 6250 12750
Wire Wire Line
	6250 12750 6250 12950
Wire Wire Line
	6250 12050 6250 12450
Wire Wire Line
	6150 12450 6250 12450
Connection ~ 6250 12450
Wire Wire Line
	6250 12450 6250 12750
Wire Wire Line
	7050 12900 7050 12850
Connection ~ 7050 12850
Wire Wire Line
	7950 12550 7950 11900
Wire Wire Line
	8250 11900 8250 12650
Connection ~ 8250 12650
Wire Wire Line
	8250 12650 8250 12900
Wire Wire Line
	7950 12550 7950 12900
Connection ~ 7950 12550
Wire Wire Line
	6150 12850 7050 12850
Wire Wire Line
	6150 12550 7950 12550
Wire Wire Line
	6150 12650 8250 12650
Wire Wire Line
	7050 11900 7050 11950
Text GLabel 7300 11950 2    50   UnSpc ~ 10
VBUS_F
Wire Wire Line
	7300 11950 7050 11950
Connection ~ 7050 11950
Wire Wire Line
	7050 11950 7050 12850
Wire Wire Line
	9450 1750 9350 1750
Wire Wire Line
	9450 1750 9450 2650
NoConn ~ 9350 1950
Text Label 6500 5150 0    50   ~ 0
USB2_C_P
Text Label 6500 5250 0    50   ~ 0
USB2_C_N
$EndSCHEMATC
