EESchema Schematic File Version 4
LIBS:carte_coco_simple-cache
EELAYER 30 0
EELAYER END
$Descr A2 23386 16535
encoding utf-8
Sheet 3 3
Title "Schematics"
Date "20 oct 2019"
Rev "B"
Comp "Lilian T."
Comment1 "TL 500 003"
Comment2 "Clavier ToucheLibre"
Comment3 "CoCo Board"
Comment4 "Selection, Switches and DEL Driver"
$EndDescr
$Comp
L Device:LED D?
U 1 1 5CC7A88A
P 10000 10350
AR Path="/5BBF869B/5CA9DC7A/5CC7A88A" Ref="D?"  Part="1" 
AR Path="/5BBF869B/5BBF872B/5CC7A88A" Ref="D33001"  Part="1" 
F 0 "D33001" V 10050 10000 50  0000 L CNN
F 1 "LS P47F" V 9950 10100 50  0000 C CNN
F 2 "lib_clavier:LED_Osram_Lx_P47F_D2mm_TL" H 10000 10350 50  0001 C CNN
F 3 "~" H 10000 10350 50  0001 C CNN
F 4 "CD" H 10000 10350 50  0001 C CNN "Variante"
F 5 "TL 200 041" H 10000 10350 50  0001 C CNN "ID_BASE"
	1    10000 10350
	0    -1   -1   0   
$EndComp
$Comp
L carte_coco_simple-rescue:TCA6416A-Interface_Expansion U?
U 1 1 5CC7A891
P 8450 7900
AR Path="/5CC7A891" Ref="U?"  Part="1" 
AR Path="/5BBF869B/5CA9DC7A/5CC7A891" Ref="U?"  Part="1" 
AR Path="/5BBF869B/5BBF872B/5CC7A891" Ref="U33001"  Part="1" 
F 0 "U33001" H 9250 7800 50  0000 C CNN
F 1 "TCA6416A" H 9300 7700 50  0000 C CNN
F 2 "lib_clavier:TSSOP-24_4.4x7.8mm_Pitch0.65mm_TL" H 8450 7900 50  0001 C CNN
F 3 "" H 8450 7900 50  0001 C CNN
F 4 "TL 200 059" H 8450 7900 50  0001 C CNN "ID_BASE"
F 5 "CD" H 8450 7900 50  0001 C CNN "Variante"
	1    8450 7900
	1    0    0    -1  
$EndComp
Wire Wire Line
	7450 10650 7350 10650
Wire Wire Line
	7350 10650 7350 10350
Wire Wire Line
	7350 10650 6850 10650
Connection ~ 7350 10650
$Comp
L Device:R R?
U 1 1 5CC7A8A9
P 10000 10750
AR Path="/5BBF869B/5CA9DC7A/5CC7A8A9" Ref="R?"  Part="1" 
AR Path="/5BBF869B/5BBF872B/5CC7A8A9" Ref="R33012"  Part="1" 
F 0 "R33012" H 10070 10796 50  0000 L CNN
F 1 "330" H 10070 10705 50  0000 L CNN
F 2 "lib_clavier:R_0603_TL" V 9930 10750 50  0001 C CNN
F 3 "~" H 10000 10750 50  0001 C CNN
F 4 "100mW" H 10200 10600 50  0000 C CNN "Puissance"
F 5 "TL 200 006" H 10000 10750 50  0001 C CNN "ID_BASE"
F 6 "CD" H 10000 10750 50  0001 C CNN "Variante"
	1    10000 10750
	1    0    0    -1  
$EndComp
Wire Wire Line
	10000 10600 10000 10500
$Comp
L power:GND #PWR?
U 1 1 5CC7A8B1
P 10000 10900
AR Path="/5BBF869B/5CA9DC7A/5CC7A8B1" Ref="#PWR?"  Part="1" 
AR Path="/5BBF869B/5BBF872B/5CC7A8B1" Ref="#PWR03020"  Part="1" 
F 0 "#PWR03020" H 10000 10650 50  0001 C CNN
F 1 "GND" H 10005 10727 50  0001 C CNN
F 2 "" H 10000 10900 50  0001 C CNN
F 3 "" H 10000 10900 50  0001 C CNN
	1    10000 10900
	1    0    0    -1  
$EndComp
$Comp
L Device:LED D?
U 1 1 5CC7A8B7
P 10500 10350
AR Path="/5BBF869B/5CA9DC7A/5CC7A8B7" Ref="D?"  Part="1" 
AR Path="/5BBF869B/5BBF872B/5CC7A8B7" Ref="D33002"  Part="1" 
F 0 "D33002" V 10550 10000 50  0000 L CNN
F 1 "LO P47F" V 10450 10100 50  0000 C CNN
F 2 "lib_clavier:LED_Osram_Lx_P47F_D2mm_TL" H 10500 10350 50  0001 C CNN
F 3 "~" H 10500 10350 50  0001 C CNN
F 4 "CD" H 10500 10350 50  0001 C CNN "Variante"
F 5 "TL 200 042" H 10500 10350 50  0001 C CNN "ID_BASE"
	1    10500 10350
	0    -1   -1   0   
$EndComp
$Comp
L Device:R R?
U 1 1 5CC7A8BE
P 10500 10750
AR Path="/5BBF869B/5CA9DC7A/5CC7A8BE" Ref="R?"  Part="1" 
AR Path="/5BBF869B/5BBF872B/5CC7A8BE" Ref="R33013"  Part="1" 
F 0 "R33013" H 10570 10796 50  0000 L CNN
F 1 "330" H 10570 10705 50  0000 L CNN
F 2 "lib_clavier:R_0603_TL" V 10430 10750 50  0001 C CNN
F 3 "~" H 10500 10750 50  0001 C CNN
F 4 "100mW" H 10700 10600 50  0000 C CNN "Puissance"
F 5 "TL 200 006" H 10500 10750 50  0001 C CNN "ID_BASE"
F 6 "CD" H 10500 10750 50  0001 C CNN "Variante"
	1    10500 10750
	1    0    0    -1  
$EndComp
Wire Wire Line
	10500 10600 10500 10500
$Comp
L power:GND #PWR?
U 1 1 5CC7A8C6
P 10500 10900
AR Path="/5BBF869B/5CA9DC7A/5CC7A8C6" Ref="#PWR?"  Part="1" 
AR Path="/5BBF869B/5BBF872B/5CC7A8C6" Ref="#PWR03021"  Part="1" 
F 0 "#PWR03021" H 10500 10650 50  0001 C CNN
F 1 "GND" H 10505 10727 50  0001 C CNN
F 2 "" H 10500 10900 50  0001 C CNN
F 3 "" H 10500 10900 50  0001 C CNN
	1    10500 10900
	1    0    0    -1  
$EndComp
$Comp
L Device:LED D?
U 1 1 5CC7A8CC
P 11000 10350
AR Path="/5BBF869B/5CA9DC7A/5CC7A8CC" Ref="D?"  Part="1" 
AR Path="/5BBF869B/5BBF872B/5CC7A8CC" Ref="D33003"  Part="1" 
F 0 "D33003" V 11050 10000 50  0000 L CNN
F 1 "LY P47F" V 10950 10100 50  0000 C CNN
F 2 "lib_clavier:LED_Osram_Lx_P47F_D2mm_TL" H 11000 10350 50  0001 C CNN
F 3 "~" H 11000 10350 50  0001 C CNN
F 4 "CD" H 11000 10350 50  0001 C CNN "Variante"
F 5 "TL 200 043" H 11000 10350 50  0001 C CNN "ID_BASE"
	1    11000 10350
	0    -1   -1   0   
$EndComp
$Comp
L Device:R R?
U 1 1 5CC7A8D3
P 11000 10750
AR Path="/5BBF869B/5CA9DC7A/5CC7A8D3" Ref="R?"  Part="1" 
AR Path="/5BBF869B/5BBF872B/5CC7A8D3" Ref="R33014"  Part="1" 
F 0 "R33014" H 11070 10796 50  0000 L CNN
F 1 "330" H 11070 10705 50  0000 L CNN
F 2 "lib_clavier:R_0603_TL" V 10930 10750 50  0001 C CNN
F 3 "~" H 11000 10750 50  0001 C CNN
F 4 "100mW" H 11200 10600 50  0000 C CNN "Puissance"
F 5 "TL 200 006" H 11000 10750 50  0001 C CNN "ID_BASE"
F 6 "CD" H 11000 10750 50  0001 C CNN "Variante"
	1    11000 10750
	1    0    0    -1  
$EndComp
Wire Wire Line
	11000 10600 11000 10500
$Comp
L power:GND #PWR?
U 1 1 5CC7A8DB
P 11000 10900
AR Path="/5BBF869B/5CA9DC7A/5CC7A8DB" Ref="#PWR?"  Part="1" 
AR Path="/5BBF869B/5BBF872B/5CC7A8DB" Ref="#PWR03022"  Part="1" 
F 0 "#PWR03022" H 11000 10650 50  0001 C CNN
F 1 "GND" H 11005 10727 50  0001 C CNN
F 2 "" H 11000 10900 50  0001 C CNN
F 3 "" H 11000 10900 50  0001 C CNN
	1    11000 10900
	1    0    0    -1  
$EndComp
$Comp
L Device:LED D?
U 1 1 5CC7A8E1
P 11500 10350
AR Path="/5BBF869B/5CA9DC7A/5CC7A8E1" Ref="D?"  Part="1" 
AR Path="/5BBF869B/5BBF872B/5CC7A8E1" Ref="D33004"  Part="1" 
F 0 "D33004" V 11550 10000 50  0000 L CNN
F 1 "LB P47F" V 11450 10100 50  0000 C CNN
F 2 "lib_clavier:LED_Osram_Lx_P47F_D2mm_TL" H 11500 10350 50  0001 C CNN
F 3 "~" H 11500 10350 50  0001 C CNN
F 4 "CD" H 11500 10350 50  0001 C CNN "Variante"
F 5 "TL 200 046" H 11500 10350 50  0001 C CNN "ID_BASE"
	1    11500 10350
	0    -1   -1   0   
$EndComp
$Comp
L Device:R R?
U 1 1 5CC7A8E8
P 11500 10750
AR Path="/5BBF869B/5CA9DC7A/5CC7A8E8" Ref="R?"  Part="1" 
AR Path="/5BBF869B/5BBF872B/5CC7A8E8" Ref="R33015"  Part="1" 
F 0 "R33015" H 11570 10796 50  0000 L CNN
F 1 "100" H 11570 10705 50  0000 L CNN
F 2 "lib_clavier:R_0603_TL" V 11430 10750 50  0001 C CNN
F 3 "~" H 11500 10750 50  0001 C CNN
F 4 "100mW" H 11700 10600 50  0000 C CNN "Puissance"
F 5 "TL 200 003" H 11500 10750 50  0001 C CNN "ID_BASE"
F 6 "CD" H 11500 10750 50  0001 C CNN "Variante"
	1    11500 10750
	1    0    0    -1  
$EndComp
Wire Wire Line
	11500 10600 11500 10500
$Comp
L power:GND #PWR?
U 1 1 5CC7A8F0
P 11500 10900
AR Path="/5BBF869B/5CA9DC7A/5CC7A8F0" Ref="#PWR?"  Part="1" 
AR Path="/5BBF869B/5BBF872B/5CC7A8F0" Ref="#PWR03023"  Part="1" 
F 0 "#PWR03023" H 11500 10650 50  0001 C CNN
F 1 "GND" H 11505 10727 50  0001 C CNN
F 2 "" H 11500 10900 50  0001 C CNN
F 3 "" H 11500 10900 50  0001 C CNN
	1    11500 10900
	1    0    0    -1  
$EndComp
$Comp
L Device:LED D?
U 1 1 5CC7A8F6
P 12000 10350
AR Path="/5BBF869B/5CA9DC7A/5CC7A8F6" Ref="D?"  Part="1" 
AR Path="/5BBF869B/5BBF872B/5CC7A8F6" Ref="D33005"  Part="1" 
F 0 "D33005" V 12050 10000 50  0000 L CNN
F 1 "LT P47F" V 11950 10100 50  0000 C CNN
F 2 "lib_clavier:LED_Osram_Lx_P47F_D2mm_TL" H 12000 10350 50  0001 C CNN
F 3 "~" H 12000 10350 50  0001 C CNN
F 4 "CD" H 12000 10350 50  0001 C CNN "Variante"
F 5 "TL 200 045" H 12000 10350 50  0001 C CNN "ID_BASE"
	1    12000 10350
	0    -1   -1   0   
$EndComp
$Comp
L Device:R R?
U 1 1 5CC7A8FD
P 12000 10750
AR Path="/5BBF869B/5CA9DC7A/5CC7A8FD" Ref="R?"  Part="1" 
AR Path="/5BBF869B/5BBF872B/5CC7A8FD" Ref="R33016"  Part="1" 
F 0 "R33016" H 12070 10796 50  0000 L CNN
F 1 "180" H 12070 10705 50  0000 L CNN
F 2 "lib_clavier:R_0603_TL" V 11930 10750 50  0001 C CNN
F 3 "~" H 12000 10750 50  0001 C CNN
F 4 "100mW" H 12200 10600 50  0000 C CNN "Puissance"
F 5 "TL 200 005" H 12000 10750 50  0001 C CNN "ID_BASE"
F 6 "CD" H 12000 10750 50  0001 C CNN "Variante"
	1    12000 10750
	1    0    0    -1  
$EndComp
Wire Wire Line
	12000 10600 12000 10500
$Comp
L power:GND #PWR?
U 1 1 5CC7A905
P 12000 10900
AR Path="/5BBF869B/5CA9DC7A/5CC7A905" Ref="#PWR?"  Part="1" 
AR Path="/5BBF869B/5BBF872B/5CC7A905" Ref="#PWR03024"  Part="1" 
F 0 "#PWR03024" H 12000 10650 50  0001 C CNN
F 1 "GND" H 12005 10727 50  0001 C CNN
F 2 "" H 12000 10900 50  0001 C CNN
F 3 "" H 12000 10900 50  0001 C CNN
	1    12000 10900
	1    0    0    -1  
$EndComp
$Comp
L Device:LED D?
U 1 1 5CC7A90B
P 12500 10350
AR Path="/5BBF869B/5CA9DC7A/5CC7A90B" Ref="D?"  Part="1" 
AR Path="/5BBF869B/5BBF872B/5CC7A90B" Ref="D33006"  Part="1" 
F 0 "D33006" V 12550 10000 50  0000 L CNN
F 1 "LW P47F" V 12450 10100 50  0000 C CNN
F 2 "lib_clavier:LED_Osram_Lx_P47F_D2mm_TL" H 12500 10350 50  0001 C CNN
F 3 "~" H 12500 10350 50  0001 C CNN
F 4 "CD" H 12500 10350 50  0001 C CNN "Variante"
F 5 "TL 200 044" H 12500 10350 50  0001 C CNN "ID_BASE"
	1    12500 10350
	0    -1   -1   0   
$EndComp
$Comp
L Device:R R?
U 1 1 5CC7A912
P 12500 10750
AR Path="/5BBF869B/5CA9DC7A/5CC7A912" Ref="R?"  Part="1" 
AR Path="/5BBF869B/5BBF872B/5CC7A912" Ref="R33017"  Part="1" 
F 0 "R33017" H 12570 10796 50  0000 L CNN
F 1 "180" H 12570 10705 50  0000 L CNN
F 2 "lib_clavier:R_0603_TL" V 12430 10750 50  0001 C CNN
F 3 "~" H 12500 10750 50  0001 C CNN
F 4 "100mW" H 12700 10600 50  0000 C CNN "Puissance"
F 5 "TL 200 005" H 12500 10750 50  0001 C CNN "ID_BASE"
F 6 "CD" H 12500 10750 50  0001 C CNN "Variante"
	1    12500 10750
	1    0    0    -1  
$EndComp
Wire Wire Line
	12500 10600 12500 10500
$Comp
L power:GND #PWR?
U 1 1 5CC7A91A
P 12500 10900
AR Path="/5BBF869B/5CA9DC7A/5CC7A91A" Ref="#PWR?"  Part="1" 
AR Path="/5BBF869B/5BBF872B/5CC7A91A" Ref="#PWR03025"  Part="1" 
F 0 "#PWR03025" H 12500 10650 50  0001 C CNN
F 1 "GND" H 12505 10727 50  0001 C CNN
F 2 "" H 12500 10900 50  0001 C CNN
F 3 "" H 12500 10900 50  0001 C CNN
	1    12500 10900
	1    0    0    -1  
$EndComp
Wire Wire Line
	9650 7600 10000 7600
$Comp
L power:GND #PWR?
U 1 1 5CC7A92B
P 8950 8150
AR Path="/5BBF869B/5CA9DC7A/5CC7A92B" Ref="#PWR?"  Part="1" 
AR Path="/5BBF869B/5BBF872B/5CC7A92B" Ref="#PWR03015"  Part="1" 
F 0 "#PWR03015" H 8950 7900 50  0001 C CNN
F 1 "GND" H 8955 7977 50  0001 C CNN
F 2 "" H 8950 8150 50  0001 C CNN
F 3 "" H 8950 8150 50  0001 C CNN
	1    8950 8150
	1    0    0    -1  
$EndComp
Wire Wire Line
	14600 6100 14850 6100
$Comp
L carte_coco_simple-rescue:SW_Coded_PT65-5-01-Switch U?
U 1 1 5CC7A936
P 15550 6550
AR Path="/5BBF869B/5CA9DC7A/5CC7A936" Ref="U?"  Part="1" 
AR Path="/5BBF869B/5BBF872B/5CC7A936" Ref="SW33001"  Part="1" 
F 0 "SW33001" H 15950 7300 50  0000 C CNN
F 1 "PT65-5-01" H 15900 7200 50  0000 C CNN
F 2 "lib_clavier:Rotary_Coded_Switch_PT65_TL" H 15500 6400 50  0001 C CNN
F 3 "" H 15500 6400 50  0001 C CNN
F 4 "TL 200 051" H 15550 6550 50  0001 C CNN "ID_BASE"
F 5 "G1" H 15550 6550 50  0001 C CNN "Variante"
	1    15550 6550
	-1   0    0    -1  
$EndComp
Wire Wire Line
	14850 6000 14600 6000
Connection ~ 14600 6000
Wire Wire Line
	14600 6000 14600 6100
$Comp
L power:+5V #PWR?
U 1 1 5CC7A940
P 9100 5400
AR Path="/5BBF869B/5CA9DC7A/5CC7A940" Ref="#PWR?"  Part="1" 
AR Path="/5BBF869B/5BBF872B/5CC7A940" Ref="#PWR03006"  Part="1" 
F 0 "#PWR03006" H 9100 5250 50  0001 C CNN
F 1 "+5V" H 9115 5573 50  0000 C CNN
F 2 "" H 9100 5400 50  0001 C CNN
F 3 "" H 9100 5400 50  0001 C CNN
	1    9100 5400
	1    0    0    -1  
$EndComp
$Comp
L power:+3.3V #PWR?
U 1 1 5CC7A946
P 8800 5400
AR Path="/5BBF869B/5CA9DC7A/5CC7A946" Ref="#PWR?"  Part="1" 
AR Path="/5BBF869B/5BBF872B/5CC7A946" Ref="#PWR03005"  Part="1" 
F 0 "#PWR03005" H 8800 5250 50  0001 C CNN
F 1 "+3.3V" H 8815 5573 50  0000 C CNN
F 2 "" H 8800 5400 50  0001 C CNN
F 3 "" H 8800 5400 50  0001 C CNN
	1    8800 5400
	1    0    0    -1  
$EndComp
$Comp
L power:+5V #PWR?
U 1 1 5CC7A94C
P 14600 5900
AR Path="/5BBF869B/5CA9DC7A/5CC7A94C" Ref="#PWR?"  Part="1" 
AR Path="/5BBF869B/5BBF872B/5CC7A94C" Ref="#PWR03009"  Part="1" 
F 0 "#PWR03009" H 14600 5750 50  0001 C CNN
F 1 "+5V" H 14615 6073 50  0000 C CNN
F 2 "" H 14600 5900 50  0001 C CNN
F 3 "" H 14600 5900 50  0001 C CNN
	1    14600 5900
	1    0    0    -1  
$EndComp
Wire Wire Line
	7950 7900 7950 7800
Wire Wire Line
	8250 6400 6850 6400
Wire Wire Line
	8250 6500 8100 6500
$Comp
L Device:R R?
U 1 1 5CC7A977
P 7950 8050
AR Path="/5BBF869B/5CA9DC7A/5CC7A977" Ref="R?"  Part="1" 
AR Path="/5BBF869B/5BBF872B/5CC7A977" Ref="R33009"  Part="1" 
F 0 "R33009" H 8020 8096 50  0000 L CNN
F 1 "22.1k" H 8020 8005 50  0000 L CNN
F 2 "lib_clavier:R_0402_TL" V 7880 8050 50  0001 C CNN
F 3 "~" H 7950 8050 50  0001 C CNN
F 4 "TL 200 010" H 7950 8050 50  0001 C CNN "ID_BASE"
F 5 "CD" H 7950 8050 50  0001 C CNN "Variante"
	1    7950 8050
	1    0    0    -1  
$EndComp
$Comp
L Device:R R?
U 1 1 5CC7A97E
P 7950 7550
AR Path="/5BBF869B/5CA9DC7A/5CC7A97E" Ref="R?"  Part="1" 
AR Path="/5BBF869B/5BBF872B/5CC7A97E" Ref="R33008"  Part="1" 
F 0 "R33008" H 8020 7596 50  0000 L CNN
F 1 "22.1k" H 8020 7505 50  0000 L CNN
F 2 "lib_clavier:R_0402_TL" V 7880 7550 50  0001 C CNN
F 3 "~" H 7950 7550 50  0001 C CNN
F 4 "TL 200 010" H 7950 7550 50  0001 C CNN "ID_BASE"
F 5 "ANM" H 7950 7550 50  0001 C CNN "Variante"
	1    7950 7550
	1    0    0    -1  
$EndComp
Wire Wire Line
	7950 7800 7950 7700
Connection ~ 7950 7800
$Comp
L power:GND #PWR?
U 1 1 5CC7A987
P 7950 8250
AR Path="/5BBF869B/5CA9DC7A/5CC7A987" Ref="#PWR?"  Part="1" 
AR Path="/5BBF869B/5BBF872B/5CC7A987" Ref="#PWR03016"  Part="1" 
F 0 "#PWR03016" H 7950 8000 50  0001 C CNN
F 1 "GND" H 7955 8077 50  0001 C CNN
F 2 "" H 7950 8250 50  0001 C CNN
F 3 "" H 7950 8250 50  0001 C CNN
	1    7950 8250
	1    0    0    -1  
$EndComp
$Comp
L power:+3.3V #PWR?
U 1 1 5CC7A98D
P 7950 7350
AR Path="/5BBF869B/5CA9DC7A/5CC7A98D" Ref="#PWR?"  Part="1" 
AR Path="/5BBF869B/5BBF872B/5CC7A98D" Ref="#PWR03014"  Part="1" 
F 0 "#PWR03014" H 7950 7200 50  0001 C CNN
F 1 "+3.3V" H 7965 7523 50  0000 C CNN
F 2 "" H 7950 7350 50  0001 C CNN
F 3 "" H 7950 7350 50  0001 C CNN
	1    7950 7350
	1    0    0    -1  
$EndComp
Wire Wire Line
	7950 7400 7950 7350
Wire Wire Line
	8950 8150 8950 8100
Wire Wire Line
	7950 8250 7950 8200
Wire Wire Line
	14600 5900 14600 6000
$Comp
L Device:R R?
U 1 1 5CC7A998
P 13700 6800
AR Path="/5BBF869B/5CA9DC7A/5CC7A998" Ref="R?"  Part="1" 
AR Path="/5BBF869B/5BBF872B/5CC7A998" Ref="R33004"  Part="1" 
F 0 "R33004" H 13650 6500 50  0000 L CNN
F 1 "22.1k" H 13650 6400 50  0000 L CNN
F 2 "lib_clavier:R_0402_TL" V 13630 6800 50  0001 C CNN
F 3 "~" H 13700 6800 50  0001 C CNN
F 4 "TL 200 010" H 13700 6800 50  0001 C CNN "ID_BASE"
F 5 "G1" H 13700 6800 50  0001 C CNN "Variante"
	1    13700 6800
	1    0    0    -1  
$EndComp
$Comp
L power:GND #PWR?
U 1 1 5CC7A99F
P 13700 6950
AR Path="/5BBF869B/5CA9DC7A/5CC7A99F" Ref="#PWR?"  Part="1" 
AR Path="/5BBF869B/5BBF872B/5CC7A99F" Ref="#PWR03010"  Part="1" 
F 0 "#PWR03010" H 13700 6700 50  0001 C CNN
F 1 "GND" H 13705 6777 50  0001 C CNN
F 2 "" H 13700 6950 50  0001 C CNN
F 3 "" H 13700 6950 50  0001 C CNN
	1    13700 6950
	1    0    0    -1  
$EndComp
$Comp
L Device:R R?
U 1 1 5CC7A9A5
P 14050 6800
AR Path="/5BBF869B/5CA9DC7A/5CC7A9A5" Ref="R?"  Part="1" 
AR Path="/5BBF869B/5BBF872B/5CC7A9A5" Ref="R33005"  Part="1" 
F 0 "R33005" H 14000 6500 50  0000 L CNN
F 1 "22.1k" H 14000 6400 50  0000 L CNN
F 2 "lib_clavier:R_0402_TL" V 13980 6800 50  0001 C CNN
F 3 "~" H 14050 6800 50  0001 C CNN
F 4 "TL 200 010" H 14050 6800 50  0001 C CNN "ID_BASE"
F 5 "G1" H 14050 6800 50  0001 C CNN "Variante"
	1    14050 6800
	1    0    0    -1  
$EndComp
$Comp
L power:GND #PWR?
U 1 1 5CC7A9AC
P 14050 6950
AR Path="/5BBF869B/5CA9DC7A/5CC7A9AC" Ref="#PWR?"  Part="1" 
AR Path="/5BBF869B/5BBF872B/5CC7A9AC" Ref="#PWR03011"  Part="1" 
F 0 "#PWR03011" H 14050 6700 50  0001 C CNN
F 1 "GND" H 14055 6777 50  0001 C CNN
F 2 "" H 14050 6950 50  0001 C CNN
F 3 "" H 14050 6950 50  0001 C CNN
	1    14050 6950
	1    0    0    -1  
$EndComp
$Comp
L Device:R R?
U 1 1 5CC7A9B2
P 14400 6800
AR Path="/5BBF869B/5CA9DC7A/5CC7A9B2" Ref="R?"  Part="1" 
AR Path="/5BBF869B/5BBF872B/5CC7A9B2" Ref="R33006"  Part="1" 
F 0 "R33006" H 14350 6500 50  0000 L CNN
F 1 "22.1k" H 14350 6400 50  0000 L CNN
F 2 "lib_clavier:R_0402_TL" V 14330 6800 50  0001 C CNN
F 3 "~" H 14400 6800 50  0001 C CNN
F 4 "TL 200 010" H 14400 6800 50  0001 C CNN "ID_BASE"
F 5 "G1" H 14400 6800 50  0001 C CNN "Variante"
	1    14400 6800
	1    0    0    -1  
$EndComp
$Comp
L power:GND #PWR?
U 1 1 5CC7A9B9
P 14400 6950
AR Path="/5BBF869B/5CA9DC7A/5CC7A9B9" Ref="#PWR?"  Part="1" 
AR Path="/5BBF869B/5BBF872B/5CC7A9B9" Ref="#PWR03012"  Part="1" 
F 0 "#PWR03012" H 14400 6700 50  0001 C CNN
F 1 "GND" H 14405 6777 50  0001 C CNN
F 2 "" H 14400 6950 50  0001 C CNN
F 3 "" H 14400 6950 50  0001 C CNN
	1    14400 6950
	1    0    0    -1  
$EndComp
$Comp
L carte_coco_simple-rescue:SW_Lin_MFP2320-Switch U?
U 1 1 5CC7A9BF
P 14300 9000
AR Path="/5BBF869B/5CA9DC7A/5CC7A9BF" Ref="U?"  Part="1" 
AR Path="/5BBF869B/5BBF872B/5CC7A9BF" Ref="SW33002"  Part="1" 
AR Path="/5CC7A9BF" Ref="J33002"  Part="1" 
F 0 "SW33002" H 14550 8850 50  0000 C CNN
F 1 "MFP2320" H 14550 8750 50  0000 C CNN
F 2 "lib_clavier:Slide_Switch_MFP2320_TL" H 14350 8900 50  0001 C CNN
F 3 "" H 14350 8900 50  0001 C CNN
F 4 "TL 200 050" H 14300 9000 50  0001 C CNN "ID_BASE"
F 5 "G2" H 14300 9000 50  0001 C CNN "Variante"
	1    14300 9000
	1    0    0    -1  
$EndComp
Wire Wire Line
	14000 8700 14000 8800
Connection ~ 14000 8700
$Comp
L power:+5V #PWR?
U 1 1 5CC7A9C8
P 14000 8450
AR Path="/5BBF869B/5CA9DC7A/5CC7A9C8" Ref="#PWR?"  Part="1" 
AR Path="/5BBF869B/5BBF872B/5CC7A9C8" Ref="#PWR03017"  Part="1" 
F 0 "#PWR03017" H 14000 8300 50  0001 C CNN
F 1 "+5V" H 14015 8623 50  0000 C CNN
F 2 "" H 14000 8450 50  0001 C CNN
F 3 "" H 14000 8450 50  0001 C CNN
	1    14000 8450
	1    0    0    -1  
$EndComp
Wire Wire Line
	14000 8450 14000 8700
$Comp
L Device:R R?
U 1 1 5CC7A9CF
P 15250 8600
AR Path="/5BBF869B/5CA9DC7A/5CC7A9CF" Ref="R?"  Part="1" 
AR Path="/5BBF869B/5BBF872B/5CC7A9CF" Ref="R33010"  Part="1" 
F 0 "R33010" V 15050 8650 50  0000 C CNN
F 1 "22.1k" V 15134 8600 50  0000 C CNN
F 2 "lib_clavier:R_0402_TL" V 15180 8600 50  0001 C CNN
F 3 "~" H 15250 8600 50  0001 C CNN
F 4 "TL 200 010" H 15250 8600 50  0001 C CNN "ID_BASE"
F 5 "G2" H 15250 8600 50  0001 C CNN "Variante"
	1    15250 8600
	0    1    1    0   
$EndComp
$Comp
L Device:R R?
U 1 1 5CC7A9D6
P 15250 8900
AR Path="/5BBF869B/5CA9DC7A/5CC7A9D6" Ref="R?"  Part="1" 
AR Path="/5BBF869B/5BBF872B/5CC7A9D6" Ref="R33011"  Part="1" 
F 0 "R33011" V 15350 8900 50  0000 C CNN
F 1 "22.1k" V 15450 8900 50  0000 C CNN
F 2 "lib_clavier:R_0402_TL" V 15180 8900 50  0001 C CNN
F 3 "~" H 15250 8900 50  0001 C CNN
F 4 "TL 200 010" H 15250 8900 50  0001 C CNN "ID_BASE"
F 5 "G2" H 15250 8900 50  0001 C CNN "Variante"
	1    15250 8900
	0    1    1    0   
$EndComp
Wire Wire Line
	14900 8600 14950 8600
Wire Wire Line
	15100 8900 14950 8900
Wire Wire Line
	15400 8600 15500 8600
Wire Wire Line
	15500 8600 15500 8900
Wire Wire Line
	15500 8900 15400 8900
Wire Wire Line
	15500 8900 15500 9000
Connection ~ 15500 8900
Wire Wire Line
	14150 8600 14100 8600
Wire Wire Line
	14100 8600 14100 8450
Wire Wire Line
	14100 8450 14950 8450
Wire Wire Line
	14950 8450 14950 8600
Connection ~ 14950 8600
Wire Wire Line
	14950 8600 15100 8600
Wire Wire Line
	14950 8900 14950 9050
Wire Wire Line
	14950 9050 14100 9050
Wire Wire Line
	14100 9050 14100 8900
Wire Wire Line
	14100 8900 14150 8900
Connection ~ 14950 8900
Wire Wire Line
	14950 8900 14900 8900
Wire Wire Line
	14000 8700 14150 8700
Wire Wire Line
	14000 8800 14150 8800
Wire Wire Line
	14100 8900 13900 8900
Connection ~ 14100 8900
Wire Wire Line
	13900 8700 13900 8900
$Comp
L power:+5V #PWR?
U 1 1 5CC7A9F8
P 15050 8450
AR Path="/5BBF869B/5CA9DC7A/5CC7A9F8" Ref="#PWR?"  Part="1" 
AR Path="/5BBF869B/5BBF872B/5CC7A9F8" Ref="#PWR03018"  Part="1" 
F 0 "#PWR03018" H 15050 8300 50  0001 C CNN
F 1 "+5V" H 15065 8623 50  0000 C CNN
F 2 "" H 15050 8450 50  0001 C CNN
F 3 "" H 15050 8450 50  0001 C CNN
	1    15050 8450
	1    0    0    -1  
$EndComp
Wire Wire Line
	15050 8450 15050 8700
Wire Wire Line
	15050 8700 15050 8800
Connection ~ 15050 8700
Wire Wire Line
	14900 8700 15050 8700
Wire Wire Line
	14900 8800 15050 8800
$Comp
L power:GND #PWR?
U 1 1 5CC7AA03
P 15500 9000
AR Path="/5BBF869B/5CA9DC7A/5CC7AA03" Ref="#PWR?"  Part="1" 
AR Path="/5BBF869B/5BBF872B/5CC7AA03" Ref="#PWR03019"  Part="1" 
F 0 "#PWR03019" H 15500 8750 50  0001 C CNN
F 1 "GND" H 15505 8827 50  0001 C CNN
F 2 "" H 15500 9000 50  0001 C CNN
F 3 "" H 15500 9000 50  0001 C CNN
	1    15500 9000
	1    0    0    -1  
$EndComp
$Comp
L Device:R R?
U 1 1 5CC7AA09
P 14750 6800
AR Path="/5BBF869B/5CA9DC7A/5CC7AA09" Ref="R?"  Part="1" 
AR Path="/5BBF869B/5BBF872B/5CC7AA09" Ref="R33007"  Part="1" 
F 0 "R33007" H 14700 6500 50  0000 L CNN
F 1 "22.1k" H 14700 6400 50  0000 L CNN
F 2 "lib_clavier:R_0402_TL" V 14680 6800 50  0001 C CNN
F 3 "~" H 14750 6800 50  0001 C CNN
F 4 "TL 200 010" H 14750 6800 50  0001 C CNN "ID_BASE"
F 5 "G1" H 14750 6800 50  0001 C CNN "Variante"
	1    14750 6800
	1    0    0    -1  
$EndComp
$Comp
L power:GND #PWR?
U 1 1 5CC7AA10
P 14750 6950
AR Path="/5BBF869B/5CA9DC7A/5CC7AA10" Ref="#PWR?"  Part="1" 
AR Path="/5BBF869B/5BBF872B/5CC7AA10" Ref="#PWR03013"  Part="1" 
F 0 "#PWR03013" H 14750 6700 50  0001 C CNN
F 1 "GND" H 14755 6777 50  0001 C CNN
F 2 "" H 14750 6950 50  0001 C CNN
F 3 "" H 14750 6950 50  0001 C CNN
	1    14750 6950
	1    0    0    -1  
$EndComp
Connection ~ 14750 6500
Wire Wire Line
	14750 6500 14850 6500
Connection ~ 14400 6400
Wire Wire Line
	14400 6400 14850 6400
Connection ~ 14050 6300
Wire Wire Line
	14050 6300 14850 6300
Connection ~ 13700 6200
Wire Wire Line
	13700 6200 14850 6200
Wire Notes Line
	9800 10100 13000 10100
Wire Notes Line
	13000 10100 13000 11300
Wire Notes Line
	13000 11300 9800 11300
Wire Notes Line
	9800 11300 9800 10100
Wire Notes Line
	13500 7350 13500 5650
Wire Notes Line
	13500 5650 15900 5650
Wire Notes Line
	15900 5650 15900 7350
Wire Notes Line
	15900 7350 13500 7350
Wire Notes Line
	13500 8050 15900 8050
Wire Notes Line
	15900 8050 15900 9450
Wire Notes Line
	15900 9450 13500 9450
Wire Notes Line
	13500 9450 13500 8050
Text Notes 13550 5600 0    59   ~ 12
Sélection de l’Ordinateur\nPC Selection 
Text Notes 13600 8000 0    59   ~ 12
Sélection du Mode\nMode Selection
Text Notes 9850 11550 0    59   ~ 12
État des Vérouillages\nLock Indicator
Wire Notes Line
	7200 5050 9800 5050
Wire Notes Line
	7200 8500 9800 8500
$Comp
L Device:C C?
U 1 1 5CC7AA35
P 9300 5650
AR Path="/5BBF869B/5CA9DC7A/5CC7AA35" Ref="C?"  Part="1" 
AR Path="/5BBF869B/5BBF872B/5CC7AA35" Ref="C33003"  Part="1" 
F 0 "C33003" H 9350 5750 50  0000 L CNN
F 1 "220nF" H 9350 5550 50  0000 L CNN
F 2 "lib_clavier:C_0402_TL" H 9338 5500 50  0001 C CNN
F 3 "~" H 9300 5650 50  0001 C CNN
F 4 "TL 200 022" H 9300 5650 50  0001 C CNN "ID_BASE"
F 5 "CD" H 9300 5650 50  0001 C CNN "Variante"
F 6 "10V" H 9300 5650 50  0001 C CNN "Tension"
	1    9300 5650
	1    0    0    -1  
$EndComp
$Comp
L power:GND #PWR?
U 1 1 5CC7AA3C
P 9300 5850
AR Path="/5BBF869B/5CA9DC7A/5CC7AA3C" Ref="#PWR?"  Part="1" 
AR Path="/5BBF869B/5BBF872B/5CC7AA3C" Ref="#PWR03008"  Part="1" 
F 0 "#PWR03008" H 9300 5600 50  0001 C CNN
F 1 "GND" H 9305 5677 50  0001 C CNN
F 2 "" H 9300 5850 50  0001 C CNN
F 3 "" H 9300 5850 50  0001 C CNN
	1    9300 5850
	1    0    0    -1  
$EndComp
$Comp
L Device:C C?
U 1 1 5CC7AA42
P 8600 5650
AR Path="/5BBF869B/5CA9DC7A/5CC7AA42" Ref="C?"  Part="1" 
AR Path="/5BBF869B/5BBF872B/5CC7AA42" Ref="C33002"  Part="1" 
F 0 "C33002" H 8250 5750 50  0000 L CNN
F 1 "220nF" H 8350 5550 50  0000 L CNN
F 2 "lib_clavier:C_0402_TL" H 8638 5500 50  0001 C CNN
F 3 "~" H 8600 5650 50  0001 C CNN
F 4 "TL 200 022" H 8600 5650 50  0001 C CNN "ID_BASE"
F 5 "CD" H 8600 5650 50  0001 C CNN "Variante"
F 6 "10V" H 8600 5650 50  0001 C CNN "Tension"
	1    8600 5650
	1    0    0    -1  
$EndComp
$Comp
L power:GND #PWR?
U 1 1 5CC7AA49
P 8600 5850
AR Path="/5BBF869B/5CA9DC7A/5CC7AA49" Ref="#PWR?"  Part="1" 
AR Path="/5BBF869B/5BBF872B/5CC7AA49" Ref="#PWR03007"  Part="1" 
F 0 "#PWR03007" H 8600 5600 50  0001 C CNN
F 1 "GND" H 8605 5677 50  0001 C CNN
F 2 "" H 8600 5850 50  0001 C CNN
F 3 "" H 8600 5850 50  0001 C CNN
	1    8600 5850
	1    0    0    -1  
$EndComp
Wire Wire Line
	8800 5400 8800 5500
Wire Wire Line
	8800 5500 8600 5500
Connection ~ 8800 5500
Wire Wire Line
	8800 5500 8800 5900
Wire Wire Line
	9100 5400 9100 5500
Wire Wire Line
	9300 5500 9100 5500
Connection ~ 9100 5500
Wire Wire Line
	9100 5500 9100 5900
Wire Notes Line
	9800 5050 9800 8500
Wire Notes Line
	7200 5050 7200 8500
Text Notes 7250 5000 0    59   ~ 12
Étendeur d’entréee / sorties\nGPIO Expander
Text Notes 9900 11200 0    50   ~ 0
Rouge\nRed
Text Notes 10400 11200 0    50   ~ 0
Orange\nOrange
Text Notes 10900 11200 0    50   ~ 0
Jaune\nYellow
Text Notes 11400 11200 0    50   ~ 0
Bleu\nBlue
Text Notes 11900 11200 0    50   ~ 0
Vert\nGreen
Text Notes 12400 11200 0    50   ~ 0
Blanc\nWhite
Text HLabel 6850 6200 0    50   BiDi ~ 0
I2C_COCO_SDA
Text HLabel 6850 6300 0    50   Input ~ 0
I2C_COCO_SCL
Text HLabel 6850 6400 0    50   Output ~ 0
I2C_COCO_INT
Text HLabel 6850 11150 0    50   Input ~ 0
Col_5bis_SW
Text HLabel 6850 10650 0    50   Output ~ 0
Lig_Fbis_SW
Wire Notes Line
	8300 11300 7200 11300
Wire Notes Line
	7200 11300 7200 10100
Wire Notes Line
	7200 10100 8300 10100
Wire Notes Line
	8300 10100 8300 11300
Text Notes 7200 10050 0    59   ~ 12
Touche Verrouillage\nLock Key
Wire Notes Line
	7200 4100 7200 3000
Wire Notes Line
	7200 3000 9800 3000
Text Notes 7250 2950 0    59   ~ 12
Détection de présence USB pour basculer en Bluetooth\nUSB Detection to Bluetooth toggle
Wire Wire Line
	6850 6300 8250 6300
Wire Wire Line
	6850 6200 8250 6200
Text Notes 7300 6650 0    50   ~ 0
Les résistances\nde tirage sont \ncôté μ-Controleur\n\n\n\n\nPull-up Resistors\non MCU side
$Comp
L carte_coco_simple-rescue:ML1A-11JW-carte_clavier-rescue J?
U 1 1 5D61DB62
P 7400 11150
AR Path="/5D61DB62" Ref="J?"  Part="1" 
AR Path="/5BBF869B/5BBF872B/5D61DB62" Ref="SW33003"  Part="1" 
F 0 "SW33003" H 7650 12100 60  0000 C CNN
F 1 "ML1A-11JW" H 7700 12000 60  0000 C CNN
F 2 "lib_clavier:ML1A-11JW_TL" H 8000 11900 60  0001 C CNN
F 3 "" H 8000 11900 60  0000 C CNN
F 4 "TL 200 049" H 7400 11150 50  0001 C CNN "ID_BASE"
F 5 "CD" H 7400 11150 50  0001 C CNN "Variante"
	1    7400 11150
	1    0    0    -1  
$EndComp
Wire Wire Line
	7800 10350 7350 10350
NoConn ~ 8150 10650
Wire Wire Line
	7800 11150 6850 11150
Wire Wire Line
	7800 11150 7800 11100
$Comp
L Device:R R?
U 1 1 5D656F02
P 8100 5750
AR Path="/5BBF869B/5CA9DC7A/5D656F02" Ref="R?"  Part="1" 
AR Path="/5BBF869B/5BBF872B/5D656F02" Ref="R33003"  Part="1" 
F 0 "R33003" H 7750 5800 50  0000 L CNN
F 1 "22.1k" H 7800 5700 50  0000 L CNN
F 2 "lib_clavier:R_0402_TL" V 8030 5750 50  0001 C CNN
F 3 "~" H 8100 5750 50  0001 C CNN
F 4 "TL 200 010" H 8100 5750 50  0001 C CNN "ID_BASE"
F 5 "CD" H 8100 5750 50  0001 C CNN "Variante"
	1    8100 5750
	1    0    0    -1  
$EndComp
Wire Wire Line
	8100 5900 8100 6500
$Comp
L power:+3.3V #PWR?
U 1 1 5D6660EA
P 8100 5400
AR Path="/5BBF869B/5CA9DC7A/5D6660EA" Ref="#PWR?"  Part="1" 
AR Path="/5BBF869B/5BBF872B/5D6660EA" Ref="#PWR03004"  Part="1" 
F 0 "#PWR03004" H 8100 5250 50  0001 C CNN
F 1 "+3.3V" H 8115 5573 50  0000 C CNN
F 2 "" H 8100 5400 50  0001 C CNN
F 3 "" H 8100 5400 50  0001 C CNN
	1    8100 5400
	1    0    0    -1  
$EndComp
Wire Wire Line
	8100 5600 8100 5400
$Comp
L carte_coco_simple-rescue:VBUS_F-power #PWR3001
U 1 1 5D4C3E50
P 7900 3350
F 0 "#PWR3001" H 8050 3250 50  0001 C CNN
F 1 "VBUS_F" H 7895 3524 50  0000 C CNN
F 2 "" H 7900 3350 50  0001 C CNN
F 3 "" H 7900 3350 50  0001 C CNN
	1    7900 3350
	1    0    0    -1  
$EndComp
$Comp
L Device:R R33001
U 1 1 5D4C3EE5
P 8400 3450
F 0 "R33001" V 8500 3300 50  0000 L CNN
F 1 "10k" V 8300 3400 50  0000 L CNN
F 2 "lib_clavier:R_0402_TL" V 8330 3450 50  0001 C CNN
F 3 "~" H 8400 3450 50  0001 C CNN
F 4 "TL 200 008" H 8400 3450 50  0001 C CNN "ID_BASE"
F 5 "CD" H 8400 3450 50  0001 C CNN "Variante"
	1    8400 3450
	0    -1   -1   0   
$EndComp
$Comp
L Device:R R33002
U 1 1 5D4C3F8D
P 8750 3700
F 0 "R33002" H 8350 3700 50  0000 L CNN
F 1 "100k" H 8450 3600 50  0000 L CNN
F 2 "lib_clavier:R_0402_TL" V 8680 3700 50  0001 C CNN
F 3 "~" H 8750 3700 50  0001 C CNN
F 4 "TL 200 012" H 8750 3700 50  0001 C CNN "ID_BASE"
F 5 "CD" H 8750 3700 50  0001 C CNN "Variante"
	1    8750 3700
	1    0    0    -1  
$EndComp
$Comp
L Device:C C33001
U 1 1 5D4C3FF6
P 9050 3700
F 0 "C33001" H 9100 3800 50  0000 L CNN
F 1 "10nF" H 9200 3700 50  0000 L CNN
F 2 "lib_clavier:C_0402_TL" H 9088 3550 50  0001 C CNN
F 3 "~" H 9050 3700 50  0001 C CNN
F 4 "TL 200 020" H 9050 3700 50  0001 C CNN "ID_BASE"
F 5 "CD" H 9050 3700 50  0001 C CNN "Variante"
F 6 "16V" H 9050 3700 50  0001 C CNN "Tension"
	1    9050 3700
	1    0    0    -1  
$EndComp
Wire Wire Line
	7900 3350 7900 3450
Wire Wire Line
	8550 3450 8750 3450
Wire Wire Line
	8750 3450 8750 3550
$Comp
L power:GND #PWR?
U 1 1 5D4D91ED
P 8750 3900
AR Path="/5BBF869B/5CA9DC7A/5D4D91ED" Ref="#PWR?"  Part="1" 
AR Path="/5BBF869B/5BBF872B/5D4D91ED" Ref="#PWR03002"  Part="1" 
F 0 "#PWR03002" H 8750 3650 50  0001 C CNN
F 1 "GND" H 8755 3727 50  0001 C CNN
F 2 "" H 8750 3900 50  0001 C CNN
F 3 "" H 8750 3900 50  0001 C CNN
	1    8750 3900
	1    0    0    -1  
$EndComp
$Comp
L power:GND #PWR?
U 1 1 5D4D9352
P 9050 3900
AR Path="/5BBF869B/5CA9DC7A/5D4D9352" Ref="#PWR?"  Part="1" 
AR Path="/5BBF869B/5BBF872B/5D4D9352" Ref="#PWR03003"  Part="1" 
F 0 "#PWR03003" H 9050 3650 50  0001 C CNN
F 1 "GND" H 9055 3727 50  0001 C CNN
F 2 "" H 9050 3900 50  0001 C CNN
F 3 "" H 9050 3900 50  0001 C CNN
	1    9050 3900
	1    0    0    -1  
$EndComp
Wire Wire Line
	9050 3900 9050 3850
Wire Wire Line
	8750 3900 8750 3850
Wire Wire Line
	8750 3450 9050 3450
Wire Wire Line
	9050 3450 9050 3550
Connection ~ 8750 3450
Connection ~ 9050 3450
Wire Notes Line
	7200 4100 9800 4100
Wire Notes Line
	9800 4100 9800 3000
Wire Wire Line
	13700 6650 13700 6200
Wire Wire Line
	14050 6650 14050 6300
Wire Wire Line
	14400 6650 14400 6400
Wire Wire Line
	14750 6650 14750 6500
Connection ~ 14100 8600
Wire Wire Line
	9650 6200 13700 6200
Wire Wire Line
	9650 6300 14050 6300
Wire Wire Line
	9650 6400 14400 6400
Wire Wire Line
	9650 6500 14750 6500
Wire Wire Line
	9650 6600 13200 6600
Wire Wire Line
	13200 8600 14100 8600
Wire Wire Line
	13900 8700 13100 8700
Wire Wire Line
	13100 6700 9650 6700
Wire Wire Line
	10000 7600 10000 10200
Wire Wire Line
	10500 7500 10500 10200
Wire Wire Line
	11000 7400 11000 10200
Wire Wire Line
	11500 7300 11500 10200
Wire Wire Line
	12000 7200 12000 10200
Wire Wire Line
	12500 7100 12500 10200
NoConn ~ 9650 7700
NoConn ~ 9650 7800
NoConn ~ 9650 6900
Wire Wire Line
	13200 6600 13200 8600
Wire Wire Line
	13100 6700 13100 8700
Wire Wire Line
	10350 6800 9650 6800
Wire Wire Line
	9300 5800 9300 5850
Wire Wire Line
	8600 5850 8600 5800
Wire Wire Line
	10350 3450 10350 6800
Wire Wire Line
	9050 3450 10350 3450
Wire Wire Line
	7950 7800 8250 7800
Text Notes 7450 7850 0    50   ~ 0
Adress\nSelection
Wire Wire Line
	9650 7500 10500 7500
Wire Wire Line
	9650 7400 11000 7400
Wire Wire Line
	9650 7300 11500 7300
Wire Wire Line
	9650 7200 12000 7200
Wire Wire Line
	9650 7100 12500 7100
Text GLabel 7750 3450 0    50   UnSpc ~ 0
VBUS_F
Wire Wire Line
	7900 3450 8250 3450
Wire Wire Line
	7750 3450 7900 3450
Connection ~ 7900 3450
$EndSCHEMATC
