%!PS-Adobe-3.0
%%Creator: PCBNEW
%%CreationDate: Sun Oct 13 19:11:21 2019
%%Title: /media/lilian/Tada_Center/ToucheLibre/03_Électronique/01_Schéma/05_Carte_Flèche_Droite/carte_fleche_droite-NPTH-drl_map.ps
%%Pages: 1
%%PageOrder: Ascend
%%BoundingBox: 0 0 596 842
%%DocumentMedia: A4 595 842 0 () ()
%%Orientation: Landscape
%%EndComments
%%BeginProlog
/line { newpath moveto lineto stroke } bind def
/cir0 { newpath 0 360 arc stroke } bind def
/cir1 { newpath 0 360 arc gsave fill grestore stroke } bind def
/cir2 { newpath 0 360 arc gsave fill grestore stroke } bind def
/arc0 { newpath arc stroke } bind def
/arc1 { newpath 4 index 4 index moveto arc closepath gsave fill
    grestore stroke } bind def
/arc2 { newpath 4 index 4 index moveto arc closepath gsave fill
    grestore stroke } bind def
/poly0 { stroke } bind def
/poly1 { closepath gsave fill grestore stroke } bind def
/poly2 { closepath gsave fill grestore stroke } bind def
/rect0 { rectstroke } bind def
/rect1 { rectfill } bind def
/rect2 { rectfill } bind def
/linemode0 { 0 setlinecap 0 setlinejoin 0 setlinewidth } bind def
/linemode1 { 1 setlinecap 1 setlinejoin } bind def
/dashedline { [200] 100 setdash } bind def
/solidline { [] 0 setdash } bind def
/phantomshow { moveto
    /KicadFont findfont 0.000001 scalefont setfont
    show } bind def
/textshow { gsave
    findfont exch scalefont setfont concat 1 scale 0 0 moveto show
    } bind def
/reencodefont {
  findfont dup length dict begin
  { 1 index /FID ne
    { def }
    { pop pop } ifelse
  } forall
  /Encoding ISOLatin1Encoding def
  currentdict
  end } bind def
/KicadFont /Helvetica reencodefont definefont pop
/KicadFont-Bold /Helvetica-Bold reencodefont definefont pop
/KicadFont-Oblique /Helvetica-Oblique reencodefont definefont pop
/KicadFont-BoldOblique /Helvetica-BoldOblique reencodefont definefont pop
%%EndProlog
%%Page: 1 1
%%BeginPageSetup
gsave
0.0072 0.0072 scale
linemode1
82680 0 translate 90 rotate
58.7477 setlinewidth
%%EndPageSetup
0 0 0 setrgbcolor
23.129 setlinewidth
newpath
61738.7 45145.7 moveto
75811.8 37020.6 lineto
stroke
0 0 0 setrgbcolor
newpath
44273.5 78731.4 moveto
59176.4 70127.1 lineto
stroke
0 0 0 setrgbcolor
newpath
44273.5 78731.4 moveto
41812.1 74468 lineto
stroke
0 0 0 setrgbcolor
newpath
41118.2 71878.4 moveto
41812.1 74468 lineto
stroke
0 0 0 setrgbcolor
newpath
41118.2 57050.9 moveto
41118.2 71878.4 lineto
stroke
0 0 0 setrgbcolor
newpath
41118.2 57050.9 moveto
61738.7 45145.7 lineto
stroke
0 0 0 setrgbcolor
newpath
75811.8 37020.6 moveto
75811.8 70127.1 lineto
stroke
0 0 0 setrgbcolor
newpath
59176.4 70127.1 moveto
75811.8 70127.1 lineto
stroke
78.74 setlinewidth
newpath
59994 54240.3 moveto
60711 53523.3 lineto
stroke
newpath
60711 54240.3 moveto
59994 53523.3 lineto
stroke
newpath
66466.4 65457.5 moveto
67183.4 64740.5 lineto
stroke
newpath
67183.4 65457.5 moveto
66466.4 64740.5 lineto
stroke
newpath
71006.1 66673.9 moveto
71723.1 65956.9 lineto
stroke
newpath
71723.1 66673.9 moveto
71006.1 65956.9 lineto
stroke
newpath
68839.4 56612 moveto
69556.4 55895 lineto
stroke
newpath
69556.4 56612 moveto
68839.4 55895 lineto
stroke
newpath
73379.1 57828.4 moveto
74096.1 57111.4 lineto
stroke
newpath
74096.1 57828.4 moveto
73379.1 57111.4 lineto
stroke
newpath
57621.9 63087.7 moveto
58338.9 62370.7 lineto
stroke
newpath
58338.9 63087.7 moveto
57621.9 62370.7 lineto
stroke
newpath
62161.5 64304.1 moveto
62878.5 63587.1 lineto
stroke
newpath
62878.5 64304.1 moveto
62161.5 63587.1 lineto
stroke
newpath
64533.6 55456.7 moveto
65250.6 54739.7 lineto
stroke
newpath
65250.6 55456.7 moveto
64533.6 54739.7 lineto
stroke
newpath
44431.4 64294.1 moveto
45148.4 63577.1 lineto
stroke
newpath
45148.4 64294.1 moveto
44431.4 63577.1 lineto
stroke
newpath
48971 65510.5 moveto
49688 64793.5 lineto
stroke
newpath
49688 65510.5 moveto
48971 64793.5 lineto
stroke
69094.7 65707.2 601.355 cir0
71467.8 56861.7 601.355 cir0
60250.2 63337.4 601.355 cir0
62622.3 54490 601.355 cir0
47059.7 64543.8 601.355 cir0
118.11 setlinewidth
0 0 0 setrgbcolor
0 0 0 setrgbcolor
newpath
42234.3 35175.5 moveto
42234.3 36356.6 lineto
42515.5 36356.6 lineto
42684.3 36300.3 lineto
42796.8 36187.9 lineto
42853 36075.4 lineto
42909.2 35850.4 lineto
42909.2 35681.7 lineto
42853 35456.7 lineto
42796.8 35344.2 lineto
42684.3 35231.7 lineto
42515.5 35175.5 lineto
42234.3 35175.5 lineto
stroke
newpath
43415.4 35175.5 moveto
43415.4 35962.9 lineto
stroke
newpath
43415.4 35737.9 moveto
43471.7 35850.4 lineto
43527.9 35906.6 lineto
43640.4 35962.9 lineto
43752.9 35962.9 lineto
stroke
newpath
44146.6 35175.5 moveto
44146.6 35962.9 lineto
stroke
newpath
44146.6 36356.6 moveto
44090.3 36300.3 lineto
44146.6 36244.1 lineto
44202.8 36300.3 lineto
44146.6 36356.6 lineto
44146.6 36244.1 lineto
stroke
newpath
44877.7 35175.5 moveto
44765.3 35231.7 lineto
44709 35344.2 lineto
44709 36356.6 lineto
stroke
newpath
45496.4 35175.5 moveto
45383.9 35231.7 lineto
45327.7 35344.2 lineto
45327.7 36356.6 lineto
stroke
newpath
46846.3 35175.5 moveto
46846.3 36356.6 lineto
47240 35512.9 lineto
47633.7 36356.6 lineto
47633.7 35175.5 lineto
stroke
newpath
48702.3 35175.5 moveto
48702.3 35794.2 lineto
48646 35906.6 lineto
48533.5 35962.9 lineto
48308.6 35962.9 lineto
48196.1 35906.6 lineto
stroke
newpath
48702.3 35231.7 moveto
48589.8 35175.5 lineto
48308.6 35175.5 lineto
48196.1 35231.7 lineto
48139.8 35344.2 lineto
48139.8 35456.7 lineto
48196.1 35569.2 lineto
48308.6 35625.4 lineto
48589.8 35625.4 lineto
48702.3 35681.7 lineto
stroke
newpath
49264.7 35962.9 moveto
49264.7 34781.8 lineto
stroke
newpath
49264.7 35906.6 moveto
49377.2 35962.9 lineto
49602.2 35962.9 lineto
49714.6 35906.6 lineto
49770.9 35850.4 lineto
49827.1 35737.9 lineto
49827.1 35400.5 lineto
49770.9 35288 lineto
49714.6 35231.7 lineto
49602.2 35175.5 lineto
49377.2 35175.5 lineto
49264.7 35231.7 lineto
stroke
newpath
50333.3 35288 moveto
50389.6 35231.7 lineto
50333.3 35175.5 lineto
50277.1 35231.7 lineto
50333.3 35288 lineto
50333.3 35175.5 lineto
stroke
newpath
50333.3 35906.6 moveto
50389.6 35850.4 lineto
50333.3 35794.2 lineto
50277.1 35850.4 lineto
50333.3 35906.6 lineto
50333.3 35794.2 lineto
stroke
newpath
40389.7 33588 moveto
41106.7 32871 lineto
stroke
newpath
41106.7 33588 moveto
40389.7 32871 lineto
stroke
0 0 0 setrgbcolor
0 0 0 setrgbcolor
newpath
42853 32695.2 moveto
42178.1 32695.2 lineto
stroke
newpath
42515.5 32695.2 moveto
42515.5 33876.3 lineto
42403.1 33707.5 lineto
42290.6 33595.1 lineto
42178.1 33538.8 lineto
stroke
newpath
43359.2 32807.7 moveto
43415.4 32751.4 lineto
43359.2 32695.2 lineto
43302.9 32751.4 lineto
43359.2 32807.7 lineto
43359.2 32695.2 lineto
stroke
newpath
44484 33876.3 moveto
43921.6 33876.3 lineto
43865.4 33313.8 lineto
43921.6 33370.1 lineto
44034.1 33426.3 lineto
44315.3 33426.3 lineto
44427.8 33370.1 lineto
44484 33313.8 lineto
44540.3 33201.4 lineto
44540.3 32920.1 lineto
44484 32807.7 lineto
44427.8 32751.4 lineto
44315.3 32695.2 lineto
44034.1 32695.2 lineto
43921.6 32751.4 lineto
43865.4 32807.7 lineto
stroke
newpath
45608.9 33876.3 moveto
45046.5 33876.3 lineto
44990.2 33313.8 lineto
45046.5 33370.1 lineto
45159 33426.3 lineto
45440.2 33426.3 lineto
45552.7 33370.1 lineto
45608.9 33313.8 lineto
45665.2 33201.4 lineto
45665.2 32920.1 lineto
45608.9 32807.7 lineto
45552.7 32751.4 lineto
45440.2 32695.2 lineto
45159 32695.2 lineto
45046.5 32751.4 lineto
44990.2 32807.7 lineto
stroke
newpath
46171.3 32695.2 moveto
46171.3 33482.6 lineto
stroke
newpath
46171.3 33370.1 moveto
46227.6 33426.3 lineto
46340.1 33482.6 lineto
46508.8 33482.6 lineto
46621.3 33426.3 lineto
46677.5 33313.8 lineto
46677.5 32695.2 lineto
stroke
newpath
46677.5 33313.8 moveto
46733.8 33426.3 lineto
46846.3 33482.6 lineto
47015 33482.6 lineto
47127.5 33426.3 lineto
47183.7 33313.8 lineto
47183.7 32695.2 lineto
stroke
newpath
47746.1 32695.2 moveto
47746.1 33482.6 lineto
stroke
newpath
47746.1 33370.1 moveto
47802.4 33426.3 lineto
47914.9 33482.6 lineto
48083.6 33482.6 lineto
48196.1 33426.3 lineto
48252.3 33313.8 lineto
48252.3 32695.2 lineto
stroke
newpath
48252.3 33313.8 moveto
48308.6 33426.3 lineto
48421.1 33482.6 lineto
48589.8 33482.6 lineto
48702.3 33426.3 lineto
48758.5 33313.8 lineto
48758.5 32695.2 lineto
stroke
newpath
51064.5 33932.5 moveto
50052.1 32414 lineto
stroke
newpath
52583 33876.3 moveto
52695.5 33876.3 lineto
52808 33820 lineto
52864.3 33763.8 lineto
52920.5 33651.3 lineto
52976.7 33426.3 lineto
52976.7 33145.1 lineto
52920.5 32920.1 lineto
52864.3 32807.7 lineto
52808 32751.4 lineto
52695.5 32695.2 lineto
52583 32695.2 lineto
52470.5 32751.4 lineto
52414.3 32807.7 lineto
52358.1 32920.1 lineto
52301.8 33145.1 lineto
52301.8 33426.3 lineto
52358.1 33651.3 lineto
52414.3 33763.8 lineto
52470.5 33820 lineto
52583 33876.3 lineto
stroke
newpath
53482.9 32807.7 moveto
53539.2 32751.4 lineto
53482.9 32695.2 lineto
53426.7 32751.4 lineto
53482.9 32807.7 lineto
53482.9 32695.2 lineto
stroke
newpath
54270.3 33876.3 moveto
54382.8 33876.3 lineto
54495.3 33820 lineto
54551.5 33763.8 lineto
54607.8 33651.3 lineto
54664 33426.3 lineto
54664 33145.1 lineto
54607.8 32920.1 lineto
54551.5 32807.7 lineto
54495.3 32751.4 lineto
54382.8 32695.2 lineto
54270.3 32695.2 lineto
54157.8 32751.4 lineto
54101.6 32807.7 lineto
54045.4 32920.1 lineto
53989.1 33145.1 lineto
53989.1 33426.3 lineto
54045.4 33651.3 lineto
54101.6 33763.8 lineto
54157.8 33820 lineto
54270.3 33876.3 lineto
stroke
newpath
55676.4 33876.3 moveto
55451.4 33876.3 lineto
55338.9 33820 lineto
55282.7 33763.8 lineto
55170.2 33595.1 lineto
55114 33370.1 lineto
55114 32920.1 lineto
55170.2 32807.7 lineto
55226.5 32751.4 lineto
55338.9 32695.2 lineto
55563.9 32695.2 lineto
55676.4 32751.4 lineto
55732.6 32807.7 lineto
55788.9 32920.1 lineto
55788.9 33201.4 lineto
55732.6 33313.8 lineto
55676.4 33370.1 lineto
55563.9 33426.3 lineto
55338.9 33426.3 lineto
55226.5 33370.1 lineto
55170.2 33313.8 lineto
55114 33201.4 lineto
stroke
newpath
56913.7 32695.2 moveto
56238.8 32695.2 lineto
stroke
newpath
56576.3 32695.2 moveto
56576.3 33876.3 lineto
56463.8 33707.5 lineto
56351.3 33595.1 lineto
56238.8 33538.8 lineto
stroke
newpath
57363.7 33876.3 moveto
57363.7 33651.3 lineto
stroke
newpath
57813.6 33876.3 moveto
57813.6 33651.3 lineto
stroke
newpath
59557.2 32245.2 moveto
59500.9 32301.5 lineto
59388.4 32470.2 lineto
59332.2 32582.7 lineto
59275.9 32751.4 lineto
59219.7 33032.6 lineto
59219.7 33257.6 lineto
59275.9 33538.8 lineto
59332.2 33707.5 lineto
59388.4 33820 lineto
59500.9 33988.8 lineto
59557.2 34045 lineto
stroke
newpath
60625.8 32695.2 moveto
59950.9 32695.2 lineto
stroke
newpath
60288.3 32695.2 moveto
60288.3 33876.3 lineto
60175.8 33707.5 lineto
60063.3 33595.1 lineto
59950.9 33538.8 lineto
stroke
newpath
61356.9 33876.3 moveto
61469.4 33876.3 lineto
61581.9 33820 lineto
61638.2 33763.8 lineto
61694.4 33651.3 lineto
61750.6 33426.3 lineto
61750.6 33145.1 lineto
61694.4 32920.1 lineto
61638.2 32807.7 lineto
61581.9 32751.4 lineto
61469.4 32695.2 lineto
61356.9 32695.2 lineto
61244.5 32751.4 lineto
61188.2 32807.7 lineto
61132 32920.1 lineto
61075.7 33145.1 lineto
61075.7 33426.3 lineto
61132 33651.3 lineto
61188.2 33763.8 lineto
61244.5 33820 lineto
61356.9 33876.3 lineto
stroke
newpath
63156.7 32695.2 moveto
63156.7 33876.3 lineto
stroke
newpath
63662.9 32695.2 moveto
63662.9 33313.8 lineto
63606.7 33426.3 lineto
63494.2 33482.6 lineto
63325.4 33482.6 lineto
63213 33426.3 lineto
63156.7 33370.1 lineto
stroke
newpath
64394.1 32695.2 moveto
64281.6 32751.4 lineto
64225.3 32807.7 lineto
64169.1 32920.1 lineto
64169.1 33257.6 lineto
64225.3 33370.1 lineto
64281.6 33426.3 lineto
64394.1 33482.6 lineto
64562.8 33482.6 lineto
64675.3 33426.3 lineto
64731.5 33370.1 lineto
64787.8 33257.6 lineto
64787.8 32920.1 lineto
64731.5 32807.7 lineto
64675.3 32751.4 lineto
64562.8 32695.2 lineto
64394.1 32695.2 lineto
stroke
newpath
65462.7 32695.2 moveto
65350.2 32751.4 lineto
65293.9 32863.9 lineto
65293.9 33876.3 lineto
stroke
newpath
66362.6 32751.4 moveto
66250.1 32695.2 lineto
66025.1 32695.2 lineto
65912.6 32751.4 lineto
65856.4 32863.9 lineto
65856.4 33313.8 lineto
65912.6 33426.3 lineto
66025.1 33482.6 lineto
66250.1 33482.6 lineto
66362.6 33426.3 lineto
66418.8 33313.8 lineto
66418.8 33201.4 lineto
65856.4 33088.9 lineto
stroke
newpath
66868.7 32751.4 moveto
66981.2 32695.2 lineto
67206.2 32695.2 lineto
67318.7 32751.4 lineto
67374.9 32863.9 lineto
67374.9 32920.1 lineto
67318.7 33032.6 lineto
67206.2 33088.9 lineto
67037.5 33088.9 lineto
66925 33145.1 lineto
66868.7 33257.6 lineto
66868.7 33313.8 lineto
66925 33426.3 lineto
67037.5 33482.6 lineto
67206.2 33482.6 lineto
67318.7 33426.3 lineto
stroke
newpath
67768.6 32245.2 moveto
67824.9 32301.5 lineto
67937.4 32470.2 lineto
67993.6 32582.7 lineto
68049.8 32751.4 lineto
68106.1 33032.6 lineto
68106.1 33257.6 lineto
68049.8 33538.8 lineto
67993.6 33707.5 lineto
67937.4 33820 lineto
67824.9 33988.8 lineto
67768.6 34045 lineto
stroke
newpath
69905.9 32245.2 moveto
69849.6 32301.5 lineto
69737.1 32470.2 lineto
69680.9 32582.7 lineto
69624.7 32751.4 lineto
69568.4 33032.6 lineto
69568.4 33257.6 lineto
69624.7 33538.8 lineto
69680.9 33707.5 lineto
69737.1 33820 lineto
69849.6 33988.8 lineto
69905.9 34045 lineto
stroke
newpath
70355.8 33482.6 moveto
70355.8 32695.2 lineto
stroke
newpath
70355.8 33370.1 moveto
70412.1 33426.3 lineto
70524.5 33482.6 lineto
70693.3 33482.6 lineto
70805.8 33426.3 lineto
70862 33313.8 lineto
70862 32695.2 lineto
stroke
newpath
71593.2 32695.2 moveto
71480.7 32751.4 lineto
71424.4 32807.7 lineto
71368.2 32920.1 lineto
71368.2 33257.6 lineto
71424.4 33370.1 lineto
71480.7 33426.3 lineto
71593.2 33482.6 lineto
71761.9 33482.6 lineto
71874.4 33426.3 lineto
71930.6 33370.1 lineto
71986.9 33257.6 lineto
71986.9 32920.1 lineto
71930.6 32807.7 lineto
71874.4 32751.4 lineto
71761.9 32695.2 lineto
71593.2 32695.2 lineto
stroke
newpath
72324.3 33482.6 moveto
72774.3 33482.6 lineto
stroke
newpath
72493 33876.3 moveto
72493 32863.9 lineto
72549.3 32751.4 lineto
72661.8 32695.2 lineto
72774.3 32695.2 lineto
stroke
newpath
74067.8 33482.6 moveto
74067.8 32301.5 lineto
stroke
newpath
74067.8 33426.3 moveto
74180.3 33482.6 lineto
74405.3 33482.6 lineto
74517.8 33426.3 lineto
74574 33370.1 lineto
74630.3 33257.6 lineto
74630.3 32920.1 lineto
74574 32807.7 lineto
74517.8 32751.4 lineto
74405.3 32695.2 lineto
74180.3 32695.2 lineto
74067.8 32751.4 lineto
stroke
newpath
75305.2 32695.2 moveto
75192.7 32751.4 lineto
75136.5 32863.9 lineto
75136.5 33876.3 lineto
stroke
newpath
76261.3 32695.2 moveto
76261.3 33313.8 lineto
76205.1 33426.3 lineto
76092.6 33482.6 lineto
75867.6 33482.6 lineto
75755.1 33426.3 lineto
stroke
newpath
76261.3 32751.4 moveto
76148.8 32695.2 lineto
75867.6 32695.2 lineto
75755.1 32751.4 lineto
75698.9 32863.9 lineto
75698.9 32976.4 lineto
75755.1 33088.9 lineto
75867.6 33145.1 lineto
76148.8 33145.1 lineto
76261.3 33201.4 lineto
stroke
newpath
76655 33482.6 moveto
77105 33482.6 lineto
stroke
newpath
76823.8 33876.3 moveto
76823.8 32863.9 lineto
76880 32751.4 lineto
76992.5 32695.2 lineto
77105 32695.2 lineto
stroke
newpath
77948.6 32751.4 moveto
77836.1 32695.2 lineto
77611.2 32695.2 lineto
77498.7 32751.4 lineto
77442.4 32863.9 lineto
77442.4 33313.8 lineto
77498.7 33426.3 lineto
77611.2 33482.6 lineto
77836.1 33482.6 lineto
77948.6 33426.3 lineto
78004.9 33313.8 lineto
78004.9 33201.4 lineto
77442.4 33088.9 lineto
stroke
newpath
79017.2 32695.2 moveto
79017.2 33876.3 lineto
stroke
newpath
79017.2 32751.4 moveto
78904.7 32695.2 lineto
78679.8 32695.2 lineto
78567.3 32751.4 lineto
78511 32807.7 lineto
78454.8 32920.1 lineto
78454.8 33257.6 lineto
78511 33370.1 lineto
78567.3 33426.3 lineto
78679.8 33482.6 lineto
78904.7 33482.6 lineto
79017.2 33426.3 lineto
stroke
newpath
79467.2 32245.2 moveto
79523.4 32301.5 lineto
79635.9 32470.2 lineto
79692.1 32582.7 lineto
79748.4 32751.4 lineto
79804.6 33032.6 lineto
79804.6 33257.6 lineto
79748.4 33538.8 lineto
79692.1 33707.5 lineto
79635.9 33820 lineto
79523.4 33988.8 lineto
79467.2 34045 lineto
stroke
40505.3 31670.4 601.355 cir0
0 0 0 setrgbcolor
0 0 0 setrgbcolor
newpath
42178.1 32204.7 moveto
42234.3 32261 lineto
42346.8 32317.2 lineto
42628 32317.2 lineto
42740.5 32261 lineto
42796.8 32204.7 lineto
42853 32092.2 lineto
42853 31979.8 lineto
42796.8 31811 lineto
42121.8 31136.1 lineto
42853 31136.1 lineto
stroke
newpath
43359.2 31248.6 moveto
43415.4 31192.4 lineto
43359.2 31136.1 lineto
43302.9 31192.4 lineto
43359.2 31248.6 lineto
43359.2 31136.1 lineto
stroke
newpath
44427.8 32317.2 moveto
44202.8 32317.2 lineto
44090.3 32261 lineto
44034.1 32204.7 lineto
43921.6 32036 lineto
43865.4 31811 lineto
43865.4 31361.1 lineto
43921.6 31248.6 lineto
43977.9 31192.4 lineto
44090.3 31136.1 lineto
44315.3 31136.1 lineto
44427.8 31192.4 lineto
44484 31248.6 lineto
44540.3 31361.1 lineto
44540.3 31642.3 lineto
44484 31754.8 lineto
44427.8 31811 lineto
44315.3 31867.3 lineto
44090.3 31867.3 lineto
43977.9 31811 lineto
43921.6 31754.8 lineto
43865.4 31642.3 lineto
stroke
newpath
45271.5 32317.2 moveto
45383.9 32317.2 lineto
45496.4 32261 lineto
45552.7 32204.7 lineto
45608.9 32092.2 lineto
45665.2 31867.3 lineto
45665.2 31586.1 lineto
45608.9 31361.1 lineto
45552.7 31248.6 lineto
45496.4 31192.4 lineto
45383.9 31136.1 lineto
45271.5 31136.1 lineto
45159 31192.4 lineto
45102.7 31248.6 lineto
45046.5 31361.1 lineto
44990.2 31586.1 lineto
44990.2 31867.3 lineto
45046.5 32092.2 lineto
45102.7 32204.7 lineto
45159 32261 lineto
45271.5 32317.2 lineto
stroke
newpath
46171.3 31136.1 moveto
46171.3 31923.5 lineto
stroke
newpath
46171.3 31811 moveto
46227.6 31867.3 lineto
46340.1 31923.5 lineto
46508.8 31923.5 lineto
46621.3 31867.3 lineto
46677.5 31754.8 lineto
46677.5 31136.1 lineto
stroke
newpath
46677.5 31754.8 moveto
46733.8 31867.3 lineto
46846.3 31923.5 lineto
47015 31923.5 lineto
47127.5 31867.3 lineto
47183.7 31754.8 lineto
47183.7 31136.1 lineto
stroke
newpath
47746.1 31136.1 moveto
47746.1 31923.5 lineto
stroke
newpath
47746.1 31811 moveto
47802.4 31867.3 lineto
47914.9 31923.5 lineto
48083.6 31923.5 lineto
48196.1 31867.3 lineto
48252.3 31754.8 lineto
48252.3 31136.1 lineto
stroke
newpath
48252.3 31754.8 moveto
48308.6 31867.3 lineto
48421.1 31923.5 lineto
48589.8 31923.5 lineto
48702.3 31867.3 lineto
48758.5 31754.8 lineto
48758.5 31136.1 lineto
stroke
newpath
51064.5 32373.5 moveto
50052.1 30854.9 lineto
stroke
newpath
52583 32317.2 moveto
52695.5 32317.2 lineto
52808 32261 lineto
52864.3 32204.7 lineto
52920.5 32092.2 lineto
52976.7 31867.3 lineto
52976.7 31586.1 lineto
52920.5 31361.1 lineto
52864.3 31248.6 lineto
52808 31192.4 lineto
52695.5 31136.1 lineto
52583 31136.1 lineto
52470.5 31192.4 lineto
52414.3 31248.6 lineto
52358.1 31361.1 lineto
52301.8 31586.1 lineto
52301.8 31867.3 lineto
52358.1 32092.2 lineto
52414.3 32204.7 lineto
52470.5 32261 lineto
52583 32317.2 lineto
stroke
newpath
53482.9 31248.6 moveto
53539.2 31192.4 lineto
53482.9 31136.1 lineto
53426.7 31192.4 lineto
53482.9 31248.6 lineto
53482.9 31136.1 lineto
stroke
newpath
54664 31136.1 moveto
53989.1 31136.1 lineto
stroke
newpath
54326.6 31136.1 moveto
54326.6 32317.2 lineto
54214.1 32148.5 lineto
54101.6 32036 lineto
53989.1 31979.8 lineto
stroke
newpath
55395.2 32317.2 moveto
55507.7 32317.2 lineto
55620.2 32261 lineto
55676.4 32204.7 lineto
55732.6 32092.2 lineto
55788.9 31867.3 lineto
55788.9 31586.1 lineto
55732.6 31361.1 lineto
55676.4 31248.6 lineto
55620.2 31192.4 lineto
55507.7 31136.1 lineto
55395.2 31136.1 lineto
55282.7 31192.4 lineto
55226.5 31248.6 lineto
55170.2 31361.1 lineto
55114 31586.1 lineto
55114 31867.3 lineto
55170.2 32092.2 lineto
55226.5 32204.7 lineto
55282.7 32261 lineto
55395.2 32317.2 lineto
stroke
newpath
56238.8 32204.7 moveto
56295.1 32261 lineto
56407.6 32317.2 lineto
56688.8 32317.2 lineto
56801.3 32261 lineto
56857.5 32204.7 lineto
56913.7 32092.2 lineto
56913.7 31979.8 lineto
56857.5 31811 lineto
56182.6 31136.1 lineto
56913.7 31136.1 lineto
stroke
newpath
57363.7 32317.2 moveto
57363.7 32092.2 lineto
stroke
newpath
57813.6 32317.2 moveto
57813.6 32092.2 lineto
stroke
newpath
59557.2 30686.2 moveto
59500.9 30742.4 lineto
59388.4 30911.1 lineto
59332.2 31023.6 lineto
59275.9 31192.4 lineto
59219.7 31473.6 lineto
59219.7 31698.5 lineto
59275.9 31979.8 lineto
59332.2 32148.5 lineto
59388.4 32261 lineto
59500.9 32429.7 lineto
59557.2 32485.9 lineto
stroke
newpath
60569.5 32317.2 moveto
60007.1 32317.2 lineto
59950.9 31754.8 lineto
60007.1 31811 lineto
60119.6 31867.3 lineto
60400.8 31867.3 lineto
60513.3 31811 lineto
60569.5 31754.8 lineto
60625.8 31642.3 lineto
60625.8 31361.1 lineto
60569.5 31248.6 lineto
60513.3 31192.4 lineto
60400.8 31136.1 lineto
60119.6 31136.1 lineto
60007.1 31192.4 lineto
59950.9 31248.6 lineto
stroke
newpath
62031.9 31136.1 moveto
62031.9 32317.2 lineto
stroke
newpath
62538 31136.1 moveto
62538 31754.8 lineto
62481.8 31867.3 lineto
62369.3 31923.5 lineto
62200.6 31923.5 lineto
62088.1 31867.3 lineto
62031.9 31811 lineto
stroke
newpath
63269.2 31136.1 moveto
63156.7 31192.4 lineto
63100.5 31248.6 lineto
63044.2 31361.1 lineto
63044.2 31698.5 lineto
63100.5 31811 lineto
63156.7 31867.3 lineto
63269.2 31923.5 lineto
63437.9 31923.5 lineto
63550.4 31867.3 lineto
63606.7 31811 lineto
63662.9 31698.5 lineto
63662.9 31361.1 lineto
63606.7 31248.6 lineto
63550.4 31192.4 lineto
63437.9 31136.1 lineto
63269.2 31136.1 lineto
stroke
newpath
64337.8 31136.1 moveto
64225.3 31192.4 lineto
64169.1 31304.8 lineto
64169.1 32317.2 lineto
stroke
newpath
65237.7 31192.4 moveto
65125.2 31136.1 lineto
64900.2 31136.1 lineto
64787.8 31192.4 lineto
64731.5 31304.8 lineto
64731.5 31754.8 lineto
64787.8 31867.3 lineto
64900.2 31923.5 lineto
65125.2 31923.5 lineto
65237.7 31867.3 lineto
65293.9 31754.8 lineto
65293.9 31642.3 lineto
64731.5 31529.8 lineto
stroke
newpath
65743.9 31192.4 moveto
65856.4 31136.1 lineto
66081.3 31136.1 lineto
66193.8 31192.4 lineto
66250.1 31304.8 lineto
66250.1 31361.1 lineto
66193.8 31473.6 lineto
66081.3 31529.8 lineto
65912.6 31529.8 lineto
65800.1 31586.1 lineto
65743.9 31698.5 lineto
65743.9 31754.8 lineto
65800.1 31867.3 lineto
65912.6 31923.5 lineto
66081.3 31923.5 lineto
66193.8 31867.3 lineto
stroke
newpath
66643.8 30686.2 moveto
66700 30742.4 lineto
66812.5 30911.1 lineto
66868.7 31023.6 lineto
66925 31192.4 lineto
66981.2 31473.6 lineto
66981.2 31698.5 lineto
66925 31979.8 lineto
66868.7 32148.5 lineto
66812.5 32261 lineto
66700 32429.7 lineto
66643.8 32485.9 lineto
stroke
newpath
68781 30686.2 moveto
68724.8 30742.4 lineto
68612.3 30911.1 lineto
68556 31023.6 lineto
68499.8 31192.4 lineto
68443.6 31473.6 lineto
68443.6 31698.5 lineto
68499.8 31979.8 lineto
68556 32148.5 lineto
68612.3 32261 lineto
68724.8 32429.7 lineto
68781 32485.9 lineto
stroke
newpath
69231 31923.5 moveto
69231 31136.1 lineto
stroke
newpath
69231 31811 moveto
69287.2 31867.3 lineto
69399.7 31923.5 lineto
69568.4 31923.5 lineto
69680.9 31867.3 lineto
69737.1 31754.8 lineto
69737.1 31136.1 lineto
stroke
newpath
70468.3 31136.1 moveto
70355.8 31192.4 lineto
70299.6 31248.6 lineto
70243.3 31361.1 lineto
70243.3 31698.5 lineto
70299.6 31811 lineto
70355.8 31867.3 lineto
70468.3 31923.5 lineto
70637 31923.5 lineto
70749.5 31867.3 lineto
70805.8 31811 lineto
70862 31698.5 lineto
70862 31361.1 lineto
70805.8 31248.6 lineto
70749.5 31192.4 lineto
70637 31136.1 lineto
70468.3 31136.1 lineto
stroke
newpath
71199.5 31923.5 moveto
71649.4 31923.5 lineto
stroke
newpath
71368.2 32317.2 moveto
71368.2 31304.8 lineto
71424.4 31192.4 lineto
71536.9 31136.1 lineto
71649.4 31136.1 lineto
stroke
newpath
72943 31923.5 moveto
72943 30742.4 lineto
stroke
newpath
72943 31867.3 moveto
73055.5 31923.5 lineto
73280.4 31923.5 lineto
73392.9 31867.3 lineto
73449.2 31811 lineto
73505.4 31698.5 lineto
73505.4 31361.1 lineto
73449.2 31248.6 lineto
73392.9 31192.4 lineto
73280.4 31136.1 lineto
73055.5 31136.1 lineto
72943 31192.4 lineto
stroke
newpath
74180.3 31136.1 moveto
74067.8 31192.4 lineto
74011.6 31304.8 lineto
74011.6 32317.2 lineto
stroke
newpath
75136.5 31136.1 moveto
75136.5 31754.8 lineto
75080.2 31867.3 lineto
74967.7 31923.5 lineto
74742.8 31923.5 lineto
74630.3 31867.3 lineto
stroke
newpath
75136.5 31192.4 moveto
75024 31136.1 lineto
74742.8 31136.1 lineto
74630.3 31192.4 lineto
74574 31304.8 lineto
74574 31417.3 lineto
74630.3 31529.8 lineto
74742.8 31586.1 lineto
75024 31586.1 lineto
75136.5 31642.3 lineto
stroke
newpath
75530.2 31923.5 moveto
75980.1 31923.5 lineto
stroke
newpath
75698.9 32317.2 moveto
75698.9 31304.8 lineto
75755.1 31192.4 lineto
75867.6 31136.1 lineto
75980.1 31136.1 lineto
stroke
newpath
76823.8 31192.4 moveto
76711.3 31136.1 lineto
76486.3 31136.1 lineto
76373.8 31192.4 lineto
76317.6 31304.8 lineto
76317.6 31754.8 lineto
76373.8 31867.3 lineto
76486.3 31923.5 lineto
76711.3 31923.5 lineto
76823.8 31867.3 lineto
76880 31754.8 lineto
76880 31642.3 lineto
76317.6 31529.8 lineto
stroke
newpath
77892.4 31136.1 moveto
77892.4 32317.2 lineto
stroke
newpath
77892.4 31192.4 moveto
77779.9 31136.1 lineto
77554.9 31136.1 lineto
77442.4 31192.4 lineto
77386.2 31248.6 lineto
77329.9 31361.1 lineto
77329.9 31698.5 lineto
77386.2 31811 lineto
77442.4 31867.3 lineto
77554.9 31923.5 lineto
77779.9 31923.5 lineto
77892.4 31867.3 lineto
stroke
newpath
78342.3 30686.2 moveto
78398.6 30742.4 lineto
78511 30911.1 lineto
78567.3 31023.6 lineto
78623.5 31192.4 lineto
78679.8 31473.6 lineto
78679.8 31698.5 lineto
78623.5 31979.8 lineto
78567.3 32148.5 lineto
78511 32261 lineto
78398.6 32429.7 lineto
78342.3 32485.9 lineto
stroke
showpage
grestore
%%EOF
