%!PS-Adobe-3.0
%%Creator: PCBNEW
%%CreationDate: Sun Oct 13 19:11:21 2019
%%Title: /media/lilian/Tada_Center/ToucheLibre/03_Électronique/01_Schéma/05_Carte_Flèche_Droite/carte_fleche_droite-PTH-drl_map.ps
%%Pages: 1
%%PageOrder: Ascend
%%BoundingBox: 0 0 596 842
%%DocumentMedia: A4 595 842 0 () ()
%%Orientation: Landscape
%%EndComments
%%BeginProlog
/line { newpath moveto lineto stroke } bind def
/cir0 { newpath 0 360 arc stroke } bind def
/cir1 { newpath 0 360 arc gsave fill grestore stroke } bind def
/cir2 { newpath 0 360 arc gsave fill grestore stroke } bind def
/arc0 { newpath arc stroke } bind def
/arc1 { newpath 4 index 4 index moveto arc closepath gsave fill
    grestore stroke } bind def
/arc2 { newpath 4 index 4 index moveto arc closepath gsave fill
    grestore stroke } bind def
/poly0 { stroke } bind def
/poly1 { closepath gsave fill grestore stroke } bind def
/poly2 { closepath gsave fill grestore stroke } bind def
/rect0 { rectstroke } bind def
/rect1 { rectfill } bind def
/rect2 { rectfill } bind def
/linemode0 { 0 setlinecap 0 setlinejoin 0 setlinewidth } bind def
/linemode1 { 1 setlinecap 1 setlinejoin } bind def
/dashedline { [200] 100 setdash } bind def
/solidline { [] 0 setdash } bind def
/phantomshow { moveto
    /KicadFont findfont 0.000001 scalefont setfont
    show } bind def
/textshow { gsave
    findfont exch scalefont setfont concat 1 scale 0 0 moveto show
    } bind def
/reencodefont {
  findfont dup length dict begin
  { 1 index /FID ne
    { def }
    { pop pop } ifelse
  } forall
  /Encoding ISOLatin1Encoding def
  currentdict
  end } bind def
/KicadFont /Helvetica reencodefont definefont pop
/KicadFont-Bold /Helvetica-Bold reencodefont definefont pop
/KicadFont-Oblique /Helvetica-Oblique reencodefont definefont pop
/KicadFont-BoldOblique /Helvetica-BoldOblique reencodefont definefont pop
%%EndProlog
%%Page: 1 1
%%BeginPageSetup
gsave
0.0072 0.0072 scale
linemode1
82680 0 translate 90 rotate
58.7477 setlinewidth
%%EndPageSetup
0 0 0 setrgbcolor
23.129 setlinewidth
newpath
61738.7 45145.7 moveto
75811.8 37020.6 lineto
stroke
0 0 0 setrgbcolor
newpath
44273.5 78731.4 moveto
59176.4 70127.1 lineto
stroke
0 0 0 setrgbcolor
newpath
44273.5 78731.4 moveto
41812.1 74468 lineto
stroke
0 0 0 setrgbcolor
newpath
41118.2 71878.4 moveto
41812.1 74468 lineto
stroke
0 0 0 setrgbcolor
newpath
41118.2 57050.9 moveto
41118.2 71878.4 lineto
stroke
0 0 0 setrgbcolor
newpath
41118.2 57050.9 moveto
61738.7 45145.7 lineto
stroke
0 0 0 setrgbcolor
newpath
75811.8 37020.6 moveto
75811.8 70127.1 lineto
stroke
0 0 0 setrgbcolor
newpath
59176.4 70127.1 moveto
75811.8 70127.1 lineto
stroke
78.74 setlinewidth
newpath
41488.3 70682.2 moveto
41673.3 70497.2 lineto
stroke
newpath
41673.3 70682.2 moveto
41488.3 70497.2 lineto
stroke
newpath
41488.3 68831.9 moveto
41673.3 68646.8 lineto
stroke
newpath
41673.3 68831.9 moveto
41488.3 68646.8 lineto
stroke
newpath
41488.3 66981.6 moveto
41673.3 66796.5 lineto
stroke
newpath
41673.3 66981.6 moveto
41488.3 66796.5 lineto
stroke
newpath
41488.3 65131.2 moveto
41673.3 64946.2 lineto
stroke
newpath
41673.3 65131.2 moveto
41488.3 64946.2 lineto
stroke
newpath
41488.3 63280.9 moveto
41673.3 63095.9 lineto
stroke
newpath
41673.3 63280.9 moveto
41488.3 63095.9 lineto
stroke
newpath
41488.3 61430.6 moveto
41673.3 61245.6 lineto
stroke
newpath
41673.3 61430.6 moveto
41488.3 61245.6 lineto
stroke
newpath
41488.3 59580.3 moveto
41673.3 59395.2 lineto
stroke
newpath
41673.3 59580.3 moveto
41488.3 59395.2 lineto
stroke
newpath
41719.6 72532.5 moveto
41904.6 72347.5 lineto
stroke
newpath
41904.6 72532.5 moveto
41719.6 72347.5 lineto
stroke
newpath
42182.2 74382.8 moveto
42367.2 74197.8 lineto
stroke
newpath
42367.2 74382.8 moveto
42182.2 74197.8 lineto
stroke
newpath
42991.7 69641.4 moveto
43176.7 69456.4 lineto
stroke
newpath
43176.7 69641.4 moveto
42991.7 69456.4 lineto
stroke
newpath
43107.3 75985.3 moveto
43292.4 75800.2 lineto
stroke
newpath
43292.4 75985.3 moveto
43107.3 75800.2 lineto
stroke
newpath
43107.3 60389.8 moveto
43292.4 60204.7 lineto
stroke
newpath
43292.4 60389.8 moveto
43107.3 60204.7 lineto
stroke
newpath
43454.3 72069.9 moveto
43639.3 71884.9 lineto
stroke
newpath
43639.3 72069.9 moveto
43454.3 71884.9 lineto
stroke
newpath
43637.5 56110.9 moveto
43822.6 55925.9 lineto
stroke
newpath
43822.6 56110.9 moveto
43637.5 55925.9 lineto
stroke
newpath
43685.5 74614.1 moveto
43870.6 74429.1 lineto
stroke
newpath
43870.6 74614.1 moveto
43685.5 74429.1 lineto
stroke
newpath
44384 62402 moveto
44569.1 62217 lineto
stroke
newpath
44569.1 62402 moveto
44384 62217 lineto
stroke
newpath
44842 57729.9 moveto
45027 57544.9 lineto
stroke
newpath
45027 57729.9 moveto
44842 57544.9 lineto
stroke
newpath
44957.6 71029.1 moveto
45142.7 70844.1 lineto
stroke
newpath
45142.7 71029.1 moveto
44957.6 70844.1 lineto
stroke
newpath
45239.9 55185.7 moveto
45425 55000.7 lineto
stroke
newpath
45425 55185.7 moveto
45239.9 55000.7 lineto
stroke
newpath
45420.2 73573.3 moveto
45605.3 73388.3 lineto
stroke
newpath
45605.3 73573.3 moveto
45420.2 73388.3 lineto
stroke
newpath
46114.1 77158.3 moveto
46299.1 76973.3 lineto
stroke
newpath
46299.1 77158.3 moveto
46114.1 76973.3 lineto
stroke
newpath
46229.7 75423.7 moveto
46414.8 75238.6 lineto
stroke
newpath
46414.8 75423.7 moveto
46229.7 75238.6 lineto
stroke
newpath
46842.4 54260.6 moveto
47027.4 54075.6 lineto
stroke
newpath
47027.4 54260.6 moveto
46842.4 54075.6 lineto
stroke
newpath
46923.6 60621.1 moveto
47108.6 60436 lineto
stroke
newpath
47108.6 60621.1 moveto
46923.6 60436 lineto
stroke
newpath
47617.5 72879.5 moveto
47802.5 72694.4 lineto
stroke
newpath
47802.5 72879.5 moveto
47617.5 72694.4 lineto
stroke
newpath
47716.5 76233.2 moveto
47901.6 76048.1 lineto
stroke
newpath
47901.6 76233.2 moveto
47716.5 76048.1 lineto
stroke
newpath
47848.8 74498.5 moveto
48033.8 74313.5 lineto
stroke
newpath
48033.8 74498.5 moveto
47848.8 74313.5 lineto
stroke
newpath
47964.4 65825.1 moveto
48149.5 65640.1 lineto
stroke
newpath
48149.5 65825.1 moveto
47964.4 65640.1 lineto
stroke
newpath
48019.9 72551 moveto
48205 72366 lineto
stroke
newpath
48205 72551 moveto
48019.9 72366 lineto
stroke
newpath
48195.7 68716.2 moveto
48380.7 68531.2 lineto
stroke
newpath
48380.7 68716.2 moveto
48195.7 68531.2 lineto
stroke
newpath
48195.7 55532.7 moveto
48380.7 55347.6 lineto
stroke
newpath
48380.7 55532.7 moveto
48195.7 55347.6 lineto
stroke
newpath
48444.8 53335.4 moveto
48629.8 53150.4 lineto
stroke
newpath
48629.8 53335.4 moveto
48444.8 53150.4 lineto
stroke
newpath
48658.3 71491.7 moveto
48843.3 71306.7 lineto
stroke
newpath
48843.3 71491.7 moveto
48658.3 71306.7 lineto
stroke
newpath
48889.6 63512.2 moveto
49074.6 63327.2 lineto
stroke
newpath
49074.6 63512.2 moveto
48889.6 63327.2 lineto
stroke
newpath
49120.9 58655.1 moveto
49305.9 58470.1 lineto
stroke
newpath
49305.9 58655.1 moveto
49120.9 58470.1 lineto
stroke
newpath
49318.9 75308 moveto
49504 75123 lineto
stroke
newpath
49504 75308 moveto
49318.9 75123 lineto
stroke
newpath
49352.2 69988.3 moveto
49537.2 69803.3 lineto
stroke
newpath
49537.2 69988.3 moveto
49352.2 69803.3 lineto
stroke
newpath
50047.2 52410.3 moveto
50232.3 52225.2 lineto
stroke
newpath
50232.3 52410.3 moveto
50047.2 52225.2 lineto
stroke
newpath
50187.1 73584.9 moveto
50372.2 73399.9 lineto
stroke
newpath
50372.2 73584.9 moveto
50187.1 73399.9 lineto
stroke
newpath
50508.6 60968 moveto
50693.6 60783 lineto
stroke
newpath
50693.6 60968 moveto
50508.6 60783 lineto
stroke
newpath
50739.9 68600.6 moveto
50924.9 68415.6 lineto
stroke
newpath
50924.9 68600.6 moveto
50739.9 68415.6 lineto
stroke
newpath
51202.5 53335.4 moveto
51387.5 53150.4 lineto
stroke
newpath
51387.5 53335.4 moveto
51202.5 53150.4 lineto
stroke
newpath
51318.1 71376.1 moveto
51503.2 71191 lineto
stroke
newpath
51503.2 71376.1 moveto
51318.1 71191 lineto
stroke
newpath
51433.8 65940.7 moveto
51618.8 65755.7 lineto
stroke
newpath
51618.8 65940.7 moveto
51433.8 65755.7 lineto
stroke
newpath
51507.8 72904.9 moveto
51692.8 72719.9 lineto
stroke
newpath
51692.8 72904.9 moveto
51507.8 72719.9 lineto
stroke
newpath
51649.7 51485.1 moveto
51834.7 51300.1 lineto
stroke
newpath
51834.7 51485.1 moveto
51649.7 51300.1 lineto
stroke
newpath
51896.4 57498.6 moveto
52081.4 57313.6 lineto
stroke
newpath
52081.4 57498.6 moveto
51896.4 57313.6 lineto
stroke
newpath
52037.4 69764 moveto
52222.5 69578.9 lineto
stroke
newpath
52222.5 69764 moveto
52037.4 69578.9 lineto
stroke
newpath
52705.9 60736.7 moveto
52890.9 60551.7 lineto
stroke
newpath
52890.9 60736.7 moveto
52705.9 60551.7 lineto
stroke
newpath
52821.5 63743.5 moveto
53006.5 63558.5 lineto
stroke
newpath
53006.5 63743.5 moveto
52821.5 63558.5 lineto
stroke
newpath
53122.2 71965.9 moveto
53307.2 71780.8 lineto
stroke
newpath
53307.2 71965.9 moveto
53122.2 71780.8 lineto
stroke
newpath
53252.1 50559.9 moveto
53437.1 50374.9 lineto
stroke
newpath
53437.1 50559.9 moveto
53252.1 50374.9 lineto
stroke
newpath
53612.5 68098.7 moveto
53797.6 67913.7 lineto
stroke
newpath
53797.6 68098.7 moveto
53612.5 67913.7 lineto
stroke
newpath
53846.1 70235.8 moveto
54031.2 70050.8 lineto
stroke
newpath
54031.2 70235.8 moveto
53846.1 70050.8 lineto
stroke
newpath
53862.3 66750.3 moveto
54047.4 66565.2 lineto
stroke
newpath
54047.4 66750.3 moveto
53862.3 66565.2 lineto
stroke
newpath
53862.3 53104.1 moveto
54047.4 52919.1 lineto
stroke
newpath
54047.4 53104.1 moveto
53862.3 52919.1 lineto
stroke
newpath
54440.5 58539.5 moveto
54625.6 58354.4 lineto
stroke
newpath
54625.6 58539.5 moveto
54440.5 58354.4 lineto
stroke
newpath
54787.5 62587 moveto
54972.5 62402 lineto
stroke
newpath
54972.5 62587 moveto
54787.5 62402 lineto
stroke
newpath
54854.5 49634.8 moveto
55039.5 49449.7 lineto
stroke
newpath
55039.5 49634.8 moveto
54854.5 49449.7 lineto
stroke
newpath
55275 71838.7 moveto
55460 71653.6 lineto
stroke
newpath
55460 71838.7 moveto
55275 71653.6 lineto
stroke
newpath
55597 70682.2 moveto
55782 70497.2 lineto
stroke
newpath
55782 70682.2 moveto
55597 70497.2 lineto
stroke
newpath
55664.1 68390.1 moveto
55849.1 68205.1 lineto
stroke
newpath
55849.1 68390.1 moveto
55664.1 68205.1 lineto
stroke
newpath
55740.4 67046.3 moveto
55925.4 66861.3 lineto
stroke
newpath
55925.4 67046.3 moveto
55740.4 66861.3 lineto
stroke
newpath
55934.7 67777.2 moveto
56119.7 67592.2 lineto
stroke
newpath
56119.7 67777.2 moveto
55934.7 67592.2 lineto
stroke
newpath
55943.9 51485.1 moveto
56129 51300.1 lineto
stroke
newpath
56129 51485.1 moveto
55943.9 51300.1 lineto
stroke
newpath
56290.9 65709.5 moveto
56475.9 65524.4 lineto
stroke
newpath
56475.9 65709.5 moveto
56290.9 65524.4 lineto
stroke
newpath
56290.9 55417 moveto
56475.9 55232 lineto
stroke
newpath
56475.9 55417 moveto
56290.9 55232 lineto
stroke
newpath
56456.9 48709.6 moveto
56642 48524.6 lineto
stroke
newpath
56642 48709.6 moveto
56456.9 48524.6 lineto
stroke
newpath
56637.8 69641.4 moveto
56822.8 69456.4 lineto
stroke
newpath
56822.8 69641.4 moveto
56637.8 69456.4 lineto
stroke
newpath
56637.8 60389.8 moveto
56822.8 60204.7 lineto
stroke
newpath
56822.8 60389.8 moveto
56637.8 60204.7 lineto
stroke
newpath
56753.5 63165.3 moveto
56938.5 62980.2 lineto
stroke
newpath
56938.5 63165.3 moveto
56753.5 62980.2 lineto
stroke
newpath
56877.4 70913.5 moveto
57062.4 70728.5 lineto
stroke
newpath
57062.4 70913.5 moveto
56877.4 70728.5 lineto
stroke
newpath
57678.6 56804.8 moveto
57863.6 56619.7 lineto
stroke
newpath
57863.6 56804.8 moveto
57678.6 56619.7 lineto
stroke
newpath
57794.3 53104.1 moveto
57979.3 52919.1 lineto
stroke
newpath
57979.3 53104.1 moveto
57794.3 52919.1 lineto
stroke
newpath
57868.3 67532 moveto
58053.3 67347 lineto
stroke
newpath
58053.3 67532 moveto
57868.3 67347 lineto
stroke
newpath
58059.4 47784.5 moveto
58244.4 47599.4 lineto
stroke
newpath
58244.4 47784.5 moveto
58059.4 47599.4 lineto
stroke
newpath
58141.2 50328.6 moveto
58326.2 50143.6 lineto
stroke
newpath
58326.2 50328.6 moveto
58141.2 50143.6 lineto
stroke
newpath
58518.2 66801.1 moveto
58703.2 66616.1 lineto
stroke
newpath
58703.2 66801.1 moveto
58518.2 66616.1 lineto
stroke
newpath
58583 66216 moveto
58768 66031 lineto
stroke
newpath
58768 66216 moveto
58583 66031 lineto
stroke
newpath
58835.1 59002 moveto
59020.1 58817 lineto
stroke
newpath
59020.1 59002 moveto
58835.1 58817 lineto
stroke
newpath
59661.8 46859.3 moveto
59846.8 46674.3 lineto
stroke
newpath
59846.8 46859.3 moveto
59661.8 46674.3 lineto
stroke
newpath
59991.5 69757 moveto
60176.5 69572 lineto
stroke
newpath
60176.5 69757 moveto
59991.5 69572 lineto
stroke
newpath
60454.1 68022.4 moveto
60639.1 67837.3 lineto
stroke
newpath
60639.1 68022.4 moveto
60454.1 67837.3 lineto
stroke
newpath
60569.7 49056.6 moveto
60754.8 48871.5 lineto
stroke
newpath
60754.8 49056.6 moveto
60569.7 48871.5 lineto
stroke
newpath
61264.2 45934.1 moveto
61449.2 45749.1 lineto
stroke
newpath
61449.2 45934.1 moveto
61264.2 45749.1 lineto
stroke
newpath
61841.8 69757 moveto
62026.9 69572 lineto
stroke
newpath
62026.9 69757 moveto
61841.8 69572 lineto
stroke
newpath
61841.8 67212.8 moveto
62026.9 67027.8 lineto
stroke
newpath
62026.9 67212.8 moveto
61841.8 67027.8 lineto
stroke
newpath
61841.8 59927.2 moveto
62026.9 59742.2 lineto
stroke
newpath
62026.9 59927.2 moveto
61841.8 59742.2 lineto
stroke
newpath
62866.6 45009 moveto
63051.7 44823.9 lineto
stroke
newpath
63051.7 45009 moveto
62866.6 44823.9 lineto
stroke
newpath
62998.3 47668.8 moveto
63183.3 47483.8 lineto
stroke
newpath
63183.3 47668.8 moveto
62998.3 47483.8 lineto
stroke
newpath
63460.9 65478.2 moveto
63645.9 65293.1 lineto
stroke
newpath
63645.9 65478.2 moveto
63460.9 65293.1 lineto
stroke
newpath
63692.2 69757 moveto
63877.2 69572 lineto
stroke
newpath
63877.2 69757 moveto
63692.2 69572 lineto
stroke
newpath
64154.7 62702.7 moveto
64339.8 62517.7 lineto
stroke
newpath
64339.8 62702.7 moveto
64154.7 62517.7 lineto
stroke
newpath
64154.7 60621.1 moveto
64339.8 60436 lineto
stroke
newpath
64339.8 60621.1 moveto
64154.7 60436 lineto
stroke
newpath
64270.4 58308.2 moveto
64455.4 58123.1 lineto
stroke
newpath
64455.4 58308.2 moveto
64270.4 58123.1 lineto
stroke
newpath
64469.1 44083.8 moveto
64654.1 43898.8 lineto
stroke
newpath
64654.1 44083.8 moveto
64469.1 43898.8 lineto
stroke
newpath
64848.6 50559.9 moveto
65033.6 50374.9 lineto
stroke
newpath
65033.6 50559.9 moveto
64848.6 50374.9 lineto
stroke
newpath
65079.9 67791.1 moveto
65264.9 67606 lineto
stroke
newpath
65264.9 67791.1 moveto
65079.9 67606 lineto
stroke
newpath
65426.8 46396.7 moveto
65611.9 46211.7 lineto
stroke
newpath
65611.9 46396.7 moveto
65426.8 46211.7 lineto
stroke
newpath
65542.5 69757 moveto
65727.5 69572 lineto
stroke
newpath
65727.5 69757 moveto
65542.5 69572 lineto
stroke
newpath
65658.1 64784.3 moveto
65843.2 64599.3 lineto
stroke
newpath
65843.2 64784.3 moveto
65658.1 64599.3 lineto
stroke
newpath
65889.4 56342.2 moveto
66074.5 56157.2 lineto
stroke
newpath
66074.5 56342.2 moveto
65889.4 56157.2 lineto
stroke
newpath
66071.5 43158.6 moveto
66256.5 42973.6 lineto
stroke
newpath
66256.5 43158.6 moveto
66071.5 42973.6 lineto
stroke
newpath
66430.6 63542.3 moveto
66615.7 63357.2 lineto
stroke
newpath
66615.7 63542.3 moveto
66430.6 63357.2 lineto
stroke
newpath
66583.3 61430.6 moveto
66768.3 61245.6 lineto
stroke
newpath
66768.3 61430.6 moveto
66583.3 61245.6 lineto
stroke
newpath
67045.9 48709.6 moveto
67230.9 48524.6 lineto
stroke
newpath
67230.9 48709.6 moveto
67045.9 48524.6 lineto
stroke
newpath
67277.2 58539.5 moveto
67462.2 58354.4 lineto
stroke
newpath
67462.2 58539.5 moveto
67277.2 58354.4 lineto
stroke
newpath
67277.2 54491.9 moveto
67462.2 54306.8 lineto
stroke
newpath
67462.2 54491.9 moveto
67277.2 54306.8 lineto
stroke
newpath
67392.8 69757 moveto
67577.8 69572 lineto
stroke
newpath
67577.8 69757 moveto
67392.8 69572 lineto
stroke
newpath
67673.9 42233.5 moveto
67858.9 42048.5 lineto
stroke
newpath
67858.9 42233.5 moveto
67673.9 42048.5 lineto
stroke
newpath
67739.7 52872.8 moveto
67924.8 52687.8 lineto
stroke
newpath
67924.8 52872.8 moveto
67739.7 52687.8 lineto
stroke
newpath
68086.7 44893.3 moveto
68271.7 44708.3 lineto
stroke
newpath
68271.7 44893.3 moveto
68086.7 44708.3 lineto
stroke
newpath
68801.4 54730.1 moveto
68986.4 54545.1 lineto
stroke
newpath
68986.4 54730.1 moveto
68801.4 54545.1 lineto
stroke
newpath
69009.5 60480 moveto
69194.6 60294.9 lineto
stroke
newpath
69194.6 60480 moveto
69009.5 60294.9 lineto
stroke
newpath
69011.8 62124.5 moveto
69196.9 61939.4 lineto
stroke
newpath
69196.9 62124.5 moveto
69011.8 61939.4 lineto
stroke
newpath
69243.1 69757 moveto
69428.2 69572 lineto
stroke
newpath
69428.2 69757 moveto
69243.1 69572 lineto
stroke
newpath
69276.3 41308.3 moveto
69461.4 41123.3 lineto
stroke
newpath
69461.4 41308.3 moveto
69276.3 41123.3 lineto
stroke
newpath
69590.1 47553.2 moveto
69775.1 47368.1 lineto
stroke
newpath
69775.1 47553.2 moveto
69590.1 47368.1 lineto
stroke
newpath
70283.9 43852.5 moveto
70469 43667.5 lineto
stroke
newpath
70469 43852.5 moveto
70283.9 43667.5 lineto
stroke
newpath
70515.2 49172.2 moveto
70700.3 48987.2 lineto
stroke
newpath
70700.3 49172.2 moveto
70515.2 48987.2 lineto
stroke
newpath
70878.8 40383.2 moveto
71063.8 40198.1 lineto
stroke
newpath
71063.8 40383.2 moveto
70878.8 40198.1 lineto
stroke
newpath
71093.5 69757 moveto
71278.5 69572 lineto
stroke
newpath
71278.5 69757 moveto
71093.5 69572 lineto
stroke
newpath
71093.5 52294.6 moveto
71278.5 52109.6 lineto
stroke
newpath
71278.5 52294.6 moveto
71093.5 52109.6 lineto
stroke
newpath
71324.7 42464.8 moveto
71509.8 42279.7 lineto
stroke
newpath
71509.8 42464.8 moveto
71324.7 42279.7 lineto
stroke
newpath
71440.4 65131.2 moveto
71625.4 64946.2 lineto
stroke
newpath
71625.4 65131.2 moveto
71440.4 64946.2 lineto
stroke
newpath
71787.3 62702.7 moveto
71972.4 62517.7 lineto
stroke
newpath
71972.4 62702.7 moveto
71787.3 62517.7 lineto
stroke
newpath
71903 60389.8 moveto
72088 60204.7 lineto
stroke
newpath
72088 60389.8 moveto
71903 60204.7 lineto
stroke
newpath
72249.9 58192.5 moveto
72434.9 58007.5 lineto
stroke
newpath
72434.9 58192.5 moveto
72249.9 58007.5 lineto
stroke
newpath
72481.2 41308.3 moveto
72666.2 41123.3 lineto
stroke
newpath
72666.2 41308.3 moveto
72481.2 41123.3 lineto
stroke
newpath
72481.2 39458 moveto
72666.2 39273 lineto
stroke
newpath
72666.2 39458 moveto
72481.2 39273 lineto
stroke
newpath
72712.5 50675.6 moveto
72897.5 50490.6 lineto
stroke
newpath
72897.5 50675.6 moveto
72712.5 50490.6 lineto
stroke
newpath
72828.1 47668.8 moveto
73013.2 47483.8 lineto
stroke
newpath
73013.2 47668.8 moveto
72828.1 47483.8 lineto
stroke
newpath
72943.8 69757 moveto
73128.8 69572 lineto
stroke
newpath
73128.8 69757 moveto
72943.8 69572 lineto
stroke
newpath
72943.8 66865.9 moveto
73128.8 66680.9 lineto
stroke
newpath
73128.8 66865.9 moveto
72943.8 66680.9 lineto
stroke
newpath
73059.4 68947.5 moveto
73244.5 68762.5 lineto
stroke
newpath
73244.5 68947.5 moveto
73059.4 68762.5 lineto
stroke
newpath
73175.1 45009 moveto
73360.1 44823.9 lineto
stroke
newpath
73360.1 45009 moveto
73175.1 44823.9 lineto
stroke
newpath
73406.4 64206.1 moveto
73591.4 64021 lineto
stroke
newpath
73591.4 64206.1 moveto
73406.4 64021 lineto
stroke
newpath
73406.4 62124.5 moveto
73591.4 61939.4 lineto
stroke
newpath
73591.4 62124.5 moveto
73406.4 61939.4 lineto
stroke
newpath
73637.6 55070.1 moveto
73822.7 54885.1 lineto
stroke
newpath
73822.7 55070.1 moveto
73637.6 54885.1 lineto
stroke
newpath
73637.6 43852.5 moveto
73822.7 43667.5 lineto
stroke
newpath
73822.7 43852.5 moveto
73637.6 43667.5 lineto
stroke
newpath
73637.6 42002.2 moveto
73822.7 41817.2 lineto
stroke
newpath
73822.7 42002.2 moveto
73637.6 41817.2 lineto
stroke
newpath
73868.9 60736.7 moveto
74054 60551.7 lineto
stroke
newpath
74054 60736.7 moveto
73868.9 60551.7 lineto
stroke
newpath
74215.9 51947.7 moveto
74400.9 51762.6 lineto
stroke
newpath
74400.9 51947.7 moveto
74215.9 51762.6 lineto
stroke
newpath
74215.9 49056.6 moveto
74400.9 48871.5 lineto
stroke
newpath
74400.9 49056.6 moveto
74215.9 48871.5 lineto
stroke
newpath
74447.2 66750.3 moveto
74632.2 66565.2 lineto
stroke
newpath
74632.2 66750.3 moveto
74447.2 66565.2 lineto
stroke
newpath
74447.2 46628 moveto
74632.2 46443 lineto
stroke
newpath
74632.2 46628 moveto
74447.2 46443 lineto
stroke
newpath
75256.7 67444.1 moveto
75441.7 67259.1 lineto
stroke
newpath
75441.7 67444.1 moveto
75256.7 67259.1 lineto
stroke
newpath
75256.7 65593.8 moveto
75441.7 65408.8 lineto
stroke
newpath
75441.7 65593.8 moveto
75256.7 65408.8 lineto
stroke
newpath
75256.7 63743.5 moveto
75441.7 63558.5 lineto
stroke
newpath
75441.7 63743.5 moveto
75256.7 63558.5 lineto
stroke
newpath
75256.7 61893.2 moveto
75441.7 61708.1 lineto
stroke
newpath
75441.7 61893.2 moveto
75256.7 61708.1 lineto
stroke
newpath
75256.7 60042.8 moveto
75441.7 59857.8 lineto
stroke
newpath
75441.7 60042.8 moveto
75256.7 59857.8 lineto
stroke
newpath
75256.7 58192.5 moveto
75441.7 58007.5 lineto
stroke
newpath
75441.7 58192.5 moveto
75256.7 58007.5 lineto
stroke
newpath
75256.7 56342.2 moveto
75441.7 56157.2 lineto
stroke
newpath
75441.7 56342.2 moveto
75256.7 56157.2 lineto
stroke
newpath
75256.7 54491.9 moveto
75441.7 54306.8 lineto
stroke
newpath
75441.7 54491.9 moveto
75256.7 54306.8 lineto
stroke
newpath
75256.7 52641.6 moveto
75441.7 52456.5 lineto
stroke
newpath
75441.7 52641.6 moveto
75256.7 52456.5 lineto
stroke
newpath
75256.7 50791.2 moveto
75441.7 50606.2 lineto
stroke
newpath
75441.7 50791.2 moveto
75256.7 50606.2 lineto
stroke
newpath
75256.7 48940.9 moveto
75441.7 48755.9 lineto
stroke
newpath
75441.7 48940.9 moveto
75256.7 48755.9 lineto
stroke
newpath
75256.7 47090.6 moveto
75441.7 46905.6 lineto
stroke
newpath
75441.7 47090.6 moveto
75256.7 46905.6 lineto
stroke
newpath
75256.7 45240.3 moveto
75441.7 45055.2 lineto
stroke
newpath
75441.7 45240.3 moveto
75256.7 45055.2 lineto
stroke
newpath
75256.7 41077 moveto
75441.7 40892 lineto
stroke
newpath
75441.7 41077 moveto
75256.7 40892 lineto
stroke
50115 74931.7 150.339 cir0
50623.7 74638 150.339 cir0
51132.5 74344.2 150.339 cir0
51641.3 74050.5 150.339 cir0
52150 73756.7 150.339 cir0
52658.8 73463 150.339 cir0
53167.6 73169.3 150.339 cir0
53676.4 72875.5 150.339 cir0
54185.1 72581.8 150.339 cir0
54707.9 72280 150.339 cir0
newpath
59896.3 55908 moveto
59896.3 55260.4 lineto
stroke
newpath
59572.5 55584.2 moveto
60220.1 55584.2 lineto
stroke
newpath
62166.2 56516.2 moveto
62166.2 55868.6 lineto
stroke
newpath
61842.3 56192.4 moveto
62490 56192.4 lineto
stroke
newpath
64436 57124.4 moveto
64436 56476.8 lineto
stroke
newpath
64112.2 56800.6 moveto
64759.8 56800.6 lineto
stroke
newpath
66368.7 67125.1 moveto
66368.7 66477.5 lineto
stroke
newpath
66044.9 66801.3 moveto
66692.5 66801.3 lineto
stroke
newpath
68638.6 67733.3 moveto
68638.6 67085.7 lineto
stroke
newpath
68314.8 67409.5 moveto
68962.4 67409.5 lineto
stroke
newpath
70908.4 68341.5 moveto
70908.4 67693.9 lineto
stroke
newpath
70584.6 68017.7 moveto
71232.2 68017.7 lineto
stroke
newpath
68741.8 58279.7 moveto
68741.8 57632.1 lineto
stroke
newpath
68418 57955.9 moveto
69065.6 57955.9 lineto
stroke
newpath
71011.6 58887.9 moveto
71011.6 58240.3 lineto
stroke
newpath
70687.8 58564.1 moveto
71335.4 58564.1 lineto
stroke
newpath
73281.5 59496.1 moveto
73281.5 58848.5 lineto
stroke
newpath
72957.7 59172.3 moveto
73605.3 59172.3 lineto
stroke
newpath
44333.7 65961.7 moveto
44333.7 65314.1 lineto
stroke
newpath
44009.9 65637.9 moveto
44657.5 65637.9 lineto
stroke
newpath
46603.6 66569.9 moveto
46603.6 65922.3 lineto
stroke
newpath
46279.7 66246.1 moveto
46927.4 66246.1 lineto
stroke
newpath
48873.4 67178.2 moveto
48873.4 66530.5 lineto
stroke
newpath
48549.6 66854.3 moveto
49197.2 66854.3 lineto
stroke
newpath
57524.2 64755.3 moveto
57524.2 64107.7 lineto
stroke
newpath
57200.4 64431.5 moveto
57848 64431.5 lineto
stroke
newpath
59794 65363.5 moveto
59794 64715.9 lineto
stroke
newpath
59470.2 65039.7 moveto
60117.8 65039.7 lineto
stroke
newpath
62063.9 65971.7 moveto
62063.9 65324.1 lineto
stroke
newpath
61740.1 65647.9 moveto
62387.7 65647.9 lineto
stroke
newpath
61103.7 60822.2 moveto
61103.7 61312.8 lineto
60613.1 61312.8 lineto
60613.1 60822.2 lineto
61103.7 60822.2 lineto
poly0
newpath
63475.8 51974.9 moveto
63475.8 52465.5 lineto
62985.2 52465.5 lineto
62985.2 51974.9 lineto
63475.8 51974.9 lineto
poly0
newpath
69948.3 63192 moveto
69948.3 63682.6 lineto
69457.6 63682.6 lineto
69457.6 63192 lineto
69948.3 63192 lineto
poly0
newpath
72321.3 54346.5 moveto
72321.3 54837.2 lineto
71830.7 54837.2 lineto
71830.7 54346.5 lineto
72321.3 54346.5 lineto
poly0
newpath
47913.2 62028.6 moveto
47913.2 62519.2 lineto
47422.6 62519.2 lineto
47422.6 62028.6 lineto
47913.2 62028.6 lineto
poly0
newpath
42506 57406.1 moveto
42968.5 57868.7 lineto
42506 58331.3 lineto
42043.4 57868.7 lineto
42506 57406.1 lineto
poly0
newpath
44587.6 76834.5 moveto
45050.2 77297.1 lineto
44587.6 77759.7 lineto
44125 77297.1 lineto
44587.6 76834.5 lineto
poly0
newpath
52682.7 58100 moveto
53145.3 58562.6 lineto
52682.7 59025.2 lineto
52220.2 58562.6 lineto
52682.7 58100 lineto
poly0
newpath
58233.7 68739.4 moveto
58696.3 69201.9 lineto
58233.7 69664.5 lineto
57771.1 69201.9 lineto
58233.7 68739.4 lineto
poly0
newpath
68410.5 50236.1 moveto
68873.1 50698.7 lineto
68410.5 51161.3 lineto
67947.9 50698.7 lineto
68410.5 50236.1 lineto
poly0
newpath
74655.3 38671.6 moveto
75117.9 39134.2 lineto
74655.3 39596.8 lineto
74192.7 39134.2 lineto
74655.3 38671.6 lineto
poly0
newpath
74886.6 68739.4 moveto
75349.2 69201.9 lineto
74886.6 69664.5 lineto
74424 69201.9 lineto
74886.6 68739.4 lineto
poly0
118.11 setlinewidth
0 0 0 setrgbcolor
0 0 0 setrgbcolor
newpath
42234.3 35175.5 moveto
42234.3 36356.6 lineto
42515.5 36356.6 lineto
42684.3 36300.3 lineto
42796.8 36187.9 lineto
42853 36075.4 lineto
42909.2 35850.4 lineto
42909.2 35681.7 lineto
42853 35456.7 lineto
42796.8 35344.2 lineto
42684.3 35231.7 lineto
42515.5 35175.5 lineto
42234.3 35175.5 lineto
stroke
newpath
43415.4 35175.5 moveto
43415.4 35962.9 lineto
stroke
newpath
43415.4 35737.9 moveto
43471.7 35850.4 lineto
43527.9 35906.6 lineto
43640.4 35962.9 lineto
43752.9 35962.9 lineto
stroke
newpath
44146.6 35175.5 moveto
44146.6 35962.9 lineto
stroke
newpath
44146.6 36356.6 moveto
44090.3 36300.3 lineto
44146.6 36244.1 lineto
44202.8 36300.3 lineto
44146.6 36356.6 lineto
44146.6 36244.1 lineto
stroke
newpath
44877.7 35175.5 moveto
44765.3 35231.7 lineto
44709 35344.2 lineto
44709 36356.6 lineto
stroke
newpath
45496.4 35175.5 moveto
45383.9 35231.7 lineto
45327.7 35344.2 lineto
45327.7 36356.6 lineto
stroke
newpath
46846.3 35175.5 moveto
46846.3 36356.6 lineto
47240 35512.9 lineto
47633.7 36356.6 lineto
47633.7 35175.5 lineto
stroke
newpath
48702.3 35175.5 moveto
48702.3 35794.2 lineto
48646 35906.6 lineto
48533.5 35962.9 lineto
48308.6 35962.9 lineto
48196.1 35906.6 lineto
stroke
newpath
48702.3 35231.7 moveto
48589.8 35175.5 lineto
48308.6 35175.5 lineto
48196.1 35231.7 lineto
48139.8 35344.2 lineto
48139.8 35456.7 lineto
48196.1 35569.2 lineto
48308.6 35625.4 lineto
48589.8 35625.4 lineto
48702.3 35681.7 lineto
stroke
newpath
49264.7 35962.9 moveto
49264.7 34781.8 lineto
stroke
newpath
49264.7 35906.6 moveto
49377.2 35962.9 lineto
49602.2 35962.9 lineto
49714.6 35906.6 lineto
49770.9 35850.4 lineto
49827.1 35737.9 lineto
49827.1 35400.5 lineto
49770.9 35288 lineto
49714.6 35231.7 lineto
49602.2 35175.5 lineto
49377.2 35175.5 lineto
49264.7 35231.7 lineto
stroke
newpath
50333.3 35288 moveto
50389.6 35231.7 lineto
50333.3 35175.5 lineto
50277.1 35231.7 lineto
50333.3 35288 lineto
50333.3 35175.5 lineto
stroke
newpath
50333.3 35906.6 moveto
50389.6 35850.4 lineto
50333.3 35794.2 lineto
50277.1 35850.4 lineto
50333.3 35906.6 lineto
50333.3 35794.2 lineto
stroke
newpath
40921.6 33322 moveto
41106.7 33137 lineto
stroke
newpath
41106.7 33322 moveto
40921.6 33137 lineto
stroke
0 0 0 setrgbcolor
0 0 0 setrgbcolor
newpath
42459.3 33876.3 moveto
42571.8 33876.3 lineto
42684.3 33820 lineto
42740.5 33763.8 lineto
42796.8 33651.3 lineto
42853 33426.3 lineto
42853 33145.1 lineto
42796.8 32920.1 lineto
42740.5 32807.7 lineto
42684.3 32751.4 lineto
42571.8 32695.2 lineto
42459.3 32695.2 lineto
42346.8 32751.4 lineto
42290.6 32807.7 lineto
42234.3 32920.1 lineto
42178.1 33145.1 lineto
42178.1 33426.3 lineto
42234.3 33651.3 lineto
42290.6 33763.8 lineto
42346.8 33820 lineto
42459.3 33876.3 lineto
stroke
newpath
43359.2 32807.7 moveto
43415.4 32751.4 lineto
43359.2 32695.2 lineto
43302.9 32751.4 lineto
43359.2 32807.7 lineto
43359.2 32695.2 lineto
stroke
newpath
44427.8 33482.6 moveto
44427.8 32695.2 lineto
stroke
newpath
44146.6 33932.5 moveto
43865.4 33088.9 lineto
44596.5 33088.9 lineto
stroke
newpath
45271.5 33876.3 moveto
45383.9 33876.3 lineto
45496.4 33820 lineto
45552.7 33763.8 lineto
45608.9 33651.3 lineto
45665.2 33426.3 lineto
45665.2 33145.1 lineto
45608.9 32920.1 lineto
45552.7 32807.7 lineto
45496.4 32751.4 lineto
45383.9 32695.2 lineto
45271.5 32695.2 lineto
45159 32751.4 lineto
45102.7 32807.7 lineto
45046.5 32920.1 lineto
44990.2 33145.1 lineto
44990.2 33426.3 lineto
45046.5 33651.3 lineto
45102.7 33763.8 lineto
45159 33820 lineto
45271.5 33876.3 lineto
stroke
newpath
46171.3 32695.2 moveto
46171.3 33482.6 lineto
stroke
newpath
46171.3 33370.1 moveto
46227.6 33426.3 lineto
46340.1 33482.6 lineto
46508.8 33482.6 lineto
46621.3 33426.3 lineto
46677.5 33313.8 lineto
46677.5 32695.2 lineto
stroke
newpath
46677.5 33313.8 moveto
46733.8 33426.3 lineto
46846.3 33482.6 lineto
47015 33482.6 lineto
47127.5 33426.3 lineto
47183.7 33313.8 lineto
47183.7 32695.2 lineto
stroke
newpath
47746.1 32695.2 moveto
47746.1 33482.6 lineto
stroke
newpath
47746.1 33370.1 moveto
47802.4 33426.3 lineto
47914.9 33482.6 lineto
48083.6 33482.6 lineto
48196.1 33426.3 lineto
48252.3 33313.8 lineto
48252.3 32695.2 lineto
stroke
newpath
48252.3 33313.8 moveto
48308.6 33426.3 lineto
48421.1 33482.6 lineto
48589.8 33482.6 lineto
48702.3 33426.3 lineto
48758.5 33313.8 lineto
48758.5 32695.2 lineto
stroke
newpath
51064.5 33932.5 moveto
50052.1 32414 lineto
stroke
newpath
52583 33876.3 moveto
52695.5 33876.3 lineto
52808 33820 lineto
52864.3 33763.8 lineto
52920.5 33651.3 lineto
52976.7 33426.3 lineto
52976.7 33145.1 lineto
52920.5 32920.1 lineto
52864.3 32807.7 lineto
52808 32751.4 lineto
52695.5 32695.2 lineto
52583 32695.2 lineto
52470.5 32751.4 lineto
52414.3 32807.7 lineto
52358.1 32920.1 lineto
52301.8 33145.1 lineto
52301.8 33426.3 lineto
52358.1 33651.3 lineto
52414.3 33763.8 lineto
52470.5 33820 lineto
52583 33876.3 lineto
stroke
newpath
53482.9 32807.7 moveto
53539.2 32751.4 lineto
53482.9 32695.2 lineto
53426.7 32751.4 lineto
53482.9 32807.7 lineto
53482.9 32695.2 lineto
stroke
newpath
54270.3 33876.3 moveto
54382.8 33876.3 lineto
54495.3 33820 lineto
54551.5 33763.8 lineto
54607.8 33651.3 lineto
54664 33426.3 lineto
54664 33145.1 lineto
54607.8 32920.1 lineto
54551.5 32807.7 lineto
54495.3 32751.4 lineto
54382.8 32695.2 lineto
54270.3 32695.2 lineto
54157.8 32751.4 lineto
54101.6 32807.7 lineto
54045.4 32920.1 lineto
53989.1 33145.1 lineto
53989.1 33426.3 lineto
54045.4 33651.3 lineto
54101.6 33763.8 lineto
54157.8 33820 lineto
54270.3 33876.3 lineto
stroke
newpath
55788.9 32695.2 moveto
55114 32695.2 lineto
stroke
newpath
55451.4 32695.2 moveto
55451.4 33876.3 lineto
55338.9 33707.5 lineto
55226.5 33595.1 lineto
55114 33538.8 lineto
stroke
newpath
56801.3 33876.3 moveto
56576.3 33876.3 lineto
56463.8 33820 lineto
56407.6 33763.8 lineto
56295.1 33595.1 lineto
56238.8 33370.1 lineto
56238.8 32920.1 lineto
56295.1 32807.7 lineto
56351.3 32751.4 lineto
56463.8 32695.2 lineto
56688.8 32695.2 lineto
56801.3 32751.4 lineto
56857.5 32807.7 lineto
56913.7 32920.1 lineto
56913.7 33201.4 lineto
56857.5 33313.8 lineto
56801.3 33370.1 lineto
56688.8 33426.3 lineto
56463.8 33426.3 lineto
56351.3 33370.1 lineto
56295.1 33313.8 lineto
56238.8 33201.4 lineto
stroke
newpath
57363.7 33876.3 moveto
57363.7 33651.3 lineto
stroke
newpath
57813.6 33876.3 moveto
57813.6 33651.3 lineto
stroke
newpath
59557.2 32245.2 moveto
59500.9 32301.5 lineto
59388.4 32470.2 lineto
59332.2 32582.7 lineto
59275.9 32751.4 lineto
59219.7 33032.6 lineto
59219.7 33257.6 lineto
59275.9 33538.8 lineto
59332.2 33707.5 lineto
59388.4 33820 lineto
59500.9 33988.8 lineto
59557.2 34045 lineto
stroke
newpath
60625.8 32695.2 moveto
59950.9 32695.2 lineto
stroke
newpath
60288.3 32695.2 moveto
60288.3 33876.3 lineto
60175.8 33707.5 lineto
60063.3 33595.1 lineto
59950.9 33538.8 lineto
stroke
newpath
61638.2 33876.3 moveto
61413.2 33876.3 lineto
61300.7 33820 lineto
61244.5 33763.8 lineto
61132 33595.1 lineto
61075.7 33370.1 lineto
61075.7 32920.1 lineto
61132 32807.7 lineto
61188.2 32751.4 lineto
61300.7 32695.2 lineto
61525.7 32695.2 lineto
61638.2 32751.4 lineto
61694.4 32807.7 lineto
61750.6 32920.1 lineto
61750.6 33201.4 lineto
61694.4 33313.8 lineto
61638.2 33370.1 lineto
61525.7 33426.3 lineto
61300.7 33426.3 lineto
61188.2 33370.1 lineto
61132 33313.8 lineto
61075.7 33201.4 lineto
stroke
newpath
62481.8 33876.3 moveto
62594.3 33876.3 lineto
62706.8 33820 lineto
62763 33763.8 lineto
62819.3 33651.3 lineto
62875.5 33426.3 lineto
62875.5 33145.1 lineto
62819.3 32920.1 lineto
62763 32807.7 lineto
62706.8 32751.4 lineto
62594.3 32695.2 lineto
62481.8 32695.2 lineto
62369.3 32751.4 lineto
62313.1 32807.7 lineto
62256.8 32920.1 lineto
62200.6 33145.1 lineto
62200.6 33426.3 lineto
62256.8 33651.3 lineto
62313.1 33763.8 lineto
62369.3 33820 lineto
62481.8 33876.3 lineto
stroke
newpath
64281.6 32695.2 moveto
64281.6 33876.3 lineto
stroke
newpath
64787.8 32695.2 moveto
64787.8 33313.8 lineto
64731.5 33426.3 lineto
64619 33482.6 lineto
64450.3 33482.6 lineto
64337.8 33426.3 lineto
64281.6 33370.1 lineto
stroke
newpath
65518.9 32695.2 moveto
65406.4 32751.4 lineto
65350.2 32807.7 lineto
65293.9 32920.1 lineto
65293.9 33257.6 lineto
65350.2 33370.1 lineto
65406.4 33426.3 lineto
65518.9 33482.6 lineto
65687.6 33482.6 lineto
65800.1 33426.3 lineto
65856.4 33370.1 lineto
65912.6 33257.6 lineto
65912.6 32920.1 lineto
65856.4 32807.7 lineto
65800.1 32751.4 lineto
65687.6 32695.2 lineto
65518.9 32695.2 lineto
stroke
newpath
66587.5 32695.2 moveto
66475 32751.4 lineto
66418.8 32863.9 lineto
66418.8 33876.3 lineto
stroke
newpath
67487.4 32751.4 moveto
67374.9 32695.2 lineto
67150 32695.2 lineto
67037.5 32751.4 lineto
66981.2 32863.9 lineto
66981.2 33313.8 lineto
67037.5 33426.3 lineto
67150 33482.6 lineto
67374.9 33482.6 lineto
67487.4 33426.3 lineto
67543.7 33313.8 lineto
67543.7 33201.4 lineto
66981.2 33088.9 lineto
stroke
newpath
67993.6 32751.4 moveto
68106.1 32695.2 lineto
68331.1 32695.2 lineto
68443.6 32751.4 lineto
68499.8 32863.9 lineto
68499.8 32920.1 lineto
68443.6 33032.6 lineto
68331.1 33088.9 lineto
68162.3 33088.9 lineto
68049.8 33145.1 lineto
67993.6 33257.6 lineto
67993.6 33313.8 lineto
68049.8 33426.3 lineto
68162.3 33482.6 lineto
68331.1 33482.6 lineto
68443.6 33426.3 lineto
stroke
newpath
68893.5 32245.2 moveto
68949.7 32301.5 lineto
69062.2 32470.2 lineto
69118.5 32582.7 lineto
69174.7 32751.4 lineto
69231 33032.6 lineto
69231 33257.6 lineto
69174.7 33538.8 lineto
69118.5 33707.5 lineto
69062.2 33820 lineto
68949.7 33988.8 lineto
68893.5 34045 lineto
stroke
40956.3 31670.4 150.339 cir0
0 0 0 setrgbcolor
0 0 0 setrgbcolor
newpath
42459.3 32317.2 moveto
42571.8 32317.2 lineto
42684.3 32261 lineto
42740.5 32204.7 lineto
42796.8 32092.2 lineto
42853 31867.3 lineto
42853 31586.1 lineto
42796.8 31361.1 lineto
42740.5 31248.6 lineto
42684.3 31192.4 lineto
42571.8 31136.1 lineto
42459.3 31136.1 lineto
42346.8 31192.4 lineto
42290.6 31248.6 lineto
42234.3 31361.1 lineto
42178.1 31586.1 lineto
42178.1 31867.3 lineto
42234.3 32092.2 lineto
42290.6 32204.7 lineto
42346.8 32261 lineto
42459.3 32317.2 lineto
stroke
newpath
43359.2 31248.6 moveto
43415.4 31192.4 lineto
43359.2 31136.1 lineto
43302.9 31192.4 lineto
43359.2 31248.6 lineto
43359.2 31136.1 lineto
stroke
newpath
44427.8 32317.2 moveto
44202.8 32317.2 lineto
44090.3 32261 lineto
44034.1 32204.7 lineto
43921.6 32036 lineto
43865.4 31811 lineto
43865.4 31361.1 lineto
43921.6 31248.6 lineto
43977.9 31192.4 lineto
44090.3 31136.1 lineto
44315.3 31136.1 lineto
44427.8 31192.4 lineto
44484 31248.6 lineto
44540.3 31361.1 lineto
44540.3 31642.3 lineto
44484 31754.8 lineto
44427.8 31811 lineto
44315.3 31867.3 lineto
44090.3 31867.3 lineto
43977.9 31811 lineto
43921.6 31754.8 lineto
43865.4 31642.3 lineto
stroke
newpath
45608.9 32317.2 moveto
45046.5 32317.2 lineto
44990.2 31754.8 lineto
45046.5 31811 lineto
45159 31867.3 lineto
45440.2 31867.3 lineto
45552.7 31811 lineto
45608.9 31754.8 lineto
45665.2 31642.3 lineto
45665.2 31361.1 lineto
45608.9 31248.6 lineto
45552.7 31192.4 lineto
45440.2 31136.1 lineto
45159 31136.1 lineto
45046.5 31192.4 lineto
44990.2 31248.6 lineto
stroke
newpath
46171.3 31136.1 moveto
46171.3 31923.5 lineto
stroke
newpath
46171.3 31811 moveto
46227.6 31867.3 lineto
46340.1 31923.5 lineto
46508.8 31923.5 lineto
46621.3 31867.3 lineto
46677.5 31754.8 lineto
46677.5 31136.1 lineto
stroke
newpath
46677.5 31754.8 moveto
46733.8 31867.3 lineto
46846.3 31923.5 lineto
47015 31923.5 lineto
47127.5 31867.3 lineto
47183.7 31754.8 lineto
47183.7 31136.1 lineto
stroke
newpath
47746.1 31136.1 moveto
47746.1 31923.5 lineto
stroke
newpath
47746.1 31811 moveto
47802.4 31867.3 lineto
47914.9 31923.5 lineto
48083.6 31923.5 lineto
48196.1 31867.3 lineto
48252.3 31754.8 lineto
48252.3 31136.1 lineto
stroke
newpath
48252.3 31754.8 moveto
48308.6 31867.3 lineto
48421.1 31923.5 lineto
48589.8 31923.5 lineto
48702.3 31867.3 lineto
48758.5 31754.8 lineto
48758.5 31136.1 lineto
stroke
newpath
51064.5 32373.5 moveto
50052.1 30854.9 lineto
stroke
newpath
52583 32317.2 moveto
52695.5 32317.2 lineto
52808 32261 lineto
52864.3 32204.7 lineto
52920.5 32092.2 lineto
52976.7 31867.3 lineto
52976.7 31586.1 lineto
52920.5 31361.1 lineto
52864.3 31248.6 lineto
52808 31192.4 lineto
52695.5 31136.1 lineto
52583 31136.1 lineto
52470.5 31192.4 lineto
52414.3 31248.6 lineto
52358.1 31361.1 lineto
52301.8 31586.1 lineto
52301.8 31867.3 lineto
52358.1 32092.2 lineto
52414.3 32204.7 lineto
52470.5 32261 lineto
52583 32317.2 lineto
stroke
newpath
53482.9 31248.6 moveto
53539.2 31192.4 lineto
53482.9 31136.1 lineto
53426.7 31192.4 lineto
53482.9 31248.6 lineto
53482.9 31136.1 lineto
stroke
newpath
54270.3 32317.2 moveto
54382.8 32317.2 lineto
54495.3 32261 lineto
54551.5 32204.7 lineto
54607.8 32092.2 lineto
54664 31867.3 lineto
54664 31586.1 lineto
54607.8 31361.1 lineto
54551.5 31248.6 lineto
54495.3 31192.4 lineto
54382.8 31136.1 lineto
54270.3 31136.1 lineto
54157.8 31192.4 lineto
54101.6 31248.6 lineto
54045.4 31361.1 lineto
53989.1 31586.1 lineto
53989.1 31867.3 lineto
54045.4 32092.2 lineto
54101.6 32204.7 lineto
54157.8 32261 lineto
54270.3 32317.2 lineto
stroke
newpath
55114 32204.7 moveto
55170.2 32261 lineto
55282.7 32317.2 lineto
55563.9 32317.2 lineto
55676.4 32261 lineto
55732.6 32204.7 lineto
55788.9 32092.2 lineto
55788.9 31979.8 lineto
55732.6 31811 lineto
55057.7 31136.1 lineto
55788.9 31136.1 lineto
stroke
newpath
56801.3 32317.2 moveto
56576.3 32317.2 lineto
56463.8 32261 lineto
56407.6 32204.7 lineto
56295.1 32036 lineto
56238.8 31811 lineto
56238.8 31361.1 lineto
56295.1 31248.6 lineto
56351.3 31192.4 lineto
56463.8 31136.1 lineto
56688.8 31136.1 lineto
56801.3 31192.4 lineto
56857.5 31248.6 lineto
56913.7 31361.1 lineto
56913.7 31642.3 lineto
56857.5 31754.8 lineto
56801.3 31811 lineto
56688.8 31867.3 lineto
56463.8 31867.3 lineto
56351.3 31811 lineto
56295.1 31754.8 lineto
56238.8 31642.3 lineto
stroke
newpath
57363.7 32317.2 moveto
57363.7 32092.2 lineto
stroke
newpath
57813.6 32317.2 moveto
57813.6 32092.2 lineto
stroke
newpath
59557.2 30686.2 moveto
59500.9 30742.4 lineto
59388.4 30911.1 lineto
59332.2 31023.6 lineto
59275.9 31192.4 lineto
59219.7 31473.6 lineto
59219.7 31698.5 lineto
59275.9 31979.8 lineto
59332.2 32148.5 lineto
59388.4 32261 lineto
59500.9 32429.7 lineto
59557.2 32485.9 lineto
stroke
newpath
60625.8 31136.1 moveto
59950.9 31136.1 lineto
stroke
newpath
60288.3 31136.1 moveto
60288.3 32317.2 lineto
60175.8 32148.5 lineto
60063.3 32036 lineto
59950.9 31979.8 lineto
stroke
newpath
61356.9 32317.2 moveto
61469.4 32317.2 lineto
61581.9 32261 lineto
61638.2 32204.7 lineto
61694.4 32092.2 lineto
61750.6 31867.3 lineto
61750.6 31586.1 lineto
61694.4 31361.1 lineto
61638.2 31248.6 lineto
61581.9 31192.4 lineto
61469.4 31136.1 lineto
61356.9 31136.1 lineto
61244.5 31192.4 lineto
61188.2 31248.6 lineto
61132 31361.1 lineto
61075.7 31586.1 lineto
61075.7 31867.3 lineto
61132 32092.2 lineto
61188.2 32204.7 lineto
61244.5 32261 lineto
61356.9 32317.2 lineto
stroke
newpath
63156.7 31136.1 moveto
63156.7 32317.2 lineto
stroke
newpath
63662.9 31136.1 moveto
63662.9 31754.8 lineto
63606.7 31867.3 lineto
63494.2 31923.5 lineto
63325.4 31923.5 lineto
63213 31867.3 lineto
63156.7 31811 lineto
stroke
newpath
64394.1 31136.1 moveto
64281.6 31192.4 lineto
64225.3 31248.6 lineto
64169.1 31361.1 lineto
64169.1 31698.5 lineto
64225.3 31811 lineto
64281.6 31867.3 lineto
64394.1 31923.5 lineto
64562.8 31923.5 lineto
64675.3 31867.3 lineto
64731.5 31811 lineto
64787.8 31698.5 lineto
64787.8 31361.1 lineto
64731.5 31248.6 lineto
64675.3 31192.4 lineto
64562.8 31136.1 lineto
64394.1 31136.1 lineto
stroke
newpath
65462.7 31136.1 moveto
65350.2 31192.4 lineto
65293.9 31304.8 lineto
65293.9 32317.2 lineto
stroke
newpath
66362.6 31192.4 moveto
66250.1 31136.1 lineto
66025.1 31136.1 lineto
65912.6 31192.4 lineto
65856.4 31304.8 lineto
65856.4 31754.8 lineto
65912.6 31867.3 lineto
66025.1 31923.5 lineto
66250.1 31923.5 lineto
66362.6 31867.3 lineto
66418.8 31754.8 lineto
66418.8 31642.3 lineto
65856.4 31529.8 lineto
stroke
newpath
66868.7 31192.4 moveto
66981.2 31136.1 lineto
67206.2 31136.1 lineto
67318.7 31192.4 lineto
67374.9 31304.8 lineto
67374.9 31361.1 lineto
67318.7 31473.6 lineto
67206.2 31529.8 lineto
67037.5 31529.8 lineto
66925 31586.1 lineto
66868.7 31698.5 lineto
66868.7 31754.8 lineto
66925 31867.3 lineto
67037.5 31923.5 lineto
67206.2 31923.5 lineto
67318.7 31867.3 lineto
stroke
newpath
67768.6 30686.2 moveto
67824.9 30742.4 lineto
67937.4 30911.1 lineto
67993.6 31023.6 lineto
68049.8 31192.4 lineto
68106.1 31473.6 lineto
68106.1 31698.5 lineto
68049.8 31979.8 lineto
67993.6 32148.5 lineto
67937.4 32261 lineto
67824.9 32429.7 lineto
67768.6 32485.9 lineto
stroke
newpath
40782.9 30435.2 moveto
40782.9 29787.6 lineto
stroke
newpath
40459 30111.4 moveto
41106.7 30111.4 lineto
stroke
0 0 0 setrgbcolor
0 0 0 setrgbcolor
newpath
42853 29577.1 moveto
42178.1 29577.1 lineto
stroke
newpath
42515.5 29577.1 moveto
42515.5 30758.2 lineto
42403.1 30589.4 lineto
42290.6 30476.9 lineto
42178.1 30420.7 lineto
stroke
newpath
43359.2 29689.5 moveto
43415.4 29633.3 lineto
43359.2 29577.1 lineto
43302.9 29633.3 lineto
43359.2 29689.5 lineto
43359.2 29577.1 lineto
stroke
newpath
44427.8 30364.5 moveto
44427.8 29577.1 lineto
stroke
newpath
44146.6 30814.4 moveto
43865.4 29970.8 lineto
44596.5 29970.8 lineto
stroke
newpath
45271.5 30758.2 moveto
45383.9 30758.2 lineto
45496.4 30701.9 lineto
45552.7 30645.7 lineto
45608.9 30533.2 lineto
45665.2 30308.2 lineto
45665.2 30027 lineto
45608.9 29802 lineto
45552.7 29689.5 lineto
45496.4 29633.3 lineto
45383.9 29577.1 lineto
45271.5 29577.1 lineto
45159 29633.3 lineto
45102.7 29689.5 lineto
45046.5 29802 lineto
44990.2 30027 lineto
44990.2 30308.2 lineto
45046.5 30533.2 lineto
45102.7 30645.7 lineto
45159 30701.9 lineto
45271.5 30758.2 lineto
stroke
newpath
46171.3 29577.1 moveto
46171.3 30364.5 lineto
stroke
newpath
46171.3 30252 moveto
46227.6 30308.2 lineto
46340.1 30364.5 lineto
46508.8 30364.5 lineto
46621.3 30308.2 lineto
46677.5 30195.7 lineto
46677.5 29577.1 lineto
stroke
newpath
46677.5 30195.7 moveto
46733.8 30308.2 lineto
46846.3 30364.5 lineto
47015 30364.5 lineto
47127.5 30308.2 lineto
47183.7 30195.7 lineto
47183.7 29577.1 lineto
stroke
newpath
47746.1 29577.1 moveto
47746.1 30364.5 lineto
stroke
newpath
47746.1 30252 moveto
47802.4 30308.2 lineto
47914.9 30364.5 lineto
48083.6 30364.5 lineto
48196.1 30308.2 lineto
48252.3 30195.7 lineto
48252.3 29577.1 lineto
stroke
newpath
48252.3 30195.7 moveto
48308.6 30308.2 lineto
48421.1 30364.5 lineto
48589.8 30364.5 lineto
48702.3 30308.2 lineto
48758.5 30195.7 lineto
48758.5 29577.1 lineto
stroke
newpath
51064.5 30814.4 moveto
50052.1 29295.8 lineto
stroke
newpath
52583 30758.2 moveto
52695.5 30758.2 lineto
52808 30701.9 lineto
52864.3 30645.7 lineto
52920.5 30533.2 lineto
52976.7 30308.2 lineto
52976.7 30027 lineto
52920.5 29802 lineto
52864.3 29689.5 lineto
52808 29633.3 lineto
52695.5 29577.1 lineto
52583 29577.1 lineto
52470.5 29633.3 lineto
52414.3 29689.5 lineto
52358.1 29802 lineto
52301.8 30027 lineto
52301.8 30308.2 lineto
52358.1 30533.2 lineto
52414.3 30645.7 lineto
52470.5 30701.9 lineto
52583 30758.2 lineto
stroke
newpath
53482.9 29689.5 moveto
53539.2 29633.3 lineto
53482.9 29577.1 lineto
53426.7 29633.3 lineto
53482.9 29689.5 lineto
53482.9 29577.1 lineto
stroke
newpath
54270.3 30758.2 moveto
54382.8 30758.2 lineto
54495.3 30701.9 lineto
54551.5 30645.7 lineto
54607.8 30533.2 lineto
54664 30308.2 lineto
54664 30027 lineto
54607.8 29802 lineto
54551.5 29689.5 lineto
54495.3 29633.3 lineto
54382.8 29577.1 lineto
54270.3 29577.1 lineto
54157.8 29633.3 lineto
54101.6 29689.5 lineto
54045.4 29802 lineto
53989.1 30027 lineto
53989.1 30308.2 lineto
54045.4 30533.2 lineto
54101.6 30645.7 lineto
54157.8 30701.9 lineto
54270.3 30758.2 lineto
stroke
newpath
55732.6 30758.2 moveto
55170.2 30758.2 lineto
55114 30195.7 lineto
55170.2 30252 lineto
55282.7 30308.2 lineto
55563.9 30308.2 lineto
55676.4 30252 lineto
55732.6 30195.7 lineto
55788.9 30083.2 lineto
55788.9 29802 lineto
55732.6 29689.5 lineto
55676.4 29633.3 lineto
55563.9 29577.1 lineto
55282.7 29577.1 lineto
55170.2 29633.3 lineto
55114 29689.5 lineto
stroke
newpath
56857.5 30758.2 moveto
56295.1 30758.2 lineto
56238.8 30195.7 lineto
56295.1 30252 lineto
56407.6 30308.2 lineto
56688.8 30308.2 lineto
56801.3 30252 lineto
56857.5 30195.7 lineto
56913.7 30083.2 lineto
56913.7 29802 lineto
56857.5 29689.5 lineto
56801.3 29633.3 lineto
56688.8 29577.1 lineto
56407.6 29577.1 lineto
56295.1 29633.3 lineto
56238.8 29689.5 lineto
stroke
newpath
57363.7 30758.2 moveto
57363.7 30533.2 lineto
stroke
newpath
57813.6 30758.2 moveto
57813.6 30533.2 lineto
stroke
newpath
59557.2 29127.1 moveto
59500.9 29183.4 lineto
59388.4 29352.1 lineto
59332.2 29464.6 lineto
59275.9 29633.3 lineto
59219.7 29914.5 lineto
59219.7 30139.5 lineto
59275.9 30420.7 lineto
59332.2 30589.4 lineto
59388.4 30701.9 lineto
59500.9 30870.7 lineto
59557.2 30926.9 lineto
stroke
newpath
60625.8 29577.1 moveto
59950.9 29577.1 lineto
stroke
newpath
60288.3 29577.1 moveto
60288.3 30758.2 lineto
60175.8 30589.4 lineto
60063.3 30476.9 lineto
59950.9 30420.7 lineto
stroke
newpath
61694.4 30758.2 moveto
61132 30758.2 lineto
61075.7 30195.7 lineto
61132 30252 lineto
61244.5 30308.2 lineto
61525.7 30308.2 lineto
61638.2 30252 lineto
61694.4 30195.7 lineto
61750.6 30083.2 lineto
61750.6 29802 lineto
61694.4 29689.5 lineto
61638.2 29633.3 lineto
61525.7 29577.1 lineto
61244.5 29577.1 lineto
61132 29633.3 lineto
61075.7 29689.5 lineto
stroke
newpath
63156.7 29577.1 moveto
63156.7 30758.2 lineto
stroke
newpath
63662.9 29577.1 moveto
63662.9 30195.7 lineto
63606.7 30308.2 lineto
63494.2 30364.5 lineto
63325.4 30364.5 lineto
63213 30308.2 lineto
63156.7 30252 lineto
stroke
newpath
64394.1 29577.1 moveto
64281.6 29633.3 lineto
64225.3 29689.5 lineto
64169.1 29802 lineto
64169.1 30139.5 lineto
64225.3 30252 lineto
64281.6 30308.2 lineto
64394.1 30364.5 lineto
64562.8 30364.5 lineto
64675.3 30308.2 lineto
64731.5 30252 lineto
64787.8 30139.5 lineto
64787.8 29802 lineto
64731.5 29689.5 lineto
64675.3 29633.3 lineto
64562.8 29577.1 lineto
64394.1 29577.1 lineto
stroke
newpath
65462.7 29577.1 moveto
65350.2 29633.3 lineto
65293.9 29745.8 lineto
65293.9 30758.2 lineto
stroke
newpath
66362.6 29633.3 moveto
66250.1 29577.1 lineto
66025.1 29577.1 lineto
65912.6 29633.3 lineto
65856.4 29745.8 lineto
65856.4 30195.7 lineto
65912.6 30308.2 lineto
66025.1 30364.5 lineto
66250.1 30364.5 lineto
66362.6 30308.2 lineto
66418.8 30195.7 lineto
66418.8 30083.2 lineto
65856.4 29970.8 lineto
stroke
newpath
66868.7 29633.3 moveto
66981.2 29577.1 lineto
67206.2 29577.1 lineto
67318.7 29633.3 lineto
67374.9 29745.8 lineto
67374.9 29802 lineto
67318.7 29914.5 lineto
67206.2 29970.8 lineto
67037.5 29970.8 lineto
66925 30027 lineto
66868.7 30139.5 lineto
66868.7 30195.7 lineto
66925 30308.2 lineto
67037.5 30364.5 lineto
67206.2 30364.5 lineto
67318.7 30308.2 lineto
stroke
newpath
67768.6 29127.1 moveto
67824.9 29183.4 lineto
67937.4 29352.1 lineto
67993.6 29464.6 lineto
68049.8 29633.3 lineto
68106.1 29914.5 lineto
68106.1 30139.5 lineto
68049.8 30420.7 lineto
67993.6 30589.4 lineto
67937.4 30701.9 lineto
67824.9 30870.7 lineto
67768.6 30926.9 lineto
stroke
newpath
41005 28307 moveto
41005 28797.6 lineto
40514.4 28797.6 lineto
40514.4 28307 lineto
41005 28307 lineto
poly0
0 0 0 setrgbcolor
0 0 0 setrgbcolor
newpath
42853 28018 moveto
42178.1 28018 lineto
stroke
newpath
42515.5 28018 moveto
42515.5 29199.1 lineto
42403.1 29030.4 lineto
42290.6 28917.9 lineto
42178.1 28861.7 lineto
stroke
newpath
43359.2 28130.5 moveto
43415.4 28074.3 lineto
43359.2 28018 lineto
43302.9 28074.3 lineto
43359.2 28130.5 lineto
43359.2 28018 lineto
stroke
newpath
44484 29199.1 moveto
43921.6 29199.1 lineto
43865.4 28636.7 lineto
43921.6 28692.9 lineto
44034.1 28749.2 lineto
44315.3 28749.2 lineto
44427.8 28692.9 lineto
44484 28636.7 lineto
44540.3 28524.2 lineto
44540.3 28243 lineto
44484 28130.5 lineto
44427.8 28074.3 lineto
44315.3 28018 lineto
44034.1 28018 lineto
43921.6 28074.3 lineto
43865.4 28130.5 lineto
stroke
newpath
45271.5 29199.1 moveto
45383.9 29199.1 lineto
45496.4 29142.9 lineto
45552.7 29086.6 lineto
45608.9 28974.1 lineto
45665.2 28749.2 lineto
45665.2 28468 lineto
45608.9 28243 lineto
45552.7 28130.5 lineto
45496.4 28074.3 lineto
45383.9 28018 lineto
45271.5 28018 lineto
45159 28074.3 lineto
45102.7 28130.5 lineto
45046.5 28243 lineto
44990.2 28468 lineto
44990.2 28749.2 lineto
45046.5 28974.1 lineto
45102.7 29086.6 lineto
45159 29142.9 lineto
45271.5 29199.1 lineto
stroke
newpath
46171.3 28018 moveto
46171.3 28805.4 lineto
stroke
newpath
46171.3 28692.9 moveto
46227.6 28749.2 lineto
46340.1 28805.4 lineto
46508.8 28805.4 lineto
46621.3 28749.2 lineto
46677.5 28636.7 lineto
46677.5 28018 lineto
stroke
newpath
46677.5 28636.7 moveto
46733.8 28749.2 lineto
46846.3 28805.4 lineto
47015 28805.4 lineto
47127.5 28749.2 lineto
47183.7 28636.7 lineto
47183.7 28018 lineto
stroke
newpath
47746.1 28018 moveto
47746.1 28805.4 lineto
stroke
newpath
47746.1 28692.9 moveto
47802.4 28749.2 lineto
47914.9 28805.4 lineto
48083.6 28805.4 lineto
48196.1 28749.2 lineto
48252.3 28636.7 lineto
48252.3 28018 lineto
stroke
newpath
48252.3 28636.7 moveto
48308.6 28749.2 lineto
48421.1 28805.4 lineto
48589.8 28805.4 lineto
48702.3 28749.2 lineto
48758.5 28636.7 lineto
48758.5 28018 lineto
stroke
newpath
51064.5 29255.4 moveto
50052.1 27736.8 lineto
stroke
newpath
52583 29199.1 moveto
52695.5 29199.1 lineto
52808 29142.9 lineto
52864.3 29086.6 lineto
52920.5 28974.1 lineto
52976.7 28749.2 lineto
52976.7 28468 lineto
52920.5 28243 lineto
52864.3 28130.5 lineto
52808 28074.3 lineto
52695.5 28018 lineto
52583 28018 lineto
52470.5 28074.3 lineto
52414.3 28130.5 lineto
52358.1 28243 lineto
52301.8 28468 lineto
52301.8 28749.2 lineto
52358.1 28974.1 lineto
52414.3 29086.6 lineto
52470.5 29142.9 lineto
52583 29199.1 lineto
stroke
newpath
53482.9 28130.5 moveto
53539.2 28074.3 lineto
53482.9 28018 lineto
53426.7 28074.3 lineto
53482.9 28130.5 lineto
53482.9 28018 lineto
stroke
newpath
54270.3 29199.1 moveto
54382.8 29199.1 lineto
54495.3 29142.9 lineto
54551.5 29086.6 lineto
54607.8 28974.1 lineto
54664 28749.2 lineto
54664 28468 lineto
54607.8 28243 lineto
54551.5 28130.5 lineto
54495.3 28074.3 lineto
54382.8 28018 lineto
54270.3 28018 lineto
54157.8 28074.3 lineto
54101.6 28130.5 lineto
54045.4 28243 lineto
53989.1 28468 lineto
53989.1 28749.2 lineto
54045.4 28974.1 lineto
54101.6 29086.6 lineto
54157.8 29142.9 lineto
54270.3 29199.1 lineto
stroke
newpath
55732.6 29199.1 moveto
55170.2 29199.1 lineto
55114 28636.7 lineto
55170.2 28692.9 lineto
55282.7 28749.2 lineto
55563.9 28749.2 lineto
55676.4 28692.9 lineto
55732.6 28636.7 lineto
55788.9 28524.2 lineto
55788.9 28243 lineto
55732.6 28130.5 lineto
55676.4 28074.3 lineto
55563.9 28018 lineto
55282.7 28018 lineto
55170.2 28074.3 lineto
55114 28130.5 lineto
stroke
newpath
56351.3 28018 moveto
56576.3 28018 lineto
56688.8 28074.3 lineto
56745 28130.5 lineto
56857.5 28299.2 lineto
56913.7 28524.2 lineto
56913.7 28974.1 lineto
56857.5 29086.6 lineto
56801.3 29142.9 lineto
56688.8 29199.1 lineto
56463.8 29199.1 lineto
56351.3 29142.9 lineto
56295.1 29086.6 lineto
56238.8 28974.1 lineto
56238.8 28692.9 lineto
56295.1 28580.4 lineto
56351.3 28524.2 lineto
56463.8 28468 lineto
56688.8 28468 lineto
56801.3 28524.2 lineto
56857.5 28580.4 lineto
56913.7 28692.9 lineto
stroke
newpath
57363.7 29199.1 moveto
57363.7 28974.1 lineto
stroke
newpath
57813.6 29199.1 moveto
57813.6 28974.1 lineto
stroke
newpath
59557.2 27568.1 moveto
59500.9 27624.3 lineto
59388.4 27793 lineto
59332.2 27905.5 lineto
59275.9 28074.3 lineto
59219.7 28355.5 lineto
59219.7 28580.4 lineto
59275.9 28861.7 lineto
59332.2 29030.4 lineto
59388.4 29142.9 lineto
59500.9 29311.6 lineto
59557.2 29367.8 lineto
stroke
newpath
60569.5 29199.1 moveto
60007.1 29199.1 lineto
59950.9 28636.7 lineto
60007.1 28692.9 lineto
60119.6 28749.2 lineto
60400.8 28749.2 lineto
60513.3 28692.9 lineto
60569.5 28636.7 lineto
60625.8 28524.2 lineto
60625.8 28243 lineto
60569.5 28130.5 lineto
60513.3 28074.3 lineto
60400.8 28018 lineto
60119.6 28018 lineto
60007.1 28074.3 lineto
59950.9 28130.5 lineto
stroke
newpath
62031.9 28018 moveto
62031.9 29199.1 lineto
stroke
newpath
62538 28018 moveto
62538 28636.7 lineto
62481.8 28749.2 lineto
62369.3 28805.4 lineto
62200.6 28805.4 lineto
62088.1 28749.2 lineto
62031.9 28692.9 lineto
stroke
newpath
63269.2 28018 moveto
63156.7 28074.3 lineto
63100.5 28130.5 lineto
63044.2 28243 lineto
63044.2 28580.4 lineto
63100.5 28692.9 lineto
63156.7 28749.2 lineto
63269.2 28805.4 lineto
63437.9 28805.4 lineto
63550.4 28749.2 lineto
63606.7 28692.9 lineto
63662.9 28580.4 lineto
63662.9 28243 lineto
63606.7 28130.5 lineto
63550.4 28074.3 lineto
63437.9 28018 lineto
63269.2 28018 lineto
stroke
newpath
64337.8 28018 moveto
64225.3 28074.3 lineto
64169.1 28186.7 lineto
64169.1 29199.1 lineto
stroke
newpath
65237.7 28074.3 moveto
65125.2 28018 lineto
64900.2 28018 lineto
64787.8 28074.3 lineto
64731.5 28186.7 lineto
64731.5 28636.7 lineto
64787.8 28749.2 lineto
64900.2 28805.4 lineto
65125.2 28805.4 lineto
65237.7 28749.2 lineto
65293.9 28636.7 lineto
65293.9 28524.2 lineto
64731.5 28411.7 lineto
stroke
newpath
65743.9 28074.3 moveto
65856.4 28018 lineto
66081.3 28018 lineto
66193.8 28074.3 lineto
66250.1 28186.7 lineto
66250.1 28243 lineto
66193.8 28355.5 lineto
66081.3 28411.7 lineto
65912.6 28411.7 lineto
65800.1 28468 lineto
65743.9 28580.4 lineto
65743.9 28636.7 lineto
65800.1 28749.2 lineto
65912.6 28805.4 lineto
66081.3 28805.4 lineto
66193.8 28749.2 lineto
stroke
newpath
66643.8 27568.1 moveto
66700 27624.3 lineto
66812.5 27793 lineto
66868.7 27905.5 lineto
66925 28074.3 lineto
66981.2 28355.5 lineto
66981.2 28580.4 lineto
66925 28861.7 lineto
66868.7 29030.4 lineto
66812.5 29142.9 lineto
66700 29311.6 lineto
66643.8 29367.8 lineto
stroke
newpath
40644.1 26530.7 moveto
41106.7 26993.3 lineto
40644.1 27455.8 lineto
40181.5 26993.3 lineto
40644.1 26530.7 lineto
poly0
0 0 0 setrgbcolor
0 0 0 setrgbcolor
newpath
42178.1 27527.6 moveto
42234.3 27583.8 lineto
42346.8 27640.1 lineto
42628 27640.1 lineto
42740.5 27583.8 lineto
42796.8 27527.6 lineto
42853 27415.1 lineto
42853 27302.6 lineto
42796.8 27133.9 lineto
42121.8 26459 lineto
42853 26459 lineto
stroke
newpath
43359.2 26571.4 moveto
43415.4 26515.2 lineto
43359.2 26459 lineto
43302.9 26515.2 lineto
43359.2 26571.4 lineto
43359.2 26459 lineto
stroke
newpath
44146.6 27640.1 moveto
44259.1 27640.1 lineto
44371.6 27583.8 lineto
44427.8 27527.6 lineto
44484 27415.1 lineto
44540.3 27190.1 lineto
44540.3 26908.9 lineto
44484 26683.9 lineto
44427.8 26571.4 lineto
44371.6 26515.2 lineto
44259.1 26459 lineto
44146.6 26459 lineto
44034.1 26515.2 lineto
43977.9 26571.4 lineto
43921.6 26683.9 lineto
43865.4 26908.9 lineto
43865.4 27190.1 lineto
43921.6 27415.1 lineto
43977.9 27527.6 lineto
44034.1 27583.8 lineto
44146.6 27640.1 lineto
stroke
newpath
45271.5 27640.1 moveto
45383.9 27640.1 lineto
45496.4 27583.8 lineto
45552.7 27527.6 lineto
45608.9 27415.1 lineto
45665.2 27190.1 lineto
45665.2 26908.9 lineto
45608.9 26683.9 lineto
45552.7 26571.4 lineto
45496.4 26515.2 lineto
45383.9 26459 lineto
45271.5 26459 lineto
45159 26515.2 lineto
45102.7 26571.4 lineto
45046.5 26683.9 lineto
44990.2 26908.9 lineto
44990.2 27190.1 lineto
45046.5 27415.1 lineto
45102.7 27527.6 lineto
45159 27583.8 lineto
45271.5 27640.1 lineto
stroke
newpath
46171.3 26459 moveto
46171.3 27246.4 lineto
stroke
newpath
46171.3 27133.9 moveto
46227.6 27190.1 lineto
46340.1 27246.4 lineto
46508.8 27246.4 lineto
46621.3 27190.1 lineto
46677.5 27077.6 lineto
46677.5 26459 lineto
stroke
newpath
46677.5 27077.6 moveto
46733.8 27190.1 lineto
46846.3 27246.4 lineto
47015 27246.4 lineto
47127.5 27190.1 lineto
47183.7 27077.6 lineto
47183.7 26459 lineto
stroke
newpath
47746.1 26459 moveto
47746.1 27246.4 lineto
stroke
newpath
47746.1 27133.9 moveto
47802.4 27190.1 lineto
47914.9 27246.4 lineto
48083.6 27246.4 lineto
48196.1 27190.1 lineto
48252.3 27077.6 lineto
48252.3 26459 lineto
stroke
newpath
48252.3 27077.6 moveto
48308.6 27190.1 lineto
48421.1 27246.4 lineto
48589.8 27246.4 lineto
48702.3 27190.1 lineto
48758.5 27077.6 lineto
48758.5 26459 lineto
stroke
newpath
51064.5 27696.3 moveto
50052.1 26177.7 lineto
stroke
newpath
52583 27640.1 moveto
52695.5 27640.1 lineto
52808 27583.8 lineto
52864.3 27527.6 lineto
52920.5 27415.1 lineto
52976.7 27190.1 lineto
52976.7 26908.9 lineto
52920.5 26683.9 lineto
52864.3 26571.4 lineto
52808 26515.2 lineto
52695.5 26459 lineto
52583 26459 lineto
52470.5 26515.2 lineto
52414.3 26571.4 lineto
52358.1 26683.9 lineto
52301.8 26908.9 lineto
52301.8 27190.1 lineto
52358.1 27415.1 lineto
52414.3 27527.6 lineto
52470.5 27583.8 lineto
52583 27640.1 lineto
stroke
newpath
53482.9 26571.4 moveto
53539.2 26515.2 lineto
53482.9 26459 lineto
53426.7 26515.2 lineto
53482.9 26571.4 lineto
53482.9 26459 lineto
stroke
newpath
54270.3 27640.1 moveto
54382.8 27640.1 lineto
54495.3 27583.8 lineto
54551.5 27527.6 lineto
54607.8 27415.1 lineto
54664 27190.1 lineto
54664 26908.9 lineto
54607.8 26683.9 lineto
54551.5 26571.4 lineto
54495.3 26515.2 lineto
54382.8 26459 lineto
54270.3 26459 lineto
54157.8 26515.2 lineto
54101.6 26571.4 lineto
54045.4 26683.9 lineto
53989.1 26908.9 lineto
53989.1 27190.1 lineto
54045.4 27415.1 lineto
54101.6 27527.6 lineto
54157.8 27583.8 lineto
54270.3 27640.1 lineto
stroke
newpath
55057.7 27640.1 moveto
55845.1 27640.1 lineto
55338.9 26459 lineto
stroke
newpath
56351.3 26459 moveto
56576.3 26459 lineto
56688.8 26515.2 lineto
56745 26571.4 lineto
56857.5 26740.2 lineto
56913.7 26965.1 lineto
56913.7 27415.1 lineto
56857.5 27527.6 lineto
56801.3 27583.8 lineto
56688.8 27640.1 lineto
56463.8 27640.1 lineto
56351.3 27583.8 lineto
56295.1 27527.6 lineto
56238.8 27415.1 lineto
56238.8 27133.9 lineto
56295.1 27021.4 lineto
56351.3 26965.1 lineto
56463.8 26908.9 lineto
56688.8 26908.9 lineto
56801.3 26965.1 lineto
56857.5 27021.4 lineto
56913.7 27133.9 lineto
stroke
newpath
57363.7 27640.1 moveto
57363.7 27415.1 lineto
stroke
newpath
57813.6 27640.1 moveto
57813.6 27415.1 lineto
stroke
newpath
59557.2 26009 moveto
59500.9 26065.3 lineto
59388.4 26234 lineto
59332.2 26346.5 lineto
59275.9 26515.2 lineto
59219.7 26796.4 lineto
59219.7 27021.4 lineto
59275.9 27302.6 lineto
59332.2 27471.3 lineto
59388.4 27583.8 lineto
59500.9 27752.5 lineto
59557.2 27808.8 lineto
stroke
newpath
59894.6 27640.1 moveto
60682 27640.1 lineto
60175.8 26459 lineto
stroke
newpath
62031.9 26459 moveto
62031.9 27640.1 lineto
stroke
newpath
62538 26459 moveto
62538 27077.6 lineto
62481.8 27190.1 lineto
62369.3 27246.4 lineto
62200.6 27246.4 lineto
62088.1 27190.1 lineto
62031.9 27133.9 lineto
stroke
newpath
63269.2 26459 moveto
63156.7 26515.2 lineto
63100.5 26571.4 lineto
63044.2 26683.9 lineto
63044.2 27021.4 lineto
63100.5 27133.9 lineto
63156.7 27190.1 lineto
63269.2 27246.4 lineto
63437.9 27246.4 lineto
63550.4 27190.1 lineto
63606.7 27133.9 lineto
63662.9 27021.4 lineto
63662.9 26683.9 lineto
63606.7 26571.4 lineto
63550.4 26515.2 lineto
63437.9 26459 lineto
63269.2 26459 lineto
stroke
newpath
64337.8 26459 moveto
64225.3 26515.2 lineto
64169.1 26627.7 lineto
64169.1 27640.1 lineto
stroke
newpath
65237.7 26515.2 moveto
65125.2 26459 lineto
64900.2 26459 lineto
64787.8 26515.2 lineto
64731.5 26627.7 lineto
64731.5 27077.6 lineto
64787.8 27190.1 lineto
64900.2 27246.4 lineto
65125.2 27246.4 lineto
65237.7 27190.1 lineto
65293.9 27077.6 lineto
65293.9 26965.1 lineto
64731.5 26852.7 lineto
stroke
newpath
65743.9 26515.2 moveto
65856.4 26459 lineto
66081.3 26459 lineto
66193.8 26515.2 lineto
66250.1 26627.7 lineto
66250.1 26683.9 lineto
66193.8 26796.4 lineto
66081.3 26852.7 lineto
65912.6 26852.7 lineto
65800.1 26908.9 lineto
65743.9 27021.4 lineto
65743.9 27077.6 lineto
65800.1 27190.1 lineto
65912.6 27246.4 lineto
66081.3 27246.4 lineto
66193.8 27190.1 lineto
stroke
newpath
66643.8 26009 moveto
66700 26065.3 lineto
66812.5 26234 lineto
66868.7 26346.5 lineto
66925 26515.2 lineto
66981.2 26796.4 lineto
66981.2 27021.4 lineto
66925 27302.6 lineto
66868.7 27471.3 lineto
66812.5 27583.8 lineto
66700 27752.5 lineto
66643.8 27808.8 lineto
stroke
showpage
grestore
%%EOF
