G04 #@! TF.GenerationSoftware,KiCad,Pcbnew,5.1.4-e60b266~84~ubuntu18.04.1*
G04 #@! TF.CreationDate,2019-10-13T19:11:13+02:00*
G04 #@! TF.ProjectId,carte_fleche_droite,63617274-655f-4666-9c65-6368655f6472,A*
G04 #@! TF.SameCoordinates,Original*
G04 #@! TF.FileFunction,Copper,L3,Inr*
G04 #@! TF.FilePolarity,Positive*
%FSLAX46Y46*%
G04 Gerber Fmt 4.6, Leading zero omitted, Abs format (unit mm)*
G04 Created by KiCad (PCBNEW 5.1.4-e60b266~84~ubuntu18.04.1) date 2019-10-13 19:11:13*
%MOMM*%
%LPD*%
G04 APERTURE LIST*
%ADD10C,0.150000*%
%ADD11C,0.010000*%
%ADD12C,3.000000*%
%ADD13C,2.800000*%
%ADD14C,1.000000*%
%ADD15C,1.000000*%
%ADD16C,0.100000*%
%ADD17C,0.800000*%
%ADD18C,3.500000*%
%ADD19C,0.250000*%
G04 APERTURE END LIST*
D10*
X200000000Y-161500000D02*
X196500000Y-161500000D01*
X196500000Y-156500000D02*
X200000000Y-156500000D01*
X196500000Y-161500000D02*
X196500000Y-156500000D01*
X196952380Y-158833333D02*
X196952380Y-158214285D01*
X197333333Y-158547619D01*
X197333333Y-158404761D01*
X197380952Y-158309523D01*
X197428571Y-158261904D01*
X197523809Y-158214285D01*
X197761904Y-158214285D01*
X197857142Y-158261904D01*
X197904761Y-158309523D01*
X197952380Y-158404761D01*
X197952380Y-158690476D01*
X197904761Y-158785714D01*
X197857142Y-158833333D01*
D11*
G36*
X200500000Y-159000000D02*
G01*
X198500000Y-159000000D01*
X198500000Y-158000000D01*
X200500000Y-158000000D01*
X200500000Y-159000000D01*
G37*
X200500000Y-159000000D02*
X198500000Y-159000000D01*
X198500000Y-158000000D01*
X200500000Y-158000000D01*
X200500000Y-159000000D01*
D12*
X186793998Y-114461881D03*
D13*
X184493096Y-105874801D03*
X179586193Y-107189601D03*
X189400000Y-104560000D03*
D12*
X167673998Y-119584881D03*
D13*
X165373096Y-110997801D03*
X160466193Y-112312601D03*
X170280000Y-109683000D03*
D12*
X191923998Y-133583881D03*
D13*
X189623096Y-124996801D03*
X184716193Y-126311601D03*
X194530000Y-123682000D03*
D12*
X172801998Y-138710881D03*
D13*
X170501096Y-130123801D03*
X165594193Y-131438601D03*
X175408000Y-128809000D03*
D12*
X139158998Y-116976881D03*
D13*
X136858096Y-108389801D03*
X131951193Y-109704601D03*
X141765000Y-107075000D03*
D14*
X147748576Y-91518500D03*
D15*
X147748576Y-91518500D02*
X147748576Y-91518500D01*
D14*
X148848428Y-92153500D03*
D15*
X148848428Y-92153500D02*
X148848428Y-92153500D01*
D14*
X154378000Y-95346000D03*
D16*
G36*
X154194987Y-94662987D02*
G01*
X155061013Y-95162987D01*
X154561013Y-96029013D01*
X153694987Y-95529013D01*
X154194987Y-94662987D01*
X154194987Y-94662987D01*
G37*
D14*
X151048132Y-93423500D03*
D15*
X151048132Y-93423500D02*
X151048132Y-93423500D01*
D14*
X145548871Y-90248500D03*
D15*
X145548871Y-90248500D02*
X145548871Y-90248500D01*
D14*
X149948280Y-92788500D03*
D15*
X149948280Y-92788500D02*
X149948280Y-92788500D01*
D14*
X152147985Y-94058500D03*
D15*
X152147985Y-94058500D02*
X152147985Y-94058500D01*
D14*
X153247837Y-94693500D03*
D15*
X153247837Y-94693500D02*
X153247837Y-94693500D01*
D14*
X146648723Y-90883500D03*
D15*
X146648723Y-90883500D02*
X146648723Y-90883500D01*
D14*
X144449019Y-89613500D03*
D15*
X144449019Y-89613500D02*
X144449019Y-89613500D01*
D17*
X161410000Y-105810000D03*
X157230000Y-105280000D03*
X156810000Y-106860000D03*
X162815000Y-107390000D03*
X140120000Y-94960000D03*
X155803849Y-96500000D03*
X159267950Y-98500000D03*
X142928202Y-88999998D03*
X139464101Y-86999999D03*
X129500000Y-87535899D03*
X127500000Y-91000000D03*
X126500000Y-95000000D03*
X130646182Y-130500000D03*
X134110283Y-132500000D03*
X137574384Y-134500000D03*
X141038485Y-136500000D03*
X144502586Y-138500000D03*
X147966687Y-140500000D03*
X151430788Y-142500000D03*
X154894889Y-144500000D03*
X158358990Y-146500000D03*
X161823091Y-148500000D03*
X165287192Y-150500000D03*
X168751293Y-152500000D03*
X172215394Y-154500000D03*
X175679495Y-156500000D03*
X179143596Y-158500000D03*
X182607697Y-160500000D03*
X186071798Y-162500000D03*
X189535899Y-164500000D03*
D18*
X198000000Y-102000000D03*
X184000000Y-142000000D03*
X197500000Y-167000000D03*
X150000000Y-125000000D03*
X128000000Y-126500000D03*
X132500000Y-84500000D03*
X162000000Y-102000000D03*
D17*
X151150000Y-96225000D03*
X147660000Y-94195000D03*
X132260000Y-116900000D03*
X185045000Y-133485000D03*
X179920000Y-114435000D03*
X199000000Y-106000000D03*
X199000000Y-110000000D03*
X199000000Y-114000000D03*
X199000000Y-118000000D03*
X199000000Y-122000000D03*
X199000000Y-126000000D03*
X199000000Y-130000000D03*
X199000000Y-134000000D03*
X199000000Y-138000000D03*
X199000000Y-142000000D03*
X199000000Y-146000000D03*
X199000000Y-150000000D03*
X199000000Y-154000000D03*
X195500000Y-157000000D03*
X193000000Y-162500000D03*
X199000000Y-163000000D03*
X194000000Y-101000000D03*
X190000000Y-101000000D03*
X186000000Y-101000000D03*
X182000000Y-101000000D03*
X178000000Y-101000000D03*
X174000000Y-101000000D03*
X170000000Y-101000000D03*
X166000000Y-101000000D03*
X136000000Y-85000000D03*
X126000000Y-99000000D03*
X126000000Y-103000000D03*
X126000000Y-107000000D03*
X126000000Y-111000000D03*
X126000000Y-115000000D03*
X126000000Y-119000000D03*
X126000000Y-123000000D03*
X193000000Y-166500000D03*
X195500000Y-161000000D03*
X190500000Y-160000000D03*
X188250000Y-157000000D03*
X194500000Y-154500000D03*
X197250000Y-151000000D03*
X183500000Y-154750000D03*
X196750000Y-145750000D03*
X196750000Y-139500000D03*
X193500000Y-142250000D03*
X193750000Y-148750000D03*
X188750000Y-145500000D03*
X186750000Y-149000000D03*
X177750000Y-151500000D03*
X172500000Y-148750000D03*
X167250000Y-145750000D03*
X181250000Y-146500000D03*
X176500000Y-142500000D03*
X190000000Y-138750000D03*
X182750000Y-137500000D03*
X181750000Y-134000000D03*
X178750000Y-130000000D03*
X181750000Y-125250000D03*
X195500000Y-132750000D03*
X192500000Y-126000000D03*
X191750000Y-121250000D03*
X185495000Y-121055000D03*
X196000000Y-120500000D03*
X195000000Y-117500000D03*
X191500000Y-116250000D03*
X185500000Y-117500000D03*
X195000000Y-113000000D03*
X197250000Y-107500000D03*
X194250000Y-102750000D03*
X194000000Y-107250000D03*
X190750000Y-111000000D03*
X180250000Y-119000000D03*
X175000000Y-120750000D03*
X175250000Y-125750000D03*
X170000000Y-122250000D03*
X175000000Y-116250000D03*
X178250000Y-111750000D03*
X173500000Y-110250000D03*
X177000000Y-105250000D03*
X170000000Y-106500000D03*
X167000000Y-104750000D03*
X156500000Y-99000000D03*
X158750000Y-101250000D03*
X158000000Y-109750000D03*
X147250000Y-97500000D03*
X144805000Y-92725000D03*
X141500000Y-97250000D03*
X143000000Y-100500000D03*
X146000000Y-103500000D03*
X140500000Y-103250000D03*
X152750000Y-107500000D03*
X147500000Y-109250000D03*
X140000000Y-109500000D03*
X150500000Y-114000000D03*
X159000000Y-115250000D03*
X142000000Y-114500000D03*
X139250000Y-94250000D03*
X139750000Y-90750000D03*
X136250000Y-88750000D03*
X130750000Y-90500000D03*
X134500000Y-92750000D03*
X133500000Y-98250000D03*
X130250000Y-96000000D03*
X129250000Y-101250000D03*
X129500000Y-121250000D03*
X133250000Y-127000000D03*
X140500000Y-131750000D03*
X137750000Y-120750000D03*
X145500000Y-120000000D03*
X142500000Y-125000000D03*
X147000000Y-136500000D03*
X152750000Y-137000000D03*
X157250000Y-140500000D03*
X162000000Y-143000000D03*
X158000000Y-132000000D03*
X161250000Y-137000000D03*
X148500000Y-127500000D03*
X161000000Y-129000000D03*
X163500000Y-124250000D03*
X158750000Y-121250000D03*
X154000000Y-125250000D03*
X154750000Y-116500000D03*
X150250000Y-120500000D03*
X156645000Y-103955000D03*
X152715000Y-99965000D03*
X162955000Y-108655000D03*
X148805000Y-100985000D03*
X152210000Y-104585000D03*
D19*
G36*
X143881861Y-88882335D02*
G01*
X143791781Y-88956262D01*
X143676189Y-89097111D01*
X143590296Y-89257805D01*
X143537404Y-89432168D01*
X143519544Y-89613500D01*
X143537404Y-89794832D01*
X143590296Y-89969195D01*
X143676189Y-90129889D01*
X143791781Y-90270738D01*
X143932630Y-90386330D01*
X144093324Y-90472223D01*
X144267687Y-90525115D01*
X144403584Y-90538500D01*
X144494454Y-90538500D01*
X144630351Y-90525115D01*
X144663142Y-90515168D01*
X144690148Y-90604195D01*
X144776041Y-90764889D01*
X144891633Y-90905738D01*
X145032482Y-91021330D01*
X145193176Y-91107223D01*
X145367539Y-91160115D01*
X145503436Y-91173500D01*
X145594306Y-91173500D01*
X145730203Y-91160115D01*
X145762994Y-91150168D01*
X145790000Y-91239195D01*
X145875893Y-91399889D01*
X145991485Y-91540738D01*
X146132334Y-91656330D01*
X146293028Y-91742223D01*
X146467391Y-91795115D01*
X146603288Y-91808500D01*
X146694158Y-91808500D01*
X146830055Y-91795115D01*
X146862847Y-91785168D01*
X146889853Y-91874195D01*
X146975746Y-92034889D01*
X147091338Y-92175738D01*
X147232187Y-92291330D01*
X147392881Y-92377223D01*
X147567244Y-92430115D01*
X147703141Y-92443500D01*
X147794011Y-92443500D01*
X147867708Y-92436241D01*
X147883745Y-92499946D01*
X147969869Y-92681490D01*
X148089757Y-92842743D01*
X148111047Y-92865463D01*
X148297692Y-92857403D01*
X148677675Y-92199253D01*
X148660354Y-92189253D01*
X148785354Y-91972747D01*
X148802675Y-91982747D01*
X148812675Y-91965426D01*
X149029181Y-92090426D01*
X149019181Y-92107747D01*
X149036502Y-92117747D01*
X148911502Y-92334253D01*
X148894181Y-92324253D01*
X148514198Y-92982403D01*
X148600540Y-93148072D01*
X148630861Y-93155150D01*
X148830455Y-93178349D01*
X149030738Y-93162163D01*
X149090135Y-93145277D01*
X149175450Y-93304889D01*
X149291042Y-93445738D01*
X149431891Y-93561330D01*
X149592585Y-93647223D01*
X149766948Y-93700115D01*
X149902845Y-93713500D01*
X149993715Y-93713500D01*
X150129612Y-93700115D01*
X150162403Y-93690168D01*
X150189409Y-93779195D01*
X150275302Y-93939889D01*
X150390894Y-94080738D01*
X150531743Y-94196330D01*
X150692437Y-94282223D01*
X150866800Y-94335115D01*
X151002697Y-94348500D01*
X151093567Y-94348500D01*
X151167265Y-94341241D01*
X151183302Y-94404946D01*
X151269426Y-94586490D01*
X151389314Y-94747743D01*
X151410604Y-94770463D01*
X151597249Y-94762403D01*
X151977232Y-94104253D01*
X151959911Y-94094253D01*
X152084911Y-93877747D01*
X152102232Y-93887747D01*
X152112232Y-93870426D01*
X152328738Y-93995426D01*
X152318738Y-94012747D01*
X152336059Y-94022747D01*
X152211059Y-94239253D01*
X152193738Y-94229253D01*
X151813755Y-94887403D01*
X151900097Y-95053072D01*
X151930418Y-95060150D01*
X152130012Y-95083349D01*
X152330295Y-95067163D01*
X152389692Y-95050277D01*
X152475007Y-95209889D01*
X152590599Y-95350738D01*
X152731448Y-95466330D01*
X152892142Y-95552223D01*
X153066505Y-95605115D01*
X153202402Y-95618500D01*
X153279009Y-95618500D01*
X153282483Y-95639543D01*
X153311972Y-95717895D01*
X153356181Y-95788988D01*
X153413410Y-95850091D01*
X153481459Y-95898854D01*
X154347485Y-96398854D01*
X154423740Y-96433405D01*
X154505271Y-96452415D01*
X154588944Y-96455155D01*
X154671543Y-96441517D01*
X154749895Y-96412028D01*
X154820988Y-96367819D01*
X154882091Y-96310590D01*
X154930854Y-96242541D01*
X155355637Y-95506796D01*
X163781046Y-100371262D01*
X163786784Y-100375971D01*
X163819376Y-100393392D01*
X163832141Y-100400762D01*
X163838858Y-100403806D01*
X163864959Y-100417757D01*
X163879146Y-100422061D01*
X163892649Y-100428179D01*
X163921464Y-100434898D01*
X163949785Y-100443489D01*
X163964542Y-100444942D01*
X163978976Y-100448308D01*
X164008542Y-100449276D01*
X164015895Y-100450000D01*
X164030667Y-100450000D01*
X164067571Y-100451208D01*
X164074888Y-100450000D01*
X199550001Y-100450000D01*
X199550000Y-156000000D01*
X196524560Y-156000000D01*
X196500000Y-155997581D01*
X196475440Y-156000000D01*
X196401983Y-156007235D01*
X196307733Y-156035825D01*
X196220871Y-156082254D01*
X196144736Y-156144736D01*
X196082254Y-156220871D01*
X196035825Y-156307733D01*
X196007235Y-156401983D01*
X195997581Y-156500000D01*
X196000001Y-156524570D01*
X196000000Y-161475440D01*
X195997581Y-161500000D01*
X196007235Y-161598017D01*
X196035825Y-161692267D01*
X196082254Y-161779129D01*
X196144736Y-161855264D01*
X196220871Y-161917746D01*
X196307733Y-161964175D01*
X196401983Y-161992765D01*
X196500000Y-162002419D01*
X196524560Y-162000000D01*
X199550000Y-162000000D01*
X199550000Y-170789777D01*
X169821150Y-153625845D01*
X169821143Y-153625840D01*
X143659292Y-138521285D01*
X170876998Y-138521285D01*
X170876998Y-138900477D01*
X170950975Y-139272383D01*
X171096085Y-139622710D01*
X171306753Y-139937997D01*
X171574882Y-140206126D01*
X171890169Y-140416794D01*
X172240496Y-140561904D01*
X172612402Y-140635881D01*
X172991594Y-140635881D01*
X173363500Y-140561904D01*
X173713827Y-140416794D01*
X174029114Y-140206126D01*
X174297243Y-139937997D01*
X174507911Y-139622710D01*
X174653021Y-139272383D01*
X174726998Y-138900477D01*
X174726998Y-138521285D01*
X174653021Y-138149379D01*
X174507911Y-137799052D01*
X174297243Y-137483765D01*
X174029114Y-137215636D01*
X173713827Y-137004968D01*
X173363500Y-136859858D01*
X172991594Y-136785881D01*
X172612402Y-136785881D01*
X172240496Y-136859858D01*
X171890169Y-137004968D01*
X171574882Y-137215636D01*
X171306753Y-137483765D01*
X171096085Y-137799052D01*
X170950975Y-138149379D01*
X170876998Y-138521285D01*
X143659292Y-138521285D01*
X137561268Y-135000589D01*
X165380294Y-135000589D01*
X165380294Y-135236969D01*
X165426410Y-135468806D01*
X165516868Y-135687192D01*
X165648193Y-135883734D01*
X165815339Y-136050880D01*
X166011881Y-136182205D01*
X166230267Y-136272663D01*
X166462104Y-136318779D01*
X166698484Y-136318779D01*
X166930321Y-136272663D01*
X167148707Y-136182205D01*
X167345249Y-136050880D01*
X167512395Y-135883734D01*
X167643720Y-135687192D01*
X167734178Y-135468806D01*
X167780294Y-135236969D01*
X167780294Y-135000589D01*
X167734178Y-134768752D01*
X167643720Y-134550366D01*
X167512395Y-134353824D01*
X167345249Y-134186678D01*
X167148707Y-134055353D01*
X166930321Y-133964895D01*
X166698484Y-133918779D01*
X166462104Y-133918779D01*
X166230267Y-133964895D01*
X166011881Y-134055353D01*
X165815339Y-134186678D01*
X165648193Y-134353824D01*
X165516868Y-134550366D01*
X165426410Y-134768752D01*
X165380294Y-135000589D01*
X137561268Y-135000589D01*
X135194406Y-133634080D01*
X169762197Y-133634080D01*
X169762197Y-133973876D01*
X169828487Y-134307142D01*
X169958521Y-134621072D01*
X170147302Y-134903602D01*
X170387573Y-135143873D01*
X170670103Y-135332654D01*
X170984033Y-135462688D01*
X171317299Y-135528978D01*
X171657095Y-135528978D01*
X171990361Y-135462688D01*
X172304291Y-135332654D01*
X172586821Y-135143873D01*
X172827092Y-134903602D01*
X173015873Y-134621072D01*
X173145907Y-134307142D01*
X173212197Y-133973876D01*
X173212197Y-133634080D01*
X173145907Y-133300814D01*
X173015873Y-132986884D01*
X172827092Y-132704354D01*
X172586821Y-132464083D01*
X172447494Y-132370987D01*
X175194100Y-132370987D01*
X175194100Y-132607367D01*
X175240216Y-132839204D01*
X175330674Y-133057590D01*
X175461999Y-133254132D01*
X175629145Y-133421278D01*
X175825687Y-133552603D01*
X176044073Y-133643061D01*
X176275910Y-133689177D01*
X176512290Y-133689177D01*
X176744127Y-133643061D01*
X176962513Y-133552603D01*
X177159055Y-133421278D01*
X177186048Y-133394285D01*
X189998998Y-133394285D01*
X189998998Y-133773477D01*
X190072975Y-134145383D01*
X190218085Y-134495710D01*
X190428753Y-134810997D01*
X190696882Y-135079126D01*
X191012169Y-135289794D01*
X191362496Y-135434904D01*
X191734402Y-135508881D01*
X192113594Y-135508881D01*
X192485500Y-135434904D01*
X192835827Y-135289794D01*
X193151114Y-135079126D01*
X193419243Y-134810997D01*
X193629911Y-134495710D01*
X193775021Y-134145383D01*
X193848998Y-133773477D01*
X193848998Y-133394285D01*
X193775021Y-133022379D01*
X193629911Y-132672052D01*
X193419243Y-132356765D01*
X193151114Y-132088636D01*
X192835827Y-131877968D01*
X192485500Y-131732858D01*
X192113594Y-131658881D01*
X191734402Y-131658881D01*
X191362496Y-131732858D01*
X191012169Y-131877968D01*
X190696882Y-132088636D01*
X190428753Y-132356765D01*
X190218085Y-132672052D01*
X190072975Y-133022379D01*
X189998998Y-133394285D01*
X177186048Y-133394285D01*
X177326201Y-133254132D01*
X177457526Y-133057590D01*
X177547984Y-132839204D01*
X177594100Y-132607367D01*
X177594100Y-132370987D01*
X177547984Y-132139150D01*
X177457526Y-131920764D01*
X177326201Y-131724222D01*
X177159055Y-131557076D01*
X176962513Y-131425751D01*
X176744127Y-131335293D01*
X176512290Y-131289177D01*
X176275910Y-131289177D01*
X176044073Y-131335293D01*
X175825687Y-131425751D01*
X175629145Y-131557076D01*
X175461999Y-131724222D01*
X175330674Y-131920764D01*
X175240216Y-132139150D01*
X175194100Y-132370987D01*
X172447494Y-132370987D01*
X172304291Y-132275302D01*
X171990361Y-132145268D01*
X171657095Y-132078978D01*
X171317299Y-132078978D01*
X170984033Y-132145268D01*
X170670103Y-132275302D01*
X170387573Y-132464083D01*
X170147302Y-132704354D01*
X169958521Y-132986884D01*
X169828487Y-133300814D01*
X169762197Y-133634080D01*
X135194406Y-133634080D01*
X131080394Y-131258854D01*
X163769193Y-131258854D01*
X163769193Y-131618348D01*
X163839327Y-131970934D01*
X163976899Y-132303062D01*
X164176623Y-132601970D01*
X164430824Y-132856171D01*
X164729732Y-133055895D01*
X165061860Y-133193467D01*
X165414446Y-133263601D01*
X165773940Y-133263601D01*
X166126526Y-133193467D01*
X166458654Y-133055895D01*
X166757562Y-132856171D01*
X167011763Y-132601970D01*
X167211487Y-132303062D01*
X167349059Y-131970934D01*
X167419193Y-131618348D01*
X167419193Y-131258854D01*
X167349059Y-130906268D01*
X167211487Y-130574140D01*
X167011763Y-130275232D01*
X166757562Y-130021031D01*
X166642358Y-129944054D01*
X168676096Y-129944054D01*
X168676096Y-130303548D01*
X168746230Y-130656134D01*
X168883802Y-130988262D01*
X169083526Y-131287170D01*
X169337727Y-131541371D01*
X169636635Y-131741095D01*
X169968763Y-131878667D01*
X170321349Y-131948801D01*
X170680843Y-131948801D01*
X171033429Y-131878667D01*
X171365557Y-131741095D01*
X171664465Y-131541371D01*
X171918666Y-131287170D01*
X172118390Y-130988262D01*
X172255962Y-130656134D01*
X172326096Y-130303548D01*
X172326096Y-129944054D01*
X172255962Y-129591468D01*
X172118390Y-129259340D01*
X171918666Y-128960432D01*
X171664465Y-128706231D01*
X171549260Y-128629253D01*
X173583000Y-128629253D01*
X173583000Y-128988747D01*
X173653134Y-129341333D01*
X173790706Y-129673461D01*
X173990430Y-129972369D01*
X174244631Y-130226570D01*
X174543539Y-130426294D01*
X174875667Y-130563866D01*
X175228253Y-130634000D01*
X175587747Y-130634000D01*
X175940333Y-130563866D01*
X176272461Y-130426294D01*
X176571369Y-130226570D01*
X176825570Y-129972369D01*
X176891572Y-129873589D01*
X184502294Y-129873589D01*
X184502294Y-130109969D01*
X184548410Y-130341806D01*
X184638868Y-130560192D01*
X184770193Y-130756734D01*
X184937339Y-130923880D01*
X185133881Y-131055205D01*
X185352267Y-131145663D01*
X185584104Y-131191779D01*
X185820484Y-131191779D01*
X186052321Y-131145663D01*
X186270707Y-131055205D01*
X186467249Y-130923880D01*
X186634395Y-130756734D01*
X186765720Y-130560192D01*
X186856178Y-130341806D01*
X186902294Y-130109969D01*
X186902294Y-129873589D01*
X186856178Y-129641752D01*
X186765720Y-129423366D01*
X186634395Y-129226824D01*
X186467249Y-129059678D01*
X186270707Y-128928353D01*
X186052321Y-128837895D01*
X185820484Y-128791779D01*
X185584104Y-128791779D01*
X185352267Y-128837895D01*
X185133881Y-128928353D01*
X184937339Y-129059678D01*
X184770193Y-129226824D01*
X184638868Y-129423366D01*
X184548410Y-129641752D01*
X184502294Y-129873589D01*
X176891572Y-129873589D01*
X177025294Y-129673461D01*
X177162866Y-129341333D01*
X177233000Y-128988747D01*
X177233000Y-128629253D01*
X177208699Y-128507080D01*
X188884197Y-128507080D01*
X188884197Y-128846876D01*
X188950487Y-129180142D01*
X189080521Y-129494072D01*
X189269302Y-129776602D01*
X189509573Y-130016873D01*
X189792103Y-130205654D01*
X190106033Y-130335688D01*
X190439299Y-130401978D01*
X190779095Y-130401978D01*
X191112361Y-130335688D01*
X191426291Y-130205654D01*
X191708821Y-130016873D01*
X191949092Y-129776602D01*
X192137873Y-129494072D01*
X192267907Y-129180142D01*
X192334197Y-128846876D01*
X192334197Y-128507080D01*
X192267907Y-128173814D01*
X192137873Y-127859884D01*
X191949092Y-127577354D01*
X191708821Y-127337083D01*
X191569494Y-127243987D01*
X194316100Y-127243987D01*
X194316100Y-127480367D01*
X194362216Y-127712204D01*
X194452674Y-127930590D01*
X194583999Y-128127132D01*
X194751145Y-128294278D01*
X194947687Y-128425603D01*
X195166073Y-128516061D01*
X195397910Y-128562177D01*
X195634290Y-128562177D01*
X195866127Y-128516061D01*
X196084513Y-128425603D01*
X196281055Y-128294278D01*
X196448201Y-128127132D01*
X196579526Y-127930590D01*
X196669984Y-127712204D01*
X196716100Y-127480367D01*
X196716100Y-127243987D01*
X196669984Y-127012150D01*
X196579526Y-126793764D01*
X196448201Y-126597222D01*
X196281055Y-126430076D01*
X196084513Y-126298751D01*
X195866127Y-126208293D01*
X195634290Y-126162177D01*
X195397910Y-126162177D01*
X195166073Y-126208293D01*
X194947687Y-126298751D01*
X194751145Y-126430076D01*
X194583999Y-126597222D01*
X194452674Y-126793764D01*
X194362216Y-127012150D01*
X194316100Y-127243987D01*
X191569494Y-127243987D01*
X191426291Y-127148302D01*
X191112361Y-127018268D01*
X190779095Y-126951978D01*
X190439299Y-126951978D01*
X190106033Y-127018268D01*
X189792103Y-127148302D01*
X189509573Y-127337083D01*
X189269302Y-127577354D01*
X189080521Y-127859884D01*
X188950487Y-128173814D01*
X188884197Y-128507080D01*
X177208699Y-128507080D01*
X177162866Y-128276667D01*
X177025294Y-127944539D01*
X176825570Y-127645631D01*
X176571369Y-127391430D01*
X176272461Y-127191706D01*
X175940333Y-127054134D01*
X175587747Y-126984000D01*
X175228253Y-126984000D01*
X174875667Y-127054134D01*
X174543539Y-127191706D01*
X174244631Y-127391430D01*
X173990430Y-127645631D01*
X173790706Y-127944539D01*
X173653134Y-128276667D01*
X173583000Y-128629253D01*
X171549260Y-128629253D01*
X171365557Y-128506507D01*
X171033429Y-128368935D01*
X170680843Y-128298801D01*
X170321349Y-128298801D01*
X169968763Y-128368935D01*
X169636635Y-128506507D01*
X169337727Y-128706231D01*
X169083526Y-128960432D01*
X168883802Y-129259340D01*
X168746230Y-129591468D01*
X168676096Y-129944054D01*
X166642358Y-129944054D01*
X166458654Y-129821307D01*
X166126526Y-129683735D01*
X165773940Y-129613601D01*
X165414446Y-129613601D01*
X165061860Y-129683735D01*
X164729732Y-129821307D01*
X164430824Y-130021031D01*
X164176623Y-130275232D01*
X163976899Y-130574140D01*
X163839327Y-130906268D01*
X163769193Y-131258854D01*
X131080394Y-131258854D01*
X125450000Y-128008144D01*
X125450000Y-126131854D01*
X182891193Y-126131854D01*
X182891193Y-126491348D01*
X182961327Y-126843934D01*
X183098899Y-127176062D01*
X183298623Y-127474970D01*
X183552824Y-127729171D01*
X183851732Y-127928895D01*
X184183860Y-128066467D01*
X184536446Y-128136601D01*
X184895940Y-128136601D01*
X185248526Y-128066467D01*
X185580654Y-127928895D01*
X185879562Y-127729171D01*
X186133763Y-127474970D01*
X186333487Y-127176062D01*
X186471059Y-126843934D01*
X186541193Y-126491348D01*
X186541193Y-126131854D01*
X186471059Y-125779268D01*
X186333487Y-125447140D01*
X186133763Y-125148232D01*
X185879562Y-124894031D01*
X185764358Y-124817054D01*
X187798096Y-124817054D01*
X187798096Y-125176548D01*
X187868230Y-125529134D01*
X188005802Y-125861262D01*
X188205526Y-126160170D01*
X188459727Y-126414371D01*
X188758635Y-126614095D01*
X189090763Y-126751667D01*
X189443349Y-126821801D01*
X189802843Y-126821801D01*
X190155429Y-126751667D01*
X190487557Y-126614095D01*
X190786465Y-126414371D01*
X191040666Y-126160170D01*
X191240390Y-125861262D01*
X191377962Y-125529134D01*
X191448096Y-125176548D01*
X191448096Y-124817054D01*
X191377962Y-124464468D01*
X191240390Y-124132340D01*
X191040666Y-123833432D01*
X190786465Y-123579231D01*
X190671260Y-123502253D01*
X192705000Y-123502253D01*
X192705000Y-123861747D01*
X192775134Y-124214333D01*
X192912706Y-124546461D01*
X193112430Y-124845369D01*
X193366631Y-125099570D01*
X193665539Y-125299294D01*
X193997667Y-125436866D01*
X194350253Y-125507000D01*
X194709747Y-125507000D01*
X195062333Y-125436866D01*
X195394461Y-125299294D01*
X195693369Y-125099570D01*
X195947570Y-124845369D01*
X196147294Y-124546461D01*
X196284866Y-124214333D01*
X196355000Y-123861747D01*
X196355000Y-123502253D01*
X196284866Y-123149667D01*
X196147294Y-122817539D01*
X195947570Y-122518631D01*
X195693369Y-122264430D01*
X195394461Y-122064706D01*
X195062333Y-121927134D01*
X194709747Y-121857000D01*
X194350253Y-121857000D01*
X193997667Y-121927134D01*
X193665539Y-122064706D01*
X193366631Y-122264430D01*
X193112430Y-122518631D01*
X192912706Y-122817539D01*
X192775134Y-123149667D01*
X192705000Y-123502253D01*
X190671260Y-123502253D01*
X190487557Y-123379507D01*
X190155429Y-123241935D01*
X189802843Y-123171801D01*
X189443349Y-123171801D01*
X189090763Y-123241935D01*
X188758635Y-123379507D01*
X188459727Y-123579231D01*
X188205526Y-123833432D01*
X188005802Y-124132340D01*
X187868230Y-124464468D01*
X187798096Y-124817054D01*
X185764358Y-124817054D01*
X185580654Y-124694307D01*
X185248526Y-124556735D01*
X184895940Y-124486601D01*
X184536446Y-124486601D01*
X184183860Y-124556735D01*
X183851732Y-124694307D01*
X183552824Y-124894031D01*
X183298623Y-125148232D01*
X183098899Y-125447140D01*
X182961327Y-125779268D01*
X182891193Y-126131854D01*
X125450000Y-126131854D01*
X125450000Y-119395285D01*
X165748998Y-119395285D01*
X165748998Y-119774477D01*
X165822975Y-120146383D01*
X165968085Y-120496710D01*
X166178753Y-120811997D01*
X166446882Y-121080126D01*
X166762169Y-121290794D01*
X167112496Y-121435904D01*
X167484402Y-121509881D01*
X167863594Y-121509881D01*
X168235500Y-121435904D01*
X168585827Y-121290794D01*
X168901114Y-121080126D01*
X169169243Y-120811997D01*
X169379911Y-120496710D01*
X169525021Y-120146383D01*
X169598998Y-119774477D01*
X169598998Y-119395285D01*
X169525021Y-119023379D01*
X169379911Y-118673052D01*
X169169243Y-118357765D01*
X168901114Y-118089636D01*
X168585827Y-117878968D01*
X168235500Y-117733858D01*
X167863594Y-117659881D01*
X167484402Y-117659881D01*
X167112496Y-117733858D01*
X166762169Y-117878968D01*
X166446882Y-118089636D01*
X166178753Y-118357765D01*
X165968085Y-118673052D01*
X165822975Y-119023379D01*
X165748998Y-119395285D01*
X125450000Y-119395285D01*
X125450000Y-116787285D01*
X137233998Y-116787285D01*
X137233998Y-117166477D01*
X137307975Y-117538383D01*
X137453085Y-117888710D01*
X137663753Y-118203997D01*
X137931882Y-118472126D01*
X138247169Y-118682794D01*
X138597496Y-118827904D01*
X138969402Y-118901881D01*
X139348594Y-118901881D01*
X139720500Y-118827904D01*
X140070827Y-118682794D01*
X140386114Y-118472126D01*
X140654243Y-118203997D01*
X140864911Y-117888710D01*
X141010021Y-117538383D01*
X141083998Y-117166477D01*
X141083998Y-116787285D01*
X141010021Y-116415379D01*
X140864911Y-116065052D01*
X140737648Y-115874589D01*
X160252294Y-115874589D01*
X160252294Y-116110969D01*
X160298410Y-116342806D01*
X160388868Y-116561192D01*
X160520193Y-116757734D01*
X160687339Y-116924880D01*
X160883881Y-117056205D01*
X161102267Y-117146663D01*
X161334104Y-117192779D01*
X161570484Y-117192779D01*
X161802321Y-117146663D01*
X162020707Y-117056205D01*
X162217249Y-116924880D01*
X162384395Y-116757734D01*
X162515720Y-116561192D01*
X162606178Y-116342806D01*
X162652294Y-116110969D01*
X162652294Y-115874589D01*
X162606178Y-115642752D01*
X162515720Y-115424366D01*
X162384395Y-115227824D01*
X162217249Y-115060678D01*
X162020707Y-114929353D01*
X161802321Y-114838895D01*
X161570484Y-114792779D01*
X161334104Y-114792779D01*
X161102267Y-114838895D01*
X160883881Y-114929353D01*
X160687339Y-115060678D01*
X160520193Y-115227824D01*
X160388868Y-115424366D01*
X160298410Y-115642752D01*
X160252294Y-115874589D01*
X140737648Y-115874589D01*
X140654243Y-115749765D01*
X140386114Y-115481636D01*
X140070827Y-115270968D01*
X139720500Y-115125858D01*
X139348594Y-115051881D01*
X138969402Y-115051881D01*
X138597496Y-115125858D01*
X138247169Y-115270968D01*
X137931882Y-115481636D01*
X137663753Y-115749765D01*
X137453085Y-116065052D01*
X137307975Y-116415379D01*
X137233998Y-116787285D01*
X125450000Y-116787285D01*
X125450000Y-113266589D01*
X131737294Y-113266589D01*
X131737294Y-113502969D01*
X131783410Y-113734806D01*
X131873868Y-113953192D01*
X132005193Y-114149734D01*
X132172339Y-114316880D01*
X132368881Y-114448205D01*
X132587267Y-114538663D01*
X132819104Y-114584779D01*
X133055484Y-114584779D01*
X133287321Y-114538663D01*
X133361155Y-114508080D01*
X164634197Y-114508080D01*
X164634197Y-114847876D01*
X164700487Y-115181142D01*
X164830521Y-115495072D01*
X165019302Y-115777602D01*
X165259573Y-116017873D01*
X165542103Y-116206654D01*
X165856033Y-116336688D01*
X166189299Y-116402978D01*
X166529095Y-116402978D01*
X166862361Y-116336688D01*
X167176291Y-116206654D01*
X167458821Y-116017873D01*
X167699092Y-115777602D01*
X167887873Y-115495072D01*
X168017907Y-115181142D01*
X168084197Y-114847876D01*
X168084197Y-114508080D01*
X168017907Y-114174814D01*
X167887873Y-113860884D01*
X167699092Y-113578354D01*
X167458821Y-113338083D01*
X167319494Y-113244987D01*
X170066100Y-113244987D01*
X170066100Y-113481367D01*
X170112216Y-113713204D01*
X170202674Y-113931590D01*
X170333999Y-114128132D01*
X170501145Y-114295278D01*
X170697687Y-114426603D01*
X170916073Y-114517061D01*
X171147910Y-114563177D01*
X171384290Y-114563177D01*
X171616127Y-114517061D01*
X171834513Y-114426603D01*
X172031055Y-114295278D01*
X172054048Y-114272285D01*
X184868998Y-114272285D01*
X184868998Y-114651477D01*
X184942975Y-115023383D01*
X185088085Y-115373710D01*
X185298753Y-115688997D01*
X185566882Y-115957126D01*
X185882169Y-116167794D01*
X186232496Y-116312904D01*
X186604402Y-116386881D01*
X186983594Y-116386881D01*
X187355500Y-116312904D01*
X187705827Y-116167794D01*
X188021114Y-115957126D01*
X188289243Y-115688997D01*
X188499911Y-115373710D01*
X188645021Y-115023383D01*
X188718998Y-114651477D01*
X188718998Y-114272285D01*
X188645021Y-113900379D01*
X188499911Y-113550052D01*
X188289243Y-113234765D01*
X188021114Y-112966636D01*
X187705827Y-112755968D01*
X187355500Y-112610858D01*
X186983594Y-112536881D01*
X186604402Y-112536881D01*
X186232496Y-112610858D01*
X185882169Y-112755968D01*
X185566882Y-112966636D01*
X185298753Y-113234765D01*
X185088085Y-113550052D01*
X184942975Y-113900379D01*
X184868998Y-114272285D01*
X172054048Y-114272285D01*
X172198201Y-114128132D01*
X172329526Y-113931590D01*
X172419984Y-113713204D01*
X172466100Y-113481367D01*
X172466100Y-113244987D01*
X172419984Y-113013150D01*
X172329526Y-112794764D01*
X172198201Y-112598222D01*
X172031055Y-112431076D01*
X171834513Y-112299751D01*
X171616127Y-112209293D01*
X171384290Y-112163177D01*
X171147910Y-112163177D01*
X170916073Y-112209293D01*
X170697687Y-112299751D01*
X170501145Y-112431076D01*
X170333999Y-112598222D01*
X170202674Y-112794764D01*
X170112216Y-113013150D01*
X170066100Y-113244987D01*
X167319494Y-113244987D01*
X167176291Y-113149302D01*
X166862361Y-113019268D01*
X166529095Y-112952978D01*
X166189299Y-112952978D01*
X165856033Y-113019268D01*
X165542103Y-113149302D01*
X165259573Y-113338083D01*
X165019302Y-113578354D01*
X164830521Y-113860884D01*
X164700487Y-114174814D01*
X164634197Y-114508080D01*
X133361155Y-114508080D01*
X133505707Y-114448205D01*
X133702249Y-114316880D01*
X133869395Y-114149734D01*
X134000720Y-113953192D01*
X134091178Y-113734806D01*
X134137294Y-113502969D01*
X134137294Y-113266589D01*
X134091178Y-113034752D01*
X134000720Y-112816366D01*
X133869395Y-112619824D01*
X133702249Y-112452678D01*
X133505707Y-112321353D01*
X133287321Y-112230895D01*
X133055484Y-112184779D01*
X132819104Y-112184779D01*
X132587267Y-112230895D01*
X132368881Y-112321353D01*
X132172339Y-112452678D01*
X132005193Y-112619824D01*
X131873868Y-112816366D01*
X131783410Y-113034752D01*
X131737294Y-113266589D01*
X125450000Y-113266589D01*
X125450000Y-111900080D01*
X136119197Y-111900080D01*
X136119197Y-112239876D01*
X136185487Y-112573142D01*
X136315521Y-112887072D01*
X136504302Y-113169602D01*
X136744573Y-113409873D01*
X137027103Y-113598654D01*
X137341033Y-113728688D01*
X137674299Y-113794978D01*
X138014095Y-113794978D01*
X138347361Y-113728688D01*
X138661291Y-113598654D01*
X138943821Y-113409873D01*
X139184092Y-113169602D01*
X139372873Y-112887072D01*
X139502907Y-112573142D01*
X139569197Y-112239876D01*
X139569197Y-112132854D01*
X158641193Y-112132854D01*
X158641193Y-112492348D01*
X158711327Y-112844934D01*
X158848899Y-113177062D01*
X159048623Y-113475970D01*
X159302824Y-113730171D01*
X159601732Y-113929895D01*
X159933860Y-114067467D01*
X160286446Y-114137601D01*
X160645940Y-114137601D01*
X160998526Y-114067467D01*
X161330654Y-113929895D01*
X161629562Y-113730171D01*
X161883763Y-113475970D01*
X162083487Y-113177062D01*
X162221059Y-112844934D01*
X162291193Y-112492348D01*
X162291193Y-112132854D01*
X162221059Y-111780268D01*
X162083487Y-111448140D01*
X161883763Y-111149232D01*
X161629562Y-110895031D01*
X161514358Y-110818054D01*
X163548096Y-110818054D01*
X163548096Y-111177548D01*
X163618230Y-111530134D01*
X163755802Y-111862262D01*
X163955526Y-112161170D01*
X164209727Y-112415371D01*
X164508635Y-112615095D01*
X164840763Y-112752667D01*
X165193349Y-112822801D01*
X165552843Y-112822801D01*
X165905429Y-112752667D01*
X166237557Y-112615095D01*
X166536465Y-112415371D01*
X166790666Y-112161170D01*
X166990390Y-111862262D01*
X167127962Y-111530134D01*
X167198096Y-111177548D01*
X167198096Y-110818054D01*
X167127962Y-110465468D01*
X166990390Y-110133340D01*
X166790666Y-109834432D01*
X166536465Y-109580231D01*
X166421260Y-109503253D01*
X168455000Y-109503253D01*
X168455000Y-109862747D01*
X168525134Y-110215333D01*
X168662706Y-110547461D01*
X168862430Y-110846369D01*
X169116631Y-111100570D01*
X169415539Y-111300294D01*
X169747667Y-111437866D01*
X170100253Y-111508000D01*
X170459747Y-111508000D01*
X170812333Y-111437866D01*
X171144461Y-111300294D01*
X171443369Y-111100570D01*
X171697570Y-110846369D01*
X171760899Y-110751589D01*
X179372294Y-110751589D01*
X179372294Y-110987969D01*
X179418410Y-111219806D01*
X179508868Y-111438192D01*
X179640193Y-111634734D01*
X179807339Y-111801880D01*
X180003881Y-111933205D01*
X180222267Y-112023663D01*
X180454104Y-112069779D01*
X180690484Y-112069779D01*
X180922321Y-112023663D01*
X181140707Y-111933205D01*
X181337249Y-111801880D01*
X181504395Y-111634734D01*
X181635720Y-111438192D01*
X181726178Y-111219806D01*
X181772294Y-110987969D01*
X181772294Y-110751589D01*
X181726178Y-110519752D01*
X181635720Y-110301366D01*
X181504395Y-110104824D01*
X181337249Y-109937678D01*
X181140707Y-109806353D01*
X180922321Y-109715895D01*
X180690484Y-109669779D01*
X180454104Y-109669779D01*
X180222267Y-109715895D01*
X180003881Y-109806353D01*
X179807339Y-109937678D01*
X179640193Y-110104824D01*
X179508868Y-110301366D01*
X179418410Y-110519752D01*
X179372294Y-110751589D01*
X171760899Y-110751589D01*
X171897294Y-110547461D01*
X172034866Y-110215333D01*
X172105000Y-109862747D01*
X172105000Y-109503253D01*
X172081494Y-109385080D01*
X183754197Y-109385080D01*
X183754197Y-109724876D01*
X183820487Y-110058142D01*
X183950521Y-110372072D01*
X184139302Y-110654602D01*
X184379573Y-110894873D01*
X184662103Y-111083654D01*
X184976033Y-111213688D01*
X185309299Y-111279978D01*
X185649095Y-111279978D01*
X185982361Y-111213688D01*
X186296291Y-111083654D01*
X186578821Y-110894873D01*
X186819092Y-110654602D01*
X187007873Y-110372072D01*
X187137907Y-110058142D01*
X187204197Y-109724876D01*
X187204197Y-109385080D01*
X187137907Y-109051814D01*
X187007873Y-108737884D01*
X186819092Y-108455354D01*
X186578821Y-108215083D01*
X186439494Y-108121987D01*
X189186100Y-108121987D01*
X189186100Y-108358367D01*
X189232216Y-108590204D01*
X189322674Y-108808590D01*
X189453999Y-109005132D01*
X189621145Y-109172278D01*
X189817687Y-109303603D01*
X190036073Y-109394061D01*
X190267910Y-109440177D01*
X190504290Y-109440177D01*
X190736127Y-109394061D01*
X190954513Y-109303603D01*
X191151055Y-109172278D01*
X191318201Y-109005132D01*
X191449526Y-108808590D01*
X191539984Y-108590204D01*
X191586100Y-108358367D01*
X191586100Y-108121987D01*
X191539984Y-107890150D01*
X191449526Y-107671764D01*
X191318201Y-107475222D01*
X191151055Y-107308076D01*
X190954513Y-107176751D01*
X190736127Y-107086293D01*
X190504290Y-107040177D01*
X190267910Y-107040177D01*
X190036073Y-107086293D01*
X189817687Y-107176751D01*
X189621145Y-107308076D01*
X189453999Y-107475222D01*
X189322674Y-107671764D01*
X189232216Y-107890150D01*
X189186100Y-108121987D01*
X186439494Y-108121987D01*
X186296291Y-108026302D01*
X185982361Y-107896268D01*
X185649095Y-107829978D01*
X185309299Y-107829978D01*
X184976033Y-107896268D01*
X184662103Y-108026302D01*
X184379573Y-108215083D01*
X184139302Y-108455354D01*
X183950521Y-108737884D01*
X183820487Y-109051814D01*
X183754197Y-109385080D01*
X172081494Y-109385080D01*
X172034866Y-109150667D01*
X171897294Y-108818539D01*
X171697570Y-108519631D01*
X171443369Y-108265430D01*
X171144461Y-108065706D01*
X170812333Y-107928134D01*
X170459747Y-107858000D01*
X170100253Y-107858000D01*
X169747667Y-107928134D01*
X169415539Y-108065706D01*
X169116631Y-108265430D01*
X168862430Y-108519631D01*
X168662706Y-108818539D01*
X168525134Y-109150667D01*
X168455000Y-109503253D01*
X166421260Y-109503253D01*
X166237557Y-109380507D01*
X165905429Y-109242935D01*
X165552843Y-109172801D01*
X165193349Y-109172801D01*
X164840763Y-109242935D01*
X164508635Y-109380507D01*
X164209727Y-109580231D01*
X163955526Y-109834432D01*
X163755802Y-110133340D01*
X163618230Y-110465468D01*
X163548096Y-110818054D01*
X161514358Y-110818054D01*
X161330654Y-110695307D01*
X160998526Y-110557735D01*
X160645940Y-110487601D01*
X160286446Y-110487601D01*
X159933860Y-110557735D01*
X159601732Y-110695307D01*
X159302824Y-110895031D01*
X159048623Y-111149232D01*
X158848899Y-111448140D01*
X158711327Y-111780268D01*
X158641193Y-112132854D01*
X139569197Y-112132854D01*
X139569197Y-111900080D01*
X139502907Y-111566814D01*
X139372873Y-111252884D01*
X139184092Y-110970354D01*
X138943821Y-110730083D01*
X138804494Y-110636987D01*
X141551100Y-110636987D01*
X141551100Y-110873367D01*
X141597216Y-111105204D01*
X141687674Y-111323590D01*
X141818999Y-111520132D01*
X141986145Y-111687278D01*
X142182687Y-111818603D01*
X142401073Y-111909061D01*
X142632910Y-111955177D01*
X142869290Y-111955177D01*
X143101127Y-111909061D01*
X143319513Y-111818603D01*
X143516055Y-111687278D01*
X143683201Y-111520132D01*
X143814526Y-111323590D01*
X143904984Y-111105204D01*
X143951100Y-110873367D01*
X143951100Y-110636987D01*
X143904984Y-110405150D01*
X143814526Y-110186764D01*
X143683201Y-109990222D01*
X143516055Y-109823076D01*
X143319513Y-109691751D01*
X143101127Y-109601293D01*
X142869290Y-109555177D01*
X142632910Y-109555177D01*
X142401073Y-109601293D01*
X142182687Y-109691751D01*
X141986145Y-109823076D01*
X141818999Y-109990222D01*
X141687674Y-110186764D01*
X141597216Y-110405150D01*
X141551100Y-110636987D01*
X138804494Y-110636987D01*
X138661291Y-110541302D01*
X138347361Y-110411268D01*
X138014095Y-110344978D01*
X137674299Y-110344978D01*
X137341033Y-110411268D01*
X137027103Y-110541302D01*
X136744573Y-110730083D01*
X136504302Y-110970354D01*
X136315521Y-111252884D01*
X136185487Y-111566814D01*
X136119197Y-111900080D01*
X125450000Y-111900080D01*
X125450000Y-109524854D01*
X130126193Y-109524854D01*
X130126193Y-109884348D01*
X130196327Y-110236934D01*
X130333899Y-110569062D01*
X130533623Y-110867970D01*
X130787824Y-111122171D01*
X131086732Y-111321895D01*
X131418860Y-111459467D01*
X131771446Y-111529601D01*
X132130940Y-111529601D01*
X132483526Y-111459467D01*
X132815654Y-111321895D01*
X133114562Y-111122171D01*
X133368763Y-110867970D01*
X133568487Y-110569062D01*
X133706059Y-110236934D01*
X133776193Y-109884348D01*
X133776193Y-109524854D01*
X133706059Y-109172268D01*
X133568487Y-108840140D01*
X133368763Y-108541232D01*
X133114562Y-108287031D01*
X132999358Y-108210054D01*
X135033096Y-108210054D01*
X135033096Y-108569548D01*
X135103230Y-108922134D01*
X135240802Y-109254262D01*
X135440526Y-109553170D01*
X135694727Y-109807371D01*
X135993635Y-110007095D01*
X136325763Y-110144667D01*
X136678349Y-110214801D01*
X137037843Y-110214801D01*
X137390429Y-110144667D01*
X137722557Y-110007095D01*
X138021465Y-109807371D01*
X138275666Y-109553170D01*
X138475390Y-109254262D01*
X138612962Y-108922134D01*
X138683096Y-108569548D01*
X138683096Y-108210054D01*
X138612962Y-107857468D01*
X138475390Y-107525340D01*
X138275666Y-107226432D01*
X138021465Y-106972231D01*
X137906260Y-106895253D01*
X139940000Y-106895253D01*
X139940000Y-107254747D01*
X140010134Y-107607333D01*
X140147706Y-107939461D01*
X140347430Y-108238369D01*
X140601631Y-108492570D01*
X140900539Y-108692294D01*
X141232667Y-108829866D01*
X141585253Y-108900000D01*
X141944747Y-108900000D01*
X142297333Y-108829866D01*
X142629461Y-108692294D01*
X142928369Y-108492570D01*
X143182570Y-108238369D01*
X143382294Y-107939461D01*
X143519866Y-107607333D01*
X143590000Y-107254747D01*
X143590000Y-106895253D01*
X143566826Y-106778745D01*
X155985000Y-106778745D01*
X155985000Y-106941255D01*
X156016704Y-107100644D01*
X156078894Y-107250784D01*
X156169181Y-107385907D01*
X156284093Y-107500819D01*
X156419216Y-107591106D01*
X156569356Y-107653296D01*
X156728745Y-107685000D01*
X156891255Y-107685000D01*
X157050644Y-107653296D01*
X157200784Y-107591106D01*
X157335907Y-107500819D01*
X157450819Y-107385907D01*
X157502377Y-107308745D01*
X161990000Y-107308745D01*
X161990000Y-107471255D01*
X162021704Y-107630644D01*
X162083894Y-107780784D01*
X162174181Y-107915907D01*
X162289093Y-108030819D01*
X162424216Y-108121106D01*
X162574356Y-108183296D01*
X162733745Y-108215000D01*
X162896255Y-108215000D01*
X163055644Y-108183296D01*
X163205784Y-108121106D01*
X163340907Y-108030819D01*
X163455819Y-107915907D01*
X163546106Y-107780784D01*
X163608296Y-107630644D01*
X163640000Y-107471255D01*
X163640000Y-107308745D01*
X163608296Y-107149356D01*
X163550513Y-107009854D01*
X177761193Y-107009854D01*
X177761193Y-107369348D01*
X177831327Y-107721934D01*
X177968899Y-108054062D01*
X178168623Y-108352970D01*
X178422824Y-108607171D01*
X178721732Y-108806895D01*
X179053860Y-108944467D01*
X179406446Y-109014601D01*
X179765940Y-109014601D01*
X180118526Y-108944467D01*
X180450654Y-108806895D01*
X180749562Y-108607171D01*
X181003763Y-108352970D01*
X181203487Y-108054062D01*
X181341059Y-107721934D01*
X181411193Y-107369348D01*
X181411193Y-107009854D01*
X181341059Y-106657268D01*
X181203487Y-106325140D01*
X181003763Y-106026232D01*
X180749562Y-105772031D01*
X180634358Y-105695054D01*
X182668096Y-105695054D01*
X182668096Y-106054548D01*
X182738230Y-106407134D01*
X182875802Y-106739262D01*
X183075526Y-107038170D01*
X183329727Y-107292371D01*
X183628635Y-107492095D01*
X183960763Y-107629667D01*
X184313349Y-107699801D01*
X184672843Y-107699801D01*
X185025429Y-107629667D01*
X185357557Y-107492095D01*
X185656465Y-107292371D01*
X185910666Y-107038170D01*
X186110390Y-106739262D01*
X186247962Y-106407134D01*
X186318096Y-106054548D01*
X186318096Y-105695054D01*
X186247962Y-105342468D01*
X186110390Y-105010340D01*
X185910666Y-104711432D01*
X185656465Y-104457231D01*
X185541260Y-104380253D01*
X187575000Y-104380253D01*
X187575000Y-104739747D01*
X187645134Y-105092333D01*
X187782706Y-105424461D01*
X187982430Y-105723369D01*
X188236631Y-105977570D01*
X188535539Y-106177294D01*
X188867667Y-106314866D01*
X189220253Y-106385000D01*
X189579747Y-106385000D01*
X189932333Y-106314866D01*
X190264461Y-106177294D01*
X190563369Y-105977570D01*
X190817570Y-105723369D01*
X191017294Y-105424461D01*
X191154866Y-105092333D01*
X191225000Y-104739747D01*
X191225000Y-104380253D01*
X191154866Y-104027667D01*
X191017294Y-103695539D01*
X190817570Y-103396631D01*
X190563369Y-103142430D01*
X190264461Y-102942706D01*
X189932333Y-102805134D01*
X189579747Y-102735000D01*
X189220253Y-102735000D01*
X188867667Y-102805134D01*
X188535539Y-102942706D01*
X188236631Y-103142430D01*
X187982430Y-103396631D01*
X187782706Y-103695539D01*
X187645134Y-104027667D01*
X187575000Y-104380253D01*
X185541260Y-104380253D01*
X185357557Y-104257507D01*
X185025429Y-104119935D01*
X184672843Y-104049801D01*
X184313349Y-104049801D01*
X183960763Y-104119935D01*
X183628635Y-104257507D01*
X183329727Y-104457231D01*
X183075526Y-104711432D01*
X182875802Y-105010340D01*
X182738230Y-105342468D01*
X182668096Y-105695054D01*
X180634358Y-105695054D01*
X180450654Y-105572307D01*
X180118526Y-105434735D01*
X179765940Y-105364601D01*
X179406446Y-105364601D01*
X179053860Y-105434735D01*
X178721732Y-105572307D01*
X178422824Y-105772031D01*
X178168623Y-106026232D01*
X177968899Y-106325140D01*
X177831327Y-106657268D01*
X177761193Y-107009854D01*
X163550513Y-107009854D01*
X163546106Y-106999216D01*
X163455819Y-106864093D01*
X163340907Y-106749181D01*
X163205784Y-106658894D01*
X163055644Y-106596704D01*
X162896255Y-106565000D01*
X162733745Y-106565000D01*
X162574356Y-106596704D01*
X162424216Y-106658894D01*
X162289093Y-106749181D01*
X162174181Y-106864093D01*
X162083894Y-106999216D01*
X162021704Y-107149356D01*
X161990000Y-107308745D01*
X157502377Y-107308745D01*
X157541106Y-107250784D01*
X157603296Y-107100644D01*
X157635000Y-106941255D01*
X157635000Y-106778745D01*
X157603296Y-106619356D01*
X157541106Y-106469216D01*
X157450819Y-106334093D01*
X157335907Y-106219181D01*
X157200784Y-106128894D01*
X157137882Y-106102839D01*
X157148745Y-106105000D01*
X157311255Y-106105000D01*
X157470644Y-106073296D01*
X157620784Y-106011106D01*
X157755907Y-105920819D01*
X157870819Y-105805907D01*
X157922377Y-105728745D01*
X160585000Y-105728745D01*
X160585000Y-105891255D01*
X160616704Y-106050644D01*
X160678894Y-106200784D01*
X160769181Y-106335907D01*
X160884093Y-106450819D01*
X161019216Y-106541106D01*
X161169356Y-106603296D01*
X161328745Y-106635000D01*
X161491255Y-106635000D01*
X161650644Y-106603296D01*
X161800784Y-106541106D01*
X161935907Y-106450819D01*
X162050819Y-106335907D01*
X162141106Y-106200784D01*
X162203296Y-106050644D01*
X162235000Y-105891255D01*
X162235000Y-105728745D01*
X162203296Y-105569356D01*
X162141106Y-105419216D01*
X162050819Y-105284093D01*
X161935907Y-105169181D01*
X161800784Y-105078894D01*
X161650644Y-105016704D01*
X161491255Y-104985000D01*
X161328745Y-104985000D01*
X161169356Y-105016704D01*
X161019216Y-105078894D01*
X160884093Y-105169181D01*
X160769181Y-105284093D01*
X160678894Y-105419216D01*
X160616704Y-105569356D01*
X160585000Y-105728745D01*
X157922377Y-105728745D01*
X157961106Y-105670784D01*
X158023296Y-105520644D01*
X158055000Y-105361255D01*
X158055000Y-105198745D01*
X158023296Y-105039356D01*
X157961106Y-104889216D01*
X157870819Y-104754093D01*
X157755907Y-104639181D01*
X157620784Y-104548894D01*
X157470644Y-104486704D01*
X157311255Y-104455000D01*
X157148745Y-104455000D01*
X156989356Y-104486704D01*
X156839216Y-104548894D01*
X156704093Y-104639181D01*
X156589181Y-104754093D01*
X156498894Y-104889216D01*
X156436704Y-105039356D01*
X156405000Y-105198745D01*
X156405000Y-105361255D01*
X156436704Y-105520644D01*
X156498894Y-105670784D01*
X156589181Y-105805907D01*
X156704093Y-105920819D01*
X156839216Y-106011106D01*
X156902118Y-106037161D01*
X156891255Y-106035000D01*
X156728745Y-106035000D01*
X156569356Y-106066704D01*
X156419216Y-106128894D01*
X156284093Y-106219181D01*
X156169181Y-106334093D01*
X156078894Y-106469216D01*
X156016704Y-106619356D01*
X155985000Y-106778745D01*
X143566826Y-106778745D01*
X143519866Y-106542667D01*
X143382294Y-106210539D01*
X143182570Y-105911631D01*
X142928369Y-105657430D01*
X142629461Y-105457706D01*
X142297333Y-105320134D01*
X141944747Y-105250000D01*
X141585253Y-105250000D01*
X141232667Y-105320134D01*
X140900539Y-105457706D01*
X140601631Y-105657430D01*
X140347430Y-105911631D01*
X140147706Y-106210539D01*
X140010134Y-106542667D01*
X139940000Y-106895253D01*
X137906260Y-106895253D01*
X137722557Y-106772507D01*
X137390429Y-106634935D01*
X137037843Y-106564801D01*
X136678349Y-106564801D01*
X136325763Y-106634935D01*
X135993635Y-106772507D01*
X135694727Y-106972231D01*
X135440526Y-107226432D01*
X135240802Y-107525340D01*
X135103230Y-107857468D01*
X135033096Y-108210054D01*
X132999358Y-108210054D01*
X132815654Y-108087307D01*
X132483526Y-107949735D01*
X132130940Y-107879601D01*
X131771446Y-107879601D01*
X131418860Y-107949735D01*
X131086732Y-108087307D01*
X130787824Y-108287031D01*
X130533623Y-108541232D01*
X130333899Y-108840140D01*
X130196327Y-109172268D01*
X130126193Y-109524854D01*
X125450000Y-109524854D01*
X125450000Y-96273240D01*
X125823652Y-94878745D01*
X139295000Y-94878745D01*
X139295000Y-95041255D01*
X139326704Y-95200644D01*
X139388894Y-95350784D01*
X139479181Y-95485907D01*
X139594093Y-95600819D01*
X139729216Y-95691106D01*
X139879356Y-95753296D01*
X140038745Y-95785000D01*
X140201255Y-95785000D01*
X140360644Y-95753296D01*
X140510784Y-95691106D01*
X140645907Y-95600819D01*
X140760819Y-95485907D01*
X140851106Y-95350784D01*
X140913296Y-95200644D01*
X140945000Y-95041255D01*
X140945000Y-94878745D01*
X140913296Y-94719356D01*
X140851106Y-94569216D01*
X140760819Y-94434093D01*
X140645907Y-94319181D01*
X140510784Y-94228894D01*
X140360644Y-94166704D01*
X140201255Y-94135000D01*
X140038745Y-94135000D01*
X139879356Y-94166704D01*
X139729216Y-94228894D01*
X139594093Y-94319181D01*
X139479181Y-94434093D01*
X139388894Y-94569216D01*
X139326704Y-94719356D01*
X139295000Y-94878745D01*
X125823652Y-94878745D01*
X126919333Y-90789592D01*
X131985717Y-82014016D01*
X143881861Y-88882335D01*
X143881861Y-88882335D01*
G37*
X143881861Y-88882335D02*
X143791781Y-88956262D01*
X143676189Y-89097111D01*
X143590296Y-89257805D01*
X143537404Y-89432168D01*
X143519544Y-89613500D01*
X143537404Y-89794832D01*
X143590296Y-89969195D01*
X143676189Y-90129889D01*
X143791781Y-90270738D01*
X143932630Y-90386330D01*
X144093324Y-90472223D01*
X144267687Y-90525115D01*
X144403584Y-90538500D01*
X144494454Y-90538500D01*
X144630351Y-90525115D01*
X144663142Y-90515168D01*
X144690148Y-90604195D01*
X144776041Y-90764889D01*
X144891633Y-90905738D01*
X145032482Y-91021330D01*
X145193176Y-91107223D01*
X145367539Y-91160115D01*
X145503436Y-91173500D01*
X145594306Y-91173500D01*
X145730203Y-91160115D01*
X145762994Y-91150168D01*
X145790000Y-91239195D01*
X145875893Y-91399889D01*
X145991485Y-91540738D01*
X146132334Y-91656330D01*
X146293028Y-91742223D01*
X146467391Y-91795115D01*
X146603288Y-91808500D01*
X146694158Y-91808500D01*
X146830055Y-91795115D01*
X146862847Y-91785168D01*
X146889853Y-91874195D01*
X146975746Y-92034889D01*
X147091338Y-92175738D01*
X147232187Y-92291330D01*
X147392881Y-92377223D01*
X147567244Y-92430115D01*
X147703141Y-92443500D01*
X147794011Y-92443500D01*
X147867708Y-92436241D01*
X147883745Y-92499946D01*
X147969869Y-92681490D01*
X148089757Y-92842743D01*
X148111047Y-92865463D01*
X148297692Y-92857403D01*
X148677675Y-92199253D01*
X148660354Y-92189253D01*
X148785354Y-91972747D01*
X148802675Y-91982747D01*
X148812675Y-91965426D01*
X149029181Y-92090426D01*
X149019181Y-92107747D01*
X149036502Y-92117747D01*
X148911502Y-92334253D01*
X148894181Y-92324253D01*
X148514198Y-92982403D01*
X148600540Y-93148072D01*
X148630861Y-93155150D01*
X148830455Y-93178349D01*
X149030738Y-93162163D01*
X149090135Y-93145277D01*
X149175450Y-93304889D01*
X149291042Y-93445738D01*
X149431891Y-93561330D01*
X149592585Y-93647223D01*
X149766948Y-93700115D01*
X149902845Y-93713500D01*
X149993715Y-93713500D01*
X150129612Y-93700115D01*
X150162403Y-93690168D01*
X150189409Y-93779195D01*
X150275302Y-93939889D01*
X150390894Y-94080738D01*
X150531743Y-94196330D01*
X150692437Y-94282223D01*
X150866800Y-94335115D01*
X151002697Y-94348500D01*
X151093567Y-94348500D01*
X151167265Y-94341241D01*
X151183302Y-94404946D01*
X151269426Y-94586490D01*
X151389314Y-94747743D01*
X151410604Y-94770463D01*
X151597249Y-94762403D01*
X151977232Y-94104253D01*
X151959911Y-94094253D01*
X152084911Y-93877747D01*
X152102232Y-93887747D01*
X152112232Y-93870426D01*
X152328738Y-93995426D01*
X152318738Y-94012747D01*
X152336059Y-94022747D01*
X152211059Y-94239253D01*
X152193738Y-94229253D01*
X151813755Y-94887403D01*
X151900097Y-95053072D01*
X151930418Y-95060150D01*
X152130012Y-95083349D01*
X152330295Y-95067163D01*
X152389692Y-95050277D01*
X152475007Y-95209889D01*
X152590599Y-95350738D01*
X152731448Y-95466330D01*
X152892142Y-95552223D01*
X153066505Y-95605115D01*
X153202402Y-95618500D01*
X153279009Y-95618500D01*
X153282483Y-95639543D01*
X153311972Y-95717895D01*
X153356181Y-95788988D01*
X153413410Y-95850091D01*
X153481459Y-95898854D01*
X154347485Y-96398854D01*
X154423740Y-96433405D01*
X154505271Y-96452415D01*
X154588944Y-96455155D01*
X154671543Y-96441517D01*
X154749895Y-96412028D01*
X154820988Y-96367819D01*
X154882091Y-96310590D01*
X154930854Y-96242541D01*
X155355637Y-95506796D01*
X163781046Y-100371262D01*
X163786784Y-100375971D01*
X163819376Y-100393392D01*
X163832141Y-100400762D01*
X163838858Y-100403806D01*
X163864959Y-100417757D01*
X163879146Y-100422061D01*
X163892649Y-100428179D01*
X163921464Y-100434898D01*
X163949785Y-100443489D01*
X163964542Y-100444942D01*
X163978976Y-100448308D01*
X164008542Y-100449276D01*
X164015895Y-100450000D01*
X164030667Y-100450000D01*
X164067571Y-100451208D01*
X164074888Y-100450000D01*
X199550001Y-100450000D01*
X199550000Y-156000000D01*
X196524560Y-156000000D01*
X196500000Y-155997581D01*
X196475440Y-156000000D01*
X196401983Y-156007235D01*
X196307733Y-156035825D01*
X196220871Y-156082254D01*
X196144736Y-156144736D01*
X196082254Y-156220871D01*
X196035825Y-156307733D01*
X196007235Y-156401983D01*
X195997581Y-156500000D01*
X196000001Y-156524570D01*
X196000000Y-161475440D01*
X195997581Y-161500000D01*
X196007235Y-161598017D01*
X196035825Y-161692267D01*
X196082254Y-161779129D01*
X196144736Y-161855264D01*
X196220871Y-161917746D01*
X196307733Y-161964175D01*
X196401983Y-161992765D01*
X196500000Y-162002419D01*
X196524560Y-162000000D01*
X199550000Y-162000000D01*
X199550000Y-170789777D01*
X169821150Y-153625845D01*
X169821143Y-153625840D01*
X143659292Y-138521285D01*
X170876998Y-138521285D01*
X170876998Y-138900477D01*
X170950975Y-139272383D01*
X171096085Y-139622710D01*
X171306753Y-139937997D01*
X171574882Y-140206126D01*
X171890169Y-140416794D01*
X172240496Y-140561904D01*
X172612402Y-140635881D01*
X172991594Y-140635881D01*
X173363500Y-140561904D01*
X173713827Y-140416794D01*
X174029114Y-140206126D01*
X174297243Y-139937997D01*
X174507911Y-139622710D01*
X174653021Y-139272383D01*
X174726998Y-138900477D01*
X174726998Y-138521285D01*
X174653021Y-138149379D01*
X174507911Y-137799052D01*
X174297243Y-137483765D01*
X174029114Y-137215636D01*
X173713827Y-137004968D01*
X173363500Y-136859858D01*
X172991594Y-136785881D01*
X172612402Y-136785881D01*
X172240496Y-136859858D01*
X171890169Y-137004968D01*
X171574882Y-137215636D01*
X171306753Y-137483765D01*
X171096085Y-137799052D01*
X170950975Y-138149379D01*
X170876998Y-138521285D01*
X143659292Y-138521285D01*
X137561268Y-135000589D01*
X165380294Y-135000589D01*
X165380294Y-135236969D01*
X165426410Y-135468806D01*
X165516868Y-135687192D01*
X165648193Y-135883734D01*
X165815339Y-136050880D01*
X166011881Y-136182205D01*
X166230267Y-136272663D01*
X166462104Y-136318779D01*
X166698484Y-136318779D01*
X166930321Y-136272663D01*
X167148707Y-136182205D01*
X167345249Y-136050880D01*
X167512395Y-135883734D01*
X167643720Y-135687192D01*
X167734178Y-135468806D01*
X167780294Y-135236969D01*
X167780294Y-135000589D01*
X167734178Y-134768752D01*
X167643720Y-134550366D01*
X167512395Y-134353824D01*
X167345249Y-134186678D01*
X167148707Y-134055353D01*
X166930321Y-133964895D01*
X166698484Y-133918779D01*
X166462104Y-133918779D01*
X166230267Y-133964895D01*
X166011881Y-134055353D01*
X165815339Y-134186678D01*
X165648193Y-134353824D01*
X165516868Y-134550366D01*
X165426410Y-134768752D01*
X165380294Y-135000589D01*
X137561268Y-135000589D01*
X135194406Y-133634080D01*
X169762197Y-133634080D01*
X169762197Y-133973876D01*
X169828487Y-134307142D01*
X169958521Y-134621072D01*
X170147302Y-134903602D01*
X170387573Y-135143873D01*
X170670103Y-135332654D01*
X170984033Y-135462688D01*
X171317299Y-135528978D01*
X171657095Y-135528978D01*
X171990361Y-135462688D01*
X172304291Y-135332654D01*
X172586821Y-135143873D01*
X172827092Y-134903602D01*
X173015873Y-134621072D01*
X173145907Y-134307142D01*
X173212197Y-133973876D01*
X173212197Y-133634080D01*
X173145907Y-133300814D01*
X173015873Y-132986884D01*
X172827092Y-132704354D01*
X172586821Y-132464083D01*
X172447494Y-132370987D01*
X175194100Y-132370987D01*
X175194100Y-132607367D01*
X175240216Y-132839204D01*
X175330674Y-133057590D01*
X175461999Y-133254132D01*
X175629145Y-133421278D01*
X175825687Y-133552603D01*
X176044073Y-133643061D01*
X176275910Y-133689177D01*
X176512290Y-133689177D01*
X176744127Y-133643061D01*
X176962513Y-133552603D01*
X177159055Y-133421278D01*
X177186048Y-133394285D01*
X189998998Y-133394285D01*
X189998998Y-133773477D01*
X190072975Y-134145383D01*
X190218085Y-134495710D01*
X190428753Y-134810997D01*
X190696882Y-135079126D01*
X191012169Y-135289794D01*
X191362496Y-135434904D01*
X191734402Y-135508881D01*
X192113594Y-135508881D01*
X192485500Y-135434904D01*
X192835827Y-135289794D01*
X193151114Y-135079126D01*
X193419243Y-134810997D01*
X193629911Y-134495710D01*
X193775021Y-134145383D01*
X193848998Y-133773477D01*
X193848998Y-133394285D01*
X193775021Y-133022379D01*
X193629911Y-132672052D01*
X193419243Y-132356765D01*
X193151114Y-132088636D01*
X192835827Y-131877968D01*
X192485500Y-131732858D01*
X192113594Y-131658881D01*
X191734402Y-131658881D01*
X191362496Y-131732858D01*
X191012169Y-131877968D01*
X190696882Y-132088636D01*
X190428753Y-132356765D01*
X190218085Y-132672052D01*
X190072975Y-133022379D01*
X189998998Y-133394285D01*
X177186048Y-133394285D01*
X177326201Y-133254132D01*
X177457526Y-133057590D01*
X177547984Y-132839204D01*
X177594100Y-132607367D01*
X177594100Y-132370987D01*
X177547984Y-132139150D01*
X177457526Y-131920764D01*
X177326201Y-131724222D01*
X177159055Y-131557076D01*
X176962513Y-131425751D01*
X176744127Y-131335293D01*
X176512290Y-131289177D01*
X176275910Y-131289177D01*
X176044073Y-131335293D01*
X175825687Y-131425751D01*
X175629145Y-131557076D01*
X175461999Y-131724222D01*
X175330674Y-131920764D01*
X175240216Y-132139150D01*
X175194100Y-132370987D01*
X172447494Y-132370987D01*
X172304291Y-132275302D01*
X171990361Y-132145268D01*
X171657095Y-132078978D01*
X171317299Y-132078978D01*
X170984033Y-132145268D01*
X170670103Y-132275302D01*
X170387573Y-132464083D01*
X170147302Y-132704354D01*
X169958521Y-132986884D01*
X169828487Y-133300814D01*
X169762197Y-133634080D01*
X135194406Y-133634080D01*
X131080394Y-131258854D01*
X163769193Y-131258854D01*
X163769193Y-131618348D01*
X163839327Y-131970934D01*
X163976899Y-132303062D01*
X164176623Y-132601970D01*
X164430824Y-132856171D01*
X164729732Y-133055895D01*
X165061860Y-133193467D01*
X165414446Y-133263601D01*
X165773940Y-133263601D01*
X166126526Y-133193467D01*
X166458654Y-133055895D01*
X166757562Y-132856171D01*
X167011763Y-132601970D01*
X167211487Y-132303062D01*
X167349059Y-131970934D01*
X167419193Y-131618348D01*
X167419193Y-131258854D01*
X167349059Y-130906268D01*
X167211487Y-130574140D01*
X167011763Y-130275232D01*
X166757562Y-130021031D01*
X166642358Y-129944054D01*
X168676096Y-129944054D01*
X168676096Y-130303548D01*
X168746230Y-130656134D01*
X168883802Y-130988262D01*
X169083526Y-131287170D01*
X169337727Y-131541371D01*
X169636635Y-131741095D01*
X169968763Y-131878667D01*
X170321349Y-131948801D01*
X170680843Y-131948801D01*
X171033429Y-131878667D01*
X171365557Y-131741095D01*
X171664465Y-131541371D01*
X171918666Y-131287170D01*
X172118390Y-130988262D01*
X172255962Y-130656134D01*
X172326096Y-130303548D01*
X172326096Y-129944054D01*
X172255962Y-129591468D01*
X172118390Y-129259340D01*
X171918666Y-128960432D01*
X171664465Y-128706231D01*
X171549260Y-128629253D01*
X173583000Y-128629253D01*
X173583000Y-128988747D01*
X173653134Y-129341333D01*
X173790706Y-129673461D01*
X173990430Y-129972369D01*
X174244631Y-130226570D01*
X174543539Y-130426294D01*
X174875667Y-130563866D01*
X175228253Y-130634000D01*
X175587747Y-130634000D01*
X175940333Y-130563866D01*
X176272461Y-130426294D01*
X176571369Y-130226570D01*
X176825570Y-129972369D01*
X176891572Y-129873589D01*
X184502294Y-129873589D01*
X184502294Y-130109969D01*
X184548410Y-130341806D01*
X184638868Y-130560192D01*
X184770193Y-130756734D01*
X184937339Y-130923880D01*
X185133881Y-131055205D01*
X185352267Y-131145663D01*
X185584104Y-131191779D01*
X185820484Y-131191779D01*
X186052321Y-131145663D01*
X186270707Y-131055205D01*
X186467249Y-130923880D01*
X186634395Y-130756734D01*
X186765720Y-130560192D01*
X186856178Y-130341806D01*
X186902294Y-130109969D01*
X186902294Y-129873589D01*
X186856178Y-129641752D01*
X186765720Y-129423366D01*
X186634395Y-129226824D01*
X186467249Y-129059678D01*
X186270707Y-128928353D01*
X186052321Y-128837895D01*
X185820484Y-128791779D01*
X185584104Y-128791779D01*
X185352267Y-128837895D01*
X185133881Y-128928353D01*
X184937339Y-129059678D01*
X184770193Y-129226824D01*
X184638868Y-129423366D01*
X184548410Y-129641752D01*
X184502294Y-129873589D01*
X176891572Y-129873589D01*
X177025294Y-129673461D01*
X177162866Y-129341333D01*
X177233000Y-128988747D01*
X177233000Y-128629253D01*
X177208699Y-128507080D01*
X188884197Y-128507080D01*
X188884197Y-128846876D01*
X188950487Y-129180142D01*
X189080521Y-129494072D01*
X189269302Y-129776602D01*
X189509573Y-130016873D01*
X189792103Y-130205654D01*
X190106033Y-130335688D01*
X190439299Y-130401978D01*
X190779095Y-130401978D01*
X191112361Y-130335688D01*
X191426291Y-130205654D01*
X191708821Y-130016873D01*
X191949092Y-129776602D01*
X192137873Y-129494072D01*
X192267907Y-129180142D01*
X192334197Y-128846876D01*
X192334197Y-128507080D01*
X192267907Y-128173814D01*
X192137873Y-127859884D01*
X191949092Y-127577354D01*
X191708821Y-127337083D01*
X191569494Y-127243987D01*
X194316100Y-127243987D01*
X194316100Y-127480367D01*
X194362216Y-127712204D01*
X194452674Y-127930590D01*
X194583999Y-128127132D01*
X194751145Y-128294278D01*
X194947687Y-128425603D01*
X195166073Y-128516061D01*
X195397910Y-128562177D01*
X195634290Y-128562177D01*
X195866127Y-128516061D01*
X196084513Y-128425603D01*
X196281055Y-128294278D01*
X196448201Y-128127132D01*
X196579526Y-127930590D01*
X196669984Y-127712204D01*
X196716100Y-127480367D01*
X196716100Y-127243987D01*
X196669984Y-127012150D01*
X196579526Y-126793764D01*
X196448201Y-126597222D01*
X196281055Y-126430076D01*
X196084513Y-126298751D01*
X195866127Y-126208293D01*
X195634290Y-126162177D01*
X195397910Y-126162177D01*
X195166073Y-126208293D01*
X194947687Y-126298751D01*
X194751145Y-126430076D01*
X194583999Y-126597222D01*
X194452674Y-126793764D01*
X194362216Y-127012150D01*
X194316100Y-127243987D01*
X191569494Y-127243987D01*
X191426291Y-127148302D01*
X191112361Y-127018268D01*
X190779095Y-126951978D01*
X190439299Y-126951978D01*
X190106033Y-127018268D01*
X189792103Y-127148302D01*
X189509573Y-127337083D01*
X189269302Y-127577354D01*
X189080521Y-127859884D01*
X188950487Y-128173814D01*
X188884197Y-128507080D01*
X177208699Y-128507080D01*
X177162866Y-128276667D01*
X177025294Y-127944539D01*
X176825570Y-127645631D01*
X176571369Y-127391430D01*
X176272461Y-127191706D01*
X175940333Y-127054134D01*
X175587747Y-126984000D01*
X175228253Y-126984000D01*
X174875667Y-127054134D01*
X174543539Y-127191706D01*
X174244631Y-127391430D01*
X173990430Y-127645631D01*
X173790706Y-127944539D01*
X173653134Y-128276667D01*
X173583000Y-128629253D01*
X171549260Y-128629253D01*
X171365557Y-128506507D01*
X171033429Y-128368935D01*
X170680843Y-128298801D01*
X170321349Y-128298801D01*
X169968763Y-128368935D01*
X169636635Y-128506507D01*
X169337727Y-128706231D01*
X169083526Y-128960432D01*
X168883802Y-129259340D01*
X168746230Y-129591468D01*
X168676096Y-129944054D01*
X166642358Y-129944054D01*
X166458654Y-129821307D01*
X166126526Y-129683735D01*
X165773940Y-129613601D01*
X165414446Y-129613601D01*
X165061860Y-129683735D01*
X164729732Y-129821307D01*
X164430824Y-130021031D01*
X164176623Y-130275232D01*
X163976899Y-130574140D01*
X163839327Y-130906268D01*
X163769193Y-131258854D01*
X131080394Y-131258854D01*
X125450000Y-128008144D01*
X125450000Y-126131854D01*
X182891193Y-126131854D01*
X182891193Y-126491348D01*
X182961327Y-126843934D01*
X183098899Y-127176062D01*
X183298623Y-127474970D01*
X183552824Y-127729171D01*
X183851732Y-127928895D01*
X184183860Y-128066467D01*
X184536446Y-128136601D01*
X184895940Y-128136601D01*
X185248526Y-128066467D01*
X185580654Y-127928895D01*
X185879562Y-127729171D01*
X186133763Y-127474970D01*
X186333487Y-127176062D01*
X186471059Y-126843934D01*
X186541193Y-126491348D01*
X186541193Y-126131854D01*
X186471059Y-125779268D01*
X186333487Y-125447140D01*
X186133763Y-125148232D01*
X185879562Y-124894031D01*
X185764358Y-124817054D01*
X187798096Y-124817054D01*
X187798096Y-125176548D01*
X187868230Y-125529134D01*
X188005802Y-125861262D01*
X188205526Y-126160170D01*
X188459727Y-126414371D01*
X188758635Y-126614095D01*
X189090763Y-126751667D01*
X189443349Y-126821801D01*
X189802843Y-126821801D01*
X190155429Y-126751667D01*
X190487557Y-126614095D01*
X190786465Y-126414371D01*
X191040666Y-126160170D01*
X191240390Y-125861262D01*
X191377962Y-125529134D01*
X191448096Y-125176548D01*
X191448096Y-124817054D01*
X191377962Y-124464468D01*
X191240390Y-124132340D01*
X191040666Y-123833432D01*
X190786465Y-123579231D01*
X190671260Y-123502253D01*
X192705000Y-123502253D01*
X192705000Y-123861747D01*
X192775134Y-124214333D01*
X192912706Y-124546461D01*
X193112430Y-124845369D01*
X193366631Y-125099570D01*
X193665539Y-125299294D01*
X193997667Y-125436866D01*
X194350253Y-125507000D01*
X194709747Y-125507000D01*
X195062333Y-125436866D01*
X195394461Y-125299294D01*
X195693369Y-125099570D01*
X195947570Y-124845369D01*
X196147294Y-124546461D01*
X196284866Y-124214333D01*
X196355000Y-123861747D01*
X196355000Y-123502253D01*
X196284866Y-123149667D01*
X196147294Y-122817539D01*
X195947570Y-122518631D01*
X195693369Y-122264430D01*
X195394461Y-122064706D01*
X195062333Y-121927134D01*
X194709747Y-121857000D01*
X194350253Y-121857000D01*
X193997667Y-121927134D01*
X193665539Y-122064706D01*
X193366631Y-122264430D01*
X193112430Y-122518631D01*
X192912706Y-122817539D01*
X192775134Y-123149667D01*
X192705000Y-123502253D01*
X190671260Y-123502253D01*
X190487557Y-123379507D01*
X190155429Y-123241935D01*
X189802843Y-123171801D01*
X189443349Y-123171801D01*
X189090763Y-123241935D01*
X188758635Y-123379507D01*
X188459727Y-123579231D01*
X188205526Y-123833432D01*
X188005802Y-124132340D01*
X187868230Y-124464468D01*
X187798096Y-124817054D01*
X185764358Y-124817054D01*
X185580654Y-124694307D01*
X185248526Y-124556735D01*
X184895940Y-124486601D01*
X184536446Y-124486601D01*
X184183860Y-124556735D01*
X183851732Y-124694307D01*
X183552824Y-124894031D01*
X183298623Y-125148232D01*
X183098899Y-125447140D01*
X182961327Y-125779268D01*
X182891193Y-126131854D01*
X125450000Y-126131854D01*
X125450000Y-119395285D01*
X165748998Y-119395285D01*
X165748998Y-119774477D01*
X165822975Y-120146383D01*
X165968085Y-120496710D01*
X166178753Y-120811997D01*
X166446882Y-121080126D01*
X166762169Y-121290794D01*
X167112496Y-121435904D01*
X167484402Y-121509881D01*
X167863594Y-121509881D01*
X168235500Y-121435904D01*
X168585827Y-121290794D01*
X168901114Y-121080126D01*
X169169243Y-120811997D01*
X169379911Y-120496710D01*
X169525021Y-120146383D01*
X169598998Y-119774477D01*
X169598998Y-119395285D01*
X169525021Y-119023379D01*
X169379911Y-118673052D01*
X169169243Y-118357765D01*
X168901114Y-118089636D01*
X168585827Y-117878968D01*
X168235500Y-117733858D01*
X167863594Y-117659881D01*
X167484402Y-117659881D01*
X167112496Y-117733858D01*
X166762169Y-117878968D01*
X166446882Y-118089636D01*
X166178753Y-118357765D01*
X165968085Y-118673052D01*
X165822975Y-119023379D01*
X165748998Y-119395285D01*
X125450000Y-119395285D01*
X125450000Y-116787285D01*
X137233998Y-116787285D01*
X137233998Y-117166477D01*
X137307975Y-117538383D01*
X137453085Y-117888710D01*
X137663753Y-118203997D01*
X137931882Y-118472126D01*
X138247169Y-118682794D01*
X138597496Y-118827904D01*
X138969402Y-118901881D01*
X139348594Y-118901881D01*
X139720500Y-118827904D01*
X140070827Y-118682794D01*
X140386114Y-118472126D01*
X140654243Y-118203997D01*
X140864911Y-117888710D01*
X141010021Y-117538383D01*
X141083998Y-117166477D01*
X141083998Y-116787285D01*
X141010021Y-116415379D01*
X140864911Y-116065052D01*
X140737648Y-115874589D01*
X160252294Y-115874589D01*
X160252294Y-116110969D01*
X160298410Y-116342806D01*
X160388868Y-116561192D01*
X160520193Y-116757734D01*
X160687339Y-116924880D01*
X160883881Y-117056205D01*
X161102267Y-117146663D01*
X161334104Y-117192779D01*
X161570484Y-117192779D01*
X161802321Y-117146663D01*
X162020707Y-117056205D01*
X162217249Y-116924880D01*
X162384395Y-116757734D01*
X162515720Y-116561192D01*
X162606178Y-116342806D01*
X162652294Y-116110969D01*
X162652294Y-115874589D01*
X162606178Y-115642752D01*
X162515720Y-115424366D01*
X162384395Y-115227824D01*
X162217249Y-115060678D01*
X162020707Y-114929353D01*
X161802321Y-114838895D01*
X161570484Y-114792779D01*
X161334104Y-114792779D01*
X161102267Y-114838895D01*
X160883881Y-114929353D01*
X160687339Y-115060678D01*
X160520193Y-115227824D01*
X160388868Y-115424366D01*
X160298410Y-115642752D01*
X160252294Y-115874589D01*
X140737648Y-115874589D01*
X140654243Y-115749765D01*
X140386114Y-115481636D01*
X140070827Y-115270968D01*
X139720500Y-115125858D01*
X139348594Y-115051881D01*
X138969402Y-115051881D01*
X138597496Y-115125858D01*
X138247169Y-115270968D01*
X137931882Y-115481636D01*
X137663753Y-115749765D01*
X137453085Y-116065052D01*
X137307975Y-116415379D01*
X137233998Y-116787285D01*
X125450000Y-116787285D01*
X125450000Y-113266589D01*
X131737294Y-113266589D01*
X131737294Y-113502969D01*
X131783410Y-113734806D01*
X131873868Y-113953192D01*
X132005193Y-114149734D01*
X132172339Y-114316880D01*
X132368881Y-114448205D01*
X132587267Y-114538663D01*
X132819104Y-114584779D01*
X133055484Y-114584779D01*
X133287321Y-114538663D01*
X133361155Y-114508080D01*
X164634197Y-114508080D01*
X164634197Y-114847876D01*
X164700487Y-115181142D01*
X164830521Y-115495072D01*
X165019302Y-115777602D01*
X165259573Y-116017873D01*
X165542103Y-116206654D01*
X165856033Y-116336688D01*
X166189299Y-116402978D01*
X166529095Y-116402978D01*
X166862361Y-116336688D01*
X167176291Y-116206654D01*
X167458821Y-116017873D01*
X167699092Y-115777602D01*
X167887873Y-115495072D01*
X168017907Y-115181142D01*
X168084197Y-114847876D01*
X168084197Y-114508080D01*
X168017907Y-114174814D01*
X167887873Y-113860884D01*
X167699092Y-113578354D01*
X167458821Y-113338083D01*
X167319494Y-113244987D01*
X170066100Y-113244987D01*
X170066100Y-113481367D01*
X170112216Y-113713204D01*
X170202674Y-113931590D01*
X170333999Y-114128132D01*
X170501145Y-114295278D01*
X170697687Y-114426603D01*
X170916073Y-114517061D01*
X171147910Y-114563177D01*
X171384290Y-114563177D01*
X171616127Y-114517061D01*
X171834513Y-114426603D01*
X172031055Y-114295278D01*
X172054048Y-114272285D01*
X184868998Y-114272285D01*
X184868998Y-114651477D01*
X184942975Y-115023383D01*
X185088085Y-115373710D01*
X185298753Y-115688997D01*
X185566882Y-115957126D01*
X185882169Y-116167794D01*
X186232496Y-116312904D01*
X186604402Y-116386881D01*
X186983594Y-116386881D01*
X187355500Y-116312904D01*
X187705827Y-116167794D01*
X188021114Y-115957126D01*
X188289243Y-115688997D01*
X188499911Y-115373710D01*
X188645021Y-115023383D01*
X188718998Y-114651477D01*
X188718998Y-114272285D01*
X188645021Y-113900379D01*
X188499911Y-113550052D01*
X188289243Y-113234765D01*
X188021114Y-112966636D01*
X187705827Y-112755968D01*
X187355500Y-112610858D01*
X186983594Y-112536881D01*
X186604402Y-112536881D01*
X186232496Y-112610858D01*
X185882169Y-112755968D01*
X185566882Y-112966636D01*
X185298753Y-113234765D01*
X185088085Y-113550052D01*
X184942975Y-113900379D01*
X184868998Y-114272285D01*
X172054048Y-114272285D01*
X172198201Y-114128132D01*
X172329526Y-113931590D01*
X172419984Y-113713204D01*
X172466100Y-113481367D01*
X172466100Y-113244987D01*
X172419984Y-113013150D01*
X172329526Y-112794764D01*
X172198201Y-112598222D01*
X172031055Y-112431076D01*
X171834513Y-112299751D01*
X171616127Y-112209293D01*
X171384290Y-112163177D01*
X171147910Y-112163177D01*
X170916073Y-112209293D01*
X170697687Y-112299751D01*
X170501145Y-112431076D01*
X170333999Y-112598222D01*
X170202674Y-112794764D01*
X170112216Y-113013150D01*
X170066100Y-113244987D01*
X167319494Y-113244987D01*
X167176291Y-113149302D01*
X166862361Y-113019268D01*
X166529095Y-112952978D01*
X166189299Y-112952978D01*
X165856033Y-113019268D01*
X165542103Y-113149302D01*
X165259573Y-113338083D01*
X165019302Y-113578354D01*
X164830521Y-113860884D01*
X164700487Y-114174814D01*
X164634197Y-114508080D01*
X133361155Y-114508080D01*
X133505707Y-114448205D01*
X133702249Y-114316880D01*
X133869395Y-114149734D01*
X134000720Y-113953192D01*
X134091178Y-113734806D01*
X134137294Y-113502969D01*
X134137294Y-113266589D01*
X134091178Y-113034752D01*
X134000720Y-112816366D01*
X133869395Y-112619824D01*
X133702249Y-112452678D01*
X133505707Y-112321353D01*
X133287321Y-112230895D01*
X133055484Y-112184779D01*
X132819104Y-112184779D01*
X132587267Y-112230895D01*
X132368881Y-112321353D01*
X132172339Y-112452678D01*
X132005193Y-112619824D01*
X131873868Y-112816366D01*
X131783410Y-113034752D01*
X131737294Y-113266589D01*
X125450000Y-113266589D01*
X125450000Y-111900080D01*
X136119197Y-111900080D01*
X136119197Y-112239876D01*
X136185487Y-112573142D01*
X136315521Y-112887072D01*
X136504302Y-113169602D01*
X136744573Y-113409873D01*
X137027103Y-113598654D01*
X137341033Y-113728688D01*
X137674299Y-113794978D01*
X138014095Y-113794978D01*
X138347361Y-113728688D01*
X138661291Y-113598654D01*
X138943821Y-113409873D01*
X139184092Y-113169602D01*
X139372873Y-112887072D01*
X139502907Y-112573142D01*
X139569197Y-112239876D01*
X139569197Y-112132854D01*
X158641193Y-112132854D01*
X158641193Y-112492348D01*
X158711327Y-112844934D01*
X158848899Y-113177062D01*
X159048623Y-113475970D01*
X159302824Y-113730171D01*
X159601732Y-113929895D01*
X159933860Y-114067467D01*
X160286446Y-114137601D01*
X160645940Y-114137601D01*
X160998526Y-114067467D01*
X161330654Y-113929895D01*
X161629562Y-113730171D01*
X161883763Y-113475970D01*
X162083487Y-113177062D01*
X162221059Y-112844934D01*
X162291193Y-112492348D01*
X162291193Y-112132854D01*
X162221059Y-111780268D01*
X162083487Y-111448140D01*
X161883763Y-111149232D01*
X161629562Y-110895031D01*
X161514358Y-110818054D01*
X163548096Y-110818054D01*
X163548096Y-111177548D01*
X163618230Y-111530134D01*
X163755802Y-111862262D01*
X163955526Y-112161170D01*
X164209727Y-112415371D01*
X164508635Y-112615095D01*
X164840763Y-112752667D01*
X165193349Y-112822801D01*
X165552843Y-112822801D01*
X165905429Y-112752667D01*
X166237557Y-112615095D01*
X166536465Y-112415371D01*
X166790666Y-112161170D01*
X166990390Y-111862262D01*
X167127962Y-111530134D01*
X167198096Y-111177548D01*
X167198096Y-110818054D01*
X167127962Y-110465468D01*
X166990390Y-110133340D01*
X166790666Y-109834432D01*
X166536465Y-109580231D01*
X166421260Y-109503253D01*
X168455000Y-109503253D01*
X168455000Y-109862747D01*
X168525134Y-110215333D01*
X168662706Y-110547461D01*
X168862430Y-110846369D01*
X169116631Y-111100570D01*
X169415539Y-111300294D01*
X169747667Y-111437866D01*
X170100253Y-111508000D01*
X170459747Y-111508000D01*
X170812333Y-111437866D01*
X171144461Y-111300294D01*
X171443369Y-111100570D01*
X171697570Y-110846369D01*
X171760899Y-110751589D01*
X179372294Y-110751589D01*
X179372294Y-110987969D01*
X179418410Y-111219806D01*
X179508868Y-111438192D01*
X179640193Y-111634734D01*
X179807339Y-111801880D01*
X180003881Y-111933205D01*
X180222267Y-112023663D01*
X180454104Y-112069779D01*
X180690484Y-112069779D01*
X180922321Y-112023663D01*
X181140707Y-111933205D01*
X181337249Y-111801880D01*
X181504395Y-111634734D01*
X181635720Y-111438192D01*
X181726178Y-111219806D01*
X181772294Y-110987969D01*
X181772294Y-110751589D01*
X181726178Y-110519752D01*
X181635720Y-110301366D01*
X181504395Y-110104824D01*
X181337249Y-109937678D01*
X181140707Y-109806353D01*
X180922321Y-109715895D01*
X180690484Y-109669779D01*
X180454104Y-109669779D01*
X180222267Y-109715895D01*
X180003881Y-109806353D01*
X179807339Y-109937678D01*
X179640193Y-110104824D01*
X179508868Y-110301366D01*
X179418410Y-110519752D01*
X179372294Y-110751589D01*
X171760899Y-110751589D01*
X171897294Y-110547461D01*
X172034866Y-110215333D01*
X172105000Y-109862747D01*
X172105000Y-109503253D01*
X172081494Y-109385080D01*
X183754197Y-109385080D01*
X183754197Y-109724876D01*
X183820487Y-110058142D01*
X183950521Y-110372072D01*
X184139302Y-110654602D01*
X184379573Y-110894873D01*
X184662103Y-111083654D01*
X184976033Y-111213688D01*
X185309299Y-111279978D01*
X185649095Y-111279978D01*
X185982361Y-111213688D01*
X186296291Y-111083654D01*
X186578821Y-110894873D01*
X186819092Y-110654602D01*
X187007873Y-110372072D01*
X187137907Y-110058142D01*
X187204197Y-109724876D01*
X187204197Y-109385080D01*
X187137907Y-109051814D01*
X187007873Y-108737884D01*
X186819092Y-108455354D01*
X186578821Y-108215083D01*
X186439494Y-108121987D01*
X189186100Y-108121987D01*
X189186100Y-108358367D01*
X189232216Y-108590204D01*
X189322674Y-108808590D01*
X189453999Y-109005132D01*
X189621145Y-109172278D01*
X189817687Y-109303603D01*
X190036073Y-109394061D01*
X190267910Y-109440177D01*
X190504290Y-109440177D01*
X190736127Y-109394061D01*
X190954513Y-109303603D01*
X191151055Y-109172278D01*
X191318201Y-109005132D01*
X191449526Y-108808590D01*
X191539984Y-108590204D01*
X191586100Y-108358367D01*
X191586100Y-108121987D01*
X191539984Y-107890150D01*
X191449526Y-107671764D01*
X191318201Y-107475222D01*
X191151055Y-107308076D01*
X190954513Y-107176751D01*
X190736127Y-107086293D01*
X190504290Y-107040177D01*
X190267910Y-107040177D01*
X190036073Y-107086293D01*
X189817687Y-107176751D01*
X189621145Y-107308076D01*
X189453999Y-107475222D01*
X189322674Y-107671764D01*
X189232216Y-107890150D01*
X189186100Y-108121987D01*
X186439494Y-108121987D01*
X186296291Y-108026302D01*
X185982361Y-107896268D01*
X185649095Y-107829978D01*
X185309299Y-107829978D01*
X184976033Y-107896268D01*
X184662103Y-108026302D01*
X184379573Y-108215083D01*
X184139302Y-108455354D01*
X183950521Y-108737884D01*
X183820487Y-109051814D01*
X183754197Y-109385080D01*
X172081494Y-109385080D01*
X172034866Y-109150667D01*
X171897294Y-108818539D01*
X171697570Y-108519631D01*
X171443369Y-108265430D01*
X171144461Y-108065706D01*
X170812333Y-107928134D01*
X170459747Y-107858000D01*
X170100253Y-107858000D01*
X169747667Y-107928134D01*
X169415539Y-108065706D01*
X169116631Y-108265430D01*
X168862430Y-108519631D01*
X168662706Y-108818539D01*
X168525134Y-109150667D01*
X168455000Y-109503253D01*
X166421260Y-109503253D01*
X166237557Y-109380507D01*
X165905429Y-109242935D01*
X165552843Y-109172801D01*
X165193349Y-109172801D01*
X164840763Y-109242935D01*
X164508635Y-109380507D01*
X164209727Y-109580231D01*
X163955526Y-109834432D01*
X163755802Y-110133340D01*
X163618230Y-110465468D01*
X163548096Y-110818054D01*
X161514358Y-110818054D01*
X161330654Y-110695307D01*
X160998526Y-110557735D01*
X160645940Y-110487601D01*
X160286446Y-110487601D01*
X159933860Y-110557735D01*
X159601732Y-110695307D01*
X159302824Y-110895031D01*
X159048623Y-111149232D01*
X158848899Y-111448140D01*
X158711327Y-111780268D01*
X158641193Y-112132854D01*
X139569197Y-112132854D01*
X139569197Y-111900080D01*
X139502907Y-111566814D01*
X139372873Y-111252884D01*
X139184092Y-110970354D01*
X138943821Y-110730083D01*
X138804494Y-110636987D01*
X141551100Y-110636987D01*
X141551100Y-110873367D01*
X141597216Y-111105204D01*
X141687674Y-111323590D01*
X141818999Y-111520132D01*
X141986145Y-111687278D01*
X142182687Y-111818603D01*
X142401073Y-111909061D01*
X142632910Y-111955177D01*
X142869290Y-111955177D01*
X143101127Y-111909061D01*
X143319513Y-111818603D01*
X143516055Y-111687278D01*
X143683201Y-111520132D01*
X143814526Y-111323590D01*
X143904984Y-111105204D01*
X143951100Y-110873367D01*
X143951100Y-110636987D01*
X143904984Y-110405150D01*
X143814526Y-110186764D01*
X143683201Y-109990222D01*
X143516055Y-109823076D01*
X143319513Y-109691751D01*
X143101127Y-109601293D01*
X142869290Y-109555177D01*
X142632910Y-109555177D01*
X142401073Y-109601293D01*
X142182687Y-109691751D01*
X141986145Y-109823076D01*
X141818999Y-109990222D01*
X141687674Y-110186764D01*
X141597216Y-110405150D01*
X141551100Y-110636987D01*
X138804494Y-110636987D01*
X138661291Y-110541302D01*
X138347361Y-110411268D01*
X138014095Y-110344978D01*
X137674299Y-110344978D01*
X137341033Y-110411268D01*
X137027103Y-110541302D01*
X136744573Y-110730083D01*
X136504302Y-110970354D01*
X136315521Y-111252884D01*
X136185487Y-111566814D01*
X136119197Y-111900080D01*
X125450000Y-111900080D01*
X125450000Y-109524854D01*
X130126193Y-109524854D01*
X130126193Y-109884348D01*
X130196327Y-110236934D01*
X130333899Y-110569062D01*
X130533623Y-110867970D01*
X130787824Y-111122171D01*
X131086732Y-111321895D01*
X131418860Y-111459467D01*
X131771446Y-111529601D01*
X132130940Y-111529601D01*
X132483526Y-111459467D01*
X132815654Y-111321895D01*
X133114562Y-111122171D01*
X133368763Y-110867970D01*
X133568487Y-110569062D01*
X133706059Y-110236934D01*
X133776193Y-109884348D01*
X133776193Y-109524854D01*
X133706059Y-109172268D01*
X133568487Y-108840140D01*
X133368763Y-108541232D01*
X133114562Y-108287031D01*
X132999358Y-108210054D01*
X135033096Y-108210054D01*
X135033096Y-108569548D01*
X135103230Y-108922134D01*
X135240802Y-109254262D01*
X135440526Y-109553170D01*
X135694727Y-109807371D01*
X135993635Y-110007095D01*
X136325763Y-110144667D01*
X136678349Y-110214801D01*
X137037843Y-110214801D01*
X137390429Y-110144667D01*
X137722557Y-110007095D01*
X138021465Y-109807371D01*
X138275666Y-109553170D01*
X138475390Y-109254262D01*
X138612962Y-108922134D01*
X138683096Y-108569548D01*
X138683096Y-108210054D01*
X138612962Y-107857468D01*
X138475390Y-107525340D01*
X138275666Y-107226432D01*
X138021465Y-106972231D01*
X137906260Y-106895253D01*
X139940000Y-106895253D01*
X139940000Y-107254747D01*
X140010134Y-107607333D01*
X140147706Y-107939461D01*
X140347430Y-108238369D01*
X140601631Y-108492570D01*
X140900539Y-108692294D01*
X141232667Y-108829866D01*
X141585253Y-108900000D01*
X141944747Y-108900000D01*
X142297333Y-108829866D01*
X142629461Y-108692294D01*
X142928369Y-108492570D01*
X143182570Y-108238369D01*
X143382294Y-107939461D01*
X143519866Y-107607333D01*
X143590000Y-107254747D01*
X143590000Y-106895253D01*
X143566826Y-106778745D01*
X155985000Y-106778745D01*
X155985000Y-106941255D01*
X156016704Y-107100644D01*
X156078894Y-107250784D01*
X156169181Y-107385907D01*
X156284093Y-107500819D01*
X156419216Y-107591106D01*
X156569356Y-107653296D01*
X156728745Y-107685000D01*
X156891255Y-107685000D01*
X157050644Y-107653296D01*
X157200784Y-107591106D01*
X157335907Y-107500819D01*
X157450819Y-107385907D01*
X157502377Y-107308745D01*
X161990000Y-107308745D01*
X161990000Y-107471255D01*
X162021704Y-107630644D01*
X162083894Y-107780784D01*
X162174181Y-107915907D01*
X162289093Y-108030819D01*
X162424216Y-108121106D01*
X162574356Y-108183296D01*
X162733745Y-108215000D01*
X162896255Y-108215000D01*
X163055644Y-108183296D01*
X163205784Y-108121106D01*
X163340907Y-108030819D01*
X163455819Y-107915907D01*
X163546106Y-107780784D01*
X163608296Y-107630644D01*
X163640000Y-107471255D01*
X163640000Y-107308745D01*
X163608296Y-107149356D01*
X163550513Y-107009854D01*
X177761193Y-107009854D01*
X177761193Y-107369348D01*
X177831327Y-107721934D01*
X177968899Y-108054062D01*
X178168623Y-108352970D01*
X178422824Y-108607171D01*
X178721732Y-108806895D01*
X179053860Y-108944467D01*
X179406446Y-109014601D01*
X179765940Y-109014601D01*
X180118526Y-108944467D01*
X180450654Y-108806895D01*
X180749562Y-108607171D01*
X181003763Y-108352970D01*
X181203487Y-108054062D01*
X181341059Y-107721934D01*
X181411193Y-107369348D01*
X181411193Y-107009854D01*
X181341059Y-106657268D01*
X181203487Y-106325140D01*
X181003763Y-106026232D01*
X180749562Y-105772031D01*
X180634358Y-105695054D01*
X182668096Y-105695054D01*
X182668096Y-106054548D01*
X182738230Y-106407134D01*
X182875802Y-106739262D01*
X183075526Y-107038170D01*
X183329727Y-107292371D01*
X183628635Y-107492095D01*
X183960763Y-107629667D01*
X184313349Y-107699801D01*
X184672843Y-107699801D01*
X185025429Y-107629667D01*
X185357557Y-107492095D01*
X185656465Y-107292371D01*
X185910666Y-107038170D01*
X186110390Y-106739262D01*
X186247962Y-106407134D01*
X186318096Y-106054548D01*
X186318096Y-105695054D01*
X186247962Y-105342468D01*
X186110390Y-105010340D01*
X185910666Y-104711432D01*
X185656465Y-104457231D01*
X185541260Y-104380253D01*
X187575000Y-104380253D01*
X187575000Y-104739747D01*
X187645134Y-105092333D01*
X187782706Y-105424461D01*
X187982430Y-105723369D01*
X188236631Y-105977570D01*
X188535539Y-106177294D01*
X188867667Y-106314866D01*
X189220253Y-106385000D01*
X189579747Y-106385000D01*
X189932333Y-106314866D01*
X190264461Y-106177294D01*
X190563369Y-105977570D01*
X190817570Y-105723369D01*
X191017294Y-105424461D01*
X191154866Y-105092333D01*
X191225000Y-104739747D01*
X191225000Y-104380253D01*
X191154866Y-104027667D01*
X191017294Y-103695539D01*
X190817570Y-103396631D01*
X190563369Y-103142430D01*
X190264461Y-102942706D01*
X189932333Y-102805134D01*
X189579747Y-102735000D01*
X189220253Y-102735000D01*
X188867667Y-102805134D01*
X188535539Y-102942706D01*
X188236631Y-103142430D01*
X187982430Y-103396631D01*
X187782706Y-103695539D01*
X187645134Y-104027667D01*
X187575000Y-104380253D01*
X185541260Y-104380253D01*
X185357557Y-104257507D01*
X185025429Y-104119935D01*
X184672843Y-104049801D01*
X184313349Y-104049801D01*
X183960763Y-104119935D01*
X183628635Y-104257507D01*
X183329727Y-104457231D01*
X183075526Y-104711432D01*
X182875802Y-105010340D01*
X182738230Y-105342468D01*
X182668096Y-105695054D01*
X180634358Y-105695054D01*
X180450654Y-105572307D01*
X180118526Y-105434735D01*
X179765940Y-105364601D01*
X179406446Y-105364601D01*
X179053860Y-105434735D01*
X178721732Y-105572307D01*
X178422824Y-105772031D01*
X178168623Y-106026232D01*
X177968899Y-106325140D01*
X177831327Y-106657268D01*
X177761193Y-107009854D01*
X163550513Y-107009854D01*
X163546106Y-106999216D01*
X163455819Y-106864093D01*
X163340907Y-106749181D01*
X163205784Y-106658894D01*
X163055644Y-106596704D01*
X162896255Y-106565000D01*
X162733745Y-106565000D01*
X162574356Y-106596704D01*
X162424216Y-106658894D01*
X162289093Y-106749181D01*
X162174181Y-106864093D01*
X162083894Y-106999216D01*
X162021704Y-107149356D01*
X161990000Y-107308745D01*
X157502377Y-107308745D01*
X157541106Y-107250784D01*
X157603296Y-107100644D01*
X157635000Y-106941255D01*
X157635000Y-106778745D01*
X157603296Y-106619356D01*
X157541106Y-106469216D01*
X157450819Y-106334093D01*
X157335907Y-106219181D01*
X157200784Y-106128894D01*
X157137882Y-106102839D01*
X157148745Y-106105000D01*
X157311255Y-106105000D01*
X157470644Y-106073296D01*
X157620784Y-106011106D01*
X157755907Y-105920819D01*
X157870819Y-105805907D01*
X157922377Y-105728745D01*
X160585000Y-105728745D01*
X160585000Y-105891255D01*
X160616704Y-106050644D01*
X160678894Y-106200784D01*
X160769181Y-106335907D01*
X160884093Y-106450819D01*
X161019216Y-106541106D01*
X161169356Y-106603296D01*
X161328745Y-106635000D01*
X161491255Y-106635000D01*
X161650644Y-106603296D01*
X161800784Y-106541106D01*
X161935907Y-106450819D01*
X162050819Y-106335907D01*
X162141106Y-106200784D01*
X162203296Y-106050644D01*
X162235000Y-105891255D01*
X162235000Y-105728745D01*
X162203296Y-105569356D01*
X162141106Y-105419216D01*
X162050819Y-105284093D01*
X161935907Y-105169181D01*
X161800784Y-105078894D01*
X161650644Y-105016704D01*
X161491255Y-104985000D01*
X161328745Y-104985000D01*
X161169356Y-105016704D01*
X161019216Y-105078894D01*
X160884093Y-105169181D01*
X160769181Y-105284093D01*
X160678894Y-105419216D01*
X160616704Y-105569356D01*
X160585000Y-105728745D01*
X157922377Y-105728745D01*
X157961106Y-105670784D01*
X158023296Y-105520644D01*
X158055000Y-105361255D01*
X158055000Y-105198745D01*
X158023296Y-105039356D01*
X157961106Y-104889216D01*
X157870819Y-104754093D01*
X157755907Y-104639181D01*
X157620784Y-104548894D01*
X157470644Y-104486704D01*
X157311255Y-104455000D01*
X157148745Y-104455000D01*
X156989356Y-104486704D01*
X156839216Y-104548894D01*
X156704093Y-104639181D01*
X156589181Y-104754093D01*
X156498894Y-104889216D01*
X156436704Y-105039356D01*
X156405000Y-105198745D01*
X156405000Y-105361255D01*
X156436704Y-105520644D01*
X156498894Y-105670784D01*
X156589181Y-105805907D01*
X156704093Y-105920819D01*
X156839216Y-106011106D01*
X156902118Y-106037161D01*
X156891255Y-106035000D01*
X156728745Y-106035000D01*
X156569356Y-106066704D01*
X156419216Y-106128894D01*
X156284093Y-106219181D01*
X156169181Y-106334093D01*
X156078894Y-106469216D01*
X156016704Y-106619356D01*
X155985000Y-106778745D01*
X143566826Y-106778745D01*
X143519866Y-106542667D01*
X143382294Y-106210539D01*
X143182570Y-105911631D01*
X142928369Y-105657430D01*
X142629461Y-105457706D01*
X142297333Y-105320134D01*
X141944747Y-105250000D01*
X141585253Y-105250000D01*
X141232667Y-105320134D01*
X140900539Y-105457706D01*
X140601631Y-105657430D01*
X140347430Y-105911631D01*
X140147706Y-106210539D01*
X140010134Y-106542667D01*
X139940000Y-106895253D01*
X137906260Y-106895253D01*
X137722557Y-106772507D01*
X137390429Y-106634935D01*
X137037843Y-106564801D01*
X136678349Y-106564801D01*
X136325763Y-106634935D01*
X135993635Y-106772507D01*
X135694727Y-106972231D01*
X135440526Y-107226432D01*
X135240802Y-107525340D01*
X135103230Y-107857468D01*
X135033096Y-108210054D01*
X132999358Y-108210054D01*
X132815654Y-108087307D01*
X132483526Y-107949735D01*
X132130940Y-107879601D01*
X131771446Y-107879601D01*
X131418860Y-107949735D01*
X131086732Y-108087307D01*
X130787824Y-108287031D01*
X130533623Y-108541232D01*
X130333899Y-108840140D01*
X130196327Y-109172268D01*
X130126193Y-109524854D01*
X125450000Y-109524854D01*
X125450000Y-96273240D01*
X125823652Y-94878745D01*
X139295000Y-94878745D01*
X139295000Y-95041255D01*
X139326704Y-95200644D01*
X139388894Y-95350784D01*
X139479181Y-95485907D01*
X139594093Y-95600819D01*
X139729216Y-95691106D01*
X139879356Y-95753296D01*
X140038745Y-95785000D01*
X140201255Y-95785000D01*
X140360644Y-95753296D01*
X140510784Y-95691106D01*
X140645907Y-95600819D01*
X140760819Y-95485907D01*
X140851106Y-95350784D01*
X140913296Y-95200644D01*
X140945000Y-95041255D01*
X140945000Y-94878745D01*
X140913296Y-94719356D01*
X140851106Y-94569216D01*
X140760819Y-94434093D01*
X140645907Y-94319181D01*
X140510784Y-94228894D01*
X140360644Y-94166704D01*
X140201255Y-94135000D01*
X140038745Y-94135000D01*
X139879356Y-94166704D01*
X139729216Y-94228894D01*
X139594093Y-94319181D01*
X139479181Y-94434093D01*
X139388894Y-94569216D01*
X139326704Y-94719356D01*
X139295000Y-94878745D01*
X125823652Y-94878745D01*
X126919333Y-90789592D01*
X131985717Y-82014016D01*
X143881861Y-88882335D01*
M02*
