(module C_0805_TL (layer F.Cu) (tedit 5D678F69)
  (descr "Capacitor SMD 0805, reflow soldering, AVX (see smccp.pdf)")
  (tags "capacitor 0805")
  (attr smd)
  (fp_text reference REF** (at 0 -1.25) (layer F.SilkS)
    (effects (font (size 0.5 0.5) (thickness 0.05)))
  )
  (fp_text value C_0805_TL (at 0.05 1.3) (layer F.Fab) hide
    (effects (font (size 0.5 0.5) (thickness 0.05)))
  )
  (fp_line (start 1.9 0.875) (end -1.9 0.875) (layer F.CrtYd) (width 0.05))
  (fp_line (start 1.9 0.875) (end 1.9 -0.875) (layer F.CrtYd) (width 0.05))
  (fp_line (start -1.9 -0.875) (end -1.9 0.875) (layer F.CrtYd) (width 0.05))
  (fp_line (start -1.9 -0.875) (end 1.9 -0.875) (layer F.CrtYd) (width 0.05))
  (fp_line (start -0.5 0.85) (end 0.5 0.85) (layer F.SilkS) (width 0.12))
  (fp_line (start 0.5 -0.85) (end -0.5 -0.85) (layer F.SilkS) (width 0.12))
  (fp_line (start -1 -0.62) (end 1 -0.62) (layer F.Fab) (width 0.1))
  (fp_line (start 1 -0.62) (end 1 0.62) (layer F.Fab) (width 0.1))
  (fp_line (start 1 0.62) (end -1 0.62) (layer F.Fab) (width 0.1))
  (fp_line (start -1 0.62) (end -1 -0.62) (layer F.Fab) (width 0.1))
  (fp_text user %R (at 0 -1.25) (layer F.Fab)
    (effects (font (size 0.5 0.5) (thickness 0.05)))
  )
  (pad 2 smd rect (at 1.1 0) (size 1.2 1.35) (layers F.Cu F.Paste F.Mask))
  (pad 1 smd rect (at -1.1 0) (size 1.2 1.35) (layers F.Cu F.Paste F.Mask))
  (model Capacitors_SMD.3dshapes/C_0805.wrl
    (at (xyz 0 0 0))
    (scale (xyz 1 1 1))
    (rotate (xyz 0 0 0))
  )
)
