(module ML1A-11JW_TL (layer F.Cu) (tedit 5D7CA32D)
  (fp_text reference REF** (at -0.03 -6.43) (layer F.Fab)
    (effects (font (size 0.5 0.5) (thickness 0.05)))
  )
  (fp_text value ML1A-11JW_TL (at -0.03 7.48) (layer F.Fab) hide
    (effects (font (size 0.5 0.5) (thickness 0.05)))
  )
  (fp_line (start -6 -5.065) (end -6 6.335) (layer F.Fab) (width 0.15))
  (fp_line (start 6 6.335) (end -6 6.335) (layer F.Fab) (width 0.15))
  (fp_line (start 6 -5.065) (end 6 6.335) (layer F.Fab) (width 0.15))
  (fp_line (start -6 -5.065) (end 6 -5.065) (layer F.Fab) (width 0.15))
  (fp_line (start -6.5 -5.565) (end 6.5 -5.565) (layer F.Fab) (width 0.05))
  (fp_line (start 6.5 6.835) (end -6.5 6.835) (layer F.Fab) (width 0.05))
  (fp_line (start -6.5 -5.565) (end -6.5 6.835) (layer F.Fab) (width 0.05))
  (fp_line (start 6.5 -5.565) (end 6.5 6.835) (layer F.Fab) (width 0.05))
  (pad 3 thru_hole circle (at -5.08 -3.81) (size 2.8 2.8) (drill 1.4) (layers *.Cu *.Paste *.Mask))
  (pad 4 thru_hole circle (at 5.08 -3.81) (size 2.8 2.8) (drill 1.4) (layers *.Cu *.Paste *.Mask))
  (pad 1 thru_hole circle (at 0 -3.81) (size 2.8 2.8) (drill 1.4) (layers *.Cu *.Paste *.Mask))
  (pad 2 thru_hole circle (at 0 5.08) (size 3 3) (drill 1.5) (layers *.Cu *.Paste *.Mask))
  (pad "" np_thru_hole circle (at -5.08 0) (size 1.55 1.55) (drill 1.55) (layers *.Cu F.Mask Dwgs.User))
  (pad "" np_thru_hole circle (at 5.08 0) (size 1.55 1.55) (drill 1.55) (layers *.Cu F.Mask Dwgs.User))
  (pad "" np_thru_hole circle (at 0 0) (size 2.6 2.6) (drill 2.6) (layers *.Cu F.Mask Dwgs.User))
  (model ${KIPRJMOD}/ML1A-11JW_TL.wrl
    (at (xyz 0 0 0))
    (scale (xyz 0.4 0.4 0.4))
    (rotate (xyz 0 0 0))
  )
)
