EESchema Schematic File Version 2
LIBS:power
LIBS:device
LIBS:switches
LIBS:relays
LIBS:motors
LIBS:transistors
LIBS:conn
LIBS:linear
LIBS:regul
LIBS:74xx
LIBS:cmos4000
LIBS:adc-dac
LIBS:memory
LIBS:xilinx
LIBS:microcontrollers
LIBS:dsp
LIBS:microchip
LIBS:analog_switches
LIBS:motorola
LIBS:texas
LIBS:intel
LIBS:audio
LIBS:interface
LIBS:digital-audio
LIBS:philips
LIBS:display
LIBS:cypress
LIBS:siliconi
LIBS:opto
LIBS:atmel
LIBS:contrib
LIBS:valves
LIBS:carte_fleche_gauche-cache
EELAYER 25 0
EELAYER END
$Descr A2 23386 16535
encoding utf-8
Sheet 2 2
Title ""
Date ""
Rev ""
Comp ""
Comment1 ""
Comment2 ""
Comment3 ""
Comment4 ""
$EndDescr
$Comp
L ML1A-11JW J?
U 1 1 5BA7F54F
P 10300 9100
F 0 "J?" H 10900 9850 60  0000 C CNN
F 1 "ML1A-11JW" H 11100 9250 60  0000 C CNN
F 2 "" H 10900 9850 60  0000 C CNN
F 3 "" H 10900 9850 60  0000 C CNN
	1    10300 9100
	1    0    0    -1  
$EndComp
$Comp
L ML1A-11JW J?
U 1 1 5BA7F5E6
P 11850 7700
F 0 "J?" H 12450 8450 60  0000 C CNN
F 1 "ML1A-11JW" H 12650 7850 60  0000 C CNN
F 2 "" H 12450 8450 60  0000 C CNN
F 3 "" H 12450 8450 60  0000 C CNN
	1    11850 7700
	1    0    0    -1  
$EndComp
$Comp
L ML1A-11JW J?
U 1 1 5BA7F67E
P 11850 10350
F 0 "J?" H 12450 11100 60  0000 C CNN
F 1 "ML1A-11JW" H 12650 10500 60  0000 C CNN
F 2 "" H 12450 11100 60  0000 C CNN
F 3 "" H 12450 11100 60  0000 C CNN
	1    11850 10350
	1    0    0    -1  
$EndComp
$Comp
L ML1A-11JW J?
U 1 1 5BA7F6AB
P 13700 9100
F 0 "J?" H 14300 9850 60  0000 C CNN
F 1 "ML1A-11JW" H 14500 9250 60  0000 C CNN
F 2 "" H 14300 9850 60  0000 C CNN
F 3 "" H 14300 9850 60  0000 C CNN
	1    13700 9100
	1    0    0    -1  
$EndComp
$Comp
L ML1A-11JW J?
U 1 1 5BA7F6E0
P 8400 10700
F 0 "J?" H 9000 11450 60  0000 C CNN
F 1 "ML1A-11JW" H 9200 10850 60  0000 C CNN
F 2 "" H 9000 11450 60  0000 C CNN
F 3 "" H 9000 11450 60  0000 C CNN
	1    8400 10700
	1    0    0    -1  
$EndComp
$Comp
L CONN_01X10 P?
U 1 1 5BA7F8B8
P 16900 8150
F 0 "P?" V 17050 7850 50  0000 C CNN
F 1 "CONN_01X10" V 17150 8050 50  0000 C CNN
F 2 "" H 16900 8150 50  0000 C CNN
F 3 "" H 16900 8150 50  0000 C CNN
	1    16900 8150
	0    -1   1    0   
$EndComp
$Comp
L D D?
U 1 1 5BA7FBB0
P 12500 7900
F 0 "D?" H 12500 8000 50  0000 C CNN
F 1 "D" H 12500 7800 50  0000 C CNN
F 2 "" H 12500 7900 50  0001 C CNN
F 3 "" H 12500 7900 50  0001 C CNN
	1    12500 7900
	-1   0    0    1   
$EndComp
$Comp
L D D?
U 1 1 5BA7FC8A
P 10950 9300
F 0 "D?" H 10950 9400 50  0000 C CNN
F 1 "D" H 10950 9200 50  0000 C CNN
F 2 "" H 10950 9300 50  0001 C CNN
F 3 "" H 10950 9300 50  0001 C CNN
	1    10950 9300
	-1   0    0    1   
$EndComp
$Comp
L D D?
U 1 1 5BA7FCE3
P 12500 10500
F 0 "D?" H 12500 10600 50  0000 C CNN
F 1 "D" H 12500 10400 50  0000 C CNN
F 2 "" H 12500 10500 50  0001 C CNN
F 3 "" H 12500 10500 50  0001 C CNN
	1    12500 10500
	-1   0    0    1   
$EndComp
$Comp
L D D?
U 1 1 5BA7FD2C
P 14350 9300
F 0 "D?" H 14350 9400 50  0000 C CNN
F 1 "D" H 14350 9200 50  0000 C CNN
F 2 "" H 14350 9300 50  0001 C CNN
F 3 "" H 14350 9300 50  0001 C CNN
	1    14350 9300
	-1   0    0    1   
$EndComp
$Comp
L D D?
U 1 1 5BA7FD9F
P 9100 10900
F 0 "D?" H 9100 11000 50  0000 C CNN
F 1 "D" H 9100 10800 50  0000 C CNN
F 2 "" H 9100 10900 50  0001 C CNN
F 3 "" H 9100 10900 50  0001 C CNN
	1    9100 10900
	-1   0    0    1   
$EndComp
$Comp
L GND #PWR?
U 1 1 5BA7FDD3
P 16300 8200
F 0 "#PWR?" H 16300 7950 50  0001 C CNN
F 1 "GND" H 16300 8050 50  0000 C CNN
F 2 "" H 16300 8200 50  0001 C CNN
F 3 "" H 16300 8200 50  0001 C CNN
	1    16300 8200
	1    0    0    -1  
$EndComp
$Comp
L GND #PWR?
U 1 1 5BA7FE26
P 17500 8200
F 0 "#PWR?" H 17500 7950 50  0001 C CNN
F 1 "GND" H 17500 8050 50  0000 C CNN
F 2 "" H 17500 8200 50  0001 C CNN
F 3 "" H 17500 8200 50  0001 C CNN
	1    17500 8200
	1    0    0    -1  
$EndComp
Wire Wire Line
	16450 7950 16450 7900
Wire Wire Line
	16450 7900 16300 7900
Wire Wire Line
	16300 7900 16300 8200
Wire Wire Line
	17350 7950 17350 7900
Wire Wire Line
	17350 7900 17500 7900
Wire Wire Line
	17500 7900 17500 8200
Wire Wire Line
	16550 7950 16550 7750
Wire Wire Line
	16550 7750 15800 7750
Wire Wire Line
	16650 7950 16650 7600
Wire Wire Line
	16650 7600 15800 7600
Wire Wire Line
	16750 6950 16750 7950
Wire Wire Line
	16850 7050 16850 7950
Wire Wire Line
	16950 7150 16950 7950
Wire Wire Line
	17050 7250 17050 7950
Wire Wire Line
	17150 7950 17150 7350
Wire Wire Line
	17250 7950 17250 7800
Wire Wire Line
	17250 7800 17500 7800
Wire Wire Line
	17500 7800 17500 7650
$Comp
L VCC #PWR?
U 1 1 5BA80365
P 17500 7650
F 0 "#PWR?" H 17500 7500 50  0001 C CNN
F 1 "VCC" H 17500 7800 50  0000 C CNN
F 2 "" H 17500 7650 50  0001 C CNN
F 3 "" H 17500 7650 50  0001 C CNN
	1    17500 7650
	1    0    0    -1  
$EndComp
Text Label 15800 7750 0    60   ~ 0
LED_Arrow
Text Label 15800 7600 0    60   ~ 0
row_Arrow
Text Label 17500 6950 2    60   ~ 0
col_01
Wire Wire Line
	16750 6950 17500 6950
Wire Wire Line
	16850 7050 17500 7050
Wire Wire Line
	16950 7150 17500 7150
Wire Wire Line
	17050 7250 17500 7250
Wire Wire Line
	17150 7350 17500 7350
Text Label 17500 7050 2    60   ~ 0
col_02
Text Label 17500 7150 2    60   ~ 0
col_03
Text Label 17500 7250 2    60   ~ 0
col_04
Text Label 17500 7350 2    60   ~ 0
col_05
Wire Wire Line
	8950 10900 8800 10900
Wire Wire Line
	8800 10900 8800 10650
Wire Wire Line
	7350 10200 8450 10200
Wire Wire Line
	8400 10200 8400 9700
Wire Wire Line
	8400 9700 8800 9700
Wire Wire Line
	8800 9700 8800 9850
Connection ~ 8400 10200
Wire Wire Line
	9150 10200 9800 10200
Wire Wire Line
	9800 10200 9800 8600
Wire Wire Line
	9800 8600 10350 8600
Wire Wire Line
	10300 8600 10300 8100
Wire Wire Line
	10300 8100 10700 8100
Wire Wire Line
	10700 8100 10700 8250
Connection ~ 10300 8600
Wire Wire Line
	11800 8600 11050 8600
Wire Wire Line
	11800 6800 11800 9850
Wire Wire Line
	11800 6800 12250 6800
Wire Wire Line
	12250 6800 12250 6850
Connection ~ 11800 7200
Wire Wire Line
	13600 8600 13750 8600
Wire Wire Line
	14100 8250 14100 8200
Wire Wire Line
	14100 8200 13600 8200
Connection ~ 13600 8200
Wire Wire Line
	11800 9450 12250 9450
Wire Wire Line
	12250 9450 12250 9500
Wire Wire Line
	10800 9300 10700 9300
Wire Wire Line
	10700 9300 10700 9050
Wire Wire Line
	12350 7900 12250 7900
Wire Wire Line
	12250 7900 12250 7600
Wire Wire Line
	14100 9300 14100 9050
Wire Wire Line
	12250 10500 12350 10500
Wire Wire Line
	12250 10500 12250 10300
Wire Wire Line
	12600 7200 13600 7200
Wire Wire Line
	13600 7200 13600 8600
NoConn ~ 14450 8600
NoConn ~ 12600 9850
Connection ~ 11800 9450
Connection ~ 11800 8600
Wire Wire Line
	11900 7200 11800 7200
Wire Wire Line
	11800 9850 11900 9850
Wire Wire Line
	14200 9300 14100 9300
Wire Wire Line
	9250 10900 9750 10900
Text Label 9750 10900 2    60   ~ 0
col_01
Wire Wire Line
	11100 9300 11600 9300
Text Label 11600 9300 2    60   ~ 0
col_02
Wire Wire Line
	12650 7900 13150 7900
Text Label 13150 7900 2    60   ~ 0
col_03
Wire Wire Line
	12650 10500 13150 10500
Text Label 13150 10500 2    60   ~ 0
col_04
Wire Wire Line
	14500 9300 15000 9300
Text Label 15000 9300 2    60   ~ 0
col_05
Text Label 7350 10200 0    60   ~ 0
row_Arrow
$EndSCHEMATC
