(module Rotary_Coded_Switch_PT65_TL (layer F.Cu) (tedit 5D555BE2)
  (descr "4-bit rotary coded switch, through-hole, https://www.nidec-copal-electronics.com/e/catalog/switch/sh-7000.pdf")
  (tags "rotary switch bcd")
  (fp_text reference REF** (at 3.81 -2.36) (layer F.SilkS)
    (effects (font (size 1 1) (thickness 0.15)))
  )
  (fp_text value Rotary_Code_Switch_PT65_TL (at 3.81 7.44) (layer F.Fab)
    (effects (font (size 1 1) (thickness 0.15)))
  )
  (fp_text user %R (at 3.81 2.54) (layer F.Fab)
    (effects (font (size 1 1) (thickness 0.15)))
  )
  (fp_line (start 8.92 -1.36) (end -1.3 -1.36) (layer F.CrtYd) (width 0.05))
  (fp_line (start 8.92 6.44) (end 8.92 -1.36) (layer F.CrtYd) (width 0.05))
  (fp_line (start -1.3 6.44) (end 8.92 6.44) (layer F.CrtYd) (width 0.05))
  (fp_line (start -1.3 -1.36) (end -1.3 6.44) (layer F.CrtYd) (width 0.05))
  (fp_line (start 3.81 0.62) (end 5.09 1.9) (layer F.SilkS) (width 0.12))
  (fp_line (start 2.53 1.9) (end 3.81 0.62) (layer F.SilkS) (width 0.12))
  (fp_line (start 3.81 0.62) (end 3.81 4.46) (layer F.SilkS) (width 0.12))
  (fp_line (start -1.42 -1.48) (end -0.05 -1.48) (layer F.SilkS) (width 0.12))
  (fp_line (start -1.42 -0.11) (end -1.42 -1.48) (layer F.SilkS) (width 0.12))
  (fp_line (start 7.48 3.69) (end 7.48 3.93) (layer F.SilkS) (width 0.12))
  (fp_line (start 7.48 1.15) (end 7.48 1.39) (layer F.SilkS) (width 0.12))
  (fp_line (start 0.14 3.69) (end 0.14 3.93) (layer F.SilkS) (width 0.12))
  (fp_line (start 0.14 1.15) (end 0.14 1.39) (layer F.SilkS) (width 0.12))
  (fp_line (start 7.48 6.31) (end 7.48 6.23) (layer F.SilkS) (width 0.12))
  (fp_line (start 0.14 6.31) (end 7.48 6.31) (layer F.SilkS) (width 0.12))
  (fp_line (start 0.14 6.23) (end 0.14 6.31) (layer F.SilkS) (width 0.12))
  (fp_line (start 7.48 -1.23) (end 7.48 -1.15) (layer F.SilkS) (width 0.12))
  (fp_line (start 0.14 -1.23) (end 7.48 -1.23) (layer F.SilkS) (width 0.12))
  (fp_line (start 0.14 -1.15) (end 0.14 -1.23) (layer F.SilkS) (width 0.12))
  (fp_line (start 0.26 -0.11) (end 1.26 -1.11) (layer F.Fab) (width 0.1))
  (fp_line (start 0.26 6.19) (end 0.26 -0.11) (layer F.Fab) (width 0.1))
  (fp_line (start 7.36 6.19) (end 0.26 6.19) (layer F.Fab) (width 0.1))
  (fp_line (start 7.36 -1.11) (end 7.36 6.19) (layer F.Fab) (width 0.1))
  (fp_line (start 1.26 -1.11) (end 7.36 -1.11) (layer F.Fab) (width 0.1))
  (fp_circle (center 3.81 2.54) (end 6.37 2.54) (layer F.SilkS) (width 0.12))
  (pad 2 thru_hole oval (at 7.62 5.08) (size 2.1 1.9) (drill 0.8) (layers *.Cu *.Mask))
  (pad 4 thru_hole oval (at 0 5.08) (size 2.1 1.9) (drill 0.8) (layers *.Cu *.Mask))
  (pad C thru_hole oval (at 7.62 2.54) (size 2.1 1.9) (drill 0.8) (layers *.Cu *.Mask))
  (pad C thru_hole oval (at 0 2.54) (size 2.1 1.9) (drill 0.8) (layers *.Cu *.Mask))
  (pad 8 thru_hole oval (at 7.62 0) (size 2.1 1.9) (drill 0.8) (layers *.Cu *.Mask))
  (pad 1 thru_hole rect (at 0 0) (size 2.1 1.9) (drill 0.8) (layers *.Cu *.Mask))
  (model ${KISYS3DMOD}/Buttons_Switches_THT.3dshapes/Nidec_Copal_SH-7010C.wrl
    (at (xyz 0 0 0))
    (scale (xyz 1 1 1))
    (rotate (xyz 0 0 0))
  )
)
