EESchema Schematic File Version 4
LIBS:carte_clavier-cache
EELAYER 30 0
EELAYER END
$Descr A2 23386 16535
encoding utf-8
Sheet 2 4
Title "Schematic"
Date "31 aout 2019"
Rev "B"
Comp "Lilian T."
Comment1 "TL 500 001"
Comment2 "Clavier ToucheLibre"
Comment3 "Clavier Board"
Comment4 "Connectors and Hierarchical Blocs"
$EndDescr
Text Notes 2800 1050 0    59   ~ 12
Connecteurs vers carte CoCo\nConnectors to CoCo board
Wire Notes Line
	2750 1100 7100 1100
Wire Notes Line
	7100 8350 7100 15500
Wire Notes Line
	7100 15500 2750 15500
Wire Notes Line
	2750 15500 2750 8350
$Sheet
S 10100 2600 3200 4050
U 5B24D537
F0 "IO_Expander" 79
F1 "IO_Expander.sch" 79
F2 "Lig_A" I R 13300 6000 60 
F3 "Lig_B" I R 13300 5900 60 
F4 "Lig_C" I R 13300 5800 60 
F5 "Lig_D" I R 13300 5700 60 
F6 "Lig_E" I R 13300 5600 60 
F7 "Lig_F" I R 13300 5500 60 
F8 "Col_1" O R 13300 3000 60 
F9 "Col_1bis" O R 13300 3100 60 
F10 "Col_2" O R 13300 3200 60 
F11 "Col_2bis" O R 13300 3300 60 
F12 "Col_3" O R 13300 3400 60 
F13 "Col_3bis" O R 13300 3500 60 
F14 "Col_4" O R 13300 3600 60 
F15 "Col_8" O R 13300 4400 60 
F16 "Col_8bis" O R 13300 4500 60 
F17 "Col_4bis" O R 13300 3700 60 
F18 "Col_5" O R 13300 3800 60 
F19 "Col_5bis" O R 13300 3900 60 
F20 "Col_6" O R 13300 4000 60 
F21 "Col_6bis" O R 13300 4100 60 
F22 "Col_7" O R 13300 4200 60 
F23 "Col_7bis" O R 13300 4300 60 
F24 "Lig_X" I R 13300 5400 60 
F25 "Lig_M" I R 13300 5300 60 
F26 "I2C_KSCAN_SDA" B L 10100 4000 60 
F27 "I2C_KSCAN_SCL" I L 10100 4100 60 
F28 "I2C_KSCAN_INT" O L 10100 3900 60 
$EndSheet
$Sheet
S 18050 1300 2400 11100
U 5B24D4AC
F0 "clavier" 79
F1 "clavier.sch" 79
F2 "Lig_A" O L 18050 6000 60 
F3 "Lig_B" O L 18050 5900 60 
F4 "Lig_C" O L 18050 5800 60 
F5 "Lig_D" O L 18050 5700 60 
F6 "Lig_E" O L 18050 5600 60 
F7 "Lig_F" O L 18050 5500 60 
F8 "Lig_X" O L 18050 5400 60 
F9 "Col_1" I L 18050 3000 60 
F10 "Col_1bis" I L 18050 3100 60 
F11 "Col_2" I L 18050 3200 60 
F12 "Col_2bis" I L 18050 3300 60 
F13 "Col_3" I L 18050 3400 60 
F14 "Col_3bis" I L 18050 3500 60 
F15 "Col_4" I L 18050 3600 60 
F16 "Col_5" I L 18050 3800 60 
F17 "Col_5bis" I L 18050 3900 60 
F18 "Col_4bis" I L 18050 3700 60 
F19 "Col_6" I L 18050 4000 60 
F20 "Col_6bis" I L 18050 4100 60 
F21 "Col_7" I L 18050 4200 60 
F22 "Col_7bis" I L 18050 4300 60 
F23 "Col_8" I L 18050 4400 60 
F24 "Col_8bis" I L 18050 4500 60 
F25 "Lig_M" O L 18050 5300 60 
F26 "Col_5bis_SW" O L 18050 1800 60 
F27 "Col_1_Opt_G" O L 18050 8900 60 
F28 "Col_1bis_Opt_G" O L 18050 9000 60 
F29 "Col_2_Opt_G" O L 18050 9200 60 
F30 "Col_2bis_Opt_G" O L 18050 9300 60 
F31 "Col_3_Opt_G" O L 18050 9500 60 
F32 "Col_3bis_Opt_G" O L 18050 9600 60 
F33 "Col_6_Opt_D" O L 18050 10700 60 
F34 "Col_6bis_Opt_D" O L 18050 10800 60 
F35 "Col_7_Opt_D" O L 18050 11000 60 
F36 "Col_7bis_Opt_D" O L 18050 11100 60 
F37 "Col_8_Opt_D" O L 18050 11300 60 
F38 "Col_8bis_Opt_D" O L 18050 11400 60 
F39 "Lig_X_Opt_G" I L 18050 8700 60 
F40 "Lig_X_Opt_D" I L 18050 11600 60 
$EndSheet
$Comp
L carte_clavier-rescue:GND-power-carte_coco_simple-rescue #PWR02006
U 1 1 5D973CD0
P 3100 4800
F 0 "#PWR02006" H 3100 4550 50  0001 C CNN
F 1 "GND-power" H 3105 4627 50  0001 C CNN
F 2 "" H 3100 4800 50  0001 C CNN
F 3 "" H 3100 4800 50  0001 C CNN
	1    3100 4800
	1    0    0    -1  
$EndComp
Wire Wire Line
	3100 4800 3100 4700
Wire Wire Line
	3100 4700 3000 4700
Connection ~ 3100 4700
Wire Wire Line
	3100 3800 3000 3800
$Comp
L carte_clavier-rescue:+5V-power-carte_coco_simple-rescue #PWR02004
U 1 1 5D973CDD
P 5050 3500
F 0 "#PWR02004" H 5050 3350 50  0001 C CNN
F 1 "+5V" H 5050 3650 50  0000 C CNN
F 2 "" H 5050 3500 50  0001 C CNN
F 3 "" H 5050 3500 50  0001 C CNN
	1    5050 3500
	1    0    0    -1  
$EndComp
$Comp
L carte_clavier-rescue:+3.3V-power-carte_coco_simple-rescue #PWR02005
U 1 1 5D973CE3
P 4800 3500
F 0 "#PWR02005" H 4800 3350 50  0001 C CNN
F 1 "+3.3V" H 4800 3650 50  0000 C CNN
F 2 "" H 4800 3500 50  0001 C CNN
F 3 "" H 4800 3500 50  0001 C CNN
	1    4800 3500
	1    0    0    -1  
$EndComp
$Comp
L carte_clavier-rescue:GND-power-carte_coco_simple-rescue #PWR?
U 1 1 5D973CEA
P 5050 5050
AR Path="/5BBF869B/5CA9DCAF/5D973CEA" Ref="#PWR?"  Part="1" 
AR Path="/5BBF869B/5D973CEA" Ref="#PWR?"  Part="1" 
AR Path="/5B24D131/5D973CEA" Ref="#PWR02007"  Part="1" 
F 0 "#PWR02007" H 5050 4800 50  0001 C CNN
F 1 "GND-power" H 5055 4877 50  0001 C CNN
F 2 "" H 5050 5050 50  0001 C CNN
F 3 "" H 5050 5050 50  0001 C CNN
	1    5050 5050
	1    0    0    -1  
$EndComp
$Comp
L carte_clavier-rescue:C-Device-carte_coco_simple-rescue C?
U 1 1 5D973CF0
P 5050 4850
AR Path="/5BBF869B/5CA9DCAF/5D973CF0" Ref="C?"  Part="1" 
AR Path="/5BBF869B/5D973CF0" Ref="C?"  Part="1" 
AR Path="/5B24D131/5D973CF0" Ref="C12002"  Part="1" 
F 0 "C12002" H 5100 4950 50  0000 L CNN
F 1 "220nF" H 5200 4850 50  0000 L CNN
F 2 "lib_clavier:C_0402_TL" H 5088 4700 50  0001 C CNN
F 3 "~" H 5050 4850 50  0001 C CNN
F 4 "10V" H 5250 4750 50  0000 C CNN "Tension"
F 5 "CD" H 5050 4850 50  0001 C CNN "Variante"
F 6 "TL 200 022" H 5050 4850 50  0001 C CNN "ID_Base"
	1    5050 4850
	1    0    0    -1  
$EndComp
Wire Wire Line
	5050 5000 5050 5050
$Comp
L carte_clavier-rescue:GND-power-carte_coco_simple-rescue #PWR?
U 1 1 5D973CF8
P 4800 5050
AR Path="/5BBF869B/5CA9DCAF/5D973CF8" Ref="#PWR?"  Part="1" 
AR Path="/5BBF869B/5D973CF8" Ref="#PWR?"  Part="1" 
AR Path="/5B24D131/5D973CF8" Ref="#PWR02008"  Part="1" 
F 0 "#PWR02008" H 4800 4800 50  0001 C CNN
F 1 "GND-power" H 4805 4877 50  0001 C CNN
F 2 "" H 4800 5050 50  0001 C CNN
F 3 "" H 4800 5050 50  0001 C CNN
	1    4800 5050
	1    0    0    -1  
$EndComp
$Comp
L carte_clavier-rescue:C-Device-carte_coco_simple-rescue C?
U 1 1 5D973CFE
P 4800 4850
AR Path="/5BBF869B/5CA9DCAF/5D973CFE" Ref="C?"  Part="1" 
AR Path="/5BBF869B/5D973CFE" Ref="C?"  Part="1" 
AR Path="/5B24D131/5D973CFE" Ref="C12003"  Part="1" 
F 0 "C12003" H 4450 4950 50  0000 L CNN
F 1 "220nF" H 4450 4850 50  0000 L CNN
F 2 "lib_clavier:C_0402_TL" H 4838 4700 50  0001 C CNN
F 3 "~" H 4800 4850 50  0001 C CNN
F 4 "10V" H 4600 4750 50  0000 C CNN "Tension"
F 5 "CD" H 4800 4850 50  0001 C CNN "Variante"
F 6 "TL 200 022" H 4800 4850 50  0001 C CNN "ID_Base"
	1    4800 4850
	1    0    0    -1  
$EndComp
Wire Wire Line
	4800 5000 4800 5050
$Comp
L carte_clavier-rescue:VBUS_F-power #PWR2002
U 1 1 5D973D11
P 4000 3500
F 0 "#PWR2002" H 4150 3400 50  0001 C CNN
F 1 "VBUS_F" H 3995 3674 50  0000 C CNN
F 2 "" H 4000 3500 50  0001 C CNN
F 3 "" H 4000 3500 50  0001 C CNN
	1    4000 3500
	1    0    0    -1  
$EndComp
$Comp
L Connector_Generic:Conn_01x10 J12003
U 1 1 5D973D17
P 2800 4200
F 0 "J12003" H 2600 4850 50  0000 C CNN
F 1 "Conn_01x10" H 2550 4750 50  0000 C CNN
F 2 "lib_clavier:InterBoard_1x10_P1.27mm_inverse_TL" H 2800 4200 50  0001 C CNN
F 3 "~" H 2800 4200 50  0001 C CNN
F 4 "CD" H 2800 4200 50  0001 C CNN "Variante"
F 5 "TL 200 066" H 2800 4200 50  0001 C CNN "ID_Base"
	1    2800 4200
	-1   0    0    -1  
$EndComp
$Comp
L carte_clavier-rescue:GND-power-carte_coco_simple-rescue #PWR?
U 1 1 5D973D27
P 4000 5050
AR Path="/5BBF869B/5CA9DCAF/5D973D27" Ref="#PWR?"  Part="1" 
AR Path="/5BBF869B/5D973D27" Ref="#PWR?"  Part="1" 
AR Path="/5B24D131/5D973D27" Ref="#PWR02003"  Part="1" 
F 0 "#PWR02003" H 4000 4800 50  0001 C CNN
F 1 "GND-power" H 4005 4877 50  0001 C CNN
F 2 "" H 4000 5050 50  0001 C CNN
F 3 "" H 4000 5050 50  0001 C CNN
	1    4000 5050
	1    0    0    -1  
$EndComp
$Comp
L carte_clavier-rescue:C-Device-carte_coco_simple-rescue C?
U 1 1 5D973D2D
P 4000 4850
AR Path="/5BBF869B/5CA9DCAF/5D973D2D" Ref="C?"  Part="1" 
AR Path="/5BBF869B/5D973D2D" Ref="C?"  Part="1" 
AR Path="/5B24D131/5D973D2D" Ref="C12001"  Part="1" 
F 0 "C12001" H 4050 4950 50  0000 L CNN
F 1 "220nF" H 4115 4805 50  0000 L CNN
F 2 "lib_clavier:C_0402_TL" H 4038 4700 50  0001 C CNN
F 3 "~" H 4000 4850 50  0001 C CNN
F 4 "10V" H 4150 4700 50  0000 C CNN "Tension"
F 5 "CD" H 4000 4850 50  0001 C CNN "Variante"
F 6 "TL 200 022" H 4000 4850 50  0001 C CNN "ID_Base"
	1    4000 4850
	1    0    0    -1  
$EndComp
Wire Wire Line
	4000 5000 4000 5050
Text Label 8300 4100 0    60   ~ 0
I2C_KSCAN_SCL
Text Label 8300 4000 0    60   ~ 0
I2C_KSCAN_SDA
Text Label 8300 3900 0    60   ~ 0
I2C_KSCAN_INT
Text Label 3250 1700 0    60   ~ 0
Lig_F
Text Label 3250 1800 0    60   ~ 0
Col_5bis_SW
$Comp
L Connector_Generic:Conn_01x36 J12008
U 1 1 5D99FF54
P 2800 13200
F 0 "J12008" H 2650 15150 50  0000 C CNN
F 1 "Conn_01x36" H 2600 15050 50  0000 C CNN
F 2 "lib_clavier:InterBoard_1x36_P1.27mm_inverse_TL" H 2800 13200 50  0001 C CNN
F 3 "~" H 2800 13200 50  0001 C CNN
F 4 "CD" H 2800 13200 50  0001 C CNN "Variante"
F 5 "TL 200 067" H 2800 13200 50  0001 C CNN "ID_Base"
	1    2800 13200
	-1   0    0    -1  
$EndComp
$Comp
L carte_clavier-rescue:GND-power-carte_coco_simple-rescue-carte_MCU-rescue #PWR?
U 1 1 5D99FF5B
P 3100 15200
AR Path="/5D4A0749/5D55A9E5/5D99FF5B" Ref="#PWR?"  Part="1" 
AR Path="/5D4A0749/5D99FF5B" Ref="#PWR?"  Part="1" 
AR Path="/5B24D131/5D99FF5B" Ref="#PWR02018"  Part="1" 
AR Path="/5D99FF5B" Ref="#PWR?"  Part="1" 
F 0 "#PWR02018" H 3100 14950 50  0001 C CNN
F 1 "GND-power" H 3105 15027 50  0001 C CNN
F 2 "" H 3100 15200 50  0001 C CNN
F 3 "" H 3100 15200 50  0001 C CNN
	1    3100 15200
	1    0    0    -1  
$EndComp
Wire Wire Line
	3000 15000 3100 15000
Wire Wire Line
	3100 15000 3100 15200
Wire Wire Line
	3000 14700 3100 14700
Wire Wire Line
	3100 14700 3100 15000
Wire Wire Line
	3000 14400 3100 14400
Wire Wire Line
	3100 14400 3100 14700
Connection ~ 3100 14700
Wire Wire Line
	3000 14100 3100 14100
Wire Wire Line
	3100 14100 3100 14400
Connection ~ 3100 14400
Wire Wire Line
	3000 13800 3100 13800
Wire Wire Line
	3100 13800 3100 14100
Connection ~ 3100 14100
Wire Wire Line
	3000 13500 3100 13500
Wire Wire Line
	3100 13500 3100 13800
Connection ~ 3100 13800
Wire Wire Line
	3000 13200 3100 13200
Wire Wire Line
	3100 13200 3100 13500
Connection ~ 3100 13500
Wire Wire Line
	3100 12900 3100 13200
Connection ~ 3100 13200
Wire Wire Line
	3000 12900 3100 12900
Wire Wire Line
	3000 12600 3100 12600
Wire Wire Line
	3100 12600 3100 12900
Connection ~ 3100 12900
Wire Wire Line
	3000 12300 3100 12300
Wire Wire Line
	3100 12300 3100 12600
Connection ~ 3100 12600
Wire Wire Line
	3000 11900 3100 11900
Wire Wire Line
	3100 11900 3100 12300
Connection ~ 3100 12300
Wire Wire Line
	3000 11500 3100 11500
Wire Wire Line
	3100 11500 3100 11900
Connection ~ 3100 11900
Text GLabel 3650 11050 2    50   UnSpc ~ 0
VBUS_F
$Comp
L carte_clavier-rescue:VBUS_F-power #PWR2013
U 1 1 5D99FF87
P 3400 11000
F 0 "#PWR2013" H 3550 10900 50  0001 C CNN
F 1 "VBUS_F" H 3395 11174 50  0000 C CNN
F 2 "" H 3400 11000 50  0001 C CNN
F 3 "" H 3400 11000 50  0001 C CNN
	1    3400 11000
	1    0    0    -1  
$EndComp
Wire Wire Line
	3000 11600 3400 11600
$Comp
L power:+3.3V #PWR02015
U 1 1 5D99FFAD
P 4150 11000
F 0 "#PWR02015" H 4150 10850 50  0001 C CNN
F 1 "+3.3V" H 4165 11173 50  0000 C CNN
F 2 "" H 4150 11000 50  0001 C CNN
F 3 "" H 4150 11000 50  0001 C CNN
	1    4150 11000
	1    0    0    -1  
$EndComp
$Comp
L power:+5V #PWR02016
U 1 1 5D99FFB3
P 4800 11000
F 0 "#PWR02016" H 4800 10850 50  0001 C CNN
F 1 "+5V" H 4815 11173 50  0000 C CNN
F 2 "" H 4800 11000 50  0001 C CNN
F 3 "" H 4800 11000 50  0001 C CNN
	1    4800 11000
	1    0    0    -1  
$EndComp
Text Label 3250 13400 0    60   ~ 0
Lig_A
Text Label 3250 12400 0    60   ~ 0
Lig_M
Text Label 3250 12500 0    60   ~ 0
Lig_X
Text Label 3250 13300 0    60   ~ 0
Lig_B
Text Label 3250 13100 0    60   ~ 0
Lig_C
Text Label 3250 13000 0    60   ~ 0
Lig_D
Text Label 3250 12800 0    60   ~ 0
Lig_E
Text Label 3250 12700 0    60   ~ 0
Lig_F
Text Label 3250 13600 0    60   ~ 0
Col_8
Text Label 3250 13700 0    60   ~ 0
Col_7
Text Label 3250 13900 0    60   ~ 0
Col_6
Text Label 3250 14000 0    60   ~ 0
Col_5
Text Label 3250 14200 0    60   ~ 0
Col_4
Text Label 3250 14300 0    60   ~ 0
Col_3
Text Label 3250 14500 0    60   ~ 0
Col_2
Text Label 3250 14600 0    60   ~ 0
Col_1
Text Label 3250 14900 0    60   ~ 0
AUDIO_OUT
Text Label 3250 14800 0    60   ~ 0
AUDIO_IN
Text Label 3250 12200 0    60   ~ 0
I2C_COCO_INT
Text Label 3250 12100 0    60   ~ 0
I2C_COCO_SDA
Text Label 3250 12000 0    60   ~ 0
I2C_COCO_SCL
Wire Wire Line
	3400 11050 3650 11050
$Comp
L Device:R R12001
U 1 1 5DA33146
P 6500 4100
F 0 "R12001" V 6450 4400 50  0000 C CNN
F 1 "0" V 6500 4100 50  0000 C CNN
F 2 "lib_clavier:R_0402_TL" V 6430 4100 50  0001 C CNN
F 3 "~" H 6500 4100 50  0001 C CNN
F 4 "G2" H 6500 4100 50  0001 C CNN "Variante"
F 5 "TL 200 001" H 0   -100 50  0001 C CNN "ID_Base"
	1    6500 4100
	0    1    1    0   
$EndComp
Wire Wire Line
	6650 4100 10100 4100
$Comp
L Device:R R12002
U 1 1 5DA33219
P 6500 4000
F 0 "R12002" V 6450 4300 50  0000 C CNN
F 1 "0" V 6500 4000 50  0000 C CNN
F 2 "lib_clavier:R_0402_TL" V 6430 4000 50  0001 C CNN
F 3 "~" H 6500 4000 50  0001 C CNN
F 4 "G2" H 6500 4000 50  0001 C CNN "Variante"
F 5 "TL 200 001" H 0   -300 50  0001 C CNN "ID_Base"
	1    6500 4000
	0    1    1    0   
$EndComp
Wire Wire Line
	6650 4000 10100 4000
$Comp
L Device:R R12003
U 1 1 5DA3323D
P 6500 3900
F 0 "R12003" V 6450 4200 50  0000 C CNN
F 1 "0" V 6500 3900 50  0000 C CNN
F 2 "lib_clavier:R_0402_TL" V 6430 3900 50  0001 C CNN
F 3 "~" H 6500 3900 50  0001 C CNN
F 4 "G2" H 6500 3900 50  0001 C CNN "Variante"
F 5 "TL 200 001" H 0   -600 50  0001 C CNN "ID_Base"
	1    6500 3900
	0    1    1    0   
$EndComp
Wire Wire Line
	6650 3900 10100 3900
Wire Wire Line
	3000 12500 14100 12500
Wire Wire Line
	3000 12400 14000 12400
$Comp
L carte_clavier-rescue:GND-power-carte_coco_simple-rescue #PWR?
U 1 1 5D4DA443
P 3100 6600
AR Path="/5D4DA443" Ref="#PWR?"  Part="1" 
AR Path="/5B24D131/5D4DA443" Ref="#PWR02009"  Part="1" 
F 0 "#PWR02009" H 3100 6350 50  0001 C CNN
F 1 "GND-power" H 3105 6427 50  0001 C CNN
F 2 "" H 3100 6600 50  0001 C CNN
F 3 "" H 3100 6600 50  0001 C CNN
	1    3100 6600
	1    0    0    -1  
$EndComp
Wire Wire Line
	3100 6600 3100 6500
Wire Wire Line
	3100 6200 3000 6200
Wire Wire Line
	3000 6500 3100 6500
Connection ~ 3100 6500
Wire Wire Line
	3100 6500 3100 6200
$Comp
L Connector_Generic:Conn_01x10 J12004
U 1 1 5D5074E2
P 2800 6000
F 0 "J12004" H 2650 6650 50  0000 C CNN
F 1 "Conn_01x10" H 2600 6550 50  0000 C CNN
F 2 "lib_clavier:InterBoard_1x10_P1.27mm_inverse_TL" H 2800 6000 50  0001 C CNN
F 3 "~" H 2800 6000 50  0001 C CNN
F 4 "G5" H 2800 6000 50  0001 C CNN "Variante"
F 5 "TL 200 066" H 2800 6000 50  0001 C CNN "ID_Base"
	1    2800 6000
	-1   0    0    -1  
$EndComp
Wire Wire Line
	3100 6200 3100 5900
Wire Wire Line
	3100 5900 3000 5900
Connection ~ 3100 6200
Wire Wire Line
	3100 5900 3100 5600
Wire Wire Line
	3100 5600 3000 5600
Connection ~ 3100 5900
Text Notes 2800 8300 0    59   ~ 12
Connecteurs vers carte MCU ou CPU\nConnectors to MCU or CPU board
Wire Notes Line
	2750 8350 7100 8350
Wire Notes Line
	2750 7700 2750 1100
Wire Notes Line
	7100 7700 7100 1100
Wire Notes Line
	2750 7700 7100 7700
$Comp
L carte_clavier-rescue:GND-power-carte_coco_simple-rescue #PWR?
U 1 1 5D5B59E6
P 3100 10600
AR Path="/5D5B59E6" Ref="#PWR?"  Part="1" 
AR Path="/5B24D131/5D5B59E6" Ref="#PWR02011"  Part="1" 
F 0 "#PWR02011" H 3100 10350 50  0001 C CNN
F 1 "GND-power" H 3105 10427 50  0001 C CNN
F 2 "" H 3100 10600 50  0001 C CNN
F 3 "" H 3100 10600 50  0001 C CNN
	1    3100 10600
	1    0    0    -1  
$EndComp
Wire Wire Line
	3100 10600 3100 10500
Wire Wire Line
	3100 10200 3000 10200
Wire Wire Line
	3000 10500 3100 10500
Connection ~ 3100 10500
Wire Wire Line
	3100 10500 3100 10200
Text Label 3600 10300 2    60   ~ 0
USB2_N
Text Label 3600 10400 2    60   ~ 0
USB2_P
$Comp
L Connector_Generic:Conn_01x10 J12005
U 1 1 5D5B59F5
P 2800 10000
F 0 "J12005" H 2650 10650 50  0000 C CNN
F 1 "Conn_01x10" H 2600 10550 50  0000 C CNN
F 2 "lib_clavier:InterBoard_1x10_P1.27mm_TL" H 2800 10000 50  0001 C CNN
F 3 "~" H 2800 10000 50  0001 C CNN
F 4 "G5" H 2800 10000 50  0001 C CNN "Variante"
F 5 "TL 200 066" H 2800 10000 50  0001 C CNN "ID_Base"
	1    2800 10000
	-1   0    0    -1  
$EndComp
Wire Wire Line
	3100 10200 3100 9900
Wire Wire Line
	3100 9900 3000 9900
Connection ~ 3100 10200
Wire Wire Line
	3100 9900 3100 9600
Wire Wire Line
	3100 9600 3000 9600
Connection ~ 3100 9900
Connection ~ 3100 15000
Text Label 3250 9700 0    60   ~ 0
USB3_TX_N
Text Label 3250 9800 0    60   ~ 0
USB3_TX_P
Text Label 3250 10000 0    60   ~ 0
USB3_RX_N
Text Label 3250 10100 0    60   ~ 0
USB3_RX_P
Text Label 3250 5700 0    60   ~ 0
USB3_TX_N
Text Label 3250 5800 0    60   ~ 0
USB3_TX_P
Text Label 3250 6000 0    60   ~ 0
USB3_RX_N
Text Label 3250 6100 0    60   ~ 0
USB3_RX_P
Text Label 3600 6300 2    60   ~ 0
USB2_N
Text Label 3600 6400 2    60   ~ 0
USB2_P
$Comp
L Connector_Generic:Conn_01x04 J12002
U 1 1 5D721B5B
P 2800 2600
F 0 "J12002" H 2650 2950 50  0000 C CNN
F 1 "Conn_01x04" H 2600 2850 50  0000 C CNN
F 2 "lib_clavier:InterBoard_1x04_P1.27mm_TL" H 2800 2600 50  0001 C CNN
F 3 "~" H 2800 2600 50  0001 C CNN
F 4 "G6" H 2800 2600 50  0001 C CNN "Variante"
F 5 "TL 200 065" H 2800 2600 50  0001 C CNN "ID_Base"
	1    2800 2600
	-1   0    0    -1  
$EndComp
$Comp
L carte_clavier-rescue:GND #PWR02001
U 1 1 5D721C9F
P 3100 2900
F 0 "#PWR02001" H 3100 2650 50  0001 C CNN
F 1 "GND" H 3105 2727 50  0001 C CNN
F 2 "" H 3100 2900 50  0000 C CNN
F 3 "" H 3100 2900 50  0000 C CNN
	1    3100 2900
	1    0    0    -1  
$EndComp
Wire Wire Line
	3100 2800 3100 2500
Wire Wire Line
	3100 2500 3000 2500
Wire Wire Line
	3000 2800 3100 2800
Wire Wire Line
	3100 2900 3100 2800
Connection ~ 3100 2800
Text Label 3250 2700 0    60   ~ 0
AUDIO_OUT
Text Label 3250 2600 0    60   ~ 0
AUDIO_IN
Wire Wire Line
	3000 1700 17800 1700
Wire Wire Line
	3000 1800 18050 1800
Text Notes 10150 7650 0    59   ~ 12
Connecteurs vers cartes options droite et gauche\nConnectors to left and right option board
Wire Notes Line
	10100 7700 13300 7700
Wire Notes Line
	10100 11900 13300 11900
$Comp
L carte_clavier-rescue:GND #PWR02017
U 1 1 5EED7DDD
P 10500 11700
F 0 "#PWR02017" H 10500 11450 50  0001 C CNN
F 1 "GND" H 10505 11527 50  0001 C CNN
F 2 "" H 10500 11700 50  0000 C CNN
F 3 "" H 10500 11700 50  0000 C CNN
	1    10500 11700
	1    0    0    -1  
$EndComp
$Comp
L carte_clavier-rescue:GND #PWR02012
U 1 1 5EEE3A69
P 10500 9700
F 0 "#PWR02012" H 10500 9450 50  0001 C CNN
F 1 "GND" H 10505 9527 50  0001 C CNN
F 2 "" H 10500 9700 50  0000 C CNN
F 3 "" H 10500 9700 50  0000 C CNN
	1    10500 9700
	1    0    0    -1  
$EndComp
Wire Wire Line
	18050 8900 10350 8900
Wire Wire Line
	18050 9000 10350 9000
Wire Wire Line
	18050 9200 10350 9200
Wire Wire Line
	18050 9300 10350 9300
Wire Wire Line
	18050 9500 10350 9500
Wire Wire Line
	18050 9600 10350 9600
Wire Wire Line
	18050 10700 10350 10700
Wire Wire Line
	18050 10800 10350 10800
Wire Wire Line
	18050 11000 10350 11000
Wire Wire Line
	18050 11100 10350 11100
Wire Wire Line
	18050 11300 10350 11300
Wire Wire Line
	18050 11400 10350 11400
$Comp
L power:+3.3V #PWR02014
U 1 1 6C4EF21D
P 10600 10100
F 0 "#PWR02014" H 10600 9950 50  0001 C CNN
F 1 "+3.3V" H 10615 10273 50  0000 C CNN
F 2 "" H 10600 10100 50  0001 C CNN
F 3 "" H 10600 10100 50  0001 C CNN
	1    10600 10100
	1    0    0    -1  
$EndComp
$Comp
L power:+3.3V #PWR02010
U 1 1 6C4EF24B
P 10600 8050
F 0 "#PWR02010" H 10600 7900 50  0001 C CNN
F 1 "+3.3V" H 10615 8223 50  0000 C CNN
F 2 "" H 10600 8050 50  0001 C CNN
F 3 "" H 10600 8050 50  0001 C CNN
	1    10600 8050
	1    0    0    -1  
$EndComp
Wire Wire Line
	10600 10100 10600 10150
$Comp
L carte_clavier-rescue:GND-power-carte_coco_simple-rescue #PWR?
U 1 1 5D7691D5
P 3550 11500
AR Path="/5BBF869B/5CA9DCAF/5D7691D5" Ref="#PWR?"  Part="1" 
AR Path="/5BBF869B/5D7691D5" Ref="#PWR?"  Part="1" 
AR Path="/5B24D131/5D7691D5" Ref="#PWR0101"  Part="1" 
F 0 "#PWR0101" H 3550 11250 50  0001 C CNN
F 1 "GND-power" H 3555 11327 50  0001 C CNN
F 2 "" H 3550 11500 50  0001 C CNN
F 3 "" H 3550 11500 50  0001 C CNN
	1    3550 11500
	1    0    0    -1  
$EndComp
$Comp
L carte_clavier-rescue:C-Device-carte_coco_simple-rescue C?
U 1 1 5D7691DC
P 3550 11300
AR Path="/5BBF869B/5CA9DCAF/5D7691DC" Ref="C?"  Part="1" 
AR Path="/5BBF869B/5D7691DC" Ref="C?"  Part="1" 
AR Path="/5B24D131/5D7691DC" Ref="C12004"  Part="1" 
F 0 "C12004" H 3600 11400 50  0000 L CNN
F 1 "220nF" H 3700 11300 50  0000 L CNN
F 2 "lib_clavier:C_0402_TL" H 3588 11150 50  0001 C CNN
F 3 "~" H 3550 11300 50  0001 C CNN
F 4 "10V" H 3750 11200 50  0000 C CNN "Tension"
F 5 "CD" H 3550 11300 50  0001 C CNN "Variante"
F 6 "TL 200 022" H 3550 11300 50  0001 C CNN "ID_Base"
	1    3550 11300
	1    0    0    -1  
$EndComp
Wire Wire Line
	3550 11450 3550 11500
$Comp
L carte_clavier-rescue:GND-power-carte_coco_simple-rescue #PWR?
U 1 1 5D7771A3
P 4300 11500
AR Path="/5BBF869B/5CA9DCAF/5D7771A3" Ref="#PWR?"  Part="1" 
AR Path="/5BBF869B/5D7771A3" Ref="#PWR?"  Part="1" 
AR Path="/5B24D131/5D7771A3" Ref="#PWR0102"  Part="1" 
F 0 "#PWR0102" H 4300 11250 50  0001 C CNN
F 1 "GND-power" H 4305 11327 50  0001 C CNN
F 2 "" H 4300 11500 50  0001 C CNN
F 3 "" H 4300 11500 50  0001 C CNN
	1    4300 11500
	1    0    0    -1  
$EndComp
$Comp
L carte_clavier-rescue:C-Device-carte_coco_simple-rescue C?
U 1 1 5D7771AA
P 4300 11300
AR Path="/5BBF869B/5CA9DCAF/5D7771AA" Ref="C?"  Part="1" 
AR Path="/5BBF869B/5D7771AA" Ref="C?"  Part="1" 
AR Path="/5B24D131/5D7771AA" Ref="C12005"  Part="1" 
F 0 "C12005" H 4350 11400 50  0000 L CNN
F 1 "220nF" H 4450 11300 50  0000 L CNN
F 2 "lib_clavier:C_0402_TL" H 4338 11150 50  0001 C CNN
F 3 "~" H 4300 11300 50  0001 C CNN
F 4 "10V" H 4500 11200 50  0000 C CNN "Tension"
F 5 "CD" H 4300 11300 50  0001 C CNN "Variante"
F 6 "TL 200 022" H 4300 11300 50  0001 C CNN "ID_Base"
	1    4300 11300
	1    0    0    -1  
$EndComp
Wire Wire Line
	4300 11450 4300 11500
$Comp
L carte_clavier-rescue:GND-power-carte_coco_simple-rescue #PWR?
U 1 1 5D7853D6
P 4950 11500
AR Path="/5BBF869B/5CA9DCAF/5D7853D6" Ref="#PWR?"  Part="1" 
AR Path="/5BBF869B/5D7853D6" Ref="#PWR?"  Part="1" 
AR Path="/5B24D131/5D7853D6" Ref="#PWR0103"  Part="1" 
F 0 "#PWR0103" H 4950 11250 50  0001 C CNN
F 1 "GND-power" H 4955 11327 50  0001 C CNN
F 2 "" H 4950 11500 50  0001 C CNN
F 3 "" H 4950 11500 50  0001 C CNN
	1    4950 11500
	1    0    0    -1  
$EndComp
$Comp
L carte_clavier-rescue:C-Device-carte_coco_simple-rescue C?
U 1 1 5D7853DD
P 4950 11300
AR Path="/5BBF869B/5CA9DCAF/5D7853DD" Ref="C?"  Part="1" 
AR Path="/5BBF869B/5D7853DD" Ref="C?"  Part="1" 
AR Path="/5B24D131/5D7853DD" Ref="C12006"  Part="1" 
F 0 "C12006" H 5000 11400 50  0000 L CNN
F 1 "220nF" H 5100 11300 50  0000 L CNN
F 2 "lib_clavier:C_0402_TL" H 4988 11150 50  0001 C CNN
F 3 "~" H 4950 11300 50  0001 C CNN
F 4 "10V" H 5150 11200 50  0000 C CNN "Tension"
F 5 "CD" H 4950 11300 50  0001 C CNN "Variante"
F 6 "TL 200 022" H 4950 11300 50  0001 C CNN "ID_Base"
	1    4950 11300
	1    0    0    -1  
$EndComp
Wire Wire Line
	4950 11450 4950 11500
Wire Wire Line
	3400 11050 3400 11000
Wire Wire Line
	3550 11150 3550 11100
Wire Wire Line
	3550 11100 3400 11100
Wire Wire Line
	3400 11100 3400 11600
Wire Wire Line
	3400 11100 3400 11050
Connection ~ 3400 11100
Connection ~ 3400 11050
Wire Wire Line
	4150 11700 4150 11100
Wire Wire Line
	3000 11700 4150 11700
Wire Wire Line
	4300 11150 4300 11100
Wire Wire Line
	4300 11100 4150 11100
Connection ~ 4150 11100
Wire Wire Line
	4150 11100 4150 11000
Wire Wire Line
	4800 11800 4800 11100
Wire Wire Line
	4950 11150 4950 11100
Wire Wire Line
	4950 11100 4800 11100
Connection ~ 4800 11100
Wire Wire Line
	4800 11100 4800 11000
Wire Wire Line
	3000 11800 4800 11800
Wire Wire Line
	18050 3100 13300 3100
Wire Wire Line
	13300 3300 18050 3300
Wire Wire Line
	13300 3500 18050 3500
Wire Wire Line
	13300 3700 18050 3700
Wire Wire Line
	13300 3900 18050 3900
Wire Wire Line
	13300 4100 18050 4100
Wire Wire Line
	13300 4300 18050 4300
Wire Wire Line
	18050 4500 13300 4500
Wire Wire Line
	13300 5500 14200 5500
Wire Wire Line
	13300 5700 14400 5700
Wire Wire Line
	13300 5600 14300 5600
Wire Wire Line
	18050 5800 14500 5800
Wire Wire Line
	13300 5900 14600 5900
Wire Wire Line
	13300 6000 14700 6000
Wire Wire Line
	14300 5600 18050 5600
Wire Wire Line
	14400 5700 18050 5700
Wire Wire Line
	14500 5800 13300 5800
Wire Wire Line
	14600 5900 18050 5900
Wire Wire Line
	14700 6000 18050 6000
$Comp
L carte_clavier-rescue:GND-power-carte_coco_simple-rescue #PWR?
U 1 1 5D7AE837
P 10800 8450
AR Path="/5BBF869B/5CA9DCAF/5D7AE837" Ref="#PWR?"  Part="1" 
AR Path="/5BBF869B/5D7AE837" Ref="#PWR?"  Part="1" 
AR Path="/5B24D131/5D7AE837" Ref="#PWR0104"  Part="1" 
F 0 "#PWR0104" H 10800 8200 50  0001 C CNN
F 1 "GND-power" H 10805 8277 50  0001 C CNN
F 2 "" H 10800 8450 50  0001 C CNN
F 3 "" H 10800 8450 50  0001 C CNN
	1    10800 8450
	1    0    0    -1  
$EndComp
$Comp
L carte_clavier-rescue:C-Device-carte_coco_simple-rescue C?
U 1 1 5D7AE83E
P 10800 8250
AR Path="/5BBF869B/5CA9DCAF/5D7AE83E" Ref="C?"  Part="1" 
AR Path="/5BBF869B/5D7AE83E" Ref="C?"  Part="1" 
AR Path="/5B24D131/5D7AE83E" Ref="C12007"  Part="1" 
F 0 "C12007" H 10850 8350 50  0000 L CNN
F 1 "220nF" H 10950 8250 50  0000 L CNN
F 2 "lib_clavier:C_0402_TL" H 10838 8100 50  0001 C CNN
F 3 "~" H 10800 8250 50  0001 C CNN
F 4 "10V" H 11000 8150 50  0000 C CNN "Tension"
F 5 "CD" H 10800 8250 50  0001 C CNN "Variante"
F 6 "TL 200 022" H 10800 8250 50  0001 C CNN "ID_Base"
	1    10800 8250
	1    0    0    -1  
$EndComp
Wire Wire Line
	10800 8400 10800 8450
$Comp
L carte_clavier-rescue:GND-power-carte_coco_simple-rescue #PWR?
U 1 1 5D7BBA6D
P 10800 10500
AR Path="/5BBF869B/5CA9DCAF/5D7BBA6D" Ref="#PWR?"  Part="1" 
AR Path="/5BBF869B/5D7BBA6D" Ref="#PWR?"  Part="1" 
AR Path="/5B24D131/5D7BBA6D" Ref="#PWR0105"  Part="1" 
F 0 "#PWR0105" H 10800 10250 50  0001 C CNN
F 1 "GND-power" H 10805 10327 50  0001 C CNN
F 2 "" H 10800 10500 50  0001 C CNN
F 3 "" H 10800 10500 50  0001 C CNN
	1    10800 10500
	1    0    0    -1  
$EndComp
$Comp
L carte_clavier-rescue:C-Device-carte_coco_simple-rescue C?
U 1 1 5D7BBA74
P 10800 10300
AR Path="/5BBF869B/5CA9DCAF/5D7BBA74" Ref="C?"  Part="1" 
AR Path="/5BBF869B/5D7BBA74" Ref="C?"  Part="1" 
AR Path="/5B24D131/5D7BBA74" Ref="C12008"  Part="1" 
F 0 "C12008" H 10850 10400 50  0000 L CNN
F 1 "220nF" H 10950 10300 50  0000 L CNN
F 2 "lib_clavier:C_0402_TL" H 10838 10150 50  0001 C CNN
F 3 "~" H 10800 10300 50  0001 C CNN
F 4 "10V" H 11000 10200 50  0000 C CNN "Tension"
F 5 "CD" H 10800 10300 50  0001 C CNN "Variante"
F 6 "TL 200 022" H 10800 10300 50  0001 C CNN "ID_Base"
	1    10800 10300
	1    0    0    -1  
$EndComp
Wire Wire Line
	10800 10450 10800 10500
Wire Wire Line
	10800 10150 10600 10150
Wire Notes Line
	10100 7700 10100 11900
Wire Notes Line
	13300 7700 13300 11900
$Comp
L Connector_Generic:Conn_01x04 J12009
U 1 1 5D5AB619
P 2800 7200
F 0 "J12009" H 2650 7550 50  0000 C CNN
F 1 "Conn_01x04" H 2600 7450 50  0000 C CNN
F 2 "lib_clavier:InterBoard_1x04_P1.27mm_TL" H 2800 7200 50  0001 C CNN
F 3 "~" H 2800 7200 50  0001 C CNN
F 4 "G4" H 2800 7200 50  0001 C CNN "Variante"
F 5 "TL 200 065" H 2800 7200 50  0001 C CNN "ID_Base"
	1    2800 7200
	-1   0    0    -1  
$EndComp
$Comp
L carte_clavier-rescue:GND #PWR0106
U 1 1 5D5AB61F
P 3100 7500
F 0 "#PWR0106" H 3100 7250 50  0001 C CNN
F 1 "GND" H 3105 7327 50  0001 C CNN
F 2 "" H 3100 7500 50  0000 C CNN
F 3 "" H 3100 7500 50  0000 C CNN
	1    3100 7500
	1    0    0    -1  
$EndComp
Wire Wire Line
	3100 7400 3100 7100
Wire Wire Line
	3100 7100 3000 7100
Wire Wire Line
	3000 7400 3100 7400
Wire Wire Line
	3100 7500 3100 7400
Connection ~ 3100 7400
Text Label 10650 9600 0    60   ~ 0
Col_3bis_Opt_G
Text Label 10650 9500 0    60   ~ 0
Col_3_Opt_G
Text Label 10650 9300 0    60   ~ 0
Col_2bis_Opt_G
Text Label 10650 9200 0    60   ~ 0
Col_2_Opt_G
Text Label 10650 9000 0    60   ~ 0
Col_1bis_Opt_G
Text Label 10650 8900 0    60   ~ 0
Col_1_Opt_G
Text Label 10650 8700 0    60   ~ 0
Lig_X_Opt_G
Text Label 10650 10700 0    60   ~ 0
Col_6_Opt_D
Text Label 10650 10800 0    60   ~ 0
Col_6bis_Opt_D
Text Label 10650 11000 0    60   ~ 0
Col_7_Opt_D
Text Label 10650 11100 0    60   ~ 0
Col_7bis_Opt_D
Text Label 10650 11300 0    60   ~ 0
Col_8_Opt_D
Text Label 10650 11400 0    60   ~ 0
Col_8bis_Opt_D
Wire Wire Line
	5400 6300 5400 10300
Wire Wire Line
	5500 6400 5500 10400
$Comp
L Connector_Generic:Conn_01x04 J12010
U 1 1 5D85DB45
P 2800 8800
F 0 "J12010" H 2650 9150 50  0000 C CNN
F 1 "Conn_01x04" H 2600 9050 50  0000 C CNN
F 2 "lib_clavier:InterBoard_1x04_P1.27mm_inverse_TL" H 2800 8800 50  0001 C CNN
F 3 "~" H 2800 8800 50  0001 C CNN
F 4 "G4" H 2800 8800 50  0001 C CNN "Variante"
F 5 "TL 200 065" H 2800 8800 50  0001 C CNN "ID_Base"
	1    2800 8800
	-1   0    0    -1  
$EndComp
$Comp
L carte_clavier-rescue:GND #PWR0107
U 1 1 5D85DB4B
P 3100 9100
F 0 "#PWR0107" H 3100 8850 50  0001 C CNN
F 1 "GND" H 3105 8927 50  0001 C CNN
F 2 "" H 3100 9100 50  0000 C CNN
F 3 "" H 3100 9100 50  0000 C CNN
	1    3100 9100
	1    0    0    -1  
$EndComp
Wire Wire Line
	3100 9000 3100 8700
Wire Wire Line
	3100 8700 3000 8700
Wire Wire Line
	3000 9000 3100 9000
Wire Wire Line
	3100 9100 3100 9000
Connection ~ 3100 9000
Wire Wire Line
	4650 8900 4650 7300
Wire Wire Line
	4550 8800 4550 7200
Text Label 3250 7200 0    60   ~ 0
ON-OFF_1
Text Label 3250 7300 0    60   ~ 0
ON-OFF_2
Text Label 3250 8800 0    60   ~ 0
ON-OFF_1
Text Label 3250 8900 0    60   ~ 0
ON-OFF_2
Wire Wire Line
	3000 4000 6200 4000
Wire Wire Line
	6200 4000 6200 12100
Wire Wire Line
	3000 2600 5750 2600
Wire Wire Line
	3000 2700 5850 2700
Wire Wire Line
	3000 14800 5750 14800
Wire Wire Line
	3000 14900 5850 14900
Wire Wire Line
	3000 12000 6100 12000
Wire Wire Line
	3000 12100 6200 12100
Wire Wire Line
	3000 12200 6300 12200
Wire Wire Line
	3000 10400 5500 10400
Wire Wire Line
	3000 10300 5400 10300
Wire Wire Line
	3000 10100 5250 10100
Wire Wire Line
	3000 10000 5150 10000
Wire Wire Line
	3000 9800 5000 9800
Wire Wire Line
	3000 9700 4900 9700
Wire Wire Line
	3000 8800 4550 8800
Wire Wire Line
	3000 8900 4650 8900
Wire Wire Line
	3000 7300 4650 7300
Wire Wire Line
	3000 7200 4550 7200
Wire Wire Line
	3000 5700 4900 5700
Wire Wire Line
	4900 5700 4900 9700
Wire Wire Line
	3000 5800 5000 5800
Wire Wire Line
	5000 5800 5000 9800
Wire Wire Line
	3000 6000 5150 6000
Wire Wire Line
	5150 6000 5150 10000
Wire Wire Line
	3000 6100 5250 6100
Wire Wire Line
	5250 6100 5250 10100
Wire Wire Line
	3000 6400 5500 6400
Wire Wire Line
	3000 6300 5400 6300
$Comp
L Connector_Generic:Conn_01x10 J12006
U 1 1 5D8B5487
P 10150 9100
F 0 "J12006" H 10000 9750 50  0000 C CNN
F 1 "Conn_01x10" H 9950 9650 50  0000 C CNN
F 2 "lib_clavier:InterBoard_1x10_P1.27mm_TL" H 10150 9100 50  0001 C CNN
F 3 "~" H 10150 9100 50  0001 C CNN
F 4 "TL 200 066" H 10150 9100 50  0001 C CNN "ID_Base"
F 5 "CD" H 10150 9100 50  0001 C CNN "Variante"
	1    10150 9100
	-1   0    0    -1  
$EndComp
$Comp
L Connector_Generic:Conn_01x10 J12007
U 1 1 5D8B62F0
P 10150 11100
F 0 "J12007" H 10000 11750 50  0000 C CNN
F 1 "Conn_01x10" H 9950 11650 50  0000 C CNN
F 2 "lib_clavier:InterBoard_1x10_P1.27mm_TL" H 10150 11100 50  0001 C CNN
F 3 "~" H 10150 11100 50  0001 C CNN
F 4 "TL 200 066" H 10150 11100 50  0001 C CNN "ID_Base"
F 5 "CD" H 10150 11100 50  0001 C CNN "Variante"
	1    10150 11100
	-1   0    0    -1  
$EndComp
Wire Wire Line
	10500 9700 10500 9400
Wire Wire Line
	10500 9400 10350 9400
Wire Wire Line
	10500 9400 10500 9100
Wire Wire Line
	10500 9100 10350 9100
Connection ~ 10500 9400
Wire Wire Line
	10350 8800 10600 8800
Wire Wire Line
	10600 8050 10600 8100
Wire Wire Line
	10800 8100 10600 8100
Connection ~ 10600 8100
Wire Wire Line
	10600 8100 10600 8800
$Comp
L Connector_Generic:Conn_01x04 J12001
U 1 1 5D69348E
P 2800 1700
F 0 "J12001" H 2650 2050 50  0000 C CNN
F 1 "Conn_01x04" H 2600 1950 50  0000 C CNN
F 2 "lib_clavier:InterBoard_1x04_P1.27mm_TL" H 2800 1700 50  0001 C CNN
F 3 "~" H 2800 1700 50  0001 C CNN
F 4 "CD" H 2800 1700 50  0001 C CNN "Variante"
F 5 "TL 200 065" H 2800 1700 50  0001 C CNN "ID_Base"
	1    2800 1700
	-1   0    0    -1  
$EndComp
$Comp
L carte_clavier-rescue:GND #PWR0110
U 1 1 5D6BC6EE
P 3100 2000
F 0 "#PWR0110" H 3100 1750 50  0001 C CNN
F 1 "GND" H 3105 1827 50  0001 C CNN
F 2 "" H 3100 2000 50  0000 C CNN
F 3 "" H 3100 2000 50  0000 C CNN
	1    3100 2000
	1    0    0    -1  
$EndComp
Wire Wire Line
	3100 1900 3100 1600
Wire Wire Line
	3000 1900 3100 1900
Wire Wire Line
	3100 2000 3100 1900
Connection ~ 3100 1900
Wire Wire Line
	3000 1600 3100 1600
Wire Wire Line
	5750 2600 5750 14800
Wire Wire Line
	5850 2700 5850 14900
Wire Wire Line
	3000 13400 14700 13400
Wire Wire Line
	3000 13300 14600 13300
Wire Wire Line
	3000 13100 14500 13100
Wire Wire Line
	3000 13000 14400 13000
Wire Wire Line
	3000 12800 14300 12800
Wire Wire Line
	3000 12700 14200 12700
Wire Wire Line
	13300 3000 16500 3000
Wire Wire Line
	13300 3200 16600 3200
Wire Wire Line
	13300 3400 16700 3400
Wire Wire Line
	13300 3600 16800 3600
Wire Wire Line
	13300 3800 16900 3800
Wire Wire Line
	13300 4000 17000 4000
Wire Wire Line
	13300 4200 17100 4200
Wire Wire Line
	13300 4400 17200 4400
Wire Wire Line
	13300 5300 14000 5300
Wire Wire Line
	13300 5400 14100 5400
Connection ~ 14700 6000
Wire Wire Line
	14700 6000 14700 13400
Connection ~ 14600 5900
Wire Wire Line
	14600 5900 14600 13300
Connection ~ 14500 5800
Wire Wire Line
	14500 5800 14500 13100
Connection ~ 14400 5700
Wire Wire Line
	14400 5700 14400 13000
Connection ~ 14300 5600
Wire Wire Line
	14300 5600 14300 12800
Connection ~ 14200 5500
Wire Wire Line
	14200 5500 14200 12700
Connection ~ 14000 5300
Wire Wire Line
	14000 5300 18050 5300
Connection ~ 14100 5400
Wire Wire Line
	14100 5400 18050 5400
Wire Wire Line
	14000 5300 14000 12400
Wire Wire Line
	14100 5400 14100 12500
Connection ~ 16500 3000
Wire Wire Line
	16500 3000 18050 3000
Connection ~ 16600 3200
Wire Wire Line
	16600 3200 18050 3200
Connection ~ 16700 3400
Wire Wire Line
	16700 3400 18050 3400
Connection ~ 16800 3600
Wire Wire Line
	16800 3600 18050 3600
Connection ~ 16900 3800
Wire Wire Line
	16900 3800 18050 3800
Connection ~ 17000 4000
Wire Wire Line
	17000 4000 18050 4000
Connection ~ 17100 4200
Wire Wire Line
	17100 4200 18050 4200
Connection ~ 17200 4400
Wire Wire Line
	17200 4400 18050 4400
Wire Wire Line
	17200 4400 17200 13600
Wire Wire Line
	3000 13700 17100 13700
Wire Wire Line
	17100 4200 17100 13700
Wire Wire Line
	3000 13600 17200 13600
Wire Wire Line
	3000 13900 17000 13900
Wire Wire Line
	17000 4000 17000 13900
Wire Wire Line
	16900 3800 16900 14000
Wire Wire Line
	3000 14000 16900 14000
Wire Wire Line
	3000 14200 16800 14200
Wire Wire Line
	16800 3600 16800 14200
Wire Wire Line
	3000 14300 16700 14300
Wire Wire Line
	16700 3400 16700 14300
Wire Wire Line
	3000 14500 16600 14500
Wire Wire Line
	16600 3200 16600 14500
Wire Wire Line
	3000 14600 16500 14600
Wire Wire Line
	16500 3000 16500 14600
Wire Wire Line
	10500 11700 10500 11200
Wire Wire Line
	10500 10900 10350 10900
Wire Wire Line
	10350 11200 10500 11200
Connection ~ 10500 11200
Wire Wire Line
	10500 11200 10500 10900
Wire Wire Line
	10600 10150 10600 11500
Wire Wire Line
	10600 11500 10350 11500
Connection ~ 10600 10150
Wire Wire Line
	3100 3800 3100 4200
Wire Wire Line
	6100 4100 3000 4100
Wire Wire Line
	6100 4100 6100 12000
Wire Wire Line
	3000 3900 6300 3900
Wire Wire Line
	6300 3900 6300 12200
Wire Wire Line
	6350 4100 6100 4100
Connection ~ 6100 4100
Wire Wire Line
	6200 4000 6350 4000
Connection ~ 6200 4000
Wire Wire Line
	6350 3900 6300 3900
Connection ~ 6300 3900
Wire Wire Line
	3000 4200 3100 4200
Connection ~ 3100 4200
Wire Wire Line
	3100 4200 3100 4500
Wire Wire Line
	3000 4500 3100 4500
Connection ~ 3100 4500
Wire Wire Line
	3100 4500 3100 4700
Wire Wire Line
	5050 4300 5050 4700
Wire Wire Line
	4800 4400 4800 4700
Wire Wire Line
	4000 3500 4000 3550
Wire Wire Line
	4000 4600 4000 4700
Connection ~ 4000 4600
Wire Wire Line
	4800 3500 4800 4400
Connection ~ 4800 4400
Wire Wire Line
	5050 3500 5050 4300
Connection ~ 5050 4300
Text Label 3250 3900 0    60   ~ 0
I2C_COCO_INT
Text Label 3250 4000 0    60   ~ 0
I2C_COCO_SDA
Text Label 3250 4100 0    60   ~ 0
I2C_COCO_SCL
Wire Wire Line
	3000 4300 5050 4300
Wire Wire Line
	3000 4400 4800 4400
Wire Wire Line
	3000 4600 4000 4600
Text GLabel 4150 3550 2    50   UnSpc ~ 0
VBUS_F
Wire Wire Line
	4150 3550 4000 3550
Connection ~ 4000 3550
Wire Wire Line
	4000 3550 4000 4600
Wire Wire Line
	14200 5500 17800 5500
Wire Wire Line
	17800 5500 17800 1700
Connection ~ 17800 5500
Wire Wire Line
	17800 5500 18050 5500
Wire Wire Line
	10350 8700 18050 8700
Wire Wire Line
	10350 11600 18050 11600
Text Label 10650 11600 0    60   ~ 0
Lig_X_Opt_D
$EndSCHEMATC
