(module R_0402_TL (layer F.Cu) (tedit 5D54141F)
  (descr "Resistor SMD 0402, reflow soldering, Vishay (see dcrcw.pdf)")
  (tags "resistor 0402")
  (attr smd)
  (fp_text reference REF** (at 0 -1.35) (layer F.SilkS)
    (effects (font (size 1 1) (thickness 0.15)))
  )
  (fp_text value R_0402_TL (at 0 1.45) (layer F.Fab)
    (effects (font (size 1 1) (thickness 0.15)))
  )
  (fp_line (start 0.8 0.45) (end -0.8 0.45) (layer F.CrtYd) (width 0.05))
  (fp_line (start 0.8 0.45) (end 0.8 -0.45) (layer F.CrtYd) (width 0.05))
  (fp_line (start -0.8 -0.45) (end -0.8 0.45) (layer F.CrtYd) (width 0.05))
  (fp_line (start -0.8 -0.45) (end 0.8 -0.45) (layer F.CrtYd) (width 0.05))
  (fp_line (start -0.25 0.53) (end 0.25 0.53) (layer F.SilkS) (width 0.12))
  (fp_line (start 0.25 -0.53) (end -0.25 -0.53) (layer F.SilkS) (width 0.12))
  (fp_line (start -0.5 -0.25) (end 0.5 -0.25) (layer F.Fab) (width 0.1))
  (fp_line (start 0.5 -0.25) (end 0.5 0.25) (layer F.Fab) (width 0.1))
  (fp_line (start 0.5 0.25) (end -0.5 0.25) (layer F.Fab) (width 0.1))
  (fp_line (start -0.5 0.25) (end -0.5 -0.25) (layer F.Fab) (width 0.1))
  (fp_text user %R (at 0 -1.35) (layer F.Fab)
    (effects (font (size 1 1) (thickness 0.15)))
  )
  (pad 2 smd rect (at 0.55 0) (size 0.6 0.6) (layers F.Cu F.Paste F.Mask))
  (pad 1 smd rect (at -0.55 0) (size 0.6 0.6) (layers F.Cu F.Paste F.Mask))
  (model ${KISYS3DMOD}/Resistors_SMD.3dshapes/R_0402.wrl
    (at (xyz 0 0 0))
    (scale (xyz 1 1 1))
    (rotate (xyz 0 0 0))
  )
)
