(module TSSOP-24_4.4x7.8mm_Pitch0.65mm_TL (layer F.Cu) (tedit 5D552AB3)
  (descr "TSSOP24: plastic thin shrink small outline package; 24 leads; body width 4.4 mm; (see NXP SSOP-TSSOP-VSO-REFLOW.pdf and sot355-1_po.pdf)")
  (tags "SSOP 0.65")
  (attr smd)
  (fp_text reference REF** (at 0 -4.95) (layer F.SilkS)
    (effects (font (size 1 1) (thickness 0.15)))
  )
  (fp_text value TSSOP-24_4.4x7.8mm_Pitch0.65mm_TL (at 0 4.95) (layer F.Fab)
    (effects (font (size 1 1) (thickness 0.15)))
  )
  (fp_text user %R (at 0 0) (layer F.Fab)
    (effects (font (size 0.8 0.8) (thickness 0.15)))
  )
  (fp_line (start -2.325 4.025) (end 2.325 4.025) (layer F.SilkS) (width 0.15))
  (fp_line (start -3.4 -4.075) (end 2.325 -4.075) (layer F.SilkS) (width 0.15))
  (fp_line (start -2.325 4.025) (end -2.325 4) (layer F.SilkS) (width 0.15))
  (fp_line (start 2.325 4.025) (end 2.325 4) (layer F.SilkS) (width 0.15))
  (fp_line (start 2.325 -4.025) (end 2.325 -4) (layer F.SilkS) (width 0.15))
  (fp_line (start -3.65 4.2) (end 3.65 4.2) (layer F.CrtYd) (width 0.05))
  (fp_line (start -3.65 -4.2) (end 3.65 -4.2) (layer F.CrtYd) (width 0.05))
  (fp_line (start 3.65 -4.2) (end 3.65 4.2) (layer F.CrtYd) (width 0.05))
  (fp_line (start -3.65 -4.2) (end -3.65 4.2) (layer F.CrtYd) (width 0.05))
  (fp_line (start -2.2 -2.9) (end -1.2 -3.9) (layer F.Fab) (width 0.15))
  (fp_line (start -2.2 3.9) (end -2.2 -2.9) (layer F.Fab) (width 0.15))
  (fp_line (start 2.2 3.9) (end -2.2 3.9) (layer F.Fab) (width 0.15))
  (fp_line (start 2.2 -3.9) (end 2.2 3.9) (layer F.Fab) (width 0.15))
  (fp_line (start -1.2 -3.9) (end 2.2 -3.9) (layer F.Fab) (width 0.15))
  (pad 24 smd rect (at 2.925 -3.575) (size 1.35 0.4) (layers F.Cu F.Paste F.Mask))
  (pad 23 smd rect (at 2.925 -2.925) (size 1.35 0.4) (layers F.Cu F.Paste F.Mask))
  (pad 22 smd rect (at 2.925 -2.275) (size 1.35 0.4) (layers F.Cu F.Paste F.Mask))
  (pad 21 smd rect (at 2.925 -1.625) (size 1.35 0.4) (layers F.Cu F.Paste F.Mask))
  (pad 20 smd rect (at 2.925 -0.975) (size 1.35 0.4) (layers F.Cu F.Paste F.Mask))
  (pad 19 smd rect (at 2.925 -0.325) (size 1.35 0.4) (layers F.Cu F.Paste F.Mask))
  (pad 18 smd rect (at 2.925 0.325) (size 1.35 0.4) (layers F.Cu F.Paste F.Mask))
  (pad 17 smd rect (at 2.925 0.975) (size 1.35 0.4) (layers F.Cu F.Paste F.Mask))
  (pad 16 smd rect (at 2.925 1.625) (size 1.35 0.4) (layers F.Cu F.Paste F.Mask))
  (pad 15 smd rect (at 2.925 2.275) (size 1.35 0.4) (layers F.Cu F.Paste F.Mask))
  (pad 14 smd rect (at 2.925 2.925) (size 1.35 0.4) (layers F.Cu F.Paste F.Mask))
  (pad 13 smd rect (at 2.925 3.575) (size 1.35 0.4) (layers F.Cu F.Paste F.Mask))
  (pad 12 smd rect (at -2.925 3.575) (size 1.35 0.4) (layers F.Cu F.Paste F.Mask))
  (pad 11 smd rect (at -2.925 2.925) (size 1.35 0.4) (layers F.Cu F.Paste F.Mask))
  (pad 10 smd rect (at -2.925 2.275) (size 1.35 0.4) (layers F.Cu F.Paste F.Mask))
  (pad 9 smd rect (at -2.925 1.625) (size 1.35 0.4) (layers F.Cu F.Paste F.Mask))
  (pad 8 smd rect (at -2.925 0.975) (size 1.35 0.4) (layers F.Cu F.Paste F.Mask))
  (pad 7 smd rect (at -2.925 0.325) (size 1.35 0.4) (layers F.Cu F.Paste F.Mask))
  (pad 6 smd rect (at -2.925 -0.325) (size 1.35 0.4) (layers F.Cu F.Paste F.Mask))
  (pad 5 smd rect (at -2.925 -0.975) (size 1.35 0.4) (layers F.Cu F.Paste F.Mask))
  (pad 4 smd rect (at -2.925 -1.625) (size 1.35 0.4) (layers F.Cu F.Paste F.Mask))
  (pad 3 smd rect (at -2.925 -2.275) (size 1.35 0.4) (layers F.Cu F.Paste F.Mask))
  (pad 2 smd rect (at -2.925 -2.925) (size 1.35 0.4) (layers F.Cu F.Paste F.Mask))
  (pad 1 smd rect (at -2.925 -3.575) (size 1.35 0.4) (layers F.Cu F.Paste F.Mask))
  (model ${KISYS3DMOD}/Housings_SSOP.3dshapes/TSSOP-24_4.4x7.8mm_Pitch0.65mm.wrl
    (at (xyz 0 0 0))
    (scale (xyz 1 1 1))
    (rotate (xyz 0 0 0))
  )
)
