(module InterBoard_1x04_P1.27mm_inverse_TL (layer F.Cu) (tedit 5D6918BD)
  (descr "surface-mounted straight pin header, 1x04, 1.27mm pitch, single row, style 1 (pin 1 left)")
  (tags "Surface mounted pin header SMD 1x04 1.27mm single row style1 pin1 left")
  (attr smd)
  (fp_text reference REF** (at -0.33 -3.18) (layer F.SilkS)
    (effects (font (size 0.5 0.5) (thickness 0.05)))
  )
  (fp_text value InterBoard_1x04_P1.27mm_inverse_TL (at -0.16 3.26) (layer F.Fab) hide
    (effects (font (size 0.5 0.5) (thickness 0.05)))
  )
  (fp_line (start 1.05 2.54) (end -1.05 2.54) (layer F.Fab) (width 0.1))
  (fp_line (start 0.615 -2.54) (end -1.05 -2.54) (layer F.Fab) (width 0.1))
  (fp_line (start 1.05 2.54) (end 1.05 -2.105) (layer F.Fab) (width 0.1))
  (fp_line (start 1.05 -2.105) (end 0.615 -2.54) (layer F.Fab) (width 0.1))
  (fp_line (start -1.05 -2.54) (end -1.05 2.54) (layer F.Fab) (width 0.1))
  (fp_line (start 1.05 -2.105) (end 1.5 -2.105) (layer F.Fab) (width 0.1))
  (fp_line (start 1.5 -2.105) (end 1.5 -1.705) (layer F.Fab) (width 0.1))
  (fp_line (start 1.5 -1.705) (end 1.05 -1.705) (layer F.Fab) (width 0.1))
  (fp_line (start -1.11 -2.6) (end 1.11 -2.6) (layer F.SilkS) (width 0.12))
  (fp_line (start -1.11 2.6) (end 1.11 2.6) (layer F.SilkS) (width 0.12))
  (fp_line (start -1.11 -2.59) (end -1.11 -1.22) (layer F.SilkS) (width 0.12))
  (fp_line (start 1.11 -2.49) (end 1.8 -2.49) (layer F.SilkS) (width 0.12))
  (fp_line (start 1.11 -2.6) (end 1.11 -2.49) (layer F.SilkS) (width 0.12))
  (fp_line (start 1.11 2.49) (end 1.11 2.6) (layer F.SilkS) (width 0.12))
  (fp_line (start -1.11 -0.05) (end -1.11 1.32) (layer F.SilkS) (width 0.12))
  (fp_line (start -1.11 -1.32) (end -1.11 0.05) (layer F.SilkS) (width 0.12))
  (fp_line (start -1.11 1.22) (end -1.11 2.59) (layer F.SilkS) (width 0.12))
  (fp_line (start 1.9 -2.74) (end 1.9 2.74) (layer F.CrtYd) (width 0.05))
  (fp_line (start 1.9 2.74) (end -0.8 2.74) (layer F.CrtYd) (width 0.05))
  (fp_line (start -0.8 2.74) (end -0.8 -2.74) (layer F.CrtYd) (width 0.05))
  (fp_line (start -0.8 -2.74) (end 1.9 -2.74) (layer F.CrtYd) (width 0.05))
  (fp_text user %R (at 0.58 -3.14 180) (layer F.Fab)
    (effects (font (size 0.5 0.5) (thickness 0.05)))
  )
  (pad 1 smd rect (at 0.7 -1.905) (size 2 0.65) (layers F.Cu F.Paste F.Mask))
  (pad 3 smd rect (at 0.7 0.635) (size 2 0.65) (layers F.Cu F.Paste F.Mask))
  (pad 2 smd rect (at 0.7 -0.635) (size 2 0.65) (layers F.Cu F.Paste F.Mask))
  (pad 4 smd rect (at 0.7 1.905) (size 2 0.65) (layers F.Cu F.Paste F.Mask))
  (pad 1 thru_hole rect (at 0 -1.905) (size 1 1) (drill 0.65) (layers *.Cu *.Mask))
  (pad 4 thru_hole oval (at 0 1.905) (size 1 1) (drill 0.65) (layers *.Cu *.Mask))
  (pad 2 thru_hole oval (at 0 -0.635) (size 1 1) (drill 0.65) (layers *.Cu *.Mask))
  (pad 3 thru_hole oval (at 0 0.635) (size 1 1) (drill 0.65) (layers *.Cu *.Mask))
  (model ${KISYS3DMOD}/Connector_PinHeader_1.27mm.3dshapes/PinHeader_1x04_P1.27mm_Vertical_SMD_Pin1Left.wrl
    (at (xyz 0 0 0))
    (scale (xyz 1 1 1))
    (rotate (xyz 0 0 0))
  )
)
