<?xml version="1.0" encoding="UTF-8" standalone="no"?>
<svg
   xmlns:dc="http://purl.org/dc/elements/1.1/"
   xmlns:cc="http://creativecommons.org/ns#"
   xmlns:rdf="http://www.w3.org/1999/02/22-rdf-syntax-ns#"
   xmlns:svg="http://www.w3.org/2000/svg"
   xmlns="http://www.w3.org/2000/svg"
   xmlns:sodipodi="http://sodipodi.sourceforge.net/DTD/sodipodi-0.dtd"
   xmlns:inkscape="http://www.inkscape.org/namespaces/inkscape"
   version="1.1"
   width="600mm"
   height="300mm"
   viewBox="0 0 600 300"
   id="svg235"
   sodipodi:docname="laser_couche_evidee_v2.svg"
   inkscape:version="0.92.3 (unknown)">
  <metadata
     id="metadata239">
    <rdf:RDF>
      <cc:Work
         rdf:about="">
        <dc:format>image/svg+xml</dc:format>
        <dc:type
           rdf:resource="http://purl.org/dc/dcmitype/StillImage" />
        <dc:title></dc:title>
      </cc:Work>
    </rdf:RDF>
  </metadata>
  <sodipodi:namedview
     pagecolor="#ffffff"
     bordercolor="#666666"
     borderopacity="1"
     objecttolerance="10"
     gridtolerance="10"
     guidetolerance="10"
     inkscape:pageopacity="0"
     inkscape:pageshadow="2"
     inkscape:window-width="1888"
     inkscape:window-height="1021"
     id="namedview237"
     showgrid="false"
     inkscape:zoom="0.59468255"
     inkscape:cx="960.30704"
     inkscape:cy="673.33543"
     inkscape:window-x="32"
     inkscape:window-y="32"
     inkscape:window-maximized="1"
     inkscape:current-layer="svg235"
     inkscape:showpageshadow="false"
     inkscape:pagecheckerboard="false" />
  <!-- Working space 0 0 594 420 -->
  <defs
     id="defs12">
    <radialGradient
       id="radialGradient3661"
       gradientUnits="userSpaceOnUse"
       cy="29.149"
       cx="282.64999"
       gradientTransform="matrix(0.14777,0.23089,-0.2468,0.15795,-26.318,-62.617)"
       r="19.570999">
      <stop
         stop-color="#71b2f8"
         offset="0"
         id="stop2" />
      <stop
         stop-color="#002795"
         offset="1"
         id="stop4" />
    </radialGradient>
    <radialGradient
       id="radialGradient3817"
       gradientUnits="userSpaceOnUse"
       cy="33.900002"
       cx="270.57999"
       gradientTransform="matrix(0.26631,0.065024,-0.17931,0.73438,-60.668,-36.938)"
       r="19.570999">
      <stop
         stop-color="#ff6d0f"
         offset="0"
         id="stop7" />
      <stop
         stop-color="#ff1000"
         offset="1"
         id="stop9" />
    </radialGradient>
  </defs>
  <!-- Set display:none to hide FreeCAD Logo -->
  <g
     id="View111"
     transform="translate(300,127)">
    <g
       transform="scale(1,-1)"
       id="g55"
       style="fill:none;stroke:#000000;stroke-width:0.34999999;stroke-linecap:butt;stroke-linejoin:miter" />
  </g>
  <g
     id="View112"
     transform="translate(200,100)">
    <g
       transform="scale(1,-1)"
       id="g83"
       style="fill:none;stroke:#000000;stroke-width:0.34999999;stroke-linecap:butt;stroke-linejoin:miter" />
  </g>
  <g
     id="View113"
     transform="translate(400,100)">
    <g
       transform="scale(1,-1)"
       id="g114"
       style="fill:none;stroke:#000000;stroke-width:0.34999999;stroke-linecap:butt;stroke-linejoin:miter" />
  </g>
  <g
     id="View114"
     transform="translate(400,10.000002)">
    <g
       transform="scale(1,-1)"
       id="g133"
       style="fill:none;stroke:#000000;stroke-width:0.34999999;stroke-linecap:butt;stroke-linejoin:miter" />
  </g>
  <g
     id="View115"
     transform="translate(200,10.000002)">
    <g
       transform="scale(1,-1)"
       id="g152"
       style="fill:none;stroke:#000000;stroke-width:0.34999999;stroke-linecap:butt;stroke-linejoin:miter" />
  </g>
  <g
     id="View116"
     transform="translate(280,110)">
    <g
       transform="scale(1,-1)"
       id="g157"
       style="fill:none;stroke:#000000;stroke-width:0.34999999;stroke-linecap:butt;stroke-linejoin:miter" />
  </g>
  <g
     id="View117"
     transform="translate(300,110)">
    <g
       transform="scale(1,-1)"
       id="g162"
       style="fill:none;stroke:#000000;stroke-width:0.34999999;stroke-linecap:butt;stroke-linejoin:miter" />
  </g>
  <g
     id="View118"
     transform="translate(350,110)">
    <g
       transform="scale(1,-1)"
       id="g167"
       style="fill:none;stroke:#000000;stroke-width:0.34999999;stroke-linecap:butt;stroke-linejoin:miter" />
  </g>
  <g
     id="View119"
     transform="translate(300,110)">
    <g
       transform="scale(1,-1)"
       id="g172"
       style="fill:none;stroke:#000000;stroke-width:0.34999999;stroke-linecap:butt;stroke-linejoin:miter" />
  </g>
  <g
     id="View120"
     transform="translate(320,110)">
    <g
       transform="scale(1,-1)"
       id="g177"
       style="fill:none;stroke:#000000;stroke-width:0.34999999;stroke-linecap:butt;stroke-linejoin:miter" />
  </g>
  <g
     id="View121"
     transform="translate(250,110)">
    <g
       transform="scale(1,-1)"
       id="g182"
       style="fill:none;stroke:#000000;stroke-width:0.34999999;stroke-linecap:butt;stroke-linejoin:miter" />
  </g>
  <g
     id="View122"
     transform="translate(300,110)">
    <g
       transform="scale(1,-1)"
       id="g187"
       style="fill:none;stroke:#000000;stroke-width:0.34999999;stroke-linecap:butt;stroke-linejoin:miter" />
  </g>
  <g
     id="View123"
     transform="translate(300,110)">
    <g
       transform="scale(1,-1)"
       id="g192"
       style="fill:none;stroke:#000000;stroke-width:0.34999999;stroke-linecap:butt;stroke-linejoin:miter" />
  </g>
  <g
     id="View137"
     transform="translate(280,110)">
    <g
       transform="scale(1,-1)"
       id="g197"
       style="fill:none;stroke:#000000;stroke-width:0.34999999;stroke-linecap:butt;stroke-linejoin:miter" />
  </g>
  <g
     id="View138"
     transform="translate(300,110)">
    <g
       transform="scale(1,-1)"
       id="g202"
       style="fill:none;stroke:#000000;stroke-width:0.34999999;stroke-linecap:butt;stroke-linejoin:miter" />
  </g>
  <g
     id="View139"
     transform="translate(300,110)">
    <g
       transform="scale(1,-1)"
       id="g207"
       style="fill:none;stroke:#000000;stroke-width:0.34999999;stroke-linecap:butt;stroke-linejoin:miter" />
  </g>
  <g
     id="View140"
     transform="translate(250,110)">
    <g
       transform="scale(1,-1)"
       id="g212"
       style="fill:none;stroke:#000000;stroke-width:0.34999999;stroke-linecap:butt;stroke-linejoin:miter" />
  </g>
  <g
     id="View141"
     transform="translate(300,110)">
    <g
       transform="scale(1,-1)"
       id="g217"
       style="fill:none;stroke:#000000;stroke-width:0.34999999;stroke-linecap:butt;stroke-linejoin:miter" />
  </g>
  <g
     id="View142"
     transform="translate(300,110)">
    <g
       transform="scale(1,-1)"
       id="g222"
       style="fill:none;stroke:#000000;stroke-width:0.34999999;stroke-linecap:butt;stroke-linejoin:miter" />
  </g>
  <g
     id="View143"
     transform="translate(320,110)">
    <g
       transform="scale(1,-1)"
       id="g227"
       style="fill:none;stroke:#000000;stroke-width:0.34999999;stroke-linecap:butt;stroke-linejoin:miter" />
  </g>
  <g
     id="View144"
     transform="translate(350,110)">
    <g
       transform="scale(1,-1)"
       id="g232"
       style="fill:none;stroke:#000000;stroke-width:0.34999999;stroke-linecap:butt;stroke-linejoin:miter">
      <g
         id="g1122"
         transform="translate(-8.2888183e-6,-62)">
        <path
           inkscape:connector-curvature="0"
           style="fill:none;stroke:#000000;stroke-width:0.02645833;stroke-linecap:butt;stroke-linejoin:miter;stroke-miterlimit:4;stroke-dasharray:none"
           d="M 207.846,34 143.183,146"
           id="1"
           transform="translate(-49.999994,-16.999999)" />
        <path
           inkscape:connector-curvature="0"
           style="fill:none;stroke:#000000;stroke-width:0.02645833;stroke-linecap:butt;stroke-linejoin:miter;stroke-miterlimit:4;stroke-dasharray:none"
           id="path20"
           d="m 143.183,146 a 12,12 0 0 1 -10.392,6"
           transform="translate(-49.999994,-16.999999)" />
        <path
           inkscape:connector-curvature="0"
           style="fill:none;stroke:#000000;stroke-width:0.02645833;stroke-linecap:butt;stroke-linejoin:miter;stroke-miterlimit:4;stroke-dasharray:none"
           id="path22"
           d="M 207.846,34 A 72,72 0 0 0 145.492,-74"
           transform="translate(-49.999994,-16.999999)" />
        <path
           inkscape:connector-curvature="0"
           style="fill:none;stroke:#000000;stroke-width:0.02645833;stroke-linecap:butt;stroke-linejoin:miter;stroke-miterlimit:4;stroke-dasharray:none"
           d="M 132.791,152 H -132.791"
           id="4"
           transform="translate(-49.999994,-16.999999)" />
        <path
           inkscape:connector-curvature="0"
           style="fill:none;stroke:#000000;stroke-width:0.02645833;stroke-linecap:butt;stroke-linejoin:miter;stroke-miterlimit:4;stroke-dasharray:none"
           d="M -145.492,-74 H 145.492"
           id="5"
           transform="translate(-49.999994,-16.999999)" />
        <path
           inkscape:connector-curvature="0"
           style="fill:none;stroke:#000000;stroke-width:0.02645833;stroke-linecap:butt;stroke-linejoin:miter;stroke-miterlimit:4;stroke-dasharray:none"
           id="path26"
           d="m -132.791,152 a 12,12 0 0 1 -10.392,-6"
           transform="translate(-49.999994,-16.999999)" />
        <path
           inkscape:connector-curvature="0"
           style="fill:none;stroke:#000000;stroke-width:0.02645833;stroke-linecap:butt;stroke-linejoin:miter;stroke-miterlimit:4;stroke-dasharray:none"
           id="path28"
           d="m -207.846,34 a 72,72 0 0 1 62.354,-108"
           transform="translate(-49.999994,-16.999999)" />
        <path
           inkscape:connector-curvature="0"
           style="fill:none;stroke:#000000;stroke-width:0.02645833;stroke-linecap:butt;stroke-linejoin:miter;stroke-miterlimit:4;stroke-dasharray:none"
           d="M -143.183,146 -207.846,34"
           id="8"
           transform="translate(-49.999994,-16.999999)" />
        <circle
           style="fill:none;stroke:#000000;stroke-width:0.02645833;stroke-linecap:butt;stroke-linejoin:miter;stroke-miterlimit:4;stroke-dasharray:none"
           id="circle31"
           r="0.5"
           cy="147"
           cx="90"
           transform="translate(-49.999994,-16.999999)" />
        <circle
           style="fill:none;stroke:#000000;stroke-width:0.02645833;stroke-linecap:butt;stroke-linejoin:miter;stroke-miterlimit:4;stroke-dasharray:none"
           id="circle33"
           r="0.5"
           cy="147"
           cx="-90"
           transform="translate(-49.999994,-16.999999)" />
        <circle
           style="fill:none;stroke:#000000;stroke-width:0.02645833;stroke-linecap:butt;stroke-linejoin:miter;stroke-miterlimit:4;stroke-dasharray:none"
           id="circle35"
           r="0.5"
           cy="-60"
           cx="-120"
           transform="translate(-49.999994,-16.999999)" />
        <path
           inkscape:connector-curvature="0"
           style="fill:none;stroke:#000000;stroke-width:0.02645833;stroke-linecap:butt;stroke-linejoin:miter;stroke-miterlimit:4;stroke-dasharray:none"
           d="M -135.1,144 -197,36.786"
           id="12"
           transform="translate(-49.999994,-16.999999)" />
        <path
           inkscape:connector-curvature="0"
           style="fill:none;stroke:#000000;stroke-width:0.02645833;stroke-linecap:butt;stroke-linejoin:miter;stroke-miterlimit:4;stroke-dasharray:none"
           d="M 135.1,144 H -135.1"
           id="13"
           transform="translate(-49.999994,-16.999999)" />
        <path
           inkscape:connector-curvature="0"
           style="fill:none;stroke:#000000;stroke-width:0.02645833;stroke-linecap:butt;stroke-linejoin:miter;stroke-miterlimit:4;stroke-dasharray:none"
           d="M -197,36.786 V 1.73205"
           id="14"
           transform="translate(-49.999994,-16.999999)" />
        <path
           inkscape:connector-curvature="0"
           style="fill:none;stroke:#000000;stroke-width:0.02645833;stroke-linecap:butt;stroke-linejoin:miter;stroke-miterlimit:4;stroke-dasharray:none"
           d="M 197,36.786 135.1,144"
           id="15"
           transform="translate(-49.999994,-16.999999)" />
        <path
           inkscape:connector-curvature="0"
           style="fill:none;stroke:#000000;stroke-width:0.02645833;stroke-linecap:butt;stroke-linejoin:miter;stroke-miterlimit:4;stroke-dasharray:none"
           d="M -197,1.73205 -79.6846,-66"
           id="16"
           transform="translate(-49.999994,-16.999999)" />
        <path
           inkscape:connector-curvature="0"
           style="fill:none;stroke:#000000;stroke-width:0.02645833;stroke-linecap:butt;stroke-linejoin:miter;stroke-miterlimit:4;stroke-dasharray:none"
           d="M 197,36.786 V 1.73205"
           id="17"
           transform="translate(-49.999994,-16.999999)" />
        <path
           inkscape:connector-curvature="0"
           style="fill:none;stroke:#000000;stroke-width:0.02645833;stroke-linecap:butt;stroke-linejoin:miter;stroke-miterlimit:4;stroke-dasharray:none"
           d="M -79.6846,-66 H 79.6846"
           id="18"
           transform="translate(-49.999994,-16.999999)" />
        <path
           inkscape:connector-curvature="0"
           style="fill:none;stroke:#000000;stroke-width:0.02645833;stroke-linecap:butt;stroke-linejoin:miter;stroke-miterlimit:4;stroke-dasharray:none"
           d="M 197,1.73205 79.6846,-66"
           id="19"
           transform="translate(-49.999994,-16.999999)" />
        <path
           inkscape:connector-curvature="0"
           style="fill:none;stroke:#000000;stroke-width:0.02645833;stroke-linecap:butt;stroke-linejoin:miter;stroke-miterlimit:4;stroke-dasharray:none"
           d="m 184.612,-11.2314 14.913,-21.2979"
           id="20"
           transform="translate(-49.999994,-16.999999)" />
        <path
           inkscape:connector-curvature="0"
           style="fill:none;stroke:#000000;stroke-width:0.02645833;stroke-linecap:butt;stroke-linejoin:miter;stroke-miterlimit:4;stroke-dasharray:none"
           d="M 184.612,-11.2314 140.787,-41.9177"
           id="21"
           transform="translate(-49.999994,-16.999999)" />
        <path
           inkscape:connector-curvature="0"
           style="fill:none;stroke:#000000;stroke-width:0.02645833;stroke-linecap:butt;stroke-linejoin:miter;stroke-miterlimit:4;stroke-dasharray:none"
           d="M 140.787,-41.9177 155.7,-63.2157"
           id="22"
           transform="translate(-49.999994,-16.999999)" />
        <path
           inkscape:connector-curvature="0"
           style="fill:none;stroke:#000000;stroke-width:0.02645833;stroke-linecap:butt;stroke-linejoin:miter;stroke-miterlimit:4;stroke-dasharray:none"
           d="M 199.525,-32.5293 155.7,-63.2157"
           id="23"
           transform="translate(-49.999994,-16.999999)" />
        <circle
           style="fill:none;stroke:#000000;stroke-width:0.02645833;stroke-linecap:butt;stroke-linejoin:miter;stroke-miterlimit:4;stroke-dasharray:none"
           id="circle49"
           r="0.5"
           cy="-60"
           cx="120"
           transform="translate(-49.999994,-16.999999)" />
        <path
           inkscape:connector-curvature="0"
           style="fill:none;stroke:#000000;stroke-width:0.02645833;stroke-linecap:butt;stroke-linejoin:miter;stroke-miterlimit:4;stroke-dasharray:none"
           d="M -140.787,-41.9177 -155.7,-63.2157"
           id="25"
           transform="translate(-49.999994,-16.999999)" />
        <path
           inkscape:connector-curvature="0"
           style="fill:none;stroke:#000000;stroke-width:0.02645833;stroke-linecap:butt;stroke-linejoin:miter;stroke-miterlimit:4;stroke-dasharray:none"
           d="m -140.787,-41.9177 -43.825,30.6863"
           id="26"
           transform="translate(-49.999994,-16.999999)" />
        <path
           inkscape:connector-curvature="0"
           style="fill:none;stroke:#000000;stroke-width:0.02645833;stroke-linecap:butt;stroke-linejoin:miter;stroke-miterlimit:4;stroke-dasharray:none"
           d="m -184.612,-11.2314 -14.913,-21.2979"
           id="27"
           transform="translate(-49.999994,-16.999999)" />
        <path
           inkscape:connector-curvature="0"
           style="fill:none;stroke:#000000;stroke-width:0.02645833;stroke-linecap:butt;stroke-linejoin:miter;stroke-miterlimit:4;stroke-dasharray:none"
           d="m -155.7,-63.2157 -43.825,30.6864"
           id="28"
           transform="translate(-49.999994,-16.999999)" />
        <path
           inkscape:connector-curvature="0"
           style="fill:none;stroke:#000000;stroke-width:0.02645833;stroke-linecap:butt;stroke-linejoin:miter;stroke-miterlimit:4;stroke-dasharray:none"
           id="path58"
           d="m 155.506,-73.3003 a 72,72 0 0 1 58.464,49.0576"
           transform="translate(-150,9.9999997)" />
        <path
           inkscape:connector-curvature="0"
           style="fill:none;stroke:#000000;stroke-width:0.02645833;stroke-linecap:butt;stroke-linejoin:miter;stroke-miterlimit:4;stroke-dasharray:none"
           id="path60"
           d="m 155.506,-73.3003 a 23,23 0 0 0 -24.812,30.643"
           transform="translate(-150,9.9999997)" />
        <path
           inkscape:connector-curvature="0"
           style="fill:none;stroke:#000000;stroke-width:0.02645833;stroke-linecap:butt;stroke-linejoin:miter;stroke-miterlimit:4;stroke-dasharray:none"
           id="path62"
           d="M 213.97,-24.2427 A 23,23 0 0 1 188.101,5.51317"
           transform="translate(-150,9.9999997)" />
        <path
           inkscape:connector-curvature="0"
           style="fill:none;stroke:#000000;stroke-width:0.02645833;stroke-linecap:butt;stroke-linejoin:miter;stroke-miterlimit:4;stroke-dasharray:none"
           d="m 131.082,-41.59 -0.388,-1.0673"
           id="path64"
           transform="translate(-150,9.9999997)" />
        <path
           inkscape:connector-curvature="0"
           style="fill:none;stroke:#000000;stroke-width:0.02645833;stroke-linecap:butt;stroke-linejoin:miter;stroke-miterlimit:4;stroke-dasharray:none"
           d="m 186.983,5.31593 1.118,0.19724"
           id="path66"
           transform="translate(-150,9.9999997)" />
        <path
           inkscape:connector-curvature="0"
           style="fill:none;stroke:#000000;stroke-width:0.02645833;stroke-linecap:butt;stroke-linejoin:miter;stroke-miterlimit:4;stroke-dasharray:none"
           id="path68"
           d="m 131.082,-41.59 a 23,23 0 0 0 18.162,14.8731"
           transform="translate(-150,9.9999997)" />
        <path
           inkscape:connector-curvature="0"
           style="fill:none;stroke:#000000;stroke-width:0.02645833;stroke-linecap:butt;stroke-linejoin:miter;stroke-miterlimit:4;stroke-dasharray:none"
           id="path70"
           d="M 186.983,5.31593 A 23,23 0 0 1 169.182,-9.9868"
           transform="translate(-150,9.9999997)" />
        <path
           inkscape:connector-curvature="0"
           style="fill:none;stroke:#000000;stroke-width:0.02645833;stroke-linecap:butt;stroke-linejoin:miter;stroke-miterlimit:4;stroke-dasharray:none"
           id="path72"
           d="m 149.244,-26.7169 a 25,25 0 0 1 19.938,16.7301"
           transform="translate(-150,9.9999997)" />
        <path
           inkscape:connector-curvature="0"
           style="fill:none;stroke:#000000;stroke-width:0.02645833;stroke-linecap:butt;stroke-linejoin:miter;stroke-miterlimit:4;stroke-dasharray:none"
           d="m 184.612,-11.2314 14.913,-21.2979"
           id="9"
           transform="translate(-150,9.9999997)" />
        <path
           inkscape:connector-curvature="0"
           style="fill:none;stroke:#000000;stroke-width:0.02645833;stroke-linecap:butt;stroke-linejoin:miter;stroke-miterlimit:4;stroke-dasharray:none"
           d="M 184.612,-11.2314 140.787,-41.9177"
           id="10"
           transform="translate(-150,9.9999997)" />
        <path
           inkscape:connector-curvature="0"
           style="fill:none;stroke:#000000;stroke-width:0.02645833;stroke-linecap:butt;stroke-linejoin:miter;stroke-miterlimit:4;stroke-dasharray:none"
           d="M 140.787,-41.9177 155.7,-63.2157"
           id="11"
           transform="translate(-150,9.9999997)" />
        <path
           inkscape:connector-curvature="0"
           style="fill:none;stroke:#000000;stroke-width:0.02645833;stroke-linecap:butt;stroke-linejoin:miter;stroke-miterlimit:4;stroke-dasharray:none"
           d="M 199.525,-32.5293 155.7,-63.2157"
           id="path77"
           transform="translate(-150,9.9999997)" />
        <circle
           style="fill:none;stroke:#000000;stroke-width:0.02645833;stroke-linecap:butt;stroke-linejoin:miter;stroke-miterlimit:4;stroke-dasharray:none"
           id="circle79"
           r="0.5"
           cy="-53.6073"
           cx="143.106"
           transform="translate(-150,9.9999997)" />
        <circle
           style="fill:none;stroke:#000000;stroke-width:0.02645833;stroke-linecap:butt;stroke-linejoin:miter;stroke-miterlimit:4;stroke-dasharray:none"
           id="circle81"
           r="0.5"
           cy="-8.6121197"
           cx="196.729"
           transform="translate(-150,9.9999997)" />
        <path
           inkscape:connector-curvature="0"
           style="fill:none;stroke:#000000;stroke-width:0.02645833;stroke-linecap:butt;stroke-linejoin:miter;stroke-miterlimit:4;stroke-dasharray:none"
           id="path86"
           d="m -213.97,-24.2427 a 72,72 0 0 1 58.464,-49.0576"
           transform="translate(49.999991,9.9999997)" />
        <path
           inkscape:connector-curvature="0"
           style="fill:none;stroke:#000000;stroke-width:0.02645833;stroke-linecap:butt;stroke-linejoin:miter;stroke-miterlimit:4;stroke-dasharray:none"
           id="path88"
           d="m -213.97,-24.2427 a 23,23 0 0 0 25.869,29.75587"
           transform="translate(49.999991,9.9999997)" />
        <path
           inkscape:connector-curvature="0"
           style="fill:none;stroke:#000000;stroke-width:0.02645833;stroke-linecap:butt;stroke-linejoin:miter;stroke-miterlimit:4;stroke-dasharray:none"
           id="path90"
           d="m -155.506,-73.3003 a 23,23 0 0 1 24.812,30.643"
           transform="translate(49.999991,9.9999997)" />
        <path
           inkscape:connector-curvature="0"
           style="fill:none;stroke:#000000;stroke-width:0.02645833;stroke-linecap:butt;stroke-linejoin:miter;stroke-miterlimit:4;stroke-dasharray:none"
           d="m -186.983,5.31593 -1.118,0.19724"
           id="path92"
           transform="translate(49.999991,9.9999997)" />
        <path
           inkscape:connector-curvature="0"
           style="fill:none;stroke:#000000;stroke-width:0.02645833;stroke-linecap:butt;stroke-linejoin:miter;stroke-miterlimit:4;stroke-dasharray:none"
           d="m -131.082,-41.59 0.388,-1.0673"
           id="path94"
           transform="translate(49.999991,9.9999997)" />
        <path
           inkscape:connector-curvature="0"
           style="fill:none;stroke:#000000;stroke-width:0.02645833;stroke-linecap:butt;stroke-linejoin:miter;stroke-miterlimit:4;stroke-dasharray:none"
           id="path96"
           d="M -186.983,5.31593 A 23,23 0 0 0 -169.182,-9.9868"
           transform="translate(49.999991,9.9999997)" />
        <path
           inkscape:connector-curvature="0"
           style="fill:none;stroke:#000000;stroke-width:0.02645833;stroke-linecap:butt;stroke-linejoin:miter;stroke-miterlimit:4;stroke-dasharray:none"
           id="path98"
           d="m -131.082,-41.59 a 23,23 0 0 1 -18.162,14.8731"
           transform="translate(49.999991,9.9999997)" />
        <path
           inkscape:connector-curvature="0"
           style="fill:none;stroke:#000000;stroke-width:0.02645833;stroke-linecap:butt;stroke-linejoin:miter;stroke-miterlimit:4;stroke-dasharray:none"
           id="path100"
           d="m -169.182,-9.9868 a 25,25 0 0 1 19.938,-16.7301"
           transform="translate(49.999991,9.9999997)" />
        <path
           inkscape:connector-curvature="0"
           style="fill:none;stroke:#000000;stroke-width:0.02645833;stroke-linecap:butt;stroke-linejoin:miter;stroke-miterlimit:4;stroke-dasharray:none"
           d="M -140.787,-41.9177 -155.7,-63.2157"
           id="path102"
           transform="translate(49.999991,9.9999997)" />
        <path
           inkscape:connector-curvature="0"
           style="fill:none;stroke:#000000;stroke-width:0.02645833;stroke-linecap:butt;stroke-linejoin:miter;stroke-miterlimit:4;stroke-dasharray:none"
           d="m -140.787,-41.9177 -43.825,30.6863"
           id="path104"
           transform="translate(49.999991,9.9999997)" />
        <path
           inkscape:connector-curvature="0"
           style="fill:none;stroke:#000000;stroke-width:0.02645833;stroke-linecap:butt;stroke-linejoin:miter;stroke-miterlimit:4;stroke-dasharray:none"
           d="m -184.612,-11.2314 -14.913,-21.2979"
           id="path106"
           transform="translate(49.999991,9.9999997)" />
        <path
           inkscape:connector-curvature="0"
           style="fill:none;stroke:#000000;stroke-width:0.02645833;stroke-linecap:butt;stroke-linejoin:miter;stroke-miterlimit:4;stroke-dasharray:none"
           d="m -155.7,-63.2157 -43.825,30.6864"
           id="path108"
           transform="translate(49.999991,9.9999997)" />
        <circle
           style="fill:none;stroke:#000000;stroke-width:0.02645833;stroke-linecap:butt;stroke-linejoin:miter;stroke-miterlimit:4;stroke-dasharray:none"
           id="circle110"
           r="0.5"
           cy="-53.6073"
           cx="-143.106"
           transform="translate(49.999991,9.9999997)" />
        <circle
           style="fill:none;stroke:#000000;stroke-width:0.02645833;stroke-linecap:butt;stroke-linejoin:miter;stroke-miterlimit:4;stroke-dasharray:none"
           id="circle112"
           r="0.5"
           cy="-8.6121197"
           cx="-196.729"
           transform="translate(49.999991,9.9999997)" />
        <path
           inkscape:connector-curvature="0"
           style="fill:none;stroke:#000000;stroke-width:0.02645833;stroke-linecap:butt;stroke-linejoin:miter;stroke-miterlimit:4;stroke-dasharray:none"
           id="path117"
           d="m -213.97,-24.2427 a 72,72 0 0 1 58.464,-49.0576"
           transform="translate(49.999991,99.999998)" />
        <path
           inkscape:connector-curvature="0"
           style="fill:none;stroke:#000000;stroke-width:0.02645833;stroke-linecap:butt;stroke-linejoin:miter;stroke-miterlimit:4;stroke-dasharray:none"
           id="path119"
           d="m -213.97,-24.2427 a 23,23 0 0 0 25.869,29.75587"
           transform="translate(49.999991,99.999998)" />
        <path
           inkscape:connector-curvature="0"
           style="fill:none;stroke:#000000;stroke-width:0.02645833;stroke-linecap:butt;stroke-linejoin:miter;stroke-miterlimit:4;stroke-dasharray:none"
           id="path121"
           d="m -155.506,-73.3003 a 23,23 0 0 1 24.812,30.643"
           transform="translate(49.999991,99.999998)" />
        <path
           inkscape:connector-curvature="0"
           style="fill:none;stroke:#000000;stroke-width:0.02645833;stroke-linecap:butt;stroke-linejoin:miter;stroke-miterlimit:4;stroke-dasharray:none"
           d="m -186.983,5.31593 -1.118,0.19724"
           id="path123"
           transform="translate(49.999991,99.999998)" />
        <path
           inkscape:connector-curvature="0"
           style="fill:none;stroke:#000000;stroke-width:0.02645833;stroke-linecap:butt;stroke-linejoin:miter;stroke-miterlimit:4;stroke-dasharray:none"
           d="m -131.082,-41.59 0.388,-1.0673"
           id="path125"
           transform="translate(49.999991,99.999998)" />
        <path
           inkscape:connector-curvature="0"
           style="fill:none;stroke:#000000;stroke-width:0.02645833;stroke-linecap:butt;stroke-linejoin:miter;stroke-miterlimit:4;stroke-dasharray:none"
           id="path127"
           d="M -186.983,5.31593 A 23,23 0 0 0 -169.182,-9.9868"
           transform="translate(49.999991,99.999998)" />
        <path
           inkscape:connector-curvature="0"
           style="fill:none;stroke:#000000;stroke-width:0.02645833;stroke-linecap:butt;stroke-linejoin:miter;stroke-miterlimit:4;stroke-dasharray:none"
           id="path129"
           d="m -131.082,-41.59 a 23,23 0 0 1 -18.162,14.8731"
           transform="translate(49.999991,99.999998)" />
        <path
           inkscape:connector-curvature="0"
           style="fill:none;stroke:#000000;stroke-width:0.02645833;stroke-linecap:butt;stroke-linejoin:miter;stroke-miterlimit:4;stroke-dasharray:none"
           id="path131"
           d="m -169.182,-9.9868 a 25,25 0 0 1 19.938,-16.7301"
           transform="translate(49.999991,99.999998)" />
        <path
           inkscape:connector-curvature="0"
           style="fill:none;stroke:#000000;stroke-width:0.02645833;stroke-linecap:butt;stroke-linejoin:miter;stroke-miterlimit:4;stroke-dasharray:none"
           id="path136"
           d="m 155.506,-73.3003 a 72,72 0 0 1 58.464,49.0576"
           transform="translate(-150,99.999998)" />
        <path
           inkscape:connector-curvature="0"
           style="fill:none;stroke:#000000;stroke-width:0.02645833;stroke-linecap:butt;stroke-linejoin:miter;stroke-miterlimit:4;stroke-dasharray:none"
           id="path138"
           d="m 155.506,-73.3003 a 23,23 0 0 0 -24.812,30.643"
           transform="translate(-150,99.999998)" />
        <path
           inkscape:connector-curvature="0"
           style="fill:none;stroke:#000000;stroke-width:0.02645833;stroke-linecap:butt;stroke-linejoin:miter;stroke-miterlimit:4;stroke-dasharray:none"
           id="path140"
           d="M 213.97,-24.2427 A 23,23 0 0 1 188.101,5.51317"
           transform="translate(-150,99.999998)" />
        <path
           inkscape:connector-curvature="0"
           style="fill:none;stroke:#000000;stroke-width:0.02645833;stroke-linecap:butt;stroke-linejoin:miter;stroke-miterlimit:4;stroke-dasharray:none"
           d="m 131.082,-41.59 -0.388,-1.0673"
           id="path142"
           transform="translate(-150,99.999998)" />
        <path
           inkscape:connector-curvature="0"
           style="fill:none;stroke:#000000;stroke-width:0.02645833;stroke-linecap:butt;stroke-linejoin:miter;stroke-miterlimit:4;stroke-dasharray:none"
           d="m 186.983,5.31593 1.118,0.19724"
           id="path144"
           transform="translate(-150,99.999998)" />
        <path
           inkscape:connector-curvature="0"
           style="fill:none;stroke:#000000;stroke-width:0.02645833;stroke-linecap:butt;stroke-linejoin:miter;stroke-miterlimit:4;stroke-dasharray:none"
           id="path146"
           d="m 131.082,-41.59 a 23,23 0 0 0 18.162,14.8731"
           transform="translate(-150,99.999998)" />
        <path
           inkscape:connector-curvature="0"
           style="fill:none;stroke:#000000;stroke-width:0.02645833;stroke-linecap:butt;stroke-linejoin:miter;stroke-miterlimit:4;stroke-dasharray:none"
           id="path148"
           d="M 186.983,5.31593 A 23,23 0 0 1 169.182,-9.9868"
           transform="translate(-150,99.999998)" />
        <path
           inkscape:connector-curvature="0"
           style="fill:none;stroke:#000000;stroke-width:0.02645833;stroke-linecap:butt;stroke-linejoin:miter;stroke-miterlimit:4;stroke-dasharray:none"
           id="path150"
           d="m 149.244,-26.7169 a 25,25 0 0 1 19.938,16.7301"
           transform="translate(-150,99.999998)" />
        <circle
           style="fill:none;stroke:#000000;stroke-width:0.02645833;stroke-linecap:butt;stroke-linejoin:miter;stroke-miterlimit:4;stroke-dasharray:none"
           id="circle155"
           r="5"
           cy="65"
           cx="29"
           transform="translate(-70.000007,1.2350667e-6)" />
        <circle
           style="fill:none;stroke:#000000;stroke-width:0.02645833;stroke-linecap:butt;stroke-linejoin:miter;stroke-miterlimit:4;stroke-dasharray:none"
           id="circle160"
           r="5"
           cy="110"
           cx="117"
           transform="translate(-49.999994,1.2350667e-6)" />
        <circle
           style="fill:none;stroke:#000000;stroke-width:0.02645833;stroke-linecap:butt;stroke-linejoin:miter;stroke-miterlimit:4;stroke-dasharray:none"
           id="circle165"
           r="5"
           cy="-13"
           cx="-66"
           transform="translate(1.1704712e-5,1.2350667e-6)" />
        <circle
           style="fill:none;stroke:#000000;stroke-width:0.02645833;stroke-linecap:butt;stroke-linejoin:miter;stroke-miterlimit:4;stroke-dasharray:none"
           id="circle170"
           r="5"
           cy="110"
           cx="-117"
           transform="translate(-49.999994,1.2350667e-6)" />
        <circle
           style="fill:none;stroke:#000000;stroke-width:0.02645833;stroke-linecap:butt;stroke-linejoin:miter;stroke-miterlimit:4;stroke-dasharray:none"
           id="circle175"
           r="5"
           cy="65"
           cx="-29"
           transform="translate(-30.000007,1.2350667e-6)" />
        <circle
           style="fill:none;stroke:#000000;stroke-width:0.02645833;stroke-linecap:butt;stroke-linejoin:miter;stroke-miterlimit:4;stroke-dasharray:none"
           id="circle180"
           r="5"
           cy="-13"
           cx="66"
           transform="translate(-99.999999,1.2350667e-6)" />
        <circle
           style="fill:none;stroke:#000000;stroke-width:0.02645833;stroke-linecap:butt;stroke-linejoin:miter;stroke-miterlimit:4;stroke-dasharray:none"
           id="circle185"
           r="5"
           cy="38"
           cx="140"
           transform="translate(-49.999994,1.2350667e-6)" />
        <circle
           style="fill:none;stroke:#000000;stroke-width:0.02645833;stroke-linecap:butt;stroke-linejoin:miter;stroke-miterlimit:4;stroke-dasharray:none"
           id="circle190"
           r="5"
           cy="38"
           cx="-140"
           transform="translate(-49.999994,1.2350667e-6)" />
        <circle
           style="fill:none;stroke:#000000;stroke-width:0.02645833;stroke-linecap:butt;stroke-linejoin:miter;stroke-miterlimit:4;stroke-dasharray:none"
           id="circle195"
           r="0.5"
           cy="65"
           cx="29"
           transform="translate(-70.000007,1.2350667e-6)" />
        <circle
           style="fill:none;stroke:#000000;stroke-width:0.02645833;stroke-linecap:butt;stroke-linejoin:miter;stroke-miterlimit:4;stroke-dasharray:none"
           id="circle200"
           r="0.5"
           cy="110"
           cx="-117"
           transform="translate(-49.999994,1.2350667e-6)" />
        <circle
           style="fill:none;stroke:#000000;stroke-width:0.02645833;stroke-linecap:butt;stroke-linejoin:miter;stroke-miterlimit:4;stroke-dasharray:none"
           id="circle205"
           r="0.5"
           cy="38"
           cx="140"
           transform="translate(-49.999994,1.2350667e-6)" />
        <circle
           style="fill:none;stroke:#000000;stroke-width:0.02645833;stroke-linecap:butt;stroke-linejoin:miter;stroke-miterlimit:4;stroke-dasharray:none"
           id="circle210"
           r="0.5"
           cy="-13"
           cx="66"
           transform="translate(-99.999999,1.2350667e-6)" />
        <circle
           style="fill:none;stroke:#000000;stroke-width:0.02645833;stroke-linecap:butt;stroke-linejoin:miter;stroke-miterlimit:4;stroke-dasharray:none"
           id="circle215"
           r="0.5"
           cy="38"
           cx="-140"
           transform="translate(-49.999994,1.2350667e-6)" />
        <circle
           style="fill:none;stroke:#000000;stroke-width:0.02645833;stroke-linecap:butt;stroke-linejoin:miter;stroke-miterlimit:4;stroke-dasharray:none"
           id="circle220"
           r="0.5"
           cy="110"
           cx="117"
           transform="translate(-49.999994,1.2350667e-6)" />
        <circle
           style="fill:none;stroke:#000000;stroke-width:0.02645833;stroke-linecap:butt;stroke-linejoin:miter;stroke-miterlimit:4;stroke-dasharray:none"
           id="circle225"
           r="0.5"
           cy="65"
           cx="-29"
           transform="translate(-30.000007,1.2350667e-6)" />
        <circle
           style="stroke-width:0.02645833;stroke-miterlimit:4;stroke-dasharray:none"
           id="circle230"
           r="0.5"
           cy="-13"
           cx="-66" />
      </g>
    </g>
  </g>
</svg>
