(module Crystal_SMD_5032-4pin_5.0x3.2mm_TL (layer F.Cu) (tedit 5D6792A9)
  (descr "SMD Crystal SERIES SMD2520/4 http://www.icbase.com/File/PDF/HKC/HKC00061008.pdf, 5.0x3.2mm^2 package")
  (tags "SMD SMT crystal")
  (attr smd)
  (fp_text reference REF** (at 0 -2.4) (layer F.SilkS)
    (effects (font (size 0.5 0.5) (thickness 0.05)))
  )
  (fp_text value Crystal_SMD_5032-4pin_5.0x3.2mm_TL (at 0.05 2.45) (layer F.Fab) hide
    (effects (font (size 0.5 0.5) (thickness 0.05)))
  )
  (fp_line (start 3.1 -2) (end -3.1 -2) (layer F.CrtYd) (width 0.05))
  (fp_line (start 3.1 2) (end 3.1 -2) (layer F.CrtYd) (width 0.05))
  (fp_line (start -3.1 2) (end 3.1 2) (layer F.CrtYd) (width 0.05))
  (fp_line (start -3.1 -2) (end -3.1 2) (layer F.CrtYd) (width 0.05))
  (fp_line (start -2.65 1.85) (end 2.65 1.85) (layer F.SilkS) (width 0.12))
  (fp_line (start -2.65 -1.85) (end -2.65 1.85) (layer F.SilkS) (width 0.12))
  (fp_line (start -2.5 0.6) (end -1.5 1.6) (layer F.Fab) (width 0.1))
  (fp_line (start -2.5 -1.4) (end -2.3 -1.6) (layer F.Fab) (width 0.1))
  (fp_line (start -2.5 1.4) (end -2.5 -1.4) (layer F.Fab) (width 0.1))
  (fp_line (start -2.3 1.6) (end -2.5 1.4) (layer F.Fab) (width 0.1))
  (fp_line (start 2.3 1.6) (end -2.3 1.6) (layer F.Fab) (width 0.1))
  (fp_line (start 2.5 1.4) (end 2.3 1.6) (layer F.Fab) (width 0.1))
  (fp_line (start 2.5 -1.4) (end 2.5 1.4) (layer F.Fab) (width 0.1))
  (fp_line (start 2.3 -1.6) (end 2.5 -1.4) (layer F.Fab) (width 0.1))
  (fp_line (start -2.3 -1.6) (end 2.3 -1.6) (layer F.Fab) (width 0.1))
  (fp_text user %R (at -0.02 -2.39) (layer F.Fab)
    (effects (font (size 0.5 0.5) (thickness 0.05)))
  )
  (pad 4 smd rect (at -2 -1.2) (size 1.8 1.2) (layers F.Cu F.Paste F.Mask))
  (pad 3 smd rect (at 2 -1.2) (size 1.8 1.2) (layers F.Cu F.Paste F.Mask))
  (pad 2 smd rect (at 2 1.2) (size 1.8 1.2) (layers F.Cu F.Paste F.Mask))
  (pad 1 smd rect (at -2 1.2) (size 1.8 1.2) (layers F.Cu F.Paste F.Mask))
  (model ${KISYS3DMOD}/Crystals.3dshapes/Crystal_SMD_5032-4pin_5.0x3.2mm.wrl
    (at (xyz 0 0 0))
    (scale (xyz 1 1 1))
    (rotate (xyz 0 0 0))
  )
)
