(module InterBoard_1x02_P1.27mm_TL (layer F.Cu) (tedit 5D6799C5)
  (descr "surface-mounted straight pin header, 1x02, 1.27mm pitch, single row, style 1 (pin 1 left)")
  (tags "Surface mounted pin header SMD 1x02 1.27mm single row style1 pin1 left")
  (attr smd)
  (fp_text reference REF** (at 0.2 -1.95) (layer F.SilkS)
    (effects (font (size 0.5 0.5) (thickness 0.05)))
  )
  (fp_text value InterBoard_1x02_P1.27mm_TL (at 0.36 2.02) (layer F.Fab) hide
    (effects (font (size 0.5 0.5) (thickness 0.05)))
  )
  (fp_line (start 1.05 1.27) (end -1.05 1.27) (layer F.Fab) (width 0.1))
  (fp_line (start -0.615 -1.27) (end 1.05 -1.27) (layer F.Fab) (width 0.1))
  (fp_line (start -1.05 1.27) (end -1.05 -0.835) (layer F.Fab) (width 0.1))
  (fp_line (start -1.05 -0.835) (end -0.615 -1.27) (layer F.Fab) (width 0.1))
  (fp_line (start 1.05 -1.27) (end 1.05 1.27) (layer F.Fab) (width 0.1))
  (fp_line (start -1.05 -0.835) (end -1.5 -0.835) (layer F.Fab) (width 0.1))
  (fp_line (start -1.5 -0.835) (end -1.5 -0.435) (layer F.Fab) (width 0.1))
  (fp_line (start -1.5 -0.435) (end -1.05 -0.435) (layer F.Fab) (width 0.1))
  (fp_line (start -1.11 -1.33) (end 1.11 -1.33) (layer F.SilkS) (width 0.12))
  (fp_line (start -1.11 1.33) (end 1.11 1.33) (layer F.SilkS) (width 0.12))
  (fp_line (start 1.11 -1.32) (end 1.11 0.05) (layer F.SilkS) (width 0.12))
  (fp_line (start -1.11 -1.22) (end -1.8 -1.22) (layer F.SilkS) (width 0.12))
  (fp_line (start -1.11 -1.33) (end -1.11 -1.22) (layer F.SilkS) (width 0.12))
  (fp_line (start 1.11 1.22) (end 1.11 1.33) (layer F.SilkS) (width 0.12))
  (fp_line (start -1.11 -0.05) (end -1.11 1.32) (layer F.SilkS) (width 0.12))
  (fp_line (start -1.9 -1.47) (end -1.9 1.47) (layer F.CrtYd) (width 0.05))
  (fp_line (start -1.9 1.47) (end 0.8 1.47) (layer F.CrtYd) (width 0.05))
  (fp_line (start 0.8 1.47) (end 0.8 -1.47) (layer F.CrtYd) (width 0.05))
  (fp_line (start 0.8 -1.47) (end -1.9 -1.47) (layer F.CrtYd) (width 0.05))
  (fp_text user %R (at -0.23 -1.99 180) (layer F.Fab)
    (effects (font (size 0.5 0.5) (thickness 0.05)))
  )
  (pad 1 smd rect (at -0.7 -0.635) (size 2 0.65) (layers F.Cu F.Paste F.Mask))
  (pad 2 smd rect (at -0.7 0.635) (size 2 0.65) (layers F.Cu F.Paste F.Mask))
  (pad 2 thru_hole oval (at 0 0.635) (size 1 1) (drill 0.65) (layers *.Cu *.Mask))
  (pad 1 thru_hole rect (at 0 -0.635) (size 1 1) (drill 0.65) (layers *.Cu *.Mask))
  (model ${KISYS3DMOD}/Connector_PinHeader_1.27mm.3dshapes/PinHeader_1x02_P1.27mm_Vertical_SMD_Pin1Left.wrl
    (at (xyz 0 0 0))
    (scale (xyz 1 1 1))
    (rotate (xyz 0 0 0))
  )
)
