(module LED_0603_TL (layer F.Cu) (tedit 5D67BAAB)
  (descr "LED 0603 smd package")
  (tags "LED led 0603 SMD smd SMT smt smdled SMDLED smtled SMTLED")
  (attr smd)
  (fp_text reference REF** (at 0.08 -1.01) (layer F.SilkS)
    (effects (font (size 0.5 0.5) (thickness 0.05)))
  )
  (fp_text value LED_0603_TL (at 0.04 1.08) (layer F.Fab) hide
    (effects (font (size 0.5 0.5) (thickness 0.05)))
  )
  (fp_line (start -1.6 -0.6) (end 1.6 -0.6) (layer F.CrtYd) (width 0.05))
  (fp_line (start -1.6 0.6) (end -1.6 -0.6) (layer F.CrtYd) (width 0.05))
  (fp_line (start 1.6 0.6) (end -1.6 0.6) (layer F.CrtYd) (width 0.05))
  (fp_line (start 1.6 -0.6) (end 1.6 0.6) (layer F.CrtYd) (width 0.05))
  (fp_line (start -1.3 -0.5) (end 0.8 -0.5) (layer F.SilkS) (width 0.12))
  (fp_line (start -1.3 0.5) (end 0.8 0.5) (layer F.SilkS) (width 0.12))
  (fp_line (start -0.8 0.4) (end -0.8 -0.4) (layer F.Fab) (width 0.1))
  (fp_line (start -0.8 -0.4) (end 0.8 -0.4) (layer F.Fab) (width 0.1))
  (fp_line (start 0.8 -0.4) (end 0.8 0.4) (layer F.Fab) (width 0.1))
  (fp_line (start 0.8 0.4) (end -0.8 0.4) (layer F.Fab) (width 0.1))
  (fp_line (start 0.15 -0.2) (end 0.15 0.2) (layer F.Fab) (width 0.1))
  (fp_line (start 0.15 0.2) (end -0.15 0) (layer F.Fab) (width 0.1))
  (fp_line (start -0.15 0) (end 0.15 -0.2) (layer F.Fab) (width 0.1))
  (fp_line (start -0.2 -0.2) (end -0.2 0.2) (layer F.Fab) (width 0.1))
  (fp_line (start -1.3 -0.5) (end -1.3 0.5) (layer F.SilkS) (width 0.12))
  (fp_text user REF** (at 0.12 -1.05) (layer F.Fab)
    (effects (font (size 0.5 0.5) (thickness 0.05)))
  )
  (pad 1 smd rect (at -0.9 0 180) (size 1 0.8) (layers F.Cu F.Paste F.Mask))
  (pad 2 smd rect (at 0.9 0 180) (size 1 0.8) (layers F.Cu F.Paste F.Mask))
  (model ${KISYS3DMOD}/LEDs.3dshapes/LED_0603.wrl
    (at (xyz 0 0 0))
    (scale (xyz 1 1 1))
    (rotate (xyz 0 0 180))
  )
)
