(module SW_PTS810_TL (layer F.Cu) (tedit 5D67E26A)
  (descr "Light Touch Switch")
  (attr smd)
  (fp_text reference REF** (at -0.02 -2.21) (layer F.SilkS)
    (effects (font (size 0.5 0.5) (thickness 0.05)))
  )
  (fp_text value SW_PTS810_TL (at 0.07 2.39) (layer F.Fab) hide
    (effects (font (size 0.5 0.5) (thickness 0.05)))
  )
  (fp_line (start -2.25 1.75) (end 2.25 1.75) (layer F.SilkS) (width 0.12))
  (fp_line (start 2.25 -1.75) (end -2.25 -1.75) (layer F.SilkS) (width 0.12))
  (fp_line (start 2.25 -0.35) (end 2.25 0.35) (layer F.SilkS) (width 0.12))
  (fp_line (start -2.25 -0.35) (end -2.25 0.35) (layer F.SilkS) (width 0.12))
  (fp_line (start -3.2 1.8) (end -3.2 -1.8) (layer F.CrtYd) (width 0.05))
  (fp_line (start 3.2 1.8) (end -3.2 1.8) (layer F.CrtYd) (width 0.05))
  (fp_line (start 3.2 -1.8) (end 3.2 1.8) (layer F.CrtYd) (width 0.05))
  (fp_line (start -3.2 -1.8) (end 3.2 -1.8) (layer F.CrtYd) (width 0.05))
  (fp_text user %R (at -0.05 -2.21) (layer F.Fab)
    (effects (font (size 0.5 0.5) (thickness 0.05)))
  )
  (fp_line (start -2.1 1.6) (end -2.1 -1.6) (layer F.Fab) (width 0.1))
  (fp_line (start 2.1 1.6) (end -2.1 1.6) (layer F.Fab) (width 0.1))
  (fp_line (start 2.1 -1.6) (end 2.1 1.6) (layer F.Fab) (width 0.1))
  (fp_line (start -2.1 -1.6) (end 2.1 -1.6) (layer F.Fab) (width 0.1))
  (fp_arc (start -0.5 0) (end -0.5 1) (angle 180) (layer F.Fab) (width 0.1))
  (fp_arc (start 0.5 0) (end 0.5 -1) (angle 180) (layer F.Fab) (width 0.1))
  (fp_line (start -0.5 -1) (end 0.5 -1) (layer F.Fab) (width 0.1))
  (fp_line (start -0.5 1) (end 0.5 1) (layer F.Fab) (width 0.1))
  (pad 4 smd rect (at 2.25 1.05) (size 1.5 0.7) (layers F.Cu F.Paste F.Mask))
  (pad 3 smd rect (at -2.25 1.05) (size 1.5 0.7) (layers F.Cu F.Paste F.Mask))
  (pad 1 smd rect (at -2.25 -1.05) (size 1.5 0.7) (layers F.Cu F.Paste F.Mask))
  (pad 2 smd rect (at 2.25 -1.05) (size 1.5 0.7) (layers F.Cu F.Paste F.Mask))
  (model ${KISYS3DMOD}/Buttons_Switches_SMD.3dshapes/SW_SPST_EVQP2.wrl
    (at (xyz 0 0 0))
    (scale (xyz 1 1 1))
    (rotate (xyz 0 0 0))
  )
)
