(module USB_Micro-B_Molex_47491-001_TL (layer F.Cu) (tedit 5D6A579B)
  (descr "Micro USB B receptable with flange, bottom-mount, SMD, right-angle (http://www.molex.com/pdm_docs/sd/473460001_sd.pdf)")
  (tags "Micro B USB SMD")
  (attr smd)
  (fp_text reference REF** (at 0.33 -5.06 180) (layer F.SilkS)
    (effects (font (size 0.5 0.5) (thickness 0.05)))
  )
  (fp_text value USB_Micro-B_Molex_47491-001_TL (at -0.09 6.44 180) (layer F.Fab) hide
    (effects (font (size 0.5 0.5) (thickness 0.05)))
  )
  (fp_text user "PCB Edge" (at -0.01 0.37 180) (layer Dwgs.User)
    (effects (font (size 0.4 0.4) (thickness 0.04)))
  )
  (fp_text user %R (at 0.34 -4.95) (layer F.Fab)
    (effects (font (size 0.5 0.5) (thickness 0.05)))
  )
  (fp_line (start 3.9 -1.65) (end 3.43 -1.65) (layer F.SilkS) (width 0.12))
  (fp_line (start 6.8 5.7) (end -6.8 5.7) (layer F.CrtYd) (width 0.05))
  (fp_line (start 6.8 -4.4) (end 6.8 5.7) (layer F.CrtYd) (width 0.05))
  (fp_line (start -6.8 -4.4) (end 6.8 -4.4) (layer F.CrtYd) (width 0.05))
  (fp_line (start -6.8 5.7) (end -6.8 -4.4) (layer F.CrtYd) (width 0.05))
  (fp_line (start 3.75 5.5) (end -3.75 5.5) (layer F.Fab) (width 0.1))
  (fp_line (start 3.75 -1.5) (end 3.75 5.5) (layer F.Fab) (width 0.1))
  (fp_line (start -3.75 -1.5) (end 3.75 -1.5) (layer F.Fab) (width 0.1))
  (fp_line (start -3.75 5.5) (end -3.75 -1.5) (layer F.Fab) (width 0.1))
  (fp_line (start 3.9 -1.65) (end 3.9 0.06) (layer F.SilkS) (width 0.12))
  (fp_line (start -3.9 -1.65) (end -3.43 -1.65) (layer F.SilkS) (width 0.12))
  (fp_line (start -3.9 0.06) (end -3.9 -1.65) (layer F.SilkS) (width 0.12))
  (fp_line (start -3.25 0) (end 3.25 0) (layer F.Fab) (width 0.1))
  (fp_line (start 1.5 -1.5) (end 1.5 -3.3) (layer F.Fab) (width 0.1))
  (fp_line (start 1.5 -3.3) (end 2.9 -3.3) (layer F.Fab) (width 0.1))
  (fp_line (start 2.9 -3.3) (end 2.9 -1.5) (layer F.Fab) (width 0.1))
  (fp_line (start -2.9 -1.5) (end -2.9 -3.3) (layer F.Fab) (width 0.1))
  (fp_line (start -1.5 -3.3) (end -1.5 -1.5) (layer F.Fab) (width 0.1))
  (fp_line (start -2.9 -3.3) (end -1.5 -3.3) (layer F.Fab) (width 0.1))
  (fp_line (start 3.75 -1.5) (end 5.55 -1.5) (layer F.Fab) (width 0.1))
  (fp_line (start 5.55 0) (end 3.75 0) (layer F.Fab) (width 0.1))
  (fp_line (start 5.55 -1.5) (end 5.55 0) (layer F.Fab) (width 0.1))
  (fp_line (start -3.75 0) (end -5.55 0) (layer F.Fab) (width 0.1))
  (fp_line (start -5.55 -1.5) (end -3.75 -1.5) (layer F.Fab) (width 0.1))
  (fp_line (start -5.55 0) (end -5.55 -1.5) (layer F.Fab) (width 0.1))
  (pad 1 smd rect (at -1.3 -0.875) (size 0.45 1.38) (layers F.Cu F.Paste F.Mask))
  (pad 2 smd rect (at -0.65 -0.875) (size 0.45 1.38) (layers F.Cu F.Paste F.Mask))
  (pad 3 smd rect (at 0 -0.875) (size 0.45 1.38) (layers F.Cu F.Paste F.Mask))
  (pad 4 smd rect (at 0.65 -0.875) (size 0.45 1.38) (layers F.Cu F.Paste F.Mask))
  (pad 5 smd rect (at 1.3 -0.875) (size 0.45 1.38) (layers F.Cu F.Paste F.Mask))
  (pad 6 smd rect (at -5.5 -1.25) (size 2.2 2.5) (layers F.Cu F.Paste F.Mask))
  (pad 6 smd rect (at 5.5 -1.25) (size 2.2 2.5) (layers F.Cu F.Paste F.Mask))
  (pad 6 smd rect (at -2.6 -3.1) (size 2.5 2.2) (layers F.Cu F.Paste F.Mask))
  (pad 6 smd rect (at 2.6 -3.1) (size 2.5 2.2) (layers F.Cu F.Paste F.Mask))
  (model ${KISYS3DMOD}/Connector_USB.3dshapes/USB_Micro-B_Molex_47346-0001.wrl
    (at (xyz 0 0 0))
    (scale (xyz 1 1 1))
    (rotate (xyz 0 0 0))
  )
)
