(module VSON-10-1EP_2.5x2.5mm_Pitch0.5mm_TL (layer F.Cu) (tedit 5DAC5464)
  (descr "VSON 10 Thermal on 11 3x3mm Pitch 0.5mm http://chip.tomsk.ru/chip/chipdoc.nsf/Package/D8A64DD165C2AAD9472579400024FC41!OpenDocument")
  (tags "VSON 10 Thermal on 11 3x3mm Pitch 0.5mm")
  (attr smd)
  (fp_text reference REF** (at 0.03 -2.23) (layer F.SilkS)
    (effects (font (size 0.5 0.5) (thickness 0.05)))
  )
  (fp_text value VSON-10-1EP_2.5x2.5mm_Pitch0.5mm_TL (at 0.09 2.38) (layer F.Fab) hide
    (effects (font (size 0.5 0.5) (thickness 0.05)))
  )
  (fp_line (start -1.25 -1.25) (end 1.25 -1.25) (layer F.Fab) (width 0.1))
  (fp_line (start 1.25 -1.25) (end 1.25 1.25) (layer F.Fab) (width 0.1))
  (fp_line (start -1.25 -1.25) (end -1.25 1.25) (layer F.Fab) (width 0.1))
  (fp_line (start -1.25 1.25) (end 1.25 1.25) (layer F.Fab) (width 0.1))
  (fp_line (start -0.5 -1.35) (end -1.35 -1.35) (layer F.SilkS) (width 0.12))
  (fp_line (start -1.35 -1.35) (end -1.35 -1.25) (layer F.SilkS) (width 0.12))
  (fp_line (start 0.5 -1.35) (end 1.35 -1.35) (layer F.SilkS) (width 0.12))
  (fp_line (start 1.35 -1.35) (end 1.35 -1.25) (layer F.SilkS) (width 0.12))
  (fp_line (start -1.35 1.25) (end -1.35 1.35) (layer F.SilkS) (width 0.12))
  (fp_line (start -1.35 1.35) (end -0.5 1.35) (layer F.SilkS) (width 0.12))
  (fp_line (start 0.5 1.35) (end 1.35 1.35) (layer F.SilkS) (width 0.12))
  (fp_line (start 1.35 1.35) (end 1.35 1.25) (layer F.SilkS) (width 0.12))
  (fp_line (start -2.15 -1.9) (end 2.15 -1.9) (layer F.CrtYd) (width 0.05))
  (fp_line (start 2.15 -1.9) (end 2.15 1.9) (layer F.CrtYd) (width 0.05))
  (fp_line (start 2.15 1.9) (end -2.15 1.9) (layer F.CrtYd) (width 0.05))
  (fp_line (start -2.15 1.9) (end -2.15 -1.9) (layer F.CrtYd) (width 0.05))
  (fp_line (start -1.35 -1.25) (end -1.8 -1.25) (layer F.SilkS) (width 0.12))
  (fp_line (start -1.25 -0.75) (end -0.75 -1.25) (layer F.Fab) (width 0.1))
  (fp_text user %R (at 0.04 -2.37) (layer F.Fab)
    (effects (font (size 0.5 0.5) (thickness 0.05)))
  )
  (pad 11 thru_hole circle (at 0 0) (size 1.2 1.2) (drill 0.8) (layers *.Cu *.Mask))
  (pad 11 smd rect (at 0.25 1.35) (size 0.28 0.7) (layers F.Cu F.Paste F.Mask))
  (pad 11 smd rect (at 0.25 -1.35) (size 0.28 0.7) (layers F.Cu F.Paste F.Mask))
  (pad 11 smd rect (at -0.25 1.35) (size 0.28 0.7) (layers F.Cu F.Paste F.Mask))
  (pad 11 smd rect (at -0.25 -1.35) (size 0.28 0.7) (layers F.Cu F.Paste F.Mask))
  (pad 11 smd rect (at 0.3 0.5) (size 0.6 1) (layers F.Cu F.Paste F.Mask))
  (pad 11 smd rect (at 0.3 -0.5) (size 0.6 1) (layers F.Cu F.Paste F.Mask))
  (pad 11 smd rect (at -0.3 0.5) (size 0.6 1) (layers F.Cu F.Paste F.Mask))
  (pad 11 smd rect (at -0.3 -0.5) (size 0.6 1) (layers F.Cu F.Paste F.Mask))
  (pad 10 smd rect (at 1.45 -1) (size 1 0.28) (layers F.Cu F.Paste F.Mask))
  (pad 9 smd rect (at 1.45 -0.5) (size 1 0.28) (layers F.Cu F.Paste F.Mask))
  (pad 8 smd rect (at 1.45 0) (size 1 0.28) (layers F.Cu F.Paste F.Mask))
  (pad 7 smd rect (at 1.45 0.5) (size 1 0.28) (layers F.Cu F.Paste F.Mask))
  (pad 6 smd rect (at 1.45 1) (size 1 0.28) (layers F.Cu F.Paste F.Mask))
  (pad 5 smd rect (at -1.45 1) (size 1 0.28) (layers F.Cu F.Paste F.Mask))
  (pad 4 smd rect (at -1.45 0.5) (size 1 0.28) (layers F.Cu F.Paste F.Mask))
  (pad 3 smd rect (at -1.45 0) (size 1 0.28) (layers F.Cu F.Paste F.Mask))
  (pad 2 smd rect (at -1.45 -0.5) (size 1 0.28) (layers F.Cu F.Paste F.Mask))
  (pad 1 smd rect (at -1.45 -1) (size 1 0.28) (layers F.Cu F.Paste F.Mask))
  (model ${KISYS3DMOD}/Housings_SON.3dshapes/VSON-10-1EP_3x3mm_Pitch0.5mm_ThermalPad.wrl
    (at (xyz 0 0 0))
    (scale (xyz 1 1 1))
    (rotate (xyz 0 0 0))
  )
)
