EESchema Schematic File Version 4
LIBS:carte_fleche_gauche-cache
EELAYER 30 0
EELAYER END
$Descr A2 23386 16535
encoding utf-8
Sheet 2 2
Title "Schematics"
Date "20 oct 2019"
Rev "B"
Comp "Lilian T."
Comment1 "TL 500 004"
Comment2 "Clavier ToucheLibre"
Comment3 "Left Arrows Board"
Comment4 "Connector and Switches"
$EndDescr
$Comp
L carte_fleche_gauche-rescue:ML1A-11JW-carte_clavier-rescue-carte_fleche_gauche-rescue SW42002
U 1 1 5D4EAB1A
P 11700 7950
F 0 "SW42002" H 11950 8900 60  0000 C CNN
F 1 "ML1A-11JW" H 12000 8800 60  0000 C CNN
F 2 "lib_clavier:ML1A-11JW_TL" H 12300 8700 60  0001 C CNN
F 3 "" H 12300 8700 60  0000 C CNN
F 4 "TL 200 049" H 11700 7950 50  0001 C CNN "ID_BASE"
F 5 "CD" H 11700 7950 50  0001 C CNN "Variante"
	1    11700 7950
	1    0    0    -1  
$EndComp
$Comp
L carte_fleche_gauche-rescue:ML1A-11JW-carte_clavier-rescue-carte_fleche_gauche-rescue SW42001
U 1 1 5D4EAB21
P 12700 7050
F 0 "SW42001" H 12950 8000 60  0000 C CNN
F 1 "ML1A-11JW" H 13000 7900 60  0000 C CNN
F 2 "lib_clavier:ML1A-11JW_TL" H 13300 7800 60  0001 C CNN
F 3 "" H 13300 7800 60  0000 C CNN
F 4 "TL 200 049" H 12700 7050 50  0001 C CNN "ID_BASE"
F 5 "CD" H 12700 7050 50  0001 C CNN "Variante"
	1    12700 7050
	1    0    0    -1  
$EndComp
$Comp
L Device:D D?
U 1 1 5D4EAB28
P 12300 7950
AR Path="/5D4EAB28" Ref="D?"  Part="1" 
AR Path="/5BBF9DAA/5D4EAB28" Ref="D42002"  Part="1" 
F 0 "D42002" H 12400 8150 50  0000 C CNN
F 1 "1N4148WT" H 12400 8050 50  0000 C CNN
F 2 "lib_clavier:D_SOD-523_TL" H 12300 7950 50  0001 C CNN
F 3 "" H 12300 7950 50  0001 C CNN
F 4 "G2" H 12300 7950 50  0001 C CNN "Variante"
F 5 "TL 200 036" H 12300 7950 50  0001 C CNN "ID_BASE"
	1    12300 7950
	1    0    0    -1  
$EndComp
Text Notes 11800 6950 0    60   ~ 12
HOME
Text Notes 12800 6050 0    60   ~ 12
PGUP
Wire Wire Line
	11000 7450 11750 7450
Connection ~ 11750 7450
Wire Wire Line
	13550 4800 13550 7050
Wire Wire Line
	13450 7050 13550 7050
Wire Wire Line
	12450 7950 12600 7950
$Comp
L Device:Q_NPN_BEC Q42001
U 1 1 5D4EAB48
P 12100 8250
F 0 "Q42001" V 12050 8550 50  0000 C CNN
F 1 "BC847BT" V 11950 8500 50  0000 C CNN
F 2 "lib_clavier:SOT-416_TL" H 12300 8350 50  0001 C CNN
F 3 "~" H 12100 8250 50  0001 C CNN
F 4 "G1" V 12100 8250 50  0001 C CNN "Variante"
F 5 "TL 200 038" H 12100 8250 50  0001 C CNN "ID_BASE"
	1    12100 8250
	0    -1   -1   0   
$EndComp
$Comp
L Device:R R42002
U 1 1 5D4EAB4F
P 11850 7950
F 0 "R42002" V 11650 7900 50  0000 C CNN
F 1 "10k" V 11750 7900 50  0000 C CNN
F 2 "lib_clavier:R_0402_TL" V 11780 7950 50  0001 C CNN
F 3 "~" H 11850 7950 50  0001 C CNN
F 4 "G1" V 11850 7950 50  0001 C CNN "Variante"
F 5 "TL 200 008" H 11850 7950 50  0001 C CNN "ID_BASE"
	1    11850 7950
	0    1    1    0   
$EndComp
Wire Wire Line
	12100 8450 12600 8450
$Comp
L power:GND #PWR02002
U 1 1 5D4EAB57
P 12400 8150
F 0 "#PWR02002" H 12400 7900 50  0001 C CNN
F 1 "GND" H 12405 7977 50  0001 C CNN
F 2 "" H 12400 8150 50  0001 C CNN
F 3 "" H 12400 8150 50  0001 C CNN
	1    12400 8150
	1    0    0    -1  
$EndComp
Wire Wire Line
	12300 8150 12400 8150
Wire Wire Line
	12100 7150 11750 7150
Wire Wire Line
	11750 7150 11750 7450
Wire Wire Line
	11900 8150 11700 8150
Wire Wire Line
	11700 8150 11700 8050
Wire Wire Line
	12450 7450 12500 7450
Wire Wire Line
	13100 6250 12750 6250
Wire Wire Line
	12750 6250 12750 6550
$Comp
L Device:R R42001
U 1 1 5D4EAB68
P 12850 7050
F 0 "R42001" V 12650 7000 50  0000 C CNN
F 1 "16.2k" V 12734 7050 50  0000 C CNN
F 2 "lib_clavier:R_0402_TL" V 12780 7050 50  0001 C CNN
F 3 "~" H 12850 7050 50  0001 C CNN
F 4 "G1" V 12850 7050 50  0001 C CNN "Variante"
F 5 "TL 200 009" H 12850 7050 50  0001 C CNN "ID_BASE"
	1    12850 7050
	0    1    1    0   
$EndComp
Wire Wire Line
	13150 7050 13100 7050
Wire Wire Line
	12700 8050 11700 8050
Connection ~ 11700 8050
Wire Wire Line
	11700 8050 11700 7950
Wire Wire Line
	12000 7950 12100 7950
Wire Wire Line
	12100 7900 12100 7950
Connection ~ 12100 7950
Wire Wire Line
	12100 7950 12150 7950
Wire Wire Line
	13100 7000 13100 7050
Connection ~ 13100 7050
Wire Wire Line
	13100 7050 13000 7050
Wire Notes Line
	5500 8300 5500 6500
Text Notes 5550 6450 0    59   ~ 12
Connecteur vers carte Clavier\nConnector to Clavier board
Wire Notes Line
	5500 6500 7200 6500
$Comp
L carte_fleche_gauche-rescue:GND-carte_clavier-rescue-carte_fleche_gauche-rescue #PWR02003
U 1 1 5D4F3BDF
P 5900 8000
AR Path="/5D4F3BDF" Ref="#PWR02003"  Part="1" 
AR Path="/5BBF9DAA/5D4F3BDF" Ref="#PWR02003"  Part="1" 
F 0 "#PWR02003" H 5900 7750 50  0001 C CNN
F 1 "GND" H 5905 7827 50  0001 C CNN
F 2 "" H 5900 8000 50  0000 C CNN
F 3 "" H 5900 8000 50  0000 C CNN
	1    5900 8000
	1    0    0    -1  
$EndComp
Wire Notes Line
	7200 8300 7200 6500
Wire Wire Line
	6900 7200 5750 7200
Wire Wire Line
	6900 7300 5750 7300
Wire Wire Line
	6900 7500 5750 7500
Wire Wire Line
	6900 7600 5750 7600
Wire Wire Line
	6900 7800 5750 7800
Wire Wire Line
	6900 7900 5750 7900
Wire Wire Line
	6900 7000 5750 7000
$Comp
L power:+3.3V #PWR02001
U 1 1 5D4F3BF9
P 6200 6850
F 0 "#PWR02001" H 6200 6700 50  0001 C CNN
F 1 "+3.3V" H 6215 7023 50  0000 C CNN
F 2 "" H 6200 6850 50  0001 C CNN
F 3 "" H 6200 6850 50  0001 C CNN
	1    6200 6850
	1    0    0    -1  
$EndComp
Text Label 6900 7000 2    50   ~ 0
Lig_X_Opt_G
Text Label 6900 7200 2    50   ~ 0
Col_1_Opt_G
Text Label 6900 7300 2    50   ~ 0
Col_1bis_Opt_G
Text Label 6900 7500 2    50   ~ 0
Col_2_Opt_G
Text Label 6900 7600 2    50   ~ 0
Col_2bis_Opt_G
Text Label 6900 7800 2    50   ~ 0
Col_3_Opt_G
Text Label 6900 7900 2    50   ~ 0
Col_3bis_Opt_G
Wire Notes Line
	5500 8300 7200 8300
Wire Wire Line
	12500 7450 12500 6550
Wire Wire Line
	12500 6550 12750 6550
Connection ~ 12750 6550
Wire Wire Line
	12700 7050 12700 8050
Wire Wire Line
	12600 4800 12600 7950
Wire Wire Line
	12600 8450 12600 7950
Connection ~ 12600 7950
$Comp
L carte_fleche_gauche-rescue:ML1A-11JW-carte_clavier-rescue-carte_fleche_gauche-rescue SW42004
U 1 1 5D53F173
P 12900 9300
F 0 "SW42004" H 13150 10250 60  0000 C CNN
F 1 "ML1A-11JW" H 13200 10150 60  0000 C CNN
F 2 "lib_clavier:ML1A-11JW_TL" H 13500 10050 60  0001 C CNN
F 3 "" H 13500 10050 60  0000 C CNN
F 4 "TL 200 049" H 12900 9300 50  0001 C CNN "ID_BASE"
F 5 "CD" H 12900 9300 50  0001 C CNN "Variante"
	1    12900 9300
	1    0    0    -1  
$EndComp
$Comp
L carte_fleche_gauche-rescue:ML1A-11JW-carte_clavier-rescue-carte_fleche_gauche-rescue SW42003
U 1 1 5D53F17A
P 13900 8400
F 0 "SW42003" H 14150 9350 60  0000 C CNN
F 1 "ML1A-11JW" H 14200 9250 60  0000 C CNN
F 2 "lib_clavier:ML1A-11JW_TL" H 14500 9150 60  0001 C CNN
F 3 "" H 14500 9150 60  0000 C CNN
F 4 "CD" H 13900 8400 50  0001 C CNN "Variante"
F 5 "TL 200 049" H 13900 8400 50  0001 C CNN "ID_BASE"
	1    13900 8400
	1    0    0    -1  
$EndComp
$Comp
L Device:D D?
U 1 1 5D53F181
P 13500 9300
AR Path="/5D53F181" Ref="D?"  Part="1" 
AR Path="/5BBF9DAA/5D53F181" Ref="D42005"  Part="1" 
F 0 "D42005" H 13600 9500 50  0000 C CNN
F 1 "1N4148WT" H 13600 9400 50  0000 C CNN
F 2 "lib_clavier:D_SOD-523_TL" H 13500 9300 50  0001 C CNN
F 3 "" H 13500 9300 50  0001 C CNN
F 4 "G2" H 13500 9300 50  0001 C CNN "Variante"
F 5 "TL 200 036" H 13500 9300 50  0001 C CNN "ID_BASE"
	1    13500 9300
	1    0    0    -1  
$EndComp
$Comp
L Device:D D?
U 1 1 5D53F188
P 14500 8400
AR Path="/5D53F188" Ref="D?"  Part="1" 
AR Path="/5BBF9DAA/5D53F188" Ref="D42003"  Part="1" 
F 0 "D42003" H 14550 8500 50  0000 C CNN
F 1 "1N4148WT" H 14500 8300 50  0000 C CNN
F 2 "lib_clavier:D_SOD-523_TL" H 14500 8400 50  0001 C CNN
F 3 "" H 14500 8400 50  0000 C CNN
F 4 "G2" H 14500 8400 50  0001 C CNN "Variante"
F 5 "TL 200 036" H 14500 8400 50  0001 C CNN "ID_BASE"
	1    14500 8400
	1    0    0    -1  
$EndComp
Text Notes 13000 8300 0    60   ~ 12
PGDN
Text Notes 14000 7400 0    60   ~ 12
END
Connection ~ 12950 8800
Wire Wire Line
	14800 4800 14800 8400
Wire Wire Line
	13650 9300 13800 9300
$Comp
L Device:Q_NPN_BEC Q42003
U 1 1 5D53F19D
P 13300 9600
F 0 "Q42003" V 13250 9900 50  0000 C CNN
F 1 "BC847BT" V 13150 9850 50  0000 C CNN
F 2 "lib_clavier:SOT-416_TL" H 13500 9700 50  0001 C CNN
F 3 "~" H 13300 9600 50  0001 C CNN
F 4 "G1" V 13300 9600 50  0001 C CNN "Variante"
F 5 "TL 200 038" H 13300 9600 50  0001 C CNN "ID_BASE"
	1    13300 9600
	0    -1   -1   0   
$EndComp
$Comp
L Device:R R42005
U 1 1 5D53F1A4
P 13050 9300
F 0 "R42005" V 12850 9250 50  0000 C CNN
F 1 "10k" V 12950 9250 50  0000 C CNN
F 2 "lib_clavier:R_0402_TL" V 12980 9300 50  0001 C CNN
F 3 "~" H 13050 9300 50  0001 C CNN
F 4 "G1" V 13050 9300 50  0001 C CNN "Variante"
F 5 "TL 200 008" H 13050 9300 50  0001 C CNN "ID_BASE"
	1    13050 9300
	0    1    1    0   
$EndComp
Wire Wire Line
	13300 9800 13800 9800
$Comp
L power:GND #PWR02005
U 1 1 5D53F1AC
P 13600 9500
F 0 "#PWR02005" H 13600 9250 50  0001 C CNN
F 1 "GND" H 13605 9327 50  0001 C CNN
F 2 "" H 13600 9500 50  0001 C CNN
F 3 "" H 13600 9500 50  0001 C CNN
	1    13600 9500
	1    0    0    -1  
$EndComp
Wire Wire Line
	13500 9500 13600 9500
Wire Wire Line
	13300 8500 12950 8500
Wire Wire Line
	12950 8500 12950 8800
Wire Wire Line
	13100 9500 12900 9500
Wire Wire Line
	12900 9500 12900 9400
Wire Wire Line
	13650 8800 13700 8800
Wire Wire Line
	14300 7600 13950 7600
Wire Wire Line
	13950 7600 13950 7900
$Comp
L Device:R R42003
U 1 1 5D53F1BA
P 14050 8400
F 0 "R42003" V 13850 8350 50  0000 C CNN
F 1 "16.2k" V 13934 8400 50  0000 C CNN
F 2 "lib_clavier:R_0402_TL" V 13980 8400 50  0001 C CNN
F 3 "~" H 14050 8400 50  0001 C CNN
F 4 "TL 200 009" H 14050 8400 50  0001 C CNN "ID_BASE"
F 5 "G1" H 14050 8400 50  0001 C CNN "Variante"
	1    14050 8400
	0    1    1    0   
$EndComp
Wire Wire Line
	14350 8400 14300 8400
Wire Wire Line
	13900 9400 12900 9400
Connection ~ 12900 9400
Wire Wire Line
	12900 9400 12900 9300
Wire Wire Line
	13200 9300 13300 9300
Wire Wire Line
	13300 9250 13300 9300
Connection ~ 13300 9300
Wire Wire Line
	13300 9300 13350 9300
Wire Wire Line
	14300 8350 14300 8400
Connection ~ 14300 8400
Wire Wire Line
	14300 8400 14200 8400
Wire Wire Line
	13700 8800 13700 7900
Wire Wire Line
	13700 7900 13950 7900
Connection ~ 13950 7900
Wire Wire Line
	13900 8400 13900 9400
Wire Wire Line
	13800 4800 13800 9300
Wire Wire Line
	13800 9800 13800 9300
Connection ~ 13800 9300
$Comp
L carte_fleche_gauche-rescue:ML1A-11JW-carte_clavier-rescue-carte_fleche_gauche-rescue SW42005
U 1 1 5D542208
P 9500 9300
F 0 "SW42005" H 9750 10250 60  0000 C CNN
F 1 "ML1A-11JW" H 9800 10150 60  0000 C CNN
F 2 "lib_clavier:ML1A-11JW_TL" H 10100 10050 60  0001 C CNN
F 3 "" H 10100 10050 60  0000 C CNN
F 4 "TL 200 049" H 9500 9300 50  0001 C CNN "ID_BASE"
F 5 "G3" H 9500 9300 50  0001 C CNN "Variante"
	1    9500 9300
	1    0    0    -1  
$EndComp
$Comp
L Device:D D?
U 1 1 5D542216
P 10100 9300
AR Path="/5D542216" Ref="D?"  Part="1" 
AR Path="/5BBF9DAA/5D542216" Ref="D42004"  Part="1" 
F 0 "D42004" H 10200 9500 50  0000 C CNN
F 1 "1N4148WT" H 10200 9400 50  0000 C CNN
F 2 "lib_clavier:D_SOD-523_TL" H 10100 9300 50  0001 C CNN
F 3 "" H 10100 9300 50  0000 C CNN
F 4 "G5" H 10100 9300 50  0001 C CNN "Variante"
F 5 "TL 200 036" H 10100 9300 50  0001 C CNN "ID_BASE"
	1    10100 9300
	1    0    0    -1  
$EndComp
Text Notes 9600 8300 0    60   ~ 12
LCPT
Wire Wire Line
	8050 8800 9550 8800
Connection ~ 9550 8800
Wire Wire Line
	10250 9300 10400 9300
$Comp
L Device:Q_NPN_BEC Q42002
U 1 1 5D542232
P 9900 9600
F 0 "Q42002" V 9850 9900 50  0000 C CNN
F 1 "BC847BT" V 9750 9850 50  0000 C CNN
F 2 "lib_clavier:SOT-416_TL" H 10100 9700 50  0001 C CNN
F 3 "~" H 9900 9600 50  0001 C CNN
F 4 "G4" V 9900 9600 50  0001 C CNN "Variante"
F 5 "TL 200 038" H 9900 9600 50  0001 C CNN "ID_BASE"
	1    9900 9600
	0    -1   -1   0   
$EndComp
$Comp
L Device:R R42004
U 1 1 5D542239
P 9650 9300
F 0 "R42004" V 9450 9250 50  0000 C CNN
F 1 "10k" V 9550 9250 50  0000 C CNN
F 2 "lib_clavier:R_0402_TL" V 9580 9300 50  0001 C CNN
F 3 "~" H 9650 9300 50  0001 C CNN
F 4 "G4" V 9650 9300 50  0001 C CNN "Variante"
F 5 "TL 200 008" H 9650 9300 50  0001 C CNN "ID_BASE"
	1    9650 9300
	0    1    1    0   
$EndComp
Wire Wire Line
	9900 9800 10400 9800
$Comp
L power:GND #PWR02004
U 1 1 5D542241
P 10200 9500
F 0 "#PWR02004" H 10200 9250 50  0001 C CNN
F 1 "GND" H 10205 9327 50  0001 C CNN
F 2 "" H 10200 9500 50  0001 C CNN
F 3 "" H 10200 9500 50  0001 C CNN
	1    10200 9500
	1    0    0    -1  
$EndComp
Wire Wire Line
	10100 9500 10200 9500
Wire Wire Line
	9900 8500 9550 8500
Wire Wire Line
	9550 8500 9550 8800
Wire Wire Line
	9700 9500 9500 9500
Wire Wire Line
	9800 9300 9900 9300
Wire Wire Line
	9900 9250 9900 9300
Connection ~ 9900 9300
Wire Wire Line
	9900 9300 9950 9300
Wire Wire Line
	10400 4800 10400 9300
Wire Wire Line
	10400 9800 10400 9300
Connection ~ 10400 9300
Wire Wire Line
	9500 9300 9500 9500
Wire Wire Line
	13450 6550 13650 6550
Wire Wire Line
	11000 8800 11000 7450
Wire Wire Line
	10250 8800 11000 8800
Wire Wire Line
	13650 6550 13650 7550
Wire Wire Line
	13650 7550 12800 7550
Wire Wire Line
	12800 7550 12800 8800
Wire Wire Line
	12800 8800 12950 8800
NoConn ~ 14650 7900
Text Label 8050 8800 0    50   ~ 0
Lig_X_Opt
Text Label 10400 4800 3    50   ~ 0
Col_1_Opt_G
Text Label 12600 4800 3    50   ~ 0
Col_2_Opt_G
Text Label 13550 4800 3    50   ~ 0
Col_2bis_Opt_G
Text Label 13800 4800 3    50   ~ 0
Col_3_Opt_G
Text Label 14800 4800 3    50   ~ 0
Col_3bis_Opt_G
Wire Notes Line
	11500 5800 15000 5800
Wire Notes Line
	15000 5800 15000 10000
Wire Notes Line
	15000 10000 11500 10000
Wire Notes Line
	11500 5800 11500 10000
Wire Wire Line
	14650 8400 14800 8400
Wire Notes Line
	10600 10000 9300 10000
Wire Notes Line
	9300 10000 9300 8000
Wire Notes Line
	9300 8000 10600 8000
Wire Notes Line
	10600 8000 10600 10000
Text Notes 9300 7950 0    59   ~ 12
Basculement Flèches\nCurseur / Page\n\nCursor / Page\nToggle
Text Notes 11600 5750 0    59   ~ 12
Flèches de Gauches\nLeft Arrows
$Comp
L Device:D D?
U 1 1 5D4EAB2F
P 13300 7050
AR Path="/5D4EAB2F" Ref="D?"  Part="1" 
AR Path="/5BBF9DAA/5D4EAB2F" Ref="D42001"  Part="1" 
F 0 "D42001" H 13350 7150 50  0000 C CNN
F 1 "1N4148WT" H 13300 6950 50  0000 C CNN
F 2 "lib_clavier:D_SOD-523_TL" H 13300 7050 50  0001 C CNN
F 3 "" H 13300 7050 50  0001 C CNN
F 4 "G2" H 13300 7050 50  0001 C CNN "Variante"
F 5 "TL 200 036" H 13300 7050 50  0001 C CNN "ID_BASE"
	1    13300 7050
	1    0    0    -1  
$EndComp
$Comp
L Connector_Generic:Conn_01x10 J42001
U 1 1 5D61248E
P 5550 7400
F 0 "J42001" H 5400 8050 50  0000 C CNN
F 1 "Conn_01x10" H 5350 7950 50  0000 C CNN
F 2 "lib_clavier:InterBoard_1x10_P1.27mm_inverse_TL" H 5550 7400 50  0001 C CNN
F 3 "~" H 5550 7400 50  0001 C CNN
F 4 "TL 200 066" H 5550 7400 50  0001 C CNN "ID_BASE"
F 5 "CD" H 5550 7400 50  0001 C CNN "Variante"
	1    5550 7400
	-1   0    0    -1  
$EndComp
Wire Wire Line
	6200 6850 6200 7100
Wire Wire Line
	6200 7100 5750 7100
Wire Wire Line
	5750 7400 5900 7400
Wire Wire Line
	5900 7400 5900 7700
Wire Wire Line
	5900 7700 5750 7700
Connection ~ 5900 7700
Wire Wire Line
	5900 7700 5900 8000
$EndSCHEMATC
