(module C_0603_TL (layer F.Cu) (tedit 5D678C4A)
  (descr "Resistor SMD 0603, reflow soldering, Vishay (see dcrcw.pdf)")
  (tags "resistor 0603")
  (attr smd)
  (fp_text reference REF** (at 0.04 -1.17) (layer F.SilkS)
    (effects (font (size 0.5 0.5) (thickness 0.05)))
  )
  (fp_text value C_0603_TL (at -0.02 1.23) (layer F.Fab) hide
    (effects (font (size 0.5 0.5) (thickness 0.05)))
  )
  (fp_line (start -0.5 -0.68) (end 0.5 -0.68) (layer F.SilkS) (width 0.12))
  (fp_line (start 0.5 0.68) (end -0.5 0.68) (layer F.SilkS) (width 0.12))
  (fp_line (start 1.5 -0.65) (end 1.5 0.65) (layer F.CrtYd) (width 0.05))
  (fp_line (start -1.5 -0.65) (end -1.5 0.65) (layer F.CrtYd) (width 0.05))
  (fp_line (start -1.5 0.65) (end 1.5 0.65) (layer F.CrtYd) (width 0.05))
  (fp_line (start -1.5 -0.65) (end 1.5 -0.65) (layer F.CrtYd) (width 0.05))
  (fp_line (start -0.8 -0.4) (end 0.8 -0.4) (layer F.Fab) (width 0.1))
  (fp_line (start 0.8 -0.4) (end 0.8 0.4) (layer F.Fab) (width 0.1))
  (fp_line (start 0.8 0.4) (end -0.8 0.4) (layer F.Fab) (width 0.1))
  (fp_line (start -0.8 0.4) (end -0.8 -0.4) (layer F.Fab) (width 0.1))
  (fp_text user %R (at 0.06 -1.14) (layer F.Fab)
    (effects (font (size 0.5 0.5) (thickness 0.05)))
  )
  (pad 2 smd rect (at 0.9 0) (size 0.8 0.9) (layers F.Cu F.Paste F.Mask))
  (pad 1 smd rect (at -0.9 0) (size 0.8 0.9) (layers F.Cu F.Paste F.Mask))
  (model ${KISYS3DMOD}/Inductors_SMD.3dshapes/L_0603.wrl
    (at (xyz 0 0 0))
    (scale (xyz 1 1 1))
    (rotate (xyz 0 0 0))
  )
)
