(module InterBoard_1x36_P1.27mm_TL (layer F.Cu) (tedit 5D67A1C6)
  (descr "surface-mounted straight pin header, 1x36, 1.27mm pitch, single row, style 1 (pin 1 left)")
  (tags "Surface mounted pin header SMD 1x36 1.27mm single row style1 pin1 left")
  (attr smd)
  (fp_text reference REF** (at -0.37 -23.46) (layer F.SilkS)
    (effects (font (size 0.5 0.5) (thickness 0.05)))
  )
  (fp_text value InterBoard_1x36_P1.27mm_TL (at -0.42 23.8) (layer F.Fab) hide
    (effects (font (size 0.5 0.5) (thickness 0.05)))
  )
  (fp_line (start 1.05 22.86) (end -1.05 22.86) (layer F.Fab) (width 0.1))
  (fp_line (start -0.615 -22.86) (end 1.05 -22.86) (layer F.Fab) (width 0.1))
  (fp_line (start -1.05 22.86) (end -1.05 -22.425) (layer F.Fab) (width 0.1))
  (fp_line (start -1.05 -22.425) (end -0.615 -22.86) (layer F.Fab) (width 0.1))
  (fp_line (start 1.05 -22.86) (end 1.05 22.86) (layer F.Fab) (width 0.1))
  (fp_line (start -1.05 -22.425) (end -1.5 -22.425) (layer F.Fab) (width 0.1))
  (fp_line (start -1.5 -22.425) (end -1.5 -22.025) (layer F.Fab) (width 0.1))
  (fp_line (start -1.5 -22.025) (end -1.05 -22.025) (layer F.Fab) (width 0.1))
  (fp_line (start -1.11 -22.92) (end 1.11 -22.92) (layer F.SilkS) (width 0.12))
  (fp_line (start -1.11 22.92) (end 1.11 22.92) (layer F.SilkS) (width 0.12))
  (fp_line (start 1.11 -22.91) (end 1.11 -21.54) (layer F.SilkS) (width 0.12))
  (fp_line (start -1.11 -22.81) (end -1.8 -22.81) (layer F.SilkS) (width 0.12))
  (fp_line (start -1.11 -22.92) (end -1.11 -22.81) (layer F.SilkS) (width 0.12))
  (fp_line (start 1.11 22.81) (end 1.11 22.92) (layer F.SilkS) (width 0.12))
  (fp_line (start 1.11 -20.37) (end 1.11 -19) (layer F.SilkS) (width 0.12))
  (fp_line (start 1.11 -17.83) (end 1.11 -16.46) (layer F.SilkS) (width 0.12))
  (fp_line (start 1.11 -15.29) (end 1.11 -13.92) (layer F.SilkS) (width 0.12))
  (fp_line (start 1.11 -12.75) (end 1.11 -11.38) (layer F.SilkS) (width 0.12))
  (fp_line (start 1.11 -10.21) (end 1.11 -8.84) (layer F.SilkS) (width 0.12))
  (fp_line (start 1.11 -7.67) (end 1.11 -6.3) (layer F.SilkS) (width 0.12))
  (fp_line (start 1.11 -5.13) (end 1.11 -3.76) (layer F.SilkS) (width 0.12))
  (fp_line (start 1.11 -2.59) (end 1.11 -1.22) (layer F.SilkS) (width 0.12))
  (fp_line (start 1.11 -0.05) (end 1.11 1.32) (layer F.SilkS) (width 0.12))
  (fp_line (start 1.11 2.49) (end 1.11 3.86) (layer F.SilkS) (width 0.12))
  (fp_line (start 1.11 5.03) (end 1.11 6.4) (layer F.SilkS) (width 0.12))
  (fp_line (start 1.11 7.57) (end 1.11 8.94) (layer F.SilkS) (width 0.12))
  (fp_line (start 1.11 10.11) (end 1.11 11.48) (layer F.SilkS) (width 0.12))
  (fp_line (start 1.11 12.65) (end 1.11 14.02) (layer F.SilkS) (width 0.12))
  (fp_line (start 1.11 15.19) (end 1.11 16.56) (layer F.SilkS) (width 0.12))
  (fp_line (start 1.11 17.73) (end 1.11 19.1) (layer F.SilkS) (width 0.12))
  (fp_line (start 1.11 20.27) (end 1.11 21.64) (layer F.SilkS) (width 0.12))
  (fp_line (start -1.11 -21.64) (end -1.11 -20.27) (layer F.SilkS) (width 0.12))
  (fp_line (start -1.11 -19.1) (end -1.11 -17.73) (layer F.SilkS) (width 0.12))
  (fp_line (start -1.11 -16.56) (end -1.11 -15.19) (layer F.SilkS) (width 0.12))
  (fp_line (start -1.11 -14.02) (end -1.11 -12.65) (layer F.SilkS) (width 0.12))
  (fp_line (start -1.11 -11.48) (end -1.11 -10.11) (layer F.SilkS) (width 0.12))
  (fp_line (start -1.11 -8.94) (end -1.11 -7.57) (layer F.SilkS) (width 0.12))
  (fp_line (start -1.11 -6.4) (end -1.11 -5.03) (layer F.SilkS) (width 0.12))
  (fp_line (start -1.11 -3.86) (end -1.11 -2.49) (layer F.SilkS) (width 0.12))
  (fp_line (start -1.11 -1.32) (end -1.11 0.05) (layer F.SilkS) (width 0.12))
  (fp_line (start -1.11 1.22) (end -1.11 2.59) (layer F.SilkS) (width 0.12))
  (fp_line (start -1.11 3.76) (end -1.11 5.13) (layer F.SilkS) (width 0.12))
  (fp_line (start -1.11 6.3) (end -1.11 7.67) (layer F.SilkS) (width 0.12))
  (fp_line (start -1.11 8.84) (end -1.11 10.21) (layer F.SilkS) (width 0.12))
  (fp_line (start -1.11 11.38) (end -1.11 12.75) (layer F.SilkS) (width 0.12))
  (fp_line (start -1.11 13.92) (end -1.11 15.29) (layer F.SilkS) (width 0.12))
  (fp_line (start -1.11 16.46) (end -1.11 17.83) (layer F.SilkS) (width 0.12))
  (fp_line (start -1.11 19) (end -1.11 20.37) (layer F.SilkS) (width 0.12))
  (fp_line (start -1.11 21.54) (end -1.11 22.91) (layer F.SilkS) (width 0.12))
  (fp_line (start -1.9 -23.06) (end -1.9 23.06) (layer F.CrtYd) (width 0.05))
  (fp_line (start -1.9 23.06) (end 0.8 23.06) (layer F.CrtYd) (width 0.05))
  (fp_line (start 0.8 23.06) (end 0.8 -23.06) (layer F.CrtYd) (width 0.05))
  (fp_line (start 0.8 -23.06) (end -1.9 -23.06) (layer F.CrtYd) (width 0.05))
  (fp_text user %R (at -0.56 -23.49 180) (layer F.Fab)
    (effects (font (size 0.5 0.5) (thickness 0.05)))
  )
  (pad 1 smd rect (at -0.7 -22.225) (size 2 0.65) (layers F.Cu F.Paste F.Mask))
  (pad 3 smd rect (at -0.7 -19.685) (size 2 0.65) (layers F.Cu F.Paste F.Mask))
  (pad 5 smd rect (at -0.7 -17.145) (size 2 0.65) (layers F.Cu F.Paste F.Mask))
  (pad 7 smd rect (at -0.7 -14.605) (size 2 0.65) (layers F.Cu F.Paste F.Mask))
  (pad 9 smd rect (at -0.7 -12.065) (size 2 0.65) (layers F.Cu F.Paste F.Mask))
  (pad 11 smd rect (at -0.7 -9.525) (size 2 0.65) (layers F.Cu F.Paste F.Mask))
  (pad 13 smd rect (at -0.7 -6.985) (size 2 0.65) (layers F.Cu F.Paste F.Mask))
  (pad 15 smd rect (at -0.7 -4.445) (size 2 0.65) (layers F.Cu F.Paste F.Mask))
  (pad 17 smd rect (at -0.7 -1.905) (size 2 0.65) (layers F.Cu F.Paste F.Mask))
  (pad 19 smd rect (at -0.7 0.635) (size 2 0.65) (layers F.Cu F.Paste F.Mask))
  (pad 21 smd rect (at -0.7 3.175) (size 2 0.65) (layers F.Cu F.Paste F.Mask))
  (pad 23 smd rect (at -0.7 5.715) (size 2 0.65) (layers F.Cu F.Paste F.Mask))
  (pad 25 smd rect (at -0.7 8.255) (size 2 0.65) (layers F.Cu F.Paste F.Mask))
  (pad 27 smd rect (at -0.7 10.795) (size 2 0.65) (layers F.Cu F.Paste F.Mask))
  (pad 29 smd rect (at -0.7 13.335) (size 2 0.65) (layers F.Cu F.Paste F.Mask))
  (pad 31 smd rect (at -0.7 15.875) (size 2 0.65) (layers F.Cu F.Paste F.Mask))
  (pad 33 smd rect (at -0.7 18.415) (size 2 0.65) (layers F.Cu F.Paste F.Mask))
  (pad 35 smd rect (at -0.7 20.955) (size 2 0.65) (layers F.Cu F.Paste F.Mask))
  (pad 2 smd rect (at -0.7 -20.955) (size 2 0.65) (layers F.Cu F.Paste F.Mask))
  (pad 4 smd rect (at -0.7 -18.415) (size 2 0.65) (layers F.Cu F.Paste F.Mask))
  (pad 6 smd rect (at -0.7 -15.875) (size 2 0.65) (layers F.Cu F.Paste F.Mask))
  (pad 8 smd rect (at -0.7 -13.335) (size 2 0.65) (layers F.Cu F.Paste F.Mask))
  (pad 10 smd rect (at -0.7 -10.795) (size 2 0.65) (layers F.Cu F.Paste F.Mask))
  (pad 12 smd rect (at -0.7 -8.255) (size 2 0.65) (layers F.Cu F.Paste F.Mask))
  (pad 14 smd rect (at -0.7 -5.715) (size 2 0.65) (layers F.Cu F.Paste F.Mask))
  (pad 16 smd rect (at -0.7 -3.175) (size 2 0.65) (layers F.Cu F.Paste F.Mask))
  (pad 18 smd rect (at -0.7 -0.635) (size 2 0.65) (layers F.Cu F.Paste F.Mask))
  (pad 20 smd rect (at -0.7 1.905) (size 2 0.65) (layers F.Cu F.Paste F.Mask))
  (pad 22 smd rect (at -0.7 4.445) (size 2 0.65) (layers F.Cu F.Paste F.Mask))
  (pad 24 smd rect (at -0.7 6.985) (size 2 0.65) (layers F.Cu F.Paste F.Mask))
  (pad 26 smd rect (at -0.7 9.525) (size 2 0.65) (layers F.Cu F.Paste F.Mask))
  (pad 28 smd rect (at -0.7 12.065) (size 2 0.65) (layers F.Cu F.Paste F.Mask))
  (pad 30 smd rect (at -0.7 14.605) (size 2 0.65) (layers F.Cu F.Paste F.Mask))
  (pad 32 smd rect (at -0.7 17.145) (size 2 0.65) (layers F.Cu F.Paste F.Mask))
  (pad 34 smd rect (at -0.7 19.685) (size 2 0.65) (layers F.Cu F.Paste F.Mask))
  (pad 36 smd rect (at -0.7 22.225) (size 2 0.65) (layers F.Cu F.Paste F.Mask))
  (pad 34 thru_hole oval (at 0 19.685) (size 1 1) (drill 0.65) (layers *.Cu *.Mask))
  (pad 21 thru_hole oval (at 0 3.175) (size 1 1) (drill 0.65) (layers *.Cu *.Mask))
  (pad 22 thru_hole oval (at 0 4.445) (size 1 1) (drill 0.65) (layers *.Cu *.Mask))
  (pad 17 thru_hole oval (at 0 -1.905) (size 1 1) (drill 0.65) (layers *.Cu *.Mask))
  (pad 31 thru_hole oval (at 0 15.875) (size 1 1) (drill 0.65) (layers *.Cu *.Mask))
  (pad 28 thru_hole oval (at 0 12.065) (size 1 1) (drill 0.65) (layers *.Cu *.Mask))
  (pad 19 thru_hole oval (at 0 0.635) (size 1 1) (drill 0.65) (layers *.Cu *.Mask))
  (pad 32 thru_hole oval (at 0 17.145) (size 1 1) (drill 0.65) (layers *.Cu *.Mask))
  (pad 20 thru_hole oval (at 0 1.905) (size 1 1) (drill 0.65) (layers *.Cu *.Mask))
  (pad 29 thru_hole oval (at 0 13.335) (size 1 1) (drill 0.65) (layers *.Cu *.Mask))
  (pad 27 thru_hole oval (at 0 10.795) (size 1 1) (drill 0.65) (layers *.Cu *.Mask))
  (pad 24 thru_hole oval (at 0 6.985) (size 1 1) (drill 0.65) (layers *.Cu *.Mask))
  (pad 25 thru_hole oval (at 0 8.255) (size 1 1) (drill 0.65) (layers *.Cu *.Mask))
  (pad 30 thru_hole oval (at 0 14.605) (size 1 1) (drill 0.65) (layers *.Cu *.Mask))
  (pad 23 thru_hole oval (at 0 5.715) (size 1 1) (drill 0.65) (layers *.Cu *.Mask))
  (pad 8 thru_hole oval (at 0 -13.335) (size 1 1) (drill 0.65) (layers *.Cu *.Mask))
  (pad 15 thru_hole oval (at 0 -4.445) (size 1 1) (drill 0.65) (layers *.Cu *.Mask))
  (pad 11 thru_hole oval (at 0 -9.525) (size 1 1) (drill 0.65) (layers *.Cu *.Mask))
  (pad 35 thru_hole oval (at 0 20.955) (size 1 1) (drill 0.65) (layers *.Cu *.Mask))
  (pad 6 thru_hole oval (at 0 -15.875) (size 1 1) (drill 0.65) (layers *.Cu *.Mask))
  (pad 9 thru_hole oval (at 0 -12.065) (size 1 1) (drill 0.65) (layers *.Cu *.Mask))
  (pad 16 thru_hole oval (at 0 -3.175) (size 1 1) (drill 0.65) (layers *.Cu *.Mask))
  (pad 26 thru_hole oval (at 0 9.525) (size 1 1) (drill 0.65) (layers *.Cu *.Mask))
  (pad 5 thru_hole oval (at 0 -17.145) (size 1 1) (drill 0.65) (layers *.Cu *.Mask))
  (pad 14 thru_hole oval (at 0 -5.715) (size 1 1) (drill 0.65) (layers *.Cu *.Mask))
  (pad 33 thru_hole oval (at 0 18.415) (size 1 1) (drill 0.65) (layers *.Cu *.Mask))
  (pad 10 thru_hole oval (at 0 -10.795) (size 1 1) (drill 0.65) (layers *.Cu *.Mask))
  (pad 1 thru_hole rect (at 0 -22.225) (size 1 1) (drill 0.65) (layers *.Cu *.Mask))
  (pad 12 thru_hole oval (at 0 -8.255) (size 1 1) (drill 0.65) (layers *.Cu *.Mask))
  (pad 36 thru_hole oval (at 0 22.225) (size 1 1) (drill 0.65) (layers *.Cu *.Mask))
  (pad 13 thru_hole oval (at 0 -6.985) (size 1 1) (drill 0.65) (layers *.Cu *.Mask))
  (pad 7 thru_hole oval (at 0 -14.605) (size 1 1) (drill 0.65) (layers *.Cu *.Mask))
  (pad 18 thru_hole oval (at 0 -0.635) (size 1 1) (drill 0.65) (layers *.Cu *.Mask))
  (pad 4 thru_hole oval (at 0 -18.415) (size 1 1) (drill 0.65) (layers *.Cu *.Mask))
  (pad 2 thru_hole oval (at 0 -20.955) (size 1 1) (drill 0.65) (layers *.Cu *.Mask))
  (pad 3 thru_hole oval (at 0 -19.685) (size 1 1) (drill 0.65) (layers *.Cu *.Mask))
  (model ${KISYS3DMOD}/Connector_PinHeader_1.27mm.3dshapes/PinHeader_1x36_P1.27mm_Vertical_SMD_Pin1Left.wrl
    (at (xyz 0 0 0))
    (scale (xyz 1 1 1))
    (rotate (xyz 0 0 0))
  )
)
