(module L_CommonMode_WE-CNSW_TL (layer F.Cu) (tedit 5D69547D)
  (descr http://katalog.we-online.de/en/pbs/WE-SL2?sid=5fbec16187#vs_t1:c1_ct:1)
  (tags "Wuerth WE-SL2")
  (attr smd)
  (fp_text reference REF** (at 0.1 -1.69) (layer F.SilkS)
    (effects (font (size 0.5 0.5) (thickness 0.05)))
  )
  (fp_text value L_CommonMode_WE-CNSW_TL (at 0.1 1.75) (layer F.Fab) hide
    (effects (font (size 0.5 0.5) (thickness 0.05)))
  )
  (fp_line (start -2.5 1.2) (end 2.5 1.2) (layer F.CrtYd) (width 0.05))
  (fp_line (start -1.6 -0.8) (end 1.6 -0.8) (layer F.Fab) (width 0.1))
  (fp_line (start -1.6 0.8) (end -1.6 -0.8) (layer F.Fab) (width 0.1))
  (fp_line (start 1.6 0.8) (end -1.6 0.8) (layer F.Fab) (width 0.1))
  (fp_line (start 1.6 -0.8) (end 1.6 0.8) (layer F.Fab) (width 0.1))
  (fp_line (start 2.3 1.1) (end -2.3 1.1) (layer F.SilkS) (width 0.12))
  (fp_line (start 2.5 -1.2) (end 2.5 1.2) (layer F.CrtYd) (width 0.05))
  (fp_line (start -2.3 -1.1) (end 2.3 -1.1) (layer F.SilkS) (width 0.12))
  (fp_line (start -2.5 -1.2) (end 2.5 -1.2) (layer F.CrtYd) (width 0.05))
  (fp_line (start -2.5 -1.2) (end -2.5 1.2) (layer F.CrtYd) (width 0.05))
  (fp_line (start -1.6 -0.2) (end -1 -0.8) (layer F.Fab) (width 0.1))
  (fp_line (start -2.4 -0.3) (end -2.4 0.3) (layer F.SilkS) (width 0.12))
  (fp_line (start 2.4 -0.3) (end 2.4 0.3) (layer F.SilkS) (width 0.12))
  (fp_text user %R (at 0.17 -1.67) (layer F.Fab)
    (effects (font (size 0.5 0.5) (thickness 0.05)))
  )
  (pad 2 smd rect (at 1.55 -0.7) (size 1.5 0.6) (layers F.Cu F.Paste F.Mask))
  (pad 3 smd rect (at 1.55 0.7) (size 1.5 0.6) (layers F.Cu F.Paste F.Mask))
  (pad 4 smd rect (at -1.55 0.7) (size 1.5 0.6) (layers F.Cu F.Paste F.Mask))
  (pad 1 smd rect (at -1.55 -0.7) (size 1.5 0.6) (layers F.Cu F.Paste F.Mask))
  (model ${KISYS3DMOD}/Inductors_SMD.3dshapes/L_CommonMode_Wuerth_WE-SL2.wrl
    (at (xyz 0 0 0))
    (scale (xyz 1 1 1))
    (rotate (xyz 0 0 0))
  )
)
