(module LED_Osram_Lx_P47F_D2mm_TL (layer F.Cu) (tedit 5D73BF30)
  (descr "OSRAM, reverse-mount LED, SMD, 2mm diameter, http://www.farnell.com/datasheets/2711587.pdf")
  (tags "LED ReverseMount Reverse")
  (attr smd)
  (fp_text reference REF** (at -0.01 -1.86) (layer F.SilkS)
    (effects (font (size 0.5 0.5) (thickness 0.05)))
  )
  (fp_text value LED_Osram_Lx_P47F_D2mm_TL (at 0.08 2.06) (layer F.Fab) hide
    (effects (font (size 0.5 0.5) (thickness 0.05)))
  )
  (fp_text user %R (at 0.03 -1.86) (layer F.Fab)
    (effects (font (size 0.5 0.5) (thickness 0.05)))
  )
  (fp_line (start -2 0.9) (end -1.05 0.9) (layer F.SilkS) (width 0.12))
  (fp_arc (start 0 0) (end -1.05 0.9) (angle -100) (layer F.SilkS) (width 0.12))
  (fp_line (start -0.715 0.625) (end -1.3 0.625) (layer F.Fab) (width 0.1))
  (fp_line (start -1.3 -0.1) (end -1.3 0.625) (layer F.Fab) (width 0.1))
  (fp_line (start -1.7 -0.625) (end -0.715 -0.625) (layer F.Fab) (width 0.1))
  (fp_arc (start 0 0) (end 0.715 -0.625) (angle -97.6) (layer F.Fab) (width 0.1))
  (fp_line (start -1.7 -0.3) (end -1.5 -0.1) (layer F.Fab) (width 0.1))
  (fp_line (start -1.5 -0.1) (end -1.3 -0.1) (layer F.Fab) (width 0.1))
  (fp_line (start -1.7 -0.3) (end -1.7 -0.625) (layer F.Fab) (width 0.1))
  (fp_line (start -3.5 -1.45) (end 3.5 -1.45) (layer F.CrtYd) (width 0.05))
  (fp_line (start 3.5 -1.45) (end 3.5 1.45) (layer F.CrtYd) (width 0.05))
  (fp_line (start 3.5 1.45) (end -3.5 1.45) (layer F.CrtYd) (width 0.05))
  (fp_line (start -3.5 1.45) (end -3.5 -1.45) (layer F.CrtYd) (width 0.05))
  (fp_arc (start 0 0) (end -0.715 0.625) (angle -97.6) (layer F.Fab) (width 0.1))
  (fp_line (start 0.715 0.625) (end 1.705 0.625) (layer F.Fab) (width 0.1))
  (fp_line (start 0.715 -0.625) (end 1.305 -0.625) (layer F.Fab) (width 0.1))
  (fp_line (start 1.705 0.625) (end 1.705 0.095) (layer F.Fab) (width 0.1))
  (fp_line (start 1.705 0.095) (end 1.315 0.095) (layer F.Fab) (width 0.1))
  (fp_line (start 1.315 0.095) (end 1.315 -0.625) (layer F.Fab) (width 0.1))
  (fp_arc (start 0 0) (end 1.05 -0.9) (angle -100) (layer F.SilkS) (width 0.12))
  (fp_line (start -0.33 0.01) (end -0.33 -0.54) (layer F.Fab) (width 0.1))
  (fp_line (start 0.27 0.41) (end -0.33 0.01) (layer F.Fab) (width 0.1))
  (fp_line (start -0.33 0.01) (end 0.27 -0.39) (layer F.Fab) (width 0.1))
  (fp_line (start 0.27 0.01) (end 0.77 0.01) (layer F.Fab) (width 0.1))
  (fp_line (start -0.73 0.01) (end -0.33 0.01) (layer F.Fab) (width 0.1))
  (fp_line (start -0.33 0.01) (end -0.33 0.56) (layer F.Fab) (width 0.1))
  (fp_line (start 0.27 -0.39) (end 0.27 0.41) (layer F.Fab) (width 0.1))
  (fp_circle (center 0 0) (end 1.05 0) (layer F.Fab) (width 0.05))
  (pad "" smd rect (at 1.55 0.375) (size 0.5 0.7) (layers F.Paste F.Mask))
  (pad "" smd rect (at -1.55 -0.375) (size 0.5 0.7) (layers F.Paste F.Mask))
  (pad 1 smd rect (at -2.3 0) (size 2 2.5) (layers F.Cu))
  (pad 2 smd rect (at 2.3 0) (size 2 2.5) (layers F.Cu))
  (model ${KISYS3DMOD}/LED_SMD.3dshapes/LED_Osram_Lx_P47F_D2mm_ReverseMount.wrl
    (at (xyz 0 0 0))
    (scale (xyz 1 1 1))
    (rotate (xyz 0 0 0))
  )
)
