(page_layout
  (setup (textsize 1.5 1.5)(linewidth 0.15)(textlinewidth 0.15)
  (left_margin 10)(right_margin 10)(top_margin 10)(bottom_margin 10))
  (rect (name rect1:Rect) (start 110 40) (end 2 7))
  (rect (name rect2:Rect) (start 0 0 ltcorner) (end 0 0) (repeat 2) (incrx 2) (incry 2))
  (line (name segm1:Line) (start 50 2 ltcorner) (end 50 0 ltcorner) (repeat 30) (incrx 50))
  (tbtext 1 (name text1:Text) (pos 25 1 ltcorner) (font (size 1.3 1.3)) (repeat 100) (incrx 50))
  (line (name segm2:Line) (start 50 2 lbcorner) (end 50 0 lbcorner) (repeat 30) (incrx 50))
  (tbtext 1 (name text2:Text) (pos 25 1 lbcorner) (font (size 1.3 1.3)) (repeat 100) (incrx 50))
  (line (name segm3:Line) (start 0 50 ltcorner) (end 2 50 ltcorner) (repeat 30) (incry 50))
  (tbtext A (name text3:Text) (pos 1 25 ltcorner) (font (size 1.3 1.3)) (justify center) (repeat 100) (incry 50))
  (line (name segm4:Line) (start 0 50 rtcorner) (end 2 50 rtcorner) (repeat 30) (incry 50))
  (tbtext A (name text4:Text) (pos 1 25 rtcorner) (font (size 1.3 1.3)) (justify center) (repeat 100) (incry 50))
  (tbtext "Date: %D" (name text5:Text) (pos 26 14.5))
  (line (name segm5:Line) (start 27 12) (end 2 12))
  (tbtext "Revision:   %R" (name text6:Text) (pos 26 19.5))
  (tbtext "Size:     %Z" (name text7:Text) (pos 26 9.5))
  (tbtext "Page:   %S/%N" (name text8:Text) (pos 26 4.5))
  (line (name segm6:Line) (start 27 22) (end 2 22))
  (line (name segm7:Line) (start 27 17) (end 2 17))
  (tbtext "Document Type:  %T" (name text9:Text) (pos 108 25) (font (size 1.8 1.8)))
  (tbtext "File: %F" (name text10:Text) (pos 128 4.5))
  (line (name segm8:Line) (start 110.0002 28.00019999999998) (end 2.000200000000007 28.00019999999998))
  (tbtext "Editor: %K" (name text11:Text) (pos 108 9) (font italic))
  (tbtext "Sheet: %P" (name text12:Text) (pos 80 4.5))
  (tbtext %Y (name text13:Text) (pos 128.0002 35.00019999999998))
  (tbtext "Ref: %C0" (name text14:Text) (pos 26 25))
  (tbtext "Project Name:   %C1" (name text15:Text) (pos 108 21) (font (size 1.8 1.8)))
  (tbtext "Board Name:    %C2" (name text16:Text) (pos 108 17) (font (size 1.8 1.8)))
  (rect (name rect3:Rect) (start 130 40) (end 110 7))
  (tbtext "Page Name:     %C3" (name text17:Text) (pos 108 13) (font (size 1.8 1.8)))
  (line (name segm9:Line) (start 130.0002 24.00019999999998) (end 110.0002 24.00019999999998))
  (tbtext Checker: (name text18:Text) (pos 128 22))
  (tbtext Designer: (name text19:Text) (pos 128 38))
  (line (name segm10:Line) (start 45.00020000000001 40.00019999999998) (end 45.00020000000001 28.00019999999998))
  (tbtext "CopyLeft: \nThe Electrical part of ToucheLibre\nis under CERN Open Hardware\nLicense" (name text20:Text) (pos 43 38) (font italic) (justify top))
  (tbtext "http://touchelibre.fr \nlilian@touchelibre.fr \nhttps://gitlab.com/touchelibre" (name text21:Text) (pos 82.00020000000001 37.00019999999998) (justify top))
  (line (name segm11:Line) (start 130 7) (end 130 2))
  (line (name segm12:Line) (start 27 28) (end 27 2))
  (bitmap (name bm1:Bitmap) (pos 96 34) (scale 1)
  (pngdata
    (data "89 50 4E 47 0D 0A 1A 0A 00 00 00 0D 49 48 44 52 00 00 01 2C 00 00 00 6C 08 02 00 00 00 5F 30 18 ")
    (data "FA 00 00 00 03 73 42 49 54 08 08 08 DB E1 4F E0 00 00 00 09 70 48 59 73 00 00 2E 18 00 00 2E 18 ")
    (data "01 2A AA 27 20 00 00 20 00 49 44 41 54 78 9C ED 7D 77 BC 1C 47 95 EE 77 AA BA 27 DD 7C 25 5D 25 ")
    (data "2B E7 64 59 72 90 93 6C CB 01 07 B0 01 3F 58 63 83 89 CB 3E 16 58 1E B0 FB 60 D9 07 2C 0B CB EE ")
    (data "BE 65 D9 07 4B 4E 8B 1F 7E 2C E0 C0 62 1B 2F B6 B1 2D 39 CB 96 1C 64 2B C7 AB 78 83 6E 0E 93 BA ")
    (data "AA CE FB 63 52 77 CF CC 9D 7B A5 B9 41 F2 7C 77 7E 33 D3 D5 D5 D5 35 7D FB EB 73 EA 9C 53 A7 88 ")
    (data "99 31 0C 18 63 94 52 5A 6B AD B5 31 66 38 87 54 50 C1 9B 10 42 08 29 A5 94 D2 B6 6D 22 1A CE 21 ")
    (data "54 92 84 8E E3 24 12 09 C7 71 CA D1 C3 0A 2A 78 13 C1 B6 ED 50 28 64 59 D6 D0 D5 86 22 A1 52 2A ")
    (data "1A 8D 6A AD CB DD B7 0A 2A 78 13 C1 B6 ED 70 38 2C A5 2C 56 A1 30 09 99 39 1E 8F C7 E3 F1 21 1B ")
    (data "67 38 71 4A 44 71 A6 6B A7 42 C0 0E 71 20 82 E1 29 0F 15 54 70 0A 08 87 C3 A1 50 A8 E0 AE 02 24 ")
    (data "34 C6 0C 0E 0E 2A A5 0A 1F 10 ED 11 47 76 8A A3 AF D2 B1 67 68 E0 35 20 08 12 65 EE EF 18 83 19 ")
    (data "48 20 34 CF CC BC 86 67 AD D1 B3 57 72 5D D3 78 F7 A9 82 B3 10 96 65 55 57 57 E7 0F 14 FD 24 34 ")
    (data "C6 F4 F7 F7 17 34 BD 88 CE 63 F2 D5 87 C4 DE 5F C0 24 46 B1 A7 13 00 3C E7 DD 6A ED AD 66 E6 62 ")
    (data "60 C4 B2 91 A2 BD 14 8F 8D 46 AF 4E 07 5C 55 CF C1 C2 8F E1 0A C6 12 42 88 9A 9A 1A 21 3C 72 CB ")
    (data "43 C2 62 0C A4 58 9F B5 F9 3E B1 E3 DB 40 51 BD F6 AC 83 31 73 6F 57 97 7F 90 EB A7 8E E8 30 F9 ")
    (data "F2 7D D6 0B FF 30 4A 7D 3A 65 A8 B7 FE 52 CF 5B 36 DE BD A8 00 00 84 10 B5 B5 B5 6E 79 98 63 24 ")
    (data "33 0F 0C 0C E4 33 50 1C D9 11 F8 8F 0F 8B 1D DF 7D 33 31 10 80 10 CD BF 09 FC EA 36 B9 EB 19 60 ")
    (data "58 5E 9C 0A 2A 18 0E 8C 31 03 03 03 EE 92 9C F1 34 16 8B E5 19 42 D9 7A F5 51 F9 DC DF 14 6F 30 ")
    (data "8E C8 22 96 D5 65 ED 64 61 10 3B 94 3C 0E 66 80 C1 0C 66 58 75 90 36 D2 92 9C 91 96 E9 0C 46 8A ")
    (data "36 2E 21 CF D9 4F F6 30 2A 75 84 16 AA BF F0 59 75 9F F5 C4 A7 44 DB A7 9C F5 77 42 96 30 34 57 ")
    (data "50 C1 30 A1 94 8A C5 62 E1 70 38 B5 99 BE B1 52 CE 40 4F 45 66 6B F3 BD F2 E5 7F CA 6F 82 AB 97 ")
    (data "99 55 B7 9B 59 2B 4D E3 0C 48 7B E4 E3 A6 53 41 4D C7 8B D6 C1 7B E0 38 48 26 91 48 40 4B AC 79 ")
    (data "1F 24 43 69 68 CD 5A 1B 93 8A 23 C8 7C E4 C0 CC 99 77 66 36 EC 41 8A AA 46 5B 89 81 E0 40 7B A4 ")
    (data "67 B7 4C B6 79 CF 4C 62 FB 77 EC 78 AF 73 DD 27 20 ED B1 F8 A9 15 BC 09 10 8F C7 03 81 40 CA 6F ")
    (data "91 26 61 2C E6 B7 25 58 5B 1F 92 2F FF A3 DF 32 11 9E A7 2E FB AC 5E 74 D1 18 DF 8E 01 33 68 B5 ")
    (data "FE 31 BD 91 12 83 73 AF 41 D0 86 72 40 04 22 22 02 28 DD DB DC 77 02 11 88 C1 99 77 00 94 96 97 ")
    (data "20 00 94 16 99 24 92 C1 DA 64 B0 A6 AF 71 5E A4 BF AD B6 7D 8B 74 3A DC 1D 10 FB 7F 61 CB 80 73 ")
    (data "CD 7F 87 78 53 E9 E4 15 8C 22 A2 D1 68 4D 4D 0D 52 63 C2 64 32 E9 53 44 E5 FE 2D F2 C5 BF F5 31 ")
    (data "D0 2C 7C 7F F2 8E 9F EB A5 97 8D 31 03 89 10 EE 78 1E CE 00 18 30 06 CC 88 CC C0 8C F9 59 26 A5 ")
    (data "6A 01 A9 B1 2E 65 B6 8A 99 36 8B EE 48 ED 1D AC 99 D6 3A F7 C6 68 FD 5A DF 0E B1 E7 A7 D6 CB BF ")
    (data "3F ED 5F 53 41 05 69 28 A5 52 81 68 02 80 CF 29 4F BD ED D6 13 7F E3 BD 53 59 5F F8 45 E7 FA 4F ")
    (data "71 B8 76 4C BB 09 00 08 A9 0E 71 F2 59 20 23 03 0D 63 C1 06 08 06 BC 1C 2C F0 B5 48 41 89 72 B0 ")
    (data "90 9D 53 CF ED 69 DA E0 2B 97 2F 7E 55 1C DF 3D FC 9E 57 50 C1 D0 48 8D 01 45 2A 26 3B 57 CC 6C ")
    (data "3F F5 13 38 9D EE AA 7A DD 57 D4 BA 5B C7 C5 29 2F 88 83 AD 7F 84 51 60 06 1B 18 83 C9 6B D0 30 ")
    (data "C9 55 65 98 43 D2 11 8E 5C 19 FD F5 B3 BB A7 5D EB 2B B5 9E FC 06 9C 52 6E 52 41 A7 F8 1A 3A 64 ")
    (data "E7 94 9B 15 95 48 A0 09 8A 54 48 8C E5 8B CC 96 87 5F A7 23 F7 BB 4B CC F2 3F 57 17 DC 32 A6 5D ")
    (data "73 21 12 DB 47 FD 7B C0 0C 63 60 0C 28 80 F9 17 80 7D 56 5C CA BE C1 FB 0D A0 82 0E 86 82 3E 07 ")
    (data "9F 2D 95 81 FE 9A 99 56 F2 D2 9A AE E7 73 CD F5 BE 6A ED D8 A4 CE BB BE 58 87 F5 9A 77 E8 D5 37 ")
    (data "0F F5 93 8A 43 1C DA 6C 3F FA 99 C2 FB E4 39 C9 0F DD C3 D6 A9 D2 49 54 4C 4A 13 11 CC EC 38 8E ")
    (data "E5 15 83 46 BE F8 0B 4F A5 FA 0B D4 E5 77 8E 57 50 65 80 12 76 FB 63 39 2D D4 30 66 5F 85 50 00 ")
    (data "E5 98 D2 C1 7E 2A B2 EF 33 85 EE 49 0B 82 B1 96 40 EC 50 B6 44 6E F9 37 B5 FC 0A 04 C2 85 DB 15 ")
    (data "16 C4 A9 3A 33 86 1A 6C 0B 58 41 9C 32 09 2B 98 A8 50 4A 09 37 09 45 EB 41 3A F9 84 A7 C6 95 9F ")
    (data "E6 C0 F8 84 3B 11 51 B8 E7 79 24 BA 73 62 30 34 05 33 17 23 E3 0E 74 C1 53 52 CC B3 EE 2F 67 2E ")
    (data "50 58 E0 28 EA 6C 5A E3 8E 6A 40 A2 45 1E 7C 65 78 3F A2 82 0A 4A C0 18 23 DC 61 6B E2 C0 8B 9E ")
    (data "18 9A 99 6F 33 B3 C6 2D D6 29 AC 5B 44 F7 4B 39 06 1A 83 85 D7 80 B2 01 3D 59 E2 B1 67 CB FD 59 ")
    (data "12 79 74 2E 78 64 D2 AE 8E D6 AE 74 97 C8 DD 8F 0F F7 14 15 54 30 24 8C 31 C2 15 A7 C6 62 9F C7 ")
    (data "04 AF 57 BF E3 14 22 98 CB 02 5B EA 60 C7 A3 30 3A 4D 3F 6D 30 E9 5C D4 4F 06 32 36 52 B8 18 58 ")
    (data "10 9C AB E0 E5 1A 7B 22 69 DC FB 8A 37 D6 1B 99 E3 DE A4 63 F7 53 7C A0 58 E5 0A 2A 18 3E 94 52 ")
    (data "B9 D1 0B F5 77 D1 E0 AE 9C 24 24 61 66 2E 1D 97 6E 11 51 64 E0 65 C4 5A 33 0C D4 20 1B F3 2F 02 ")
    (data "A7 6C A4 00 BC 0C E4 1C 99 8A D2 29 5B 77 24 71 A0 29 37 08 27 54 DF EE 17 A6 D4 B2 95 33 33 5A ")
    (data "D4 79 9C 67 2E 19 D9 0F AB 60 8C A0 C5 89 43 BE 22 9E 32 87 ED 09 6A 9D 72 91 B0 AF C3 A3 8B 36 ")
    (data "6D E0 60 64 3C BA 84 30 4E 8A AE 67 D3 02 50 6B 68 83 59 1B 10 0C C0 49 E6 62 47 53 84 63 2F 13 ")
    (data "5D 9F 3E 41 38 94 C4 CC 1B 2C E6 58 4D C4 7D B1 E4 8E DF 41 F5 24 9C A0 15 74 59 60 7B DB 51 21 ")
    (data "E1 04 45 C2 FE ED AD EE 7B 1B 80 F3 DE 27 B8 A1 61 BC 3A 34 34 5C 24 4C 78 22 D7 B8 71 F1 98 77 ")
    (data "06 00 2C 69 82 27 FF 08 AD D2 32 50 1B 04 A7 60 C6 62 98 64 5A 0C 72 26 80 1B AE 17 E7 B8 E3 36 ")
    (data "7B F2 30 45 9F 4B 84 BA AA 5B A6 ED 78 72 DF 83 82 58 58 52 79 DB A1 58 5F 39 7E 6E 05 63 85 09 ")
    (data "3C 13 C6 F5 B4 D0 49 EF 9E C0 18 77 25 85 48 EC 35 44 4F A4 65 A0 D1 D0 1A 8B AE 02 54 8E 7B CC ")
    (data "F0 12 30 45 3D 97 FC F2 8A C8 74 09 E0 99 57 81 FC BD 9E 43 8C 70 0E 6C D3 6D CF 0A 22 21 04 11 ")
    (data "B1 6F 78 7C A6 27 F5 78 D3 61 E2 B2 D0 2D B2 C7 BF 97 61 EA 96 5D CF A6 B9 A7 35 94 46 E3 4A D4 ")
    (data "4F 86 4A C0 B0 5F 06 BA BE 67 F5 D3 9C 54 74 09 C1 B4 1D C7 C5 C0 2C 47 0B 30 95 A4 E9 EB 77 F6 ")
    (data "3C CE 89 16 21 04 A5 FE 68 98 D9 EB 2A 98 A8 18 FF BB BB 28 26 D0 1C 39 4B 70 A8 EB 71 38 C9 1C ")
    (data "03 21 31 F7 42 18 07 C6 80 0D 0C 83 8D 47 24 82 D3 C6 4E 4E 49 42 66 F6 10 2C 4B 3C 8F 82 9A D9 ")
    (data "76 FD 5F 52 0C 26 56 46 1D 7E 5D B5 3E 4F E0 94 00 4C 41 34 9C 67 CF 5D 8B 43 77 8D D5 C5 A8 A0 ")
    (data "BC 98 C0 14 9C 38 24 24 A2 48 E2 0D 0C 1E C9 30 50 41 29 9C B3 01 01 1B 2A AB 8B 66 18 68 72 0C ")
    (data "44 8E 81 59 49 E8 51 47 33 73 7D 5D 4E C4 14 0B D9 4D 45 02 A4 6E 3B AE 0E 3D C9 AA 57 10 51 5A ")
    (data "FA 11 48 D8 CB 3E 50 FF 96 0F 06 0F BD 02 BF C9 AD 82 33 07 23 32 8B 8F 2D 26 0A 09 83 D4 27 3B ")
    (data "36 41 69 68 05 A5 A0 15 EC 46 CC 58 04 ED E4 9C F5 D9 E0 35 CF F8 30 33 39 D7 2D 09 33 7B 52 8D ")
    (data "BB 09 98 A7 8A 12 34 AB F6 16 75 74 33 27 5A 89 84 90 22 3D 3B 91 20 C2 B3 22 D7 7E BE 7A E5 25 ")
    (data "54 99 46 78 C6 A3 42 C2 21 21 05 42 DD 9B E0 C4 A0 15 54 4A 0C 6A 2C BE 02 AC C0 19 45 D4 70 9A ")
    (data "87 6E 61 98 23 60 86 87 5E 49 C8 2E 39 E8 19 25 A6 DE 15 3B C7 F6 A9 13 2F 42 F7 13 91 90 32 3B ")
    (data "29 91 48 5A 8B 6F AB B9 FA FD 81 C6 91 25 7A AA 60 42 82 2A 92 B0 04 22 C9 FD D4 B3 2B 3D 0E 54 ")
    (data "0A 8E 42 F5 7C 34 34 41 25 A1 4D 4E 12 A6 C7 84 26 AD 97 BA 79 98 4B 56 91 27 09 5D 34 84 5B 0E ")
    (data "92 48 EE DF AA DB 37 93 20 21 24 51 6E 26 11 55 2D 88 5C FD 99 AA E5 EB A8 78 D6 E4 0A CE 34 54 ")
    (data "48 58 1C 01 11 B7 DA 1E 83 56 B9 A1 A0 D6 98 B3 0E 3A 09 A3 73 91 6B 69 91 98 91 8A 99 F1 A1 2B ")
    (data "55 8C 1F C8 0C 08 3D E6 99 AC 6D D5 D1 A6 F3 65 21 05 91 10 A9 1C 19 00 84 B4 96 7D A0 FA AA DB ")
    (data "ED DA C6 F1 BB 24 A3 08 8A F7 D1 40 0F E2 03 A4 0D 98 59 08 D8 41 8E D4 72 75 E3 04 CC 64 45 F1 ")
    (data "3E EA ED A0 58 3F E2 03 D0 0E 48 C2 0E 22 58 C5 91 5A AE AA 1B C9 14 73 2E 3C 1B 56 C5 A9 F7 24 ")
    (data "45 FB 48 1B B6 03 5C 37 95 AB EB 47 D8 47 A6 81 4E EA 39 49 83 DD D9 6C F4 6C D9 08 D5 71 75 3D ")
    (data "37 4C 1B 4E C4 CB 38 5F 77 22 84 BB 9F 47 A2 27 27 06 95 83 86 55 88 54 43 27 73 81 A3 A6 00 FD ")
    (data "52 BC 33 D9 6C 4D 1E AB 29 E0 65 A0 4B 1D 4D BF 4C 77 3B 58 09 21 49 10 91 00 40 56 4D F0 9A BF ")
    (data "AD 5E 7D 05 89 33 3C A7 B8 1F 2C DA 0F 88 7D 2F 88 03 8F 52 EF 36 50 7E F4 16 83 6C 9E F5 DF CC ")
    (data "C2 F5 7A C1 1A 0E 16 99 A5 05 80 D8 DA 7C 3F 25 3D 53 C9 F4 CA EB 4D 43 D1 67 96 68 DF 27 F7 6C ")
    (data "F5 9C AC 71 AE 5A 71 C9 10 DD A5 58 8F DC FB 82 D8 FD 30 B5 3F 55 A8 B7 A9 56 1C 54 AD 34 B3 36 ")
    (data "98 39 6B CC EC 15 1C 1A FA 5E 27 B8 95 1A 27 2A 9B 5F 13 7B 37 89 C3 F7 C1 ED EE 65 C5 D3 DF A9 ")
    (data "D7 BD 4F CF 5A 34 64 6B 00 40 D1 6E B9 EB 69 B1 F3 3E EA 79 A3 E8 7C 77 76 78 FA 3B CC B2 1B F4 ")
    (data "A2 0B 38 10 2C D6 D4 38 93 30 EC B4 8A 8E CD 1E 8B A8 06 CE 59 05 95 48 47 CC 18 93 13 86 39 2A ")
    (data "A6 55 53 93 4E 9D 66 DC E2 2F 65 2E F5 31 D0 A7 8E 32 09 D3 79 94 D2 2E 40 41 44 10 76 F8 C6 7F ")
    (data "AA 5A B1 6E 7C 2F 48 D9 41 83 1D D6 53 3F 12 07 EF CB 4C 7D 2E 78 4F 13 58 D1 91 DF C8 23 BF 91 ")
    (data "CF CD D5 EB BF A0 96 5E 58 A4 3D 16 BB EF A6 FE A3 EE 22 B3 60 3D 8A 93 10 FD 6D 62 DB 37 3C 4D ")
    (data "2C FC 38 8A 92 90 E5 EE 8D D6 53 5F 83 D3 5B BC B7 48 EF 8A EE 11 7B F6 88 3D D0 D7 FE 4C 2D 5D ")
    (data "53 B4 26 00 48 0E 04 00 C0 89 5A 3B 9E 94 5B BF 8B 78 7B A1 36 2D 6A 7D C8 7A E0 F7 74 C5 B7 D5 ")
    (data "B9 97 17 6F 8D E5 DE A7 AD 8D 5F 86 D3 0F 60 A8 8C 13 64 53 EB C3 B2 F5 61 F9 E2 2A 75 DD 97 F4 ")
    (data "AC 85 05 6B 8D E7 23 5F 92 09 B6 3E 02 E5 40 AB B4 51 54 29 34 AC 40 30 9C 13 80 9E 31 A1 6B 40 ")
    (data "C8 C6 9B BC 30 EB 9F 2F A4 8B 72 4E 02 A6 3F 34 99 EE 9D 29 17 44 6A 24 68 AF FA 70 D5 F2 8B C6 ")
    (data "F1 6A 8C 06 A8 FB A8 FD 9B 8F 88 83 F7 8F 60 36 4C A2 59 3E FE 67 F6 73 BF 1B 8F 31 14 5B 5B 7E ")
    (data "65 3D FE 57 69 06 0E FB 28 D3 38 AD 44 15 51 8B 60 58 34 6F 09 FC F2 FD F2 D9 2F 17 66 A0 AB 41 ")
    (data "F9 CC FF 14 ED 2D C5 76 CB 6D 0F 58 8F 7D 3A CD C0 61 22 FA 86 F5 E0 FB 65 73 E1 04 45 E3 49 C2 ")
    (data "48 DF EB E8 3F 04 A5 D3 AF 94 30 9C B2 08 2A E3 AF D7 C5 C4 A0 71 71 D0 F8 85 61 86 7B EC 93 84 ")
    (data "B9 08 1B 98 81 1E 36 D1 8C 31 86 48 06 C2 6B AE 3F DB 56 65 72 06 EC 87 FF 9A A2 47 4B D7 F4 83 ")
    (data "C4 AB 7F 67 ED 7E B9 FC 5D 1A 12 E2 F0 16 F9 E2 37 4A D7 F3 C3 E2 D4 1C B7 21 10 9C 6D 3D FD 5D ")
    (data "FB F7 7F 46 03 07 87 D5 24 27 E4 B6 3F 16 DC 23 5A 77 58 CF FC DD A9 4C F1 E3 B8 F5 D8 97 29 3A ")
    (data "98 BF 67 DC D4 D1 80 19 B0 8E FF 01 4A A7 A7 ED A6 24 A1 31 08 56 67 B4 50 B7 24 D4 1E 1E B2 E1 ")
    (data "D4 2B C5 46 C3 9C 6F 28 CD 0A 40 AF 24 4C 19 65 4C 6F 67 C6 1B 01 00 34 E5 12 7B CA CC F1 BA 14 ")
    (data "A3 04 F9 FA C3 D4 B3 2B AF 98 B9 FE 12 9E 7D 29 57 D5 43 58 48 0E 52 D7 41 D1 7C 2F B4 6F 11 2E ")
    (data "92 CF FC B3 9E F7 0B 0E 15 1D C9 94 19 26 61 3D FD 2F 45 6E 6E C5 93 AE E6 86 B9 08 36 40 88 4C ")
    (data "D8 86 82 8A 41 27 60 37 72 A0 D4 1C A5 D8 36 B1 73 9B BF 71 02 D7 5F 86 40 35 F5 BC 8C 44 87 EF ")
    (data "08 71 E0 01 5C 73 A7 3F 47 16 6B F9 DC 0F F2 3B C9 35 E7 9B E5 6F E7 86 69 1C AC 02 11 25 06 A8 ")
    (data "B7 4D EC 79 88 3A 5F F2 D4 4B EE 97 BB 5E 54 E7 5F ED 3B 7C 7C 48 48 84 70 CB 53 48 F4 65 FC EF ")
    (data "26 37 2C EC ED 40 6D BD 57 FA B9 FC 13 C6 C0 18 93 62 9F 49 73 D1 27 09 E1 16 83 EC 1B 0B 02 0C ")
    (data "90 6D 3A F6 65 FC 81 00 60 2F 3C EB 8C 31 6A 50 BE F2 43 7F A1 9C A4 AE FB A6 5E B0 CA 27 F3 29 ")
    (data "FA 11 6B E3 F7 C5 A1 DF 7A 2A 27 F7 C9 FD AF A9 95 63 34 48 16 C7 DE A0 DE FD 79 C5 D2 9C FF 45 ")
    (data "75 EE 06 AE 2A 5F AE 4D D9 60 96 7F 58 2F 5A 67 9A 66 A7 67 29 E8 84 F5 EC BF CB 37 7E E2 A9 A6 ")
    (data "F6 52 74 90 AB 3D 4B 3C 50 C7 01 D1 F2 9C 3F 1F EF 92 BF 50 1B DE C7 56 DE 83 E0 BC B7 D8 1B BF ")
    (data "2B 76 DD ED 2E 13 FB 9E 41 1E 09 C7 E7 CE 0B 45 4F 88 B6 67 E0 28 38 99 A1 60 CA 33 A1 35 5A 76 ")
    (data "C3 70 7A 0A 45 EE 95 13 86 69 01 E8 26 60 3A C1 BD 57 21 65 97 83 DE 67 3C 8D 45 CD E0 C1 4C 4C ")
    (data "36 81 C8 9E 35 3E D3 97 47 0F A2 65 0F 25 FC 23 2B 7D C5 D7 F5 C2 73 F3 B5 6E 8E 34 3A 6F F9 0C ")
    (data "D7 FA CD 06 62 EF D3 A3 D8 45 DF B9 9A 5F CC 2F D4 57 7C CB B9 E4 ED 65 63 A0 9C A4 2F FA 5A F2 ")
    (data "03 0F 38 57 BE D7 CC 58 98 9B 27 24 83 FA BC B7 E6 39 12 25 A9 A4 AF 01 71 F4 35 BF 18 0C AD 54 ")
    (data "57 BE B7 00 03 01 08 5B 9D 7F AB AF 59 EA 78 94 94 7F B4 3D 1E A9 44 61 82 87 1F 46 32 01 A5 E0 ")
    (data "38 E9 57 96 87 6D DB 90 48 C2 68 68 93 7E B9 CC 33 29 BE 19 4E 4B C2 BC 95 25 32 B6 99 CC 5B 01 ")
    (data "27 3D 60 7A 4E 02 C8 A6 E2 A6 E0 34 AB E9 9C B1 BF 0E A3 0A D1 9A 67 03 08 2C D1 4B FC 69 C5 73 ")
    (data "B0 AB F4 DA 0F F8 CA A8 E5 31 9F 37 62 D4 60 C4 91 27 FD 65 0D D7 A9 95 97 96 ED 04 2B FF 2A F9 ")
    (data "FE FB D5 45 6F E5 48 81 F5 8B B8 AA 1E C3 50 85 C4 F1 97 7C 25 66 E9 BB D2 76 D7 42 E0 EA 46 FF ")
    (data "BA 09 DC 8B 84 7F 01 EC 71 50 47 23 9D 3B A8 F3 F5 74 BC 4B 3A 22 34 65 71 49 69 A4 71 74 B6 A2 ")
    (data "71 72 26 4E CD 65 8C E1 94 22 9A 5A E4 25 43 C8 02 6E 8A 1C 07 7D 1F 60 00 52 B7 ED 49 5B 45 09 ")
    (data "00 C4 EC 0D 56 09 2F D3 48 60 E2 D6 EB CF 16 B3 F1 E8 85 17 73 55 55 D9 CE 55 1C 74 D2 3F 1A E4 ")
    (data "D9 D7 B1 35 D4 BF DB CC 58 0A 66 4F CF B9 95 FA BA 78 F2 E8 07 EE 25 FB A9 77 2F E0 91 27 7A E9 ")
    (data "0D 65 4C 5B AC 57 DF 38 94 44 15 12 24 81 C2 AB 53 67 A0 A8 65 A3 AF C8 4C 9D 57 EA CC F9 56 66 ")
    (data "7F C9 58 93 D0 32 09 7B FF 6F 91 74 32 DC 73 05 67 A7 C6 87 5A E3 E4 11 D4 4F 82 D1 B9 78 D1 34 ")
    (data "03 53 EC CB B1 31 A3 8B 9A 2C 0B 3D 31 34 39 6D 34 63 90 01 73 2C 6E FA F7 09 41 59 B5 22 B8 78 ")
    (data "28 C7 F1 88 A1 E3 F2 99 BF 00 15 F6 77 9B 19 8F 8E 09 09 99 BA B7 FA 8A CC A4 D9 25 8E A9 99 02 ")
    (data "11 03 BB 9F 47 36 0D F4 62 F4 49 48 B1 5E 18 CB A7 E8 F1 94 12 1D 1E 6B 24 FA 28 69 7C EA E8 D0 ")
    (data "11 36 D4 DB 06 E3 3B 24 8C BC 1C A2 63 4D C2 F0 B1 97 D0 7F 2C 3D C6 4B 4D 9F 9F 71 05 E6 5F 86 ")
    (data "D7 EE 41 CF 5E 80 D9 18 3E B9 4B CC 5F EB 9E 43 98 E1 9D 6B 89 33 D7 8A 67 79 70 0D 05 BD A3 41 ")
    (data "30 D4 C9 63 80 01 64 6A C5 26 B2 EB 02 B3 CF B6 01 21 58 A3 FF 10 E0 15 EF 91 9A 12 47 59 61 0E ")
    (data "D5 51 CC A3 7F 52 7C 24 DE B0 53 46 22 96 A7 3B A8 72 1A 63 CA 01 4A C6 F3 ED A2 E4 24 A8 BF B3 ")
    (data "70 FD 68 B7 F5 6C 9E 29 B5 F1 2D 6C FB F5 DE 31 25 61 20 D9 6F ED BF 1F 8E 93 9B B6 3B E5 42 5C ")
    (data "FA 01 D8 41 C8 3B F5 23 5F 00 0C 33 4C B2 2D 10 8F C1 02 8C 4B D2 79 48 E8 5B 73 D0 AB 90 C2 4D ")
    (data "45 AF 6B 82 A5 69 7D 85 5C F3 E4 C5 9C EB AD 9A 91 86 0B 4E 78 70 9C 9C 3C C1 62 97 4A E2 4C 02 ")
    (data "81 26 C4 8E 7B 0A 9D A1 35 B4 F2 80 B4 7F 98 04 4E A0 64 87 C7 18 BA C0 1A 24 D6 83 7F 32 A2 36 ")
    (data "CC A2 2B F3 0B C7 D4 30 13 3A B8 11 B1 CE 94 25 86 13 49 CD 41 5C FC 3E 48 1B 46 63 D2 39 3A 32 ")
    (data "CF 71 1C AD 94 D6 CA 44 07 90 5E EA 33 B3 E2 27 9B 7C 06 7A 07 83 2E 3F 21 0A BE 60 BA 4E 9A C4 ")
    (data "C9 CC 6C 5D 02 10 5C E1 5F 7A E9 6C 00 EB 02 0E B7 D2 C9 F9 09 22 EF BE 1F 9B 54 3A 05 CE A2 78 ")
    (data "A2 CD E1 E4 D3 BE 14 F6 1C B5 BC 80 A9 69 EC 48 18 88 76 CA 03 0F C2 51 70 1C 9D 48 26 93 09 2C ")
    (data "BB 0D D5 8D 99 4C 16 84 19 17 38 8E 72 94 D2 5A EB C1 5E 6D B4 31 DA 68 53 74 DD 5D F7 17 BF 69 ")
    (data "C6 A7 9E A6 03 46 D5 D1 97 C9 B5 F8 11 85 67 07 E7 2C 1F B3 2B 30 76 28 68 16 2A 7D 0F 71 DE 4A ")
    (data "3B 18 A3 EC CF 05 2C 93 B2 0C 37 7D 79 71 9A AB 92 59 53 D5 4D DF E0 EA 02 83 82 B1 53 47 43 07 ")
    (data "9F 43 A2 9F B5 D6 4A 3B CA 61 6B 72 70 C9 C5 69 BB 0B 18 CC 34 69 8E 52 4A 08 01 40 3B CA 1B 9B ")
    (data "E6 32 C0 A4 BF BB 58 67 F2 D4 D0 DC CC C2 8C 3D 06 6C FA FB CD C0 01 91 B2 C9 10 11 60 2D 7B 87 ")
    (data "0C 8F 4F 6E D5 D1 05 D9 10 0A EC 31 36 92 F6 7B BD FC 60 86 CA 0B DA B4 C7 42 1C B1 CC 8B CB A1 ")
    (data "20 A9 38 A3 80 3B 61 DC 90 DF 49 60 18 D3 14 25 42 73 CD 92 77 A9 73 DF C2 75 85 C3 DC C7 88 84 ")
    (data "56 AC 57 1E 78 80 95 52 5A 2B C7 71 94 0A 9D F7 6E B6 43 D0 9A B3 61 D6 35 93 75 66 53 C5 FA 49 ")
    (data "37 15 14 6D A6 C0 28 B0 98 1A EA 9E DC 2B D4 F1 DD 69 F6 A5 04 85 B0 83 CB 2F 1B 9B 9F 3F D6 A0 ")
    (data "10 87 C3 14 F5 16 26 FC 2B A2 FB 61 14 E2 27 00 8F 5D 77 8C 96 03 0A 84 FD DE 11 D8 34 38 80 86 ")
    (data "52 41 A1 63 08 0E 84 52 F1 56 EE 42 7D D5 0F F4 DC 21 0D 7B 52 72 B8 7A 68 85 62 8C 48 18 DA FF ")
    (data "8C 8E 75 69 AD 55 4A 0C 86 E6 88 45 17 1A A3 DD F3 1C 38 54 C5 22 A8 75 1C 80 56 8E 28 6C F9 74 ")
    (data "71 CF 43 46 64 DE BD 64 4C CB 43 36 83 83 A6 F3 95 74 02 35 00 80 38 E7 FA E0 F4 B9 63 F3 F3 C7 ")
    (data "1C C4 75 17 52 74 8B A7 A8 77 E8 A9 03 40 BC 87 9C 80 CF 02 8F 48 5D D9 3B 97 0F 0E D7 80 94 CF ")
    (data "4F 48 5D 27 70 CE DC 31 38 FB 70 11 AC E5 80 A0 A4 57 F4 C5 07 47 3E 0F D8 8F B1 18 13 5A F1 7E ")
    (data "DA FB 5B A5 94 52 CA 51 8E E3 38 F6 EA 77 B3 1D D0 DA 18 A3 53 EF A9 D1 9E 36 22 B5 6D 40 A6 38 ")
    (data "D2 51 33 B9 C8 35 E4 DE E1 66 62 46 17 25 4B 35 BF 46 6E 31 48 22 BC EE D6 B3 2D 5E D4 05 9E B4 ")
    (data "D2 57 42 C7 5F 1B FA 10 D1 79 14 E4 0B EF 50 A6 E6 B4 33 0C 70 49 85 0D 08 D6 72 95 3F 68 49 EC ")
    (data "7F EE 74 4F 5D 66 58 3C DD 6F C6 13 87 0A 44 DB 8D 14 63 42 C2 43 5B 55 B4 5D 29 E5 38 CA 71 1C ")
    (data "54 2D 16 F3 56 B9 19 98 79 D7 C6 A8 34 CD AC 90 DF 1A 53 44 1C 7A 82 48 3D F6 D1 6C FC 1A 4C 67 ")
    (data "BB E9 79 23 37 79 90 48 4C BF 26 74 56 9A 64 32 E0 A9 7E 1D 89 3A 1E 14 1D 43 09 C3 02 EB BD 55 ")
    (data "5F CE D5 C3 08 2D 28 E6 4B 54 09 B9 FD 8F F6 A6 AF 97 6E 01 16 CF BA C2 57 44 27 7E 2D 8F EC 1B ")
    (data "C6 B1 63 07 33 D3 1F CE 4E 6D F7 C8 E3 87 4F B3 D9 51 27 21 39 71 EC B8 57 29 9D 11 83 CA 5E 7D ")
    (data "2B 4B 4B 6B 37 03 8D D6 46 47 07 54 A2 3F 4D 3A 22 0F FB 7C 82 D0 17 BE 9D 37 32 CC 1A 63 C0 60 ")
    (data "43 EA E0 33 D9 34 BE 00 00 19 BE F4 F6 B3 3B 89 93 99 B9 0C F0 5A 17 49 58 4F FD 84 92 05 9C 5D ")
    (data "00 C4 C1 E7 C4 DE 7B FD 8D 2C B8 2E CF D0 2A 20 FD A1 92 62 7F 9E 34 48 0E CA 5D 1B 03 FF F1 21 ")
    (data "6B D3 E7 4B CD A0 CD 9C 6B 4E FE F8 9C AD 47 3E 2F 0F ED 28 25 4B C7 6E 16 A8 99 7D 9E FF AA 42 ")
    (data "58 8F FE 9D 68 1B CE A4 4D 2A 16 CC 38 EA 63 42 79 74 87 EA 3B 68 8C 56 4A 2B 47 21 B2 40 CC 5E ")
    (data "AE 75 FA 97 64 E2 39 C1 CC AA BB CD 68 05 29 89 19 81 48 6A E1 44 37 B3 BC F3 05 5D A2 CE B5 E9 ")
    (data "9A C2 C4 60 30 09 7D 74 AF 49 B4 CA EC 68 90 48 CE BD 25 3C F7 6C 16 83 00 B8 76 A6 99 73 83 38 ")
    (data "FC 98 BB 90 5A EE B7 7F D3 62 CE BF DD 4C 9D CB E1 2A 08 09 27 46 7D 9D 62 DF D3 72 FB 8F F2 DB ")
    (data "D0 4B 2E CE 2B 23 AE 9D 49 3D 07 DC 65 62 EF BF D9 AA DF CC 3B 1F 76 10 B1 6E D1 BA 43 EC BF 07 ")
    (data "BA 94 1D C8 0B 3D 67 8D 0C D6 52 C2 BB CC 4E B2 D9 7A F8 4E D9 70 19 CF 5D CF 75 53 38 50 0D 00 ")
    (data "26 09 27 46 C9 38 12 83 34 78 92 7A 0F EB 55 77 E8 25 43 A7 B7 28 0F 78 D2 02 33 F3 2A 71 DC 3B ")
    (data "B9 24 FA 9A 7D EF 3B F9 9C 5B CD 39 AB B9 66 0A 2C 0B 04 18 86 4A 50 62 00 C9 38 C5 BA 11 ED A2 ")
    (data "BE C3 34 D0 9D F8 C0 5D 90 7E 2A 8E 32 09 99 B1 EB 31 AD B5 D6 3A 35 26 0C 2E 7B AB 91 56 C6 39 ")
    (data "CB 99 67 1C 33 23 71 74 37 A7 E6 EB 12 38 10 2A CC 3F A0 90 CA E9 9E 39 E1 4E 42 CA A6 3F AA 8E ")
    (data "6D 14 39 EF 3C 41 44 22 57 DC 71 76 8B 41 00 00 A9 75 1F 0C 1C 7E C4 A7 EC 50 EF F3 F2 C9 E7 25 ")
    (data "0C 38 01 D6 A0 60 B1 3C 2E BC E0 CF CD D4 19 F9 C5 3C FD 22 1C F1 4F 71 12 07 7F 2E 0E FE BC 48 ")
    (data "4F 18 56 0D 54 A9 35 55 03 35 FA 92 CF 59 9B BE 58 E0 97 74 3F 47 DD 43 8D 0F C5 AC 6B F2 FD 9B ")
    (data "A3 02 12 EA B2 8F 05 EE D9 94 A7 42 1A 3A 76 9F 3C 76 5F 89 C3 19 14 8F E6 07 0F 8F AE 3A 4A 7D ")
    (data "27 75 EB 33 59 12 6A 04 E5 9C E5 05 6D 2D 3A 99 48 1C D8 94 E2 0F D9 4D 6C D9 2E 75 D4 13 1E E3 ")
    (data "D3 42 E1 FA F0 31 90 15 9C 3D 4F 12 8C 5B 13 B5 D7 7C 34 34 7D CE A8 FE EA 09 02 6E 5A AA 2E FB ")
    (data "62 11 47 96 00 85 21 AA 8B 66 52 AA BE C8 B9 E2 8E 82 7B F4 82 8B F3 54 B2 E2 B0 A6 EA AB 7F A8 ")
    (data "2E FD DC 70 EA EA E5 6F 31 8B DE 3D DC 96 5D A0 9E 13 A7 70 D4 A9 81 9B 96 AA 0D FF 30 0C F7 60 ")
    (data "21 90 A1 FE 9E FC E2 51 1E 13 1E DB A5 9D B8 36 5A 69 AD B4 96 D3 D7 73 A4 A6 A0 BD D3 39 BE 5F ")
    (data "F5 EE 4D B1 8C 1A 97 32 3B D9 E0 18 93 1D 14 66 58 E8 F1 E0 E7 0F 09 D3 03 42 A9 0E BD C1 B1 23 ")
    (data "24 04 09 91 52 C7 A9 66 49 F5 C5 B7 8C D7 1A E0 63 0F BD E6 56 B5 FE AB A0 91 DD 31 3C E5 C6 E4 ")
    (data "AD FF C8 55 85 1D E5 DC 38 5F AF FD D4 70 9A 31 8B 3F 9E 7C EF AF D4 F2 75 5C D7 34 AC 13 0B CB ")
    (data "B9 F6 B3 7A CD 27 47 7A 8B 53 E7 81 B1 CC 0F A4 57 DC A4 6E FC 1E 02 A7 B0 E4 A8 A0 FE AE FC D2 ")
    (data "D1 55 47 4D F3 56 9D 32 BA 68 AD B5 B2 67 9D 9B 55 2A 33 48 8F E2 E2 6F 3C 99 96 5F 60 D1 D0 64 ")
    (data "B4 CA EC 83 4B 0B 85 EB CF B5 E9 F9 0A 80 19 A4 DB 5B 75 DB F3 22 E5 19 4C CF DE B5 22 D7 7E D6 ")
    (data "AA 9E 58 B1 F9 A3 0C A1 57 DF 6C 66 AD B6 5E F9 9D D8 FB 4B 98 21 67 E8 B2 E2 FA CB CD 9A 3B D4 ")
    (data "D2 8B 31 E4 CC 43 75 F1 9D 90 21 B9 F5 5F 0A 93 45 36 98 25 77 EA 55 D7 99 4C DA 1E AE 6E 84 71 ")
    (data "DD 7C 43 18 5A 64 50 5D F6 61 B3 F8 0A F9 FA A3 62 DF AF A1 06 8A 3F 31 19 AC B8 F1 2A 33 7F 83 ")
    (data "99 7F BE BF 4D D3 E6 8B 3A 28 0D D3 0B E3 B6 5A A9 21 9E 05 7A C1 A5 66 C6 6F E5 AE A7 C4 8E 7B ")
    (data "A9 E7 B5 A1 52 33 82 C1 09 AE BB 84 E7 6C 30 73 D7 EA 73 0A AC EE 3C 9A 24 74 92 BA F5 A5 94 B2 ")
    (data "A9 B5 D6 86 C5 94 D9 C6 64 66 BA BB 7E A0 6A 69 4E 1C 79 54 08 30 33 89 30 D5 36 B2 9F 7F E9 F7 ")
    (data "C2 24 74 55 48 BD 99 81 01 B5 EF F7 39 8B 28 11 03 F6 AA 0F 87 17 9F 37 8A BF 77 A2 82 1B 67 3B ")
    (data "D7 7E 0A EB 3F 24 DA 0F 8B CE 63 D4 DB 8A 68 27 94 43 0C 16 02 C1 6A AE 9E CA 0D 33 78 CA 1C D3 ")
    (data "38 6D 58 11 92 C2 56 EB EE D0 CB AE 16 87 B7 8B F6 BD 34 D8 07 22 0E D5 70 C3 6C 6E 9A 6F A6 CE ")
    (data "F3 A5 0F E6 C6 F9 C9 8F ED C9 6D 96 72 CF 9A 29 0B CD 35 0B 71 E5 47 44 57 0B F5 9E A4 C1 2E 24 ")
    (data "63 D0 0C 41 90 12 81 08 47 1A B8 BA 91 EB A6 70 B8 A0 B8 0E 27 3E 76 98 7C 61 07 F6 90 8B DE 8A ")
    (data "48 E2 A3 AF FB A6 9D B0 3D 54 92 2B 0E D7 A9 B5 B7 60 CD DB A8 BF 83 BA 5B A9 BF 93 62 7D D0 1A ")
    (data "00 84 80 B4 38 58 8B 48 0D 57 35 70 ED 24 0E 55 0F 21 AB 47 91 84 3C D8 63 E2 6D 29 F7 83 31 06 ")
    (data "F6 14 54 D5 9A 5C BC 7C 8A 38 60 AD A3 5B 1E 00 1B 40 18 66 7B F2 1A 58 D2 18 9D A9 50 FC DD C3 ")
    (data "49 17 21 93 C6 D9 F9 08 C1 21 21 88 D2 8A A8 68 58 53 73 E5 ED 74 9A 31 B8 67 34 82 35 66 D6 4A ")
    (data "33 CB EF C4 3F 65 70 ED 34 BD 6A 9A C6 B5 A5 AB 92 18 22 FF 74 51 58 21 D3 34 0F 4D 25 A7 AE 17 ")
    (data "38 1F 02 A1 11 0E DA 08 81 E0 A9 8C F3 48 70 6D 13 D7 0E 4F DF 2E 82 D1 24 E1 40 8F D6 2A 3B EC ")
    (data "A3 49 4B 8C B4 89 4D 26 13 68 BA 56 B2 79 7B F2 F8 13 52 88 94 6C B4 66 2C 32 46 65 08 08 2F 15 ")
    (data "8B B0 CE 4D 4D 87 93 DB 1F 85 D3 41 52 66 43 D4 C8 AA AD BA E9 73 56 55 A9 59 AD 15 54 30 1E 18 ")
    (data "4D 12 26 06 D9 E5 66 17 91 49 DE F1 20 33 C0 F1 68 74 F3 AF B2 0C B2 A7 5E 8C EA 6A 36 1A 19 9D ")
    (data "D5 95 BB 77 68 2A 02 CC 6C 84 B3 73 23 62 47 B3 8B EC 82 08 24 43 57 7F 31 3C 8C D5 05 2A A8 60 ")
    (data "5C 30 9A 24 D4 B9 90 17 63 58 C8 60 86 82 59 6A 21 F6 DA 53 AA 77 BB 14 92 99 C9 AA B7 E6 AD E6 ")
    (data "AC 22 8A 7C 12 E6 11 CF CD 4B 23 9C 9D 4F 9B FE DD 42 CA F4 F2 12 44 00 02 6B 3F 51 7D 5E 81 E9 ")
    (data "CC 15 54 30 41 30 9A 86 19 CB 76 7B 0D 8C 56 C6 18 22 64 19 A8 5A 0F 47 5F FB B9 48 6D 91 15 58 ")
    (data "F9 76 04 44 DA BA 02 0F F7 3C 24 CC DB 60 80 1D 76 76 3E CE 03 FB D2 0B ED 8A 74 2A 35 B9 E0 DD ")
    (data "B5 57 DE 56 59 67 B7 82 89 8C 51 24 21 55 D5 A5 B3 80 A6 82 39 93 83 6E 75 94 93 F1 81 A7 EF 66 ")
    (data "1D 63 21 98 02 E1 55 B7 CB DA 1A CE 46 D2 C0 47 42 8F F4 F3 8A 41 70 DC 71 76 3D C9 B1 C3 42 A4 ")
    (data "A2 D3 D2 D6 17 53 BB B8 23 64 0F 6E 7F AA BA 69 4E DD D4 39 72 A2 E5 2C A9 A0 02 00 A3 4A 42 51 ")
    (data "53 45 22 C2 3A 1D 62 AF 3B F6 B2 52 D9 65 E2 A2 AF 6E 4A 9E DC 2C A4 90 35 CB C2 CB 2F 97 D5 11 ")
    (data "93 CA AD E0 F6 5F 78 78 E7 DF 66 00 24 4D 4F B7 B3 FB 61 A8 3E 91 B6 C4 08 10 08 64 6A E6 1F A1 ")
    (data "C1 81 5D FF 86 9D 60 66 90 9A BA FA CB B3 D7 DE 50 DB F4 A6 08 97 A9 E0 0C C2 68 99 EC 83 D6 A1 ")
    (data "86 C6 7B 31 69 09 98 53 A9 AE CD C0 3E D3 DF 95 52 4E 93 C7 0E 44 5F FD 99 55 B3 28 B2 E2 F6 AA ")
    (data "0B 6F 14 55 E1 02 71 2F 69 35 D6 FB C5 1D 2E 6A 84 3A B8 2B B9 FD 37 A4 FB DD 0C 04 48 D7 2C 38 ")
    (data "42 F1 C1 FE 6D 29 AE 32 C0 C6 6A 79 F5 1F 36 FF EC AA 63 3B 9E 1D A5 9F 5C 41 05 A7 86 51 91 84 ")
    (data "16 F5 44 F8 7E C4 9D C8 E2 69 BD 2D 40 7A E1 15 A5 9A B7 5B AB D6 C3 89 E1 E4 8E BA CB FE 54 46 ")
    (data "22 80 66 4E 25 D5 73 79 2E FC C2 10 F0 C9 43 48 D3 DF E7 EC 7B 96 63 87 05 91 10 22 B5 DC 67 EA ")
    (data "08 5D 3B FF B8 88 0F F6 BF C1 5E 95 96 01 B0 D9 FD 87 BF 69 9A F7 FB 40 E4 4D 15 37 53 C1 84 46 ")
    (data "F9 49 48 30 11 F5 5F D0 83 D0 A6 6A 56 75 9F AC 82 19 20 22 22 E1 EC 7C D0 AA AF 81 19 B4 6A 6B ")
    (data "01 80 95 8B 75 F0 44 D1 F8 95 D0 6C 25 62 2D F5 91 DD EA C4 53 44 9C 9E A0 94 0E 4D 03 40 AA 71 ")
    (data "D5 11 A7 35 3E B0 1B 19 21 C8 D9 76 19 0C D6 89 E6 43 2F 3F BA 64 FD A9 04 0A 57 50 C1 68 A0 FC ")
    (data "EA 68 28 F9 9A 8C 6E 47 2C 8E 78 3C 14 E8 0A 2C B8 38 35 A3 5D 08 C1 89 E3 CE 81 6D 0C AB 88 D2 ")
    (data "09 64 D5 4F FF E4 88 94 81 55 E8 D6 96 E4 D6 5F EB 13 1B 05 B1 10 22 15 9C 9D 66 A0 08 C4 9B CE ")
    (data "6B 4E 1E 4D C4 76 83 91 C9 6E 91 86 8B 87 68 7E EE EF E3 85 E2 68 2B A8 60 5C 50 66 49 68 E9 AE ")
    (data "50 DF BD 30 09 30 C3 30 19 D3 B8 B4 A1 A5 79 2A C5 5B 53 3C 74 8E 3C 4A C1 2A 31 6D 46 26 C5 A5 ")
    (data "2F 7E 26 FB E9 FA 46 04 4D FA E4 71 7D EC 25 4E B4 92 10 59 FD 33 15 0F 03 80 82 D3 BA EB 67 B4 ")
    (data "F7 BE A0 D5 60 8E 7E B9 88 D3 74 DB A9 2F 46 75 1F 78 F1 A1 15 D7 7E A0 BC BF 7D A2 41 B4 EF 95 ")
    (data "5B 1F A0 64 3A D3 21 D7 CF 56 97 FE 49 7E F8 98 3C B8 85 5A 3D 09 1A 78 C6 CA 12 19 C4 2A 28 2B ")
    (data "CA 4B 42 13 E9 BC 17 89 FE 74 AE 33 63 60 38 22 4F D4 AF 5E D1 F5 D2 C9 6C D4 6E 72 FF 7F CA BE ")
    (data "4B AD 79 AB 60 09 FF D0 2F B3 01 80 49 80 05 F7 F7 EA 93 C7 4C FB 16 D6 83 42 08 21 A5 2B 51 45 ")
    (data "CA 17 48 A6 6E 41 7B 30 D8 DB FD 04 7B 05 9F 57 11 75 47 C1 E1 F0 E6 2F CE BB E0 C6 48 FD 69 85 ")
    (data "FC 4D 6C 90 7C E6 9B A2 25 97 70 8D 8E 41 4E 5D AE 96 9D EF AF D7 BA 5D BE F2 1D 77 89 B1 FF A9 ")
    (data "42 C2 B1 44 39 49 18 EE D9 22 FB B6 66 14 41 06 A7 17 13 AC 9D DC 13 5B B4 2E BA F7 05 22 21 04 ")
    (data "60 D8 B4 3F 9F E8 78 45 36 5D 28 1A 67 52 55 0D EC 60 6A 75 16 28 87 95 E2 44 94 07 7A 75 5F 3B ")
    (data "77 EF 62 D5 97 A2 5C 96 7E D9 64 4D 00 28 30 65 B0 61 56 6B 74 BF D3 73 24 93 68 2D 63 0E CD 8A ")
    (data "D2 34 03 73 32 97 01 30 ED 7D EE BE F3 DE FA F1 32 FE FC 32 A0 6A 92 59 56 A4 4B 14 E0 11 CD 98 ")
    (data "23 A6 58 DE 42 25 89 68 A1 AA 15 8C 33 CA 46 42 99 EC 0C B6 DC C5 26 91 1D CB A5 92 12 1A 66 63 ")
    (data "E2 35 B3 EA B4 B3 2E 71 E8 25 18 16 02 CC D2 70 42 B7 3E A3 5B 52 07 57 41 04 C1 86 4D 8C 4D 1C ")
    (data "9C 25 1A 09 29 91 9D 17 EF A2 1F 64 38 D9 B8 E2 24 F7 44 7B 36 E6 72 AD 21 9B 62 06 40 66 22 14 ")
    (data "5C D1 35 C8 11 F2 C4 2B DF 9C 7F E1 CD B5 4D B3 CA 75 05 4E 1F 66 EA 12 33 B5 C0 7C B3 0A CE 6E ")
    (data "94 89 84 6C EC E6 BB 13 B1 2E 20 23 8E 52 21 A3 99 C0 51 63 4E 46 66 86 11 BA 32 B1 E7 25 A8 41 ")
    (data "10 0B 96 99 8C 4C 00 C7 A0 A3 48 0D EF 52 21 66 84 6C B2 FA CC C2 F2 19 E9 27 42 4E C3 82 6E 1B ")
    (data "7D FD 2F 18 15 CD D0 2F 23 FD 32 B2 CE 2D 00 5D 11 AB 39 C5 D7 B0 B3 F7 B9 FB 2E 78 E7 67 CA 73 ")
    (data "05 CE 08 8C E1 F4 F3 0A 86 8F F2 90 50 B7 D0 45 5E 00 00 10 5B 49 44 41 54 B4 6D 76 BA 9E 82 87 ")
    (data "0C B9 45 3B 33 09 2A 12 B2 AA DF 5E B9 46 35 B7 99 DE 7D 04 30 81 40 85 A7 59 A7 97 93 CF 7D 07 ")
    (data "40 56 AD D3 B0 B8 47 44 FB 07 5F D7 D1 C1 8C 3D 15 39 47 44 66 66 93 37 B8 14 B9 00 B7 DC A0 11 ")
    (data "00 5A 5E FF E7 EE 75 B7 34 CC 58 50 96 8B 30 B1 C0 C4 93 57 51 CF 41 77 11 D7 4E A0 AC F2 15 64 ")
    (data "51 0E 12 C6 3A 9C FD DF 82 71 38 27 85 38 C3 43 97 48 34 6C D8 31 BC 83 E6 4E 16 D1 CB F8 C4 71 ")
    (data "0C 36 03 00 B9 CD A3 19 B8 9E D9 44 01 AE 5B 18 0B 05 FA 90 8C 0E 6C 64 83 BC 5C BF C8 12 32 67 ")
    (data "0B 75 4B 42 97 9F 31 37 3E 04 00 6B D7 C6 5F 5C 7A C7 57 CE 46 11 C1 CE 55 9F 91 73 AE 21 A5 01 ")
    (data "80 C0 D5 93 F4 9C 8A AE 3B 11 71 DA 24 64 93 D8 F9 EF 26 DE 03 F7 FD CD 39 2A 66 48 E8 1E 25 B6 ")
    (data "B2 38 81 B9 73 28 71 81 E8 75 A8 F7 04 92 9D 3E 5F 05 09 1B 81 29 AA 6A 8A 13 14 31 C9 D1 D8 41 ")
    (data "67 B0 85 0D 33 23 23 60 B3 ED E7 C4 6F 46 DE C1 25 0B 91 6B 99 3D 0C 4C 55 EE D8 F7 E3 F6 C3 B7 ")
    (data "35 9D 95 69 48 43 B5 7A D9 E5 E3 DD 89 0A 4A E3 74 49 98 3C FA 42 BC ED BF 80 74 2E 25 D7 E8 2B ")
    (data "CB 90 B4 B0 CA AE 65 96 A6 A2 73 C0 30 73 15 A1 6E B1 30 F3 29 11 93 56 23 B3 31 EC 68 20 69 A2 ")
    (data "49 DD AE 12 9B CD 60 8E BD EC 52 71 3D 02 30 F3 81 9C 4E 0A 77 67 0A 31 30 5B C1 DA BD E9 AE 29 ")
    (data "EF FF C7 CA 74 A7 0A C6 0B A7 45 42 13 EB 1A 78 E3 7F B3 D6 AE A1 16 C1 35 E9 36 27 AF 52 9F 26 ")
    (data "C3 A8 8C C1 86 99 8D B3 3D 9D C5 50 65 4A 38 95 6A 14 6E EA 96 60 60 BE 31 C6 6D 20 2D C0 C0 5C ")
    (data "79 77 F3 AF DA 9A EF 9C 36 7F D5 E9 5C 8A B3 09 4C 13 FF 79 94 1D 3E 14 B4 28 9C 61 38 2D 12 26 ")
    (data "BB 8E 24 13 27 33 5B E4 76 C4 E5 09 43 FF 74 88 0C BB E0 E7 A4 77 D3 5D C1 D3 08 BC 0C 4C 17 A6 ")
    (data "B5 CC 6C 61 AA 37 B9 D1 60 1E 03 53 3B 7A DB 8F 9F 85 24 CC 1F E8 16 36 82 E5 41 78 97 28 8B F5 ")
    (data "8A 96 FD D4 79 8C A2 3D 30 CC C1 30 D7 9F C3 D3 16 98 C6 69 23 EB 40 FE D9 D9 50 F7 71 D1 7E 98 ")
    (data "BA 8F 53 22 C6 91 26 75 D1 4D 85 9B 32 8E 68 6F 16 ED CD D4 75 0C FD C7 29 DE 0B AD 20 24 02 35 ")
    (data "5C 33 83 EB 66 F0 E4 D9 66 DA 7C 0E 0D 63 F9 9A 89 87 D3 22 21 8B 80 72 54 2A A1 A0 2B CE 0C C8 ")
    (data "D1 00 19 27 84 5B 70 E5 0C 36 69 9A B9 78 E6 16 77 05 44 5F 96 81 5C 92 81 D9 0E 78 36 B3 0C CC ")
    (data "76 97 01 B2 86 CC 87 77 66 C2 7E F4 EF C5 BE DF BB 4B D4 F5 3F D6 0B 87 F1 AC 09 A6 67 3F 53 D7 ")
    (data "11 EB 95 FF 14 7B EE 2E B4 72 35 F1 AC DB D4 15 1F 32 0D 53 8A B4 92 08 FC E0 3A D2 99 4C A7 55 ")
    (data "6B 13 1F FC 7E EE BA 27 06 E4 DE E7 E4 B6 5F 53 CF B6 EC 01 BC A0 50 A0 82 8A CB 1D 4F CA 97 7F ")
    (data "48 D1 63 05 4F E3 B2 E0 05 CC E2 3F D5 E7 DF 62 1A CF B0 40 A8 D3 22 A1 0E D6 27 1C 2D 05 E0 4E ")
    (data "F2 EC B7 4F 72 4E 2F 4D 0B 47 14 61 97 5B EE F9 28 97 63 9D 8B CC A9 B3 14 63 20 BB 83 66 E0 B5 ")
    (data "8E 66 BF 30 A0 0C 42 0D A5 1E EA 67 24 0C D8 B7 06 D3 B0 24 21 87 6B A0 E2 D6 D6 FB E5 D6 6F 14 ")
    (data "0F F1 67 3A FA 6B FB 37 4F 39 B7 7C CF CC 98 5B B0 06 71 12 9C 59 A3 7B E0 75 8A C7 39 14 84 71 ")
    (data "E4 AE 4D D6 F3 FF 82 9C 0E 95 69 B1 C6 CF 67 EA 6B B5 FF EB 2B D4 F1 D2 70 BA 0D 4E 8A 3D DF 17 ")
    (data "FB EE D6 57 FE B3 5A E1 5F C3 6C 22 E3 B4 48 18 A9 9B A2 B8 A1 A9 BA 73 20 81 68 3C F5 1F A6 DC ")
    (data "1D CF 39 AD CF 43 95 C2 0A 6A 66 13 85 28 9A 3D D0 C5 40 57 6B 45 19 E8 F1 4F 78 6D 36 04 D4 44 ")
    (data "10 B0 70 BC 4B D7 4F 3A 2B 49 78 6A 70 60 21 F0 E0 97 E8 C4 13 A5 27 D9 A8 16 FB E1 CF 27 6F FF ")
    (data "29 57 97 4C 27 D9 4B 03 BD 88 25 EC 27 FE 95 5A 9F 2A 58 83 BD 0B 92 52 BC C7 7E E0 B3 D4 BB 7B ")
    (data "F8 5D 07 00 D3 2F 37 FE 39 07 FE AF 5E 74 C6 8C 2F 4E 8B 84 42 DA 5C 7F 85 4D F7 2F 9B 05 C7 C2 ")
    (data "80 83 68 1C D1 28 12 71 68 07 4A C1 51 80 47 24 21 23 86 5C A1 9C 60 00 04 4E 9B 57 19 02 69 7F ")
    (data "3B 53 56 93 05 13 00 26 64 46 83 E9 56 C0 04 66 06 81 19 A9 77 26 46 BA 7E AE 10 40 38 C4 92 50 ")
    (data "17 41 4D 18 21 1B 01 0B 83 09 B4 74 23 89 A9 35 B5 A7 BB E2 F1 59 84 88 DC F4 75 EA DB 39 DC EA ")
    (data "89 7D D6 96 87 9D 0D EF 29 55 CF 92 AF FE 56 1C F8 25 D4 60 B1 1A 5C E5 21 A1 7C FE E7 C5 19 C8 ")
    (data "99 07 69 91 15 FF 36 7D DD CC BA 8B 43 67 46 56 A1 D3 75 51 84 A6 AD 8D 1E B9 47 25 29 10 44 63 ")
    (data "0D 1A 03 80 0D 58 99 EB E3 51 4C 5D 16 4C B7 11 B3 F0 7B 9E AD 33 5B 88 2C 2F F3 1B CF D6 CF 94 ")
    (data "64 DF 0D 13 03 06 CA 41 C2 41 34 89 BE 28 94 86 A3 51 3F E7 E6 B3 78 DD EC 91 C3 71 31 50 F3 A4 ")
    (data "6B CD FC F5 5C DD 00 36 D4 D7 26 F6 3D 40 FD 7B 7C 07 88 9D 3F A4 75 B7 70 24 32 74 BB 62 CF 8F ")
    (data "0B 15 33 38 06 8E 01 06 91 9C 38 A5 9E 66 B9 EB 17 7E 8E D9 33 F4 45 9F 36 73 56 98 EA 3A D8 21 ")
    (data "B0 A1 64 94 7A DA E4 CE C7 C4 CE 9F 7A 2A 27 F6 CA 43 3B F2 A7 8C 4C 4C 9C 2E 09 C3 93 E6 0E EC ")
    (data "35 89 24 D9 0E A0 00 01 88 0C 03 B3 CF 29 B7 52 E8 F9 EE A5 96 DB 5A 52 6C 33 4D 6C 4E 47 B5 B1 ")
    (data "BB 10 20 4E 3F 1F 91 79 50 32 3C 11 39 69 B7 07 8C 81 66 28 0D 47 A1 7E 7A 25 2F 70 01 70 D3 4D ")
    (data "EA B2 0F 99 19 F3 3D 46 CE 75 EF B4 9E FD 77 F9 C6 4F BC 55 FB C4 D1 BD 7A C9 48 D6 F9 10 61 33 ")
    (data "EF 76 33 67 0D 4F 3E 87 AB EA 38 10 06 00 97 79 4C EE DF 0C DF B4 11 AA 73 DE F9 23 D3 34 D3 55 ")
    (data "22 38 54 CB D3 6A CD B4 85 16 92 72 E7 DD 9E EA C7 B6 E3 4D 42 C2 9A C9 33 3A A2 83 B1 64 A4 CA ")
    (data "01 29 40 02 0A 20 17 15 8B 8A 29 BF 70 CB 13 92 5E E3 66 B1 16 7C 8D E7 36 DD A7 CE CA 4F A4 DC ")
    (data "8F 9A 61 0C 94 46 52 A1 69 DA EC D3 BC 08 67 1B 28 A2 2F F9 8A 5A BD 01 F9 4B A9 CA A0 BA EC 83 ")
    (data "E2 D0 1F 68 C0 63 AB 14 27 F6 0C 93 84 3C E7 BD 7A D9 D5 66 D6 52 DF A2 31 BE 5A 74 F0 51 5F 91 ")
    (data "59 F5 49 0F 03 BD 3D 36 8B AF F2 91 50 9C 6C 1E 4E 7F 26 02 4E 5B 12 D6 34 C4 C5 85 F1 C4 76 AD ")
    (data "60 39 80 95 11 86 EC 95 84 7E 86 14 62 63 8E 7B 79 CC 84 AF D0 D7 42 FE A6 77 57 F6 A8 0C 0F B5 ")
    (data "81 36 70 0C E2 0E D7 4F 9E 7E 9A 17 E1 2C 83 BE E8 AB 6A ED D5 45 77 5B 61 B3 EC 5D 72 CB B7 DC ")
    (data "65 D4 36 AC 31 A4 7A E7 6F F5 CC B9 A5 EB 39 7D A2 7D 0B E0 F6 1B B1 99 37 14 C9 0B 2C CF 14 6B ")
    (data "2B 1C 96 3C F1 E0 1A 0B 91 97 90 66 58 AB B1 12 89 C0 D4 CB 63 49 93 74 18 8A A1 18 3A F3 32 D9 ")
    (data "97 71 7D CF 6A 84 AE 2F E9 EF 48 7F C9 0D 0E DD 22 B1 D0 77 0C 83 81 59 62 C3 D3 23 6D A0 14 E2 ")
    (data "C9 68 5D 63 31 4F 97 17 BE C5 FD CE C2 98 EF 0C 4A 79 4D CD 14 FF BC 13 EA 7E 63 38 37 CC 30 9D ")
    (data "E9 34 D0 E9 65 20 00 61 86 4C 83 40 4E DE D2 8B 56 E4 8C 60 20 DC 24 F4 AB 07 7D 85 7D A3 F9 A8 ")
    (data "99 B9 3A 9A E0 A4 63 58 99 B4 88 31 DE 17 E7 51 CE 43 45 E4 2A 30 60 32 34 33 05 29 C7 7E 9A F9 ")
    (data "09 99 C7 40 57 09 BB 18 A8 0D 1C 8D AA 19 EF A9 1E A6 69 74 B0 DB B3 19 38 33 2C 6F A7 84 12 37 ")
    (data "AF CF 8C 09 00 CE 0E 72 86 BD 86 76 29 50 34 6F 81 7B 31 09 A1 A1 0C 3F E2 E8 AB BE 12 AE 3B A7 ")
    (data "5C FD 19 6D E4 A4 1F 57 7B EE 45 D1 F6 02 B4 82 2C AD AF CE 5E 75 F9 F1 96 F7 24 9C 5F 6B 05 4B ")
    (data "03 A9 57 0A B9 A0 EE FC A1 1A FB 0B 7D 3E F5 62 9B C5 39 E6 7D CF A7 AB 8B FB 06 4A 83 ED 45 57 ")
    (data "BC E7 7F D1 F0 64 9A 68 D9 E6 DE 3C CD 25 E9 26 34 B8 04 09 61 87 32 E3 8D 0C 08 48 C6 11 2C BC ")
    (data "C2 F6 88 91 CC 77 63 18 B9 E7 05 16 85 3A C6 2C 3A F6 88 37 BE EF 33 A5 F2 F4 33 26 4D 8E 8B 84 ")
    (data "B5 4D 90 91 D4 0C 77 00 48 B6 88 93 87 CD B4 D2 13 5E 85 15 38 E7 2D 5F 72 DE 98 A7 BA BE 69 E9 ")
    (data "04 0C A0 01 01 98 8C A0 1D 8A 30 F9 D6 94 22 64 2B 7D A0 6B 57 FE 89 32 7A 6E 7A 40 C8 2A 30 FD ")
    (data "4F D7 AE FF 54 A8 76 58 BA 28 45 7B A9 E5 61 20 63 A8 60 C7 34 CE 18 CE 81 7E E8 21 17 AC 9E 28 ")
    (data "28 45 42 4B FA 38 08 B2 C8 38 65 D3 FE 74 C2 5F 62 BA E4 A6 4F 0D 79 8C FF 49 AA E7 9F 31 AB 32 ")
    (data "5B 52 4A 9D 5A E3 57 5A 66 FE 9F 88 7D 77 65 76 91 DC FD D4 70 48 08 80 AC 60 60 CD 47 12 F1 B7 ")
    (data "A3 63 AB 1D DD 2A 9C 47 48 1F 85 6F 72 50 51 8E 15 15 5C 45 A8 3B 12 01 E8 3A 17 83 0D C7 B9 EA ")
    (data "56 39 FB 9A 86 19 17 DB 0D B3 86 B5 34 34 00 40 EE DF 92 63 20 C0 0D EB B8 66 52 91 6B 21 40 45 ")
    (data "15 33 8A F7 0F F3 8C E3 89 D2 64 CA D7 1D A8 9C 03 B0 92 A2 B8 14 CC 8A CF 99 29 67 46 14 94 6D ")
    (data "DB 1E 6D D3 2C B8 D4 45 42 88 1D 3F A2 35 6F E3 BA E1 EA 5D 26 34 39 76 CE 0D 31 DC 40 F8 82 48 ")
    (data "76 12 2B 52 7D 94 CE 72 5F E8 5F 5B F0 52 FB 0A 99 C9 14 54 42 46 D0 1A 13 81 C8 04 EB 75 A8 91 ")
    (data "AD 88 5D A8 E2 50 48 C6 E4 56 8F A3 D9 2C 7D 7B 51 C3 0C 05 D8 32 A4 0A EF 14 ED CD 7A EE C4 9F ")
    (data "DE 5E 8A 03 5A FB 4B 58 FB 9F B9 A7 83 61 0C 82 86 80 59 F1 59 67 FD BB CA D5 97 D1 06 11 B9 24 ")
    (data "21 A0 E7 AC B2 42 B3 10 3F 9A DE CF 8E F5 FC FF 73 6E F8 CC 48 2D 81 0C A9 03 4D 00 10 3C 25 9D ")
    (data "6D 82 C1 7A F5 0F 88 EE CF 6D 93 D4 8B 2F 2E 5A 5B DA A8 5A 86 DE C2 66 2D B1 FD 3E 3A 6F 03 07 ")
    (data "26 F8 A4 8D 52 24 4C C6 F3 6E 09 87 CB B8 F2 9C 55 C0 88 CA 53 6F 82 2C FE FC 24 E2 60 35 4F 59 ")
    (data "62 E6 9E 67 A6 14 73 27 4E 44 48 29 2D CB B2 92 99 24 CD B0 83 FA 82 8F CB 67 BF 90 AD 21 0E DC ")
    (data "2D 77 5F A8 97 AD 1F 9F 0E 4E 00 88 13 FB E4 96 AF B9 15 30 B3 F4 A3 3C D4 48 52 F2 94 B5 54 84 ")
    (data "84 88 BE 6C 3F FE 13 E7 EA 0F F1 90 B6 BE 71 46 29 6D 90 7C 86 62 00 62 11 02 65 4B 9F C9 E1 FC ")
    (data "8B A3 D5 D5 FF C3 4C 1A 9E 33 E9 8C 82 65 59 96 6D 7B 9E 2E 6A C5 95 E2 B5 15 34 B0 23 53 40 D6 ")
    (data "C6 CF 73 DD 5D 66 C6 E2 B1 EF DF B8 83 7A DB ED 3F FC B5 67 08 24 6B D4 85 B7 0E 7D 94 99 71 BE ")
    (data "D8 FF 60 D1 36 0F FE 2C 70 EC 11 B3 E8 5D 66 CA 1C 04 23 25 9D 72 A5 21 43 7A 76 79 2D 81 25 48 ")
    (data "28 3A 9B FD 07 34 AC 65 59 B6 F8 5B AE 6A 04 1B EF 88 5D 52 67 0B CE 3A 12 0A 21 2C CB B2 52 1F ")
    (data "4A 65 06 31 76 48 6F F8 9C F5 D0 FB 73 77 9E 89 DB 0F 7D D2 B9 F9 7B 66 C6 9B 2B C6 92 7A DA EC ")
    (data "07 3E 8F D8 21 77 A1 BE F4 7F 95 4C 1C 68 66 9F 5B A2 E9 E4 71 B1 E3 DB 65 BB 67 83 6B F5 47 7F ")
    (data "5A AE C6 80 52 92 90 B5 D8 FF 07 7F D9 B4 B2 CE 1B 0A 4F E2 9A 49 34 E0 91 B7 72 FF 66 BD B8 D4 ")
    (data "85 3D D3 10 08 04 90 F2 21 04 83 9E 45 42 F4 9C 55 66 F5 5F 7A EA 3A 1D F6 EF 3E 24 77 3F 37 1C ")
    (data "C3 D9 D9 01 71 6C 57 E0 BE 3F A3 FE D7 DD 85 3C FB 5D 6A D5 35 25 8F E5 FA D9 66 5E 91 34 0D A3 ")
    (data "81 64 73 B9 FF 2D 43 35 27 9A 5F A2 CE ED BE 42 33 AB AC E9 EA 48 9A B9 EF F0 97 1D FC B1 3C 7E ")
    (data "A8 60 F5 33 14 44 94 A2 9E 00 10 08 04 A4 37 54 D7 B9 F4 36 9E E5 BD 0A 26 6A 3D FE 49 FB D1 EF ")
    (data "50 5F C7 18 F6 73 1C 40 F1 01 EB B9 FF B0 7F 77 7B CE 40 05 00 E0 FA 0B 9D EB FE 62 78 36 40 52 ")
    (data "17 7F 18 62 AC E2 DA B8 93 92 79 E6 CA D3 00 C5 FB A0 92 85 52 D4 18 D1 BC C5 7E EC AF FD E5 72 ")
    (data "BA 99 55 E6 D1 8A 59 98 9F AC D1 58 0F 7D 4A EE DA 4C 05 CC 42 94 5E CB 44 27 29 31 48 3D 2D A2 ")
    (data "BB AD BC FD 19 0D D8 B6 2D 84 40 D6 59 1F 89 44 FA FB 5D 2E 2C 69 3B 37 FC A5 FD E0 20 B5 FD D1 ")
    (data "75 14 89 7D 77 05 0E DC 63 56 7D 4C 2F 5D 6F 26 8F C0 CF 76 26 80 A9 A7 4D EE 7B 49 BE FA 03 24 ")
    (data "DB 7C 93 CA B9 7A 99 73 CB DF 73 B8 E4 FC F1 4C FD 49 F3 D5 15 5F B5 36 7D 69 14 FA 59 08 4E AC ")
    (data "6C D1 2A 80 D8 F6 B5 E0 F6 EF 73 FD 0A 9E B4 04 A1 5A 0E 84 C1 4C B1 2E 3A FE 2C F5 6E CF 77 12 ")
    (data "9A F3 3E 51 F6 E9 B3 66 E6 4A 6E BA 80 DA B7 7A 4A D5 71 EB 89 8F 63 53 2D D7 9F CB 0D 8B 20 2D ")
    (data "30 C3 18 4A 74 21 D6 86 58 27 25 4F C2 E9 00 83 A7 DF 91 7C D7 E7 CB DB A5 F2 42 08 11 C9 CC C0 ")
    (data "4C 93 D0 B2 AC 60 30 98 48 E4 22 15 38 58 E5 DC F2 65 FB 0F 55 74 EC 77 9E A3 4D 54 6C FB 57 B1 ")
    (data "ED 9B 88 2C 32 33 2F E7 9A A9 E5 74 10 8D 0B D8 D0 60 17 B5 6C A1 9E AD 28 94 ED 8F 1B 2E 76 6E ")
    (data "FE EA 48 73 C8 EB 95 37 41 2B EB 99 BF 1D 8D 95 58 BD 20 72 92 65 55 48 05 74 37 75 3E 4B 9D CF ")
    (data "E6 9F CB 5F 50 B7 5E AD 2D AD A2 8F 18 64 3B 57 FD 65 E0 BE DB 91 1F F8 A0 FB 8A F4 2D 05 09 02 ")
    (data "75 EF 82 E1 B1 53 46 46 8E 48 24 92 8D 97 B4 DC A5 5A EB 9C 85 06 E0 60 55 F2 E6 2F D8 CF CF 13 ")
    (data "DB FE 4F 5E 23 84 E8 7E B1 6F 7F 5E F9 99 8C 42 0C 34 F3 EE 50 D7 7C 8C 43 A7 20 67 48 AF 7E 3B ")
    (data "37 2D B2 36 7D 8B 3A B7 96 AE 7E 3A 48 E6 C5 79 8D 0D 22 AB 9D B7 7D 89 83 FE 85 47 CB 02 6E 5A ")
    (data "E2 DC F0 1D FB 91 4F C3 8C 5C D9 8E 6F A3 44 82 C3 13 34 C8 3E 14 0A B9 BD 12 9E 87 74 75 75 B5 ")
    (data "F0 25 7A 90 B6 B3 FE 4E F5 B6 BB B8 7A D9 D8 F4 6F 02 C1 6E 52 57 7F CB B9 E9 B3 A7 C4 C0 34 CC ")
    (data "F4 E5 C9 DB BE E7 DC FC 33 B3 E8 4E C8 40 99 2C 5B 06 9C 80 E9 82 15 E6 BA F3 79 FA 5B 87 08 94 ")
    (data "2B DD D6 AC B5 3C F3 7A 20 59 BA AA 07 DA 2C FC 68 F2 B6 6F 9B 86 51 5C 64 C6 CC BF CC 79 F7 AF ")
    (data "78 EA 48 DD D4 8C EA 73 A1 C6 E9 C1 54 0A 81 40 20 1C F6 CC 58 22 F6 DA A3 8D 31 03 03 03 3A 3F ")
    (data "2E C9 89 5B DB 37 CA AD DF 43 E2 C4 68 F7 72 FC 21 AB F4 B9 9F D0 6B 6E E4 48 5D 39 9B 55 09 EA ")
    (data "6D 17 7D 1D 18 E8 22 27 91 9E C6 95 D5 98 52 19 3B 88 20 08 24 59 08 08 09 61 41 06 60 05 20 04 ")
    (data "4B 0B 76 10 76 98 2D 0B 76 90 03 11 48 09 2A 9E EC E8 E5 FB A9 CD 13 33 A0 57 DF 6C 66 CE 2F 58 ")
    (data "99 E2 7D 74 F2 88 E8 38 4C 1D CD 74 F2 35 EA 3F 04 E7 24 18 20 E1 6A DF 80 2C AE 3D DF 2C B8 CE ")
    (data "2C BA A4 54 60 4A D2 7E E4 87 F0 86 1C EA CB 3E 68 EA 46 7E 49 59 8B 13 7B C4 C1 2D E2 D0 E3 D4 ")
    (data "BF 0B C6 71 E9 2C A9 D8 7C 0D 59 C3 E1 79 3C F5 42 9E B6 CC CC 58 6C 9A 66 4F CC 51 52 20 10 A8 ")
    (data "AA F2 C7 03 F9 49 08 80 99 07 06 06 DC 7A 69 0E 4E 5C 36 BF 2E F6 3D 23 9A EF 85 19 E9 B3 73 E2 ")
    (data "C3 E1 99 B7 EA C5 1B CC FC B5 1C AE 1D EF CE 8C 1F 52 66 C6 64 02 89 01 4A 26 A0 35 98 21 04 DB ")
    (data "41 44 EA 38 54 3D 9E 9E AA C4 20 C5 FA 28 19 87 66 10 20 04 A4 E4 60 35 02 21 0E 44 26 B8 0B 2D ")
    (data "1C 0E 87 0A 59 B0 0A 90 30 85 44 22 11 8D 16 5F 5D 59 25 44 4F 1B F5 77 23 DE 0F 53 24 5A F9 4C ")
    (data "01 09 84 6A B8 AA DE 34 4C 45 60 02 47 93 55 70 C6 22 65 0B F5 45 A7 65 51 94 84 00 8C 31 B1 58 ")
    (data "2C 17 59 5A 41 05 15 8C 10 44 14 0A 85 82 C1 E0 10 73 C7 87 22 61 0A 5A EB 44 22 E1 38 8E 19 5E ")
    (data "D6 99 0A 2A A8 00 80 94 32 10 08 0C 4D BF 14 4A 93 30 8B 94 03 83 99 95 52 C3 4C 09 51 41 05 6F ")
    (data "2A 30 B3 6D DB 44 24 A5 94 F9 09 23 8B E0 FF 03 BC 4B C5 8A 3D 4A 79 BD 00 00 00 00 49 45 4E 44 ")
    (data "AE 42 60 82 ")
    )
  )
  (bitmap (name bm2:Bitmap) (pos 119.0022 29.00719999999998) (scale 1)
  (pngdata
    (data "89 50 4E 47 0D 0A 1A 0A 00 00 00 0D 49 48 44 52 00 00 00 7D 00 00 00 71 08 06 00 00 00 F8 42 AC ")
    (data "5E 00 00 00 04 73 42 49 54 08 08 08 08 7C 08 64 88 00 00 00 09 70 48 59 73 00 00 2E 18 00 00 2E ")
    (data "18 01 2A AA 27 20 00 00 20 00 49 44 41 54 78 9C ED 9D 67 7C 5C C5 BD FE 9F D3 B7 EF 6A 55 57 5D ")
    (data "56 B1 2C 4B 96 64 CB 45 EE BD DB 18 1B 1B 63 53 42 4B 80 90 5C 92 90 84 24 97 40 72 09 24 94 54 ")
    (data "AA 81 84 16 30 C6 E0 DE 9B 2C 37 D9 B2 2C 5B B2 64 C9 EA BD AF 56 5B 4F 3F FF 17 F7 0F 81 CF 4D ")
    (data "C0 C1 2B 59 0E FE BE D1 0B CD CC EF D9 79 3E 33 67 66 CE CC 1C 42 D3 34 DC E0 9B 05 79 AD 05 DC ")
    (data "60 E8 B9 61 FA 37 90 1B A6 7F 03 B9 61 FA 55 A0 28 CA B5 96 F0 B5 A0 AF B5 80 EB 11 51 D2 C0 32 ")
    (data "44 4E 67 8F 77 7D D1 99 63 ED 8E D0 70 32 22 3C FC E3 AE B6 96 C6 29 B3 66 5C 6B 79 5F 09 71 BD ")
    (data "8E DE 0B 4E D5 21 7D 54 D2 C8 D2 33 C7 FF DC DA DC 52 3B 67 E6 CC 97 C3 EC C6 0A 8B DD 36 68 31 ")
    (data "3F DA 5E 04 47 44 E4 B4 43 87 0E 3E D8 D3 DE 7D 5B A7 B3 1E C7 4E EC 83 C3 66 C7 CC E9 D3 31 73 ")
    (data "DA 94 5B 59 8A D8 B4 F8 96 B5 83 A6 21 18 5C 77 A6 9F 28 EF 40 4A 5C E8 DC D7 36 BC FB 8B 8A F2 ")
    (data "73 33 CB 2E 94 C0 E7 EE C5 8C 69 93 71 FF BD 77 BF 6D D4 73 DF 1A 37 71 72 50 63 9E A9 EA 45 43 ")
    (data "7D ED 9C CA D2 F3 1F 1C 2F 2C 0C 6F AA AF 85 24 F0 F0 FA 5C 00 29 42 4F 6B 60 49 15 F3 E6 CC C3 ")
    (data "9C D9 B3 7E 9C 9B 3B F6 85 D4 EC 71 C3 B6 62 AF BB EE 7D EA 98 68 F2 B1 A7 5E FD F0 6F 7F 7D DD ")
    (data "AE C9 3E 68 A2 1F 34 21 A2 B0 60 3F 0C 0C 71 D7 9A D5 AB 7F 01 A0 2D 98 31 77 EF 3C 8C AA AA B3 ")
    (data "2F 9D 28 3C 1C CE 40 81 D7 D5 0B 59 16 C1 E9 4D 80 46 82 82 08 92 52 70 E2 F8 01 F4 F4 76 3E E7 ")
    (data "0D 04 2C 69 39 79 BF 1C AE 0D 8A 7A F2 C9 27 AF B5 86 2B E6 8D 2D 27 91 33 61 E6 C1 0D AF BF 9A ")
    (data "41 6B 2A 06 9C 5D 50 E5 00 08 48 60 19 02 5D ED AD 88 8F 8B CB EA 6C 6A 78 37 3D 2B 3B 28 31 77 ")
    (data "9F 68 32 97 94 14 1D 28 38 72 70 9C 22 78 41 13 32 7C 3E 27 64 C1 0B 96 35 42 95 49 C8 B2 1F AA ")
    (data "E2 03 01 01 DD DD 6D B8 5C DB 38 E3 F9 67 5F B0 34 D7 D5 EE 4F 1D 35 2A 28 3A 82 C9 75 33 7A 7F ")
    (data "6D 73 29 04 41 CD 3F 59 78 6C 36 27 FA C0 3B 5B C0 6A 3C 18 8E 04 C5 72 08 F0 01 F0 FE 01 1C D9 ")
    (data "B5 73 AE 5E 55 D6 B6 9D 3B 76 55 F1 3C FF FF EF FE AD 5B DE 2F D8 B1 71 3A E9 6B 86 2A F5 C2 EB ")
    (data "EF 42 6C 6C 18 C6 E5 8C C1 F4 A9 33 90 9D 97 0F 6B 54 32 08 53 1C 44 26 02 01 CD 80 F6 D6 66 9C ")
    (data "38 B0 E7 3B 89 06 26 EA EA 7F 79 F0 B9 6E BA F7 AA EA 2A F4 F7 F5 EC A9 28 3B 0F 9D E4 81 19 3E ")
    (data "28 3A 16 AC D9 8E 0E A7 13 56 8E 83 22 F1 A8 B9 70 9E 68 6B 6D 7C D1 62 E2 36 C6 8C FD FA F1 3C ")
    (data "01 09 1F ED 3C BD 69 D7 96 0F 97 32 42 1B 8C 4C 00 B4 8E 46 F2 C8 B1 58 B9 6C F9 FE F8 28 C7 06 ")
    (data "CE 94 70 B1 A5 C7 0B 67 C0 FB CB ED 3B 3E 59 5B 7E E1 2C 29 4A 2A 42 18 15 45 85 47 8D 53 33 D2 ")
    (data "DF F3 38 7B E7 4E B8 ED EE E0 55 44 10 B8 6E 4C E7 3D FE 47 0E 1F DA 6B 15 02 FD 10 5C 5D B0 9B ")
    (data "38 18 CD 36 3C FC E3 9F E3 62 55 15 36 BD FF 0E 68 46 07 8A 12 71 E0 C8 E1 D0 AC DC EC F1 00 8A ")
    (data "BF 6E BC C7 9F DC B4 E6 72 59 F1 6A BF DB 09 5A EA 47 48 A4 15 09 71 A9 78 F4 C7 BF 78 73 5C 4E ")
    (data "CE 2F 6D 36 5B FB A7 69 0F 17 37 AF 37 59 4C 7B 36 71 F4 BB A5 45 27 C1 F3 03 18 E0 65 EC 3E 5C ")
    (data "30 6B ED 1D EB 96 03 D8 1E 8C 3A 08 16 D7 45 F7 FE CC 2B 87 D0 DF D7 FD 43 9F BB 1B 84 EA 47 A8 ")
    (data "4D 0F B3 C9 88 B9 73 E7 5E 5C 30 7B D6 98 F1 13 A6 BF 69 0E 89 05 AF EA A0 10 0C 9A 1A 9A 70 F4 ")
    (data "C4 A9 D9 35 C5 27 BE 56 BC 0D 7F 3F 0E 6F 4F CD 77 2F 96 1E 03 4B 0B 00 41 60 E6 CC 45 E5 77 DF ")
    (data "F3 E0 77 28 96 B9 EF F3 86 03 C0 EC F1 F1 E8 75 39 DF 4B 4A 1D FD 14 18 33 08 C6 0C 09 1C 1A DA ")
    (data "3A C9 CB AD 0D 2F 9C 2A D8 1C 94 7A 08 16 D7 85 E9 A2 C0 DF 7B F2 74 51 1C 64 2F B4 80 0B 21 26 ")
    (data "13 E2 62 A3 31 65 C2 F8 8D C9 69 09 E5 11 8E A4 27 C6 8E 9B 56 45 E9 EC 50 41 43 94 14 30 AC FE ")
    (data "B7 0D 8D 8D FF 76 AC 8F B6 95 E3 DB EB A7 86 9A F4 DA 74 46 1B 80 26 78 30 21 3F 1F 73 66 CD BA ")
    (data "6F DD 6D EB 36 CC 9C 3C E5 9F E6 FB E9 7D AB 60 32 86 3C 3E 7F E1 B2 26 8D D2 83 D0 59 D0 E6 F2 ")
    (data "62 CF DE 5D 29 7A 3D 73 D3 55 56 41 50 B9 2E 4C EF E8 6A 4D 16 A5 00 34 49 84 CD 6C 80 2A 09 58 ")
    (data "B0 60 51 63 62 4C F8 6F 00 60 C9 AC 51 6D 21 91 71 DB 59 A3 1D A2 4A 43 51 49 14 17 9F 46 4D 5D ")
    (data "CD 15 C7 F8 D3 86 ED F8 E3 1B 7B 62 8B 4E 17 6E F9 FD 4B 1F F6 9A F5 24 A2 43 39 4C 9B 3A 09 F7 ")
    (data "DE 75 F7 9B A9 23 92 CF 7C 9A B6 F8 54 2F 8E 1F 6E 40 5B 5D 1B 7A DB FF 31 3B 7C FE B1 BB 90 91 ")
    (data "31 E6 7E 93 35 1C 32 41 43 26 69 B4 B6 34 62 C7 C7 5B 17 06 B3 3E AE 96 EB E2 99 DE D4 D4 90 40 ")
    (data "A8 12 0C 34 0D 4E 23 A1 67 68 84 99 8C 9B 26 2E BA F9 B3 34 91 31 71 6E BF 24 43 0E F0 20 15 01 ")
    (data "1D ED AD 98 36 75 EA 3A 00 EF 5F 49 0C 6B 58 5C F4 27 1F BD 57 7C FA E4 E1 28 21 D0 8F 70 23 8B ")
    (data "B8 50 13 E6 CD 9C 59 16 6A B1 DD 97 3E FE 1F 2D BC B8 A2 32 91 11 DD 35 2E A7 46 36 B7 D6 BE 36 ")
    (data "73 EE C2 DF 64 64 8E 6A 03 80 45 0B 17 57 9D 28 38 A8 9D 3B D5 4A E8 28 02 34 C9 80 26 A9 61 35 ")
    (data "61 1F F6 A6 3F F5 F2 6E 98 4D C6 B1 A2 24 81 16 14 90 34 85 88 30 07 22 43 C3 B7 7C 3E 1D C1 52 ")
    (data "07 0C 66 C3 53 82 C7 08 86 22 E0 F7 FB 51 5B 5D 9D 3A 66 EA DC AF 8C F1 EA FB C5 A8 AD B9 F4 D2 ")
    (data "99 33 A7 A2 7C FE 3E D0 9A 0F EE 5E 1F 1C 23 A7 23 36 22 E2 D1 A4 11 C9 9F A5 FD F5 8B FB D0 5C ")
    (data "5B FD FE C1 2D 1B 69 CA 57 03 83 89 7D D0 62 0D 1D 15 13 97 B0 C4 6A 35 F8 DF F9 EB 1B 2D 66 A3 ")
    (data "49 A3 69 82 D0 54 05 8A 28 C3 E7 F4 06 BF 62 AE 82 61 DF BD 17 1E 3D 82 8B 17 CB D3 15 55 82 49 ")
    (data "67 82 2A 00 31 8E 58 8C CF C9 E3 3F 9F 2E 24 22 82 50 A0 C0 E3 F5 41 14 24 C8 B2 02 67 9F 73 C4 ")
    (data "95 C4 28 2D 2F 43 45 D5 A5 5C BF E0 03 C3 10 20 09 1E A4 A6 22 35 29 A9 27 33 3D A3 30 2C ED 1F ")
    (data "0B 2C 89 29 A3 46 9E 3C 7D 2A BF BF BF 1B 6E 57 3F BA 5B DB F1 FB 67 7F 37 F3 C4 B1 D3 7F AA AC ")
    (data "EC 44 6E 56 4E 5C 4B 73 1D 21 0A 02 FC 5E 37 A0 2A 30 EA 4C 41 AE 95 AB 63 D8 9B BE 66 ED BA 55 ")
    (data "CD 1D 2D E0 34 0F 34 C2 05 CA A4 22 34 DA 3E 50 70 FA F8 F9 CF A7 6B 69 68 81 DF ED 83 C9 40 02 ")
    (data "10 20 A9 0A C0 B1 4D 57 12 43 86 0C 8D 02 48 68 60 34 0D 9C 0A D0 8A 04 5B 88 C9 E2 11 BC D4 E7 ")
    (data "D3 8A 3E 77 9E C4 0B 10 14 02 B4 C9 04 99 00 DA 3B 9A 70 E9 72 F5 7D CE 81 5E D4 54 17 DF ED 6C ")
    (data "6F 20 38 4D 84 95 63 C0 D1 06 58 2C F6 20 D6 C8 D5 33 EC 4D F7 F1 FE 18 9B 81 82 81 0C 00 84 1F ")
    (data "22 E1 43 48 74 58 B9 35 3A E4 0B E9 0C 0C 97 C4 52 2C 14 69 00 16 AB 0E 71 F1 B1 18 97 97 77 F9 ")
    (data "4A 62 18 F4 1C 68 42 85 AA A8 60 40 80 01 03 4E 4F A1 C7 DD C7 75 F4 77 7F E1 11 18 1E 15 7E 60 ")
    (data "E2 84 5C B0 26 2B 48 83 1D B4 C5 88 01 49 82 0A 09 E6 10 D3 27 5D ED F5 BF 12 BC BD 00 EF 86 85 ")
    (data "65 10 1B 19 87 71 63 27 96 05 B1 4A AE 9A 61 6F 7A 67 57 27 78 9E 87 DF EF 07 01 1A 8A 44 A0 B7 ")
    (data "A7 FF F0 D4 C5 EB 3F 4B F3 8B 17 B7 A2 A9 F9 F2 CF DD AE 76 00 2A DC 1E 37 DC 6E 3F 48 92 B9 A2 ")
    (data "31 4B 6C 4C 34 22 C2 C3 29 4D 03 18 9D 01 14 AB 03 CB EA 51 55 5D 0B 51 63 D2 3E 9F 76 A0 AB B5 ")
    (data "3B D2 11 73 DB BC 79 B3 40 E9 0C 90 34 06 F6 B0 58 74 F7 F6 E1 8D 0D AF DD BC 6F F7 0E A8 92 00 ")
    (data "86 D0 20 F2 3E 2C 5C BA A4 9A D5 73 AF 06 B7 56 AE 8E 61 6F BA D3 D9 0F 97 7B 00 00 40 90 0C 38 ")
    (data "C6 88 E8 A8 84 CF FE FF DA EE 52 88 B2 F0 A3 C3 87 76 64 69 92 13 1C 43 80 66 18 E4 4D 98 8C 8A ")
    (data "CA 4B 6F 5D 49 0C 47 64 38 CC 66 F3 EB AC CE 08 41 02 54 82 03 AF 50 68 6D 69 45 C9 B9 F3 BF EB ")
    (data "EB 72 C6 F7 B6 3B 01 00 77 AE 1C 87 D1 E9 23 37 DE FF ED 6F 4F 7A E0 C1 EF 36 CC 5B 72 33 A6 CD ")
    (data "9A 83 D6 B6 36 6C DB FC 31 08 4D 81 C2 FB 61 36 1A 31 7E DC 04 8C 1C 99 FE CC D8 45 4B 83 5F 31 ")
    (data "57 C1 B0 37 DD EB F5 68 26 9D 0E 46 83 11 0A 2F 21 D4 66 47 74 4C 1C 00 E0 78 55 1F 1A EB EB 9E ")
    (data "DC BF 67 E7 73 AE BE 36 D0 92 07 82 20 82 E2 CC 48 49 49 3F 98 39 3A F7 8A 62 DC B9 34 17 2C C5 ")
    (data "FC 71 54 5A 2A 04 99 84 5F 24 A0 D2 46 08 12 89 8F 3F D9 31 FB 4C D1 E9 9A A6 F6 F6 E9 FD FD 82 ")
    (data "09 00 16 CD CD 47 4C 94 ED F4 CD AB 6F 5D BA 6A CD FA B6 EA EA 1A 9C 2C 3C 09 42 D3 60 A0 59 E8 ")
    (data "39 3D C2 42 23 B1 68 C1 92 4D 1C C9 BE 3D 78 B5 F3 F5 18 D6 53 B6 9F BF 5A 80 88 F0 A8 05 BC 2C ")
    (data "43 26 14 58 8D 66 B8 5D 5E 94 5F 2C C7 72 00 4E A7 F3 FE 83 FB F6 FE AC BA AA 92 60 64 01 E0 FD ")
    (data "60 6D 2C B2 C6 E4 60 C2 A4 09 F7 8D 99 34 E1 8A 63 3D FF C4 BD EE 6F 7D F7 D7 45 97 2F D7 4E F2 ")
    (data "B9 65 D0 2A D0 EB F2 81 F6 4A 78 EC A7 3F 65 33 C6 64 1F 5D B0 68 F1 29 5B 68 D8 81 FE 01 8F 4C ")
    (data "73 C6 47 4E 15 9D B4 97 96 9E 83 B3 AB 17 34 41 80 A2 08 68 8A 0C 8B C5 86 15 2B D7 EE 5A F3 FD ")
    (data "EF DF 3A 1C DF A9 0F 6B D3 BB 9D 7D 50 3D 03 0C 43 52 10 05 01 BC EA 47 A8 C5 8A AC AC 2C 65 D7 ")
    (data "E9 3A F4 74 B5 CF AB A8 6D 60 C5 40 00 A4 D7 0B 96 24 60 B1 86 60 EA B4 E9 27 5D AE BE 2B 1A B9 ")
    (data "7F CA E1 93 35 28 38 76 76 61 56 66 B6 EB C2 C5 32 A8 01 27 8C 7A 0E B2 18 80 6F 60 00 25 A7 0A ")
    (data "D1 D5 D1 9A 2F AB 44 BE 57 90 D0 DE DD 0D 86 66 A0 2A 32 04 9F 17 06 86 82 5E AF 43 4C 74 1C 6E ")
    (data "BF FD AE CE C9 79 13 EF D5 1E FF C9 60 55 CD 55 31 AC BB F7 D3 95 97 D1 D2 DA 02 40 05 C7 71 20 ")
    (data "49 05 A1 E1 16 9C 38 BE 6B C3 92 89 C9 E8 F5 F0 85 51 E1 E1 A0 41 23 C4 6C 83 45 C7 61 D9 D2 9B ")
    (data "A4 B1 63 73 BE 33 7B D1 F2 7F 2B D6 AC FC 14 2C 9E 3F 6D 20 25 3D F3 8E 8C CC 1C A8 84 0E 1A C1 ")
    (data "40 D5 48 08 01 1E 2A 2F A0 B1 AA 02 95 65 25 E8 E9 6A 85 24 06 10 70 BB 40 CA 02 F4 84 06 BB 89 ")
    (data "C3 C2 F9 73 71 DB DA B5 EB 57 AE 5A 35 56 67 31 75 0D 4E AD 5C 3D C3 BA A5 CB 2A 40 50 04 58 96 ")
    (data "81 8E A2 21 FB BD 50 14 3F 6E 59 7B FB F7 00 FC C2 6E B7 EF 4E 19 91 6C 8E 35 5B 9E F6 D6 9E C3 ")
    (data "F2 D9 F3 C5 51 A9 C9 63 FD 6E 57 C5 D7 89 37 31 27 06 5B F7 45 BC 97 6B 30 76 C6 47 DA 0F 9C D8 ")
    (data "BF 13 16 8B 0D 92 00 C8 7E 37 54 4D 82 8E 23 41 42 01 A1 29 B0 98 F4 30 31 1C 12 D3 93 B1 70 CE ")
    (data "DC 83 99 A3 D2 D7 49 A0 7A 8C E1 66 18 C3 CD 41 AE 8D E0 31 AC 4D 57 15 09 04 A5 82 A6 48 68 AA ")
    (data "00 5A D5 10 16 1A E9 A5 41 6E 07 80 FB 97 8E AF AF BB D8 F0 CC E2 07 26 BF 09 77 C7 F2 19 0B 26 ")
    (data "BC 71 EA E3 0F 31 69 D9 9A AF 1D F3 99 9F DE 8A B7 37 17 1F B4 E5 E7 2D CC CA CA 7C B1 BC AC 34 ")
    (data "E5 42 D1 49 A8 B4 13 A4 26 C2 C8 E9 A1 A8 0A 0C 46 0A F1 31 A9 58 B2 6C 05 B2 D2 E2 7E 63 D6 B1 ")
    (data "FF 9D 37 FB 9F BF 81 1B 6E 0C 6B D3 2F 77 74 20 CC AE 81 A3 35 A8 01 1E 26 86 43 98 3D DA A4 E7 ")
    (data "CC 9F BD CF FE ED 63 6B 00 A0 1B 88 7D 23 58 83 A6 BB 6E 19 0F 00 FB C2 A2 63 53 EF B8 E7 36 DD ")
    (data "B6 8F 77 3F DC 50 57 BD B0 A9 F6 92 AA 4A 01 C4 44 3B 30 63 CA 94 81 D4 D1 13 F6 08 A2 FA D7 A8 ")
    (data "A8 68 C4 C4 10 41 89 3D 14 0C 6B D3 1F 5A 30 15 A7 8F 1F 52 29 92 80 AA 69 50 14 19 1E F7 80 CB ")
    (data "6A B5 3A 87 22 FE 94 6C 3B 00 F0 33 C6 1A 9F 17 84 84 E7 5D BD BD D0 24 1F A2 1D 31 88 8F 8B 43 ")
    (data "66 96 63 28 64 04 9D 61 BD EF FD 85 0F 4E 92 A7 0A 0E 28 27 F7 BF 0F 4E EE 85 8D 10 30 26 67 42 ")
    (data "7D 54 54 64 F2 EF 36 7C 70 AD E5 5D B7 0C EB 96 5E 5A 7A 4E EB 73 B9 A0 01 80 A6 40 A7 D7 21 63 ")
    (data "D4 28 22 21 3E E1 AB B2 DE E0 4B 18 D6 53 B6 31 59 63 6F AF AD AB 83 C7 17 80 2C CB F0 F4 F7 21 ")
    (data "2E 26 7A E7 D8 DC 71 D7 5A DA 75 CD B0 35 FD BD BD 97 51 55 55 15 D5 E3 74 81 22 29 D0 34 0D 83 ")
    (data "51 07 8B D9 DC 9D 36 79 CE B5 96 77 5D 33 6C BB F7 86 96 76 10 9A 7A 07 A9 A9 D0 EB F5 60 09 1F ")
    (data "74 3A 16 0E C7 B0 3C 3F 70 5D 31 6C 5B 7A 55 75 15 5A 5A 5A 15 8E 61 40 40 45 20 10 40 6C 5C 32 ")
    (data "2C 36 4B C1 B5 D6 76 BD 33 6C 4D CF 9F 32 49 C7 FB 5D 71 9A 18 80 1E 34 4C B4 05 49 49 69 52 6F ")
    (data "77 FF D9 A1 D2 50 D7 E4 C5 C5 8B CD 38 5B 74 1E B5 95 F5 43 15 76 D0 19 B6 DD FB C5 8A 8B AC CF ")
    (data "E7 0E A5 A5 00 38 0A D0 6B 3A 84 86 44 9D 1B 70 05 F8 AF CE 7D 75 BC F4 51 31 A2 43 75 F9 7C 7F ")
    (data "CF FF 10 92 3F 8F 90 02 7E F2 CE 35 D1 29 C3 78 7A FB EF 30 2C 4D 3F 58 D2 08 92 50 EF 6E 6E 6E ")
    (data "00 CB 00 80 08 8E 25 91 94 94 B4 2F 26 76 F0 A7 6B CD 2D 1D CB F7 EF 28 DC 56 78 60 1B 42 8D 2C ")
    (data "52 62 A3 AC 0F BC B7 F1 FE ED EF FF FD F5 E5 EB D6 7F 75 01 C3 9C 61 D9 BD 6F DF 57 80 D6 86 9A ")
    (data "BB C4 80 07 7A 96 00 4B 4A C8 9B 34 0E C9 23 53 5F CD 9A 3D F8 23 F7 96 D6 96 31 85 C7 0A 41 51 ")
    (data "12 44 C1 83 9A DA 0A EC DC B5 65 83 CB DD 9F 3F E8 C1 87 80 61 69 7A 52 4C DC B2 A6 DA CB B9 1C ")
    (data "21 83 D4 FC D0 EB 80 8C 8C 94 52 93 9E ED 18 EC D8 AF 7C 52 06 A3 8E 7B 44 96 79 08 7E 0F FA FB ")
    (data "BB C1 FB 07 D0 50 57 05 B7 DB 19 3A D8 F1 87 82 61 69 7A 71 D1 89 09 6D AD 0D 60 20 82 10 7D 30 ")
    (data "71 0C 26 E6 66 FE 75 C4 84 69 83 1E 9B A6 08 94 57 54 6D 53 15 05 92 28 22 E0 17 E1 F5 0A E0 18 ")
    (data "1A 99 E9 19 83 1E 7F 28 18 76 A6 FF F1 AF FB 60 32 E8 66 41 F4 43 E5 FD D0 B3 2C C6 8E CD 43 67 ")
    (data "77 EF 8B 43 11 FF FE 9B B2 E0 73 7B 68 89 E7 61 60 39 70 0C 05 51 D6 00 4D 83 22 49 D4 57 97 30 ")
    (data "FC 19 76 A6 8B 3C 3F B1 AC B4 64 8A 9E A6 C0 10 1A 28 15 48 4B 4A F5 25 38 86 66 BD FD E5 CD E7 ")
    (data "A1 01 AA D5 64 05 54 12 8C 46 C0 AE 67 31 6A E4 68 54 5D BC B4 6D 48 44 0C 32 C3 CE F4 C8 48 7B ")
    (data "B6 3F 30 00 4D 0E 40 13 25 58 4D 36 98 4C B6 67 1C D1 71 43 12 DF ED F1 21 33 23 F5 5B 82 20 83 ")
    (data "24 59 D8 6C A1 E0 18 1D 14 59 C1 70 7E 23 F9 EF 30 AC A6 6C 7F DB 72 16 A5 25 A5 77 89 03 2E C4 ")
    (data "84 5B C0 0F C8 C8 CD 1B 87 BC 89 F9 9F 84 64 E6 0C 89 86 9E CE 76 0C F4 F7 83 62 18 D0 24 0D 08 ")
    (data "01 18 58 0A 71 D1 B1 A7 52 93 D3 BE BA 80 EB 80 61 D5 D2 3D B2 31 E1 FC 85 CA C9 84 C4 23 D0 D7 ")
    (data "01 03 AD 20 3D 73 E4 F9 00 A1 5C 1A 2A 0D 23 53 92 56 F5 74 76 42 D0 64 80 D0 00 D5 0F 23 A3 22 ")
    (data "25 29 FE D8 82 3B EE 18 2A 19 83 CA B0 32 FD EC E9 A2 EC AE F6 0E 90 50 C0 32 14 02 01 01 9C 8E ")
    (data "3B 9E 35 69 E8 F6 9E 5D BC 78 D1 D1 D1 DD 0B 55 D5 A0 69 00 C7 32 30 18 0C 10 C4 40 C9 90 89 18 ")
    (data "64 86 8D E9 DB 8B 03 20 14 71 54 C0 E7 82 22 06 00 45 85 D5 62 41 47 63 E3 90 0E 9E 7A 7B BA B2 ")
    (data "FA 9C 4E D0 34 0D 45 91 40 80 80 20 F0 B0 59 42 AE FC E4 C4 30 67 D8 98 DE D8 50 07 83 91 FB 6D ")
    (data "C0 E7 02 4D 12 50 14 09 E9 E9 E9 98 39 73 56 EF 50 EA 10 78 3E 86 D0 34 90 04 09 9A 66 A1 6A 1A ")
    (data "38 9D 01 47 0F ED D9 38 94 3A 06 93 61 63 BA D7 EB BE AB F0 F0 7E 40 F6 41 E4 DD D0 31 34 A6 4F ")
    (data "9D D6 CE 12 E4 F9 AF CE 1D 3C 68 9A 02 08 02 9A AA 42 D1 14 A8 8A 04 00 90 64 69 28 65 0C 2A C3 ")
    (data "C2 F4 77 76 94 A0 A9 FE E2 EC FE DE 76 98 F5 34 AC 66 3D 62 A2 1D 08 B3 DB 7E 1C 9F 94 38 A4 5A ")
    (data "68 9A 26 00 80 A4 29 48 D2 FF 4E D3 78 BF 07 79 13 A7 DF FC 55 79 AF 17 86 85 E9 ED 9D 5D F0 38 ")
    (data "3B D7 BB 5D DD 50 44 3F 24 21 80 94 E4 24 21 31 21 E6 60 D8 C8 D1 43 AA A5 7F C0 7D 84 20 00 51 ")
    (data "14 A1 A9 2A 68 9A 01 CB E9 D0 DB DB 33 AC A6 B7 57 C3 B0 30 DD EB 77 E7 96 95 9F A7 CC 3A 0A 7A ")
    (data "96 82 2C F1 48 1E 91 78 DC EF 75 75 0F B5 16 45 25 78 8A A2 A1 E3 38 58 AD 16 08 92 04 97 6B 00 ")
    (data "5D DD 3D 43 2D 65 D0 B8 E6 A6 BF FC E1 09 A2 B9 A1 6E B3 A7 A7 15 32 DF 0F BF BB 0F 19 A3 33 91 ")
    (data "92 92 B6 21 77 F1 BA 21 D7 13 11 1A 0E 8E D3 C3 EF F3 42 95 45 10 8C 0E 04 67 40 5C 52 CA B8 F3 ")
    (data "87 8E 0C B9 9E C1 E0 9A 9B 9E 14 1B B3 B4 B6 F2 F2 08 A1 BF 09 A4 D0 05 BB CD 88 09 13 26 17 25 ")
    (data "8F CA D9 71 2D F4 24 26 24 C2 6A B1 C1 CC 52 80 2A C1 60 B3 83 A7 F5 68 E9 EE 9D 53 59 F3 AF AF ")
    (data "B0 E9 16 55 00 B0 F4 29 F2 9C 13 25 17 86 4C EF D7 E1 9A 3E A7 9E 7E 79 0B 1A EA EB 6E 6F EB EC ")
    (data "80 D1 64 84 02 1E A3 46 67 23 29 39 F5 C5 F8 9C F1 81 6B A1 29 2C 2C 1C 0C 43 C3 6C E0 A0 F2 32 ")
    (data "34 95 06 2F F8 D1 D4 D6 0C 4B C8 3F 3B 89 AA A1 AA A1 07 6D DD DD 0F D4 35 54 BC 72 FA F8 31 E4 ")
    (data "4F 98 72 38 3A 3C 66 41 52 7C 98 3C E4 3F E0 0A B8 A6 A6 EB 38 6E 64 D5 A5 CA 35 A2 CF 0B 08 12 ")
    (data "8C 06 13 B2 73 F3 4E 93 9C EE EF D7 4A 93 CC AB 85 1C 43 C2 C3 FB 60 A2 48 68 10 E1 75 0F A0 A2 ")
    (data "B2 0C 8B 96 2F 79 AE A6 B6 E6 C7 A9 29 A9 00 80 E2 73 8D 20 29 6E 7D 6D 7D F9 7B 6F BF F5 26 2E ")
    (data "56 14 83 D4 80 84 F0 D8 69 AE D1 3D 3A C4 87 0D FA AD 81 5B 0F 94 A1 BF A7 07 34 A5 62 5C 66 3A ")
    (data "A2 22 C3 61 0F D3 7D 69 9E 6B 66 FA CF 7F F7 36 5A 9B 9B 9E 6F AA AB 07 14 01 14 28 84 DA 1D 48 ")
    (data "4D CD DC 6E E0 B8 6B 25 0B 7A 83 B1 6C 64 6A 5A 85 B3 A5 64 B4 3F E0 01 C7 B0 D0 1B 18 F4 74 77 ")
    (data "62 D7 EE 3D 8F 86 45 27 CE 51 F5 D6 B9 76 6B 48 7E 55 CD A5 C7 4E 14 1C 9D B2 6F DF 56 A8 0A 0F ")
    (data "59 E6 31 69 FC 24 2C 5D B4 70 43 6C 8C 63 D0 0D DF 7D B4 06 BD 3D BD C7 6A 2F 57 E6 30 A4 06 1D ")
    (data "44 A5 AA D4 93 27 0A 9E DA B5 F7 DE FF 2F F3 5D 13 D3 BF FF E4 EB 30 EA B9 5B CA 2E 9C 5B AC A3 ")
    (data "65 68 F0 C3 11 1E 81 87 BF FB FD BD 2B 56 AC 7A 91 32 33 D7 42 16 00 E0 A1 BB C6 E2 C8 B1 03 67 ")
    (data "48 8A 1E 2D 13 7A 10 24 0D 8A 55 40 51 0C 0A 8F 16 A0 A2 A6 31 77 EC C4 C9 ED 9C C9 CC 9D 3C 54 ")
    (data "00 8A F7 41 11 DC D0 19 38 AC 5E 79 9B 9C 9D 93 B3 CC 60 30 EC 0D 8F 1A BC AF 46 7D 4A 78 6C 6C ")
    (data "DA 1B 6F BE 36 F5 E0 FE 5D D0 04 0F C2 0C 24 56 2E 59 70 FE 96 D5 B7 E4 02 F8 97 B7 21 5F B5 E9 ")
    (data "75 75 97 D0 D7 DB 89 09 13 67 A1 BA BA 06 5D 9D B5 30 99 CD 08 0D 8D 42 42 42 0A 6A 6B 6B 91 92 ")
    (data "92 F2 59 FA 3B 7F F9 0E 4C B2 B4 6A DF D1 03 1F F5 76 36 83 D3 04 58 68 15 B3 67 CF 46 B4 23 66 ")
    (data "0D 65 66 3C 5F 12 6E 48 98 32 6D FA 0B 82 B7 FD EE 92 93 7B E1 15 03 60 08 13 68 86 06 05 15 4D ")
    (data "0D 35 68 6E 6B E7 48 8E 83 41 93 61 A2 09 98 8D 3A AC 5C B3 16 33 A7 CF CC A1 48 BA 22 3D 73 68 ")
    (data "5E C1 0A 82 D6 3A 29 7F 0A 8E 16 EC 05 54 12 B4 26 A2 A2 A4 D8 98 97 3D 66 4C FE BC 05 C1 33 BD ")
    (data "A9 4B 43 42 24 91 51 54 52 59 19 16 EE F8 7E 5D 9D 33 B5 B1 A9 23 B9 B9 75 67 5A 73 4B C7 A5 A8 ")
    (data "C8 48 AA BB BB 0A D1 D1 EE AA F3 65 8D F5 D3 A6 4C 6A EB 6A 71 6E 89 8C B3 E3 DC A5 5E E4 26 87 ")
    (data "47 1D 3F 7A 71 73 7F 6F 17 48 C9 0B AB 4E 85 81 06 92 A3 1D BF A2 59 FA 9A 1B 0E 00 AA E4 A9 70 ")
    (data "24 24 FF D0 DE 3A FA F7 FD ED 2D 70 F5 B4 41 2F 0A 20 08 15 9A 22 43 47 A8 D0 64 09 24 2D 43 54 ")
    (data "81 FB EE 7F 10 C9 C9 23 27 5B AC D6 8A F1 13 27 0E 99 4E AB 89 F3 2B 90 9F 8B 8A 0A FB 31 DF 2F ")
    (data "C2 AC 00 26 86 81 85 33 7C 69 BE 2B 36 FD DD 8D 27 41 D1 C4 F7 06 DC 3D F7 D6 D6 55 67 B7 34 37 ")
    (data "A2 A1 B1 06 84 2C 22 E0 0F 40 51 24 B0 0C 9B 0C 82 80 20 08 A0 28 6A 91 5E 6F C0 BC D9 B3 11 1D ")
    (data "1A F6 F2 D8 BC 89 F5 51 89 69 64 4F 6B E3 B3 27 8E 15 22 C2 62 00 F4 34 FC CE 26 DC F7 C0 77 0E ")
    (data "DB 4C CC 93 F9 73 06 7F E3 E3 95 F0 C3 FB E6 E3 B9 37 A9 3F 58 ED 51 BE 8F 3E 78 F7 35 8E E7 01 ")
    (data "D9 03 86 94 40 91 2A 54 21 00 83 C1 00 87 23 0A 8B 17 2F F8 C3 EC 39 93 9F D0 E9 42 3C A3 B3 AE ")
    (data "EC DE BA 60 F1 F1 B6 AD 68 69 AA BB 49 12 78 98 8D 7A 28 BD 03 C8 CB 1D 87 91 29 69 75 5F 96 EF ")
    (data "8A 2E 25 68 ED 80 6E F3 E6 0F 7E 70 A4 E0 F0 D3 A7 4F 1F 03 4D 13 90 65 19 2A 64 50 08 40 D3 64 ")
    (data "98 4C 66 F0 BC 04 49 92 A0 28 2A 18 86 01 43 73 A0 29 06 21 3A 1D C2 A2 E2 40 EB CC A8 A8 A9 87 ")
    (data "AA 2A 50 79 0F 58 65 00 DF BE 7D 65 C3 E2 39 D3 A7 8C 59 78 DB A0 6F 6F FE 77 D9 F0 51 09 F4 0C ")
    (data "F1 6C E1 81 ED 2B 5B EA 2F 27 B7 35 D6 C1 60 E4 90 96 36 12 39 B9 99 F5 71 71 A1 4F 9B 2D C6 37 ")
    (data "17 2D 1E FA 65 F9 B3 97 3D B1 7F F8 C3 0B BF 3E 7D EC F0 DD 8C E4 82 91 16 31 6D FC 64 75 E1 D4 ")
    (data "E9 DF 8A 08 31 BF 9B BB 6A D5 BF CC FB A5 A6 FF E5 AD 63 18 E8 EF C9 1E E8 6B 7D F5 54 E1 9E 49 ")
    (data "6D 2D 97 40 11 32 68 86 01 CF CB 50 34 0D 14 2D 00 D0 00 82 44 20 20 82 A6 18 D0 14 07 41 90 00 ")
    (data "50 A0 48 0A AA 28 42 67 30 C2 ED E7 C1 B0 7A C8 22 0F 83 8E C2 A4 9C 0C DC 7D FB FA 9C 45 B7 DE ")
    (data "31 AC 57 33 6A 1B 05 86 0F F8 1F ED 68 AB 19 41 92 94 10 15 99 78 04 E0 3F 1E 3D 3A 66 C8 B5 6C ")
    (data "D8 58 08 55 43 5A F5 C5 D2 DD 85 FB 77 25 BB 3A EA 11 6E E6 30 2E 27 4B 5D 77 E7 03 6F 8D 1C 9D ")
    (data "73 6F 58 FC 97 0F 22 BF B4 7B 37 D9 C2 52 8F 15 1E 2A 39 7E 64 17 45 48 2E 30 94 02 50 1A 14 59 ")
    (data "43 58 A8 03 F6 B0 08 E8 8D 26 8C 1A 95 01 B3 C5 D8 4E 12 74 58 73 73 2B EB F3 04 D0 D3 D3 8D CA ")
    (data "4B 95 A0 29 02 1E A1 03 AE 81 3E C8 2A 01 02 80 DF EF 87 2C 00 9D 5D 5D E8 ED EB FA 6E F9 D1 3D ")
    (data "EF F8 55 E6 F8 C4 59 5F 7D 21 FF B5 20 25 91 93 00 EE 99 D1 E9 E3 01 00 04 31 F4 97 0A 35 B5 09 ")
    (data "48 70 EE 40 7F 8F 7A 4B 49 49 F1 47 B5 95 65 F0 0F F4 C0 66 B1 61 D4 E8 54 75 D6 8C 59 CB 14 D1 ")
    (data "B7 FB AB 0C 07 BE A4 A5 EF 3B D5 86 77 DE 79 EF 95 03 07 76 3D 40 48 2E A8 81 3E 58 4C 34 D2 52 ")
    (data "D3 B0 6A E5 6D 3E BB 3D FC D9 F4 51 59 67 CB AB 6A CB C7 8C C9 C6 A8 B4 F0 B6 8E 2E C9 4E 93 FE ")
    (data "71 A2 28 FB 2E 54 B4 DC F3 C7 3F 3D 7F F7 A9 E3 85 60 29 0F 04 31 00 92 D1 81 22 39 F0 42 00 26 ")
    (data "3D 83 50 8B 11 2C 64 E4 4F CA C7 AC 79 4B 0B 7C 6E F7 82 A4 94 64 71 F6 E2 E1 75 81 EE B5 A6 BE ")
    (data "45 41 7F 4F 47 D4 F9 0B E7 4E 6D FA 68 63 62 7F 77 37 7C 3E 0F 42 6C 26 CC 98 9C 8F 39 B3 66 2D ")
    (data "96 FC 9E 3D 0B D6 AC B8 A2 F2 FE 65 4B 0F 0F B3 2F EF EE EE 78 80 61 09 F8 7D 01 30 24 89 A4 C4 ")
    (data "24 7C FB FE FB 7E 1D 1E 16 F7 44 46 46 26 EC 11 16 64 64 26 02 00 24 49 44 6D 63 53 6F 9C 23 7A ")
    (data "DF B9 F3 E5 2F 1E 3B 56 78 77 7D 7D 2D CC 16 23 14 BF 07 94 5E 0F D0 2C 44 85 00 C9 B2 90 14 0D ")
    (data "03 1E 1F CC 3A 1A 27 8B 4E A3 A6 AE 61 66 7C 62 8A 53 67 34 7E 72 AA A0 E0 5E 6B 54 84 94 F1 1F ")
    (data "72 A2 E4 6A 20 88 DB F0 F6 96 9F C5 F5 B7 5C 2A DE FA DE AB 91 62 40 80 D7 ED C2 98 EC 1C 2C 5E ")
    (data "BC 64 7F DE F8 09 0F 41 95 EB 32 F2 AE FC F3 9E FF D2 F4 E4 54 FD 09 96 A5 00 4D 01 08 0D AA 22 ")
    (data "63 C4 88 24 A4 A6 A6 1F D4 73 36 B0 F4 FF 2E F5 79 45 C0 E9 74 A1 AB DB 35 F6 FC F9 B3 4F 1F 2F ")
    (data "EC 5F B0 7B FF 2E D4 D5 55 43 92 44 A8 A2 80 A8 B0 50 64 E7 E4 21 2C 22 1A A5 17 2B D1 EB EC 87 ")
    (data "CF EB 81 7F A0 1F 7E 89 80 46 90 E8 E9 ED 45 73 5B AB F1 F2 E5 EA 3B D6 AE BF 6B DA B8 BC 49 77 ")
    (data "34 B0 1D C7 93 46 5C 9F D7 76 05 83 A3 67 3B F0 CE D6 1F 4F 3E 74 E8 C0 C6 9A B3 85 91 62 4F 1B ")
    (data "8C 26 1B 6E BB 65 55 D9 94 99 B3 FF 64 B3 D9 FF 9A 31 36 F5 DF 2E F7 5F 76 EF 6F 6F 3D 8F 53 27 ")
    (data "8E D6 6F DA FC 41 92 AF B7 19 A1 16 06 56 33 8B 9B 57 AC 42 5A 4A 26 64 89 78 47 D1 40 D5 36 5C ")
    (data "52 47 65 8D BE A3 A8 E8 34 8E 1E 3D 02 AF BB 1F 1A A1 80 A2 01 BD 8E 83 41 6F C4 BC 29 73 2B 67 ")
    (data "CC 9A FD D0 8C F9 8B 12 4B 4A 2F 86 5C AA AE 5D 58 5A 7A 7E C1 81 FD FB C0 40 03 1F 18 00 47 49 ")
    (data "F0 07 3C 20 40 43 6F 30 23 3D 63 34 D6 DD 76 C7 E5 E4 11 23 D6 34 D6 D6 5E 58 73 E7 D7 BF 05 F2 ")
    (data "3A 84 EA 72 8A D3 B7 EE 3C F2 93 1D 3B 76 2E AC BD 7C 19 84 B7 1B C9 51 36 CC 98 31 F3 85 E8 E8 ")
    (data "D8 47 D7 3F 7C EF D7 2E FC 4B 47 EF FF F5 F8 DB CF EC DE F5 C9 63 3E 57 2B 58 CD 07 96 16 21 CB ")
    (data "02 FC 1E 09 31 B1 49 E8 75 F6 C3 6A D5 C1 EF F5 42 C7 71 F0 F9 7D E0 79 3F 1C 0E 07 08 90 98 35 ")
    (data "63 36 9F 37 31 EF 95 29 E3 27 FF 4F 5C 5A 52 FF A7 E5 9E BD D8 01 82 60 C6 1E 3E 78 E8 89 F2 F3 ")
    (data "E7 96 1F 3E 78 00 D0 BC F0 78 5C B0 85 58 41 83 84 2C 8A 30 1A F4 98 36 75 1A 66 4C 99 FA 62 5E ")
    (data "56 F6 6F D3 26 8D 09 EA 27 B2 87 23 6F FC FD 20 44 BF EF 57 97 2A CB 7E B9 77 F7 4E 30 04 20 F8 ")
    (data "DC 58 BB 7A 15 26 E7 E5 3D A7 67 98 9F CC 5E BD E4 AA 62 7C A9 E9 BF F9 F3 5E 74 B6 B7 F4 6D DB ")
    (data "FC 37 BB 26 F4 40 C7 29 F0 FB FA 41 D3 2C 28 4A 0F 49 92 A1 03 09 80 00 14 15 B1 D1 89 C8 18 9D ")
    (data "89 98 D8 38 4F 78 64 64 E1 A2 25 8B 9E D2 19 E8 A2 B0 98 88 7F 5A FE C1 23 75 E0 74 CC C4 43 07 ")
    (data "0F 4E 2B 2D 3B F5 78 59 D9 79 8B A6 2A D0 41 83 26 8B 10 7D 6E E8 69 0A 76 8B 05 4B 96 2D 6D 9C ")
    (data "BE 72 C9 8F 52 46 67 D6 D1 24 75 21 D4 34 BC BE 80 74 B5 6C DA 5B 89 9E DE AE 51 F5 D5 17 DF 3C ")
    (data "B2 6F 77 BE BB A7 1D 2C 21 C1 6E A0 B1 62 F9 F2 D2 99 B3 E6 3F 38 32 33 EF B4 D9 F1 E5 AB 6D 57 ")
    (data "C2 97 9A BE E7 68 0B 4E 95 74 92 0E 4B D7 A6 FE 9E 96 DC E6 C6 CB 76 7F C0 6B EB EC EC 80 D7 13 ")
    (data "C0 C8 91 19 D0 93 64 83 CF EB D3 66 4C 9F A1 E5 65 8F FD DB EF 1E FE D1 73 7F FE F0 3D A2 FC F2 ")
    (data "25 61 E6 F2 2B 5B 61 FB 68 EB 21 D8 42 63 C7 D4 54 57 1F DE BC E9 C3 D0 86 BA 6A F0 5E 27 42 8C ")
    (data "2C 04 FF 00 58 1A 30 18 0C 30 47 C7 60 E9 4D 2B 30 73 E6 CC E7 CE 17 6E FF 69 42 FA 38 6D DE 82 ")
    (data "65 57 5D 09 D7 92 BD 95 6D 68 3C 7D 21 B4 BB A7 EF BE F2 B2 D2 FF 29 3B 57 CC C8 BC 07 51 76 13 ")
    (data "72 B2 33 7D 33 27 4E D8 1E 66 21 6F 9F B5 F6 5B 6A B0 62 5E D1 8A DC 91 63 B5 E8 6C 6B C0 D4 29 ")
    (data "D3 8C F5 F5 35 21 04 A5 9F A3 C8 6A 9A 24 F8 5E 7E ED A9 C7 DB 46 4D 9A 84 45 F3 17 C2 E1 70 60 ")
    (data "44 E6 D7 5B B0 A8 6D 16 91 10 C7 92 47 8F 56 BF B1 7D DB E6 51 87 8E EC 9D E4 F5 F6 82 A0 04 C8 ")
    (data "92 1F 11 E1 E1 10 DD 2A 02 FE 00 E2 13 63 31 6D 5A 7E 77 68 58 D8 3D 99 59 B9 87 C7 8F 9B 1A B0 ")
    (data "D8 BE FC 1D F2 70 E4 EF 05 E7 B8 DE 3E E7 86 82 CD 9B 57 B7 95 57 E8 59 42 84 CF D7 87 B4 D1 A9 ")
    (data "58 77 E7 BD EE 98 D8 E4 88 9E 96 26 61 D1 15 4E C5 AE 94 61 77 37 6C 63 AB 8A 81 01 67 64 4D 6D ")
    (data "E5 DB EF BE FB D7 05 C5 67 4F 82 D3 51 00 54 68 3C 00 4D 05 C5 6A E0 03 5E 44 46 44 62 C1 82 25 ")
    (data "EE 65 4B 57 6D 19 E8 E9 B9 7B D1 8A 85 C3 EB C7 FC 13 1E FF DD 4E AC 5B 3F 0F 4D 6D CD 53 DE DF ")
    (data "F4 DE 6B 67 8A 4F 8D 96 7A FA 20 77 76 21 D4 6E C0 CA 55 CB 4E CC 98 31 ED 31 4B B8 E3 78 4C 7C ")
    (data "12 C2 A2 FE F9 A3 F1 6A 18 76 A6 7F 4A 43 AB 0F 03 AE DE 47 0B 8E 1E BF A9 B0 B0 70 6A F9 C5 8B ")
    (data "E0 05 3F 24 39 00 92 50 40 11 22 18 8A 04 4B D1 08 B7 47 62 EE EC F9 08 B5 D8 76 C6 38 1C BF 8A ")
    (data "08 0F 3F 3B 65 E1 CC 6B FD 13 FE 0F C7 4E 34 80 64 A8 5F 1C 3E 72 60 7E 75 6D E5 F4 1D 7B B7 C2 ")
    (data "EF 75 42 F5 7A 11 69 34 23 73 F4 48 FC E4 47 8F 3C 2E 48 FC 53 4B 6E BD 6B D0 74 0C 5B D3 3F A5 ")
    (data "B4 BC 13 15 15 D5 79 65 65 65 2F B4 F5 B6 4C 2F 3A 7B 0A 82 CF 0D 52 13 21 F9 07 A0 67 69 28 42 ")
    (data "00 9A 20 22 CC 66 47 6E EE 44 A4 A7 A5 EF E7 58 5D 69 FE E4 29 2F F1 9A D6 32 6E C2 54 18 4C E4 ")
    (data "35 DB 27 54 DD D0 83 8E D6 DE 09 67 CF 14 7F 58 50 50 90 58 53 7D 09 9D 3D 4D 70 BB 3A 41 52 00 ")
    (data "45 12 B0 9B 8C 30 EA 19 2C 5E B8 40 5E B1 6C E9 8C 39 2B D6 9D 1C 2C 3D C3 DE F4 4F D9 B2 EB 3C ")
    (data "E2 46 C5 4F 78 EF DD B7 A6 06 BC DE 17 4A 8A 4E C2 D5 DB 09 52 E1 41 29 3C 08 4D 06 0D 80 56 49 ")
    (data "04 78 09 9C 4E 8F 05 8B 97 C1 11 9F 80 D0 D0 A8 CD 93 A6 4C 7E 65 C0 ED 3E 9C 96 9E 0E 8B 8D 1D ")
    (data "74 BD 25 97 DB 61 B1 86 CE AE AF 28 CF EA 77 F6 FC F8 F0 C1 82 98 93 C7 8B A0 CA 0A BC DE 7E F4 ")
    (data "74 B7 43 A7 53 E1 F5 BB A1 81 84 D9 C8 C1 AC A7 41 AA 32 6E 5E B1 AA 78 E6 9C F9 73 6E BA F5 8E ")
    (data "41 D9 5F 70 DD 98 FE 29 C7 CB 9A 50 53 53 07 1D 45 3F 75 F4 C0 FE 47 4A 8A 4F 18 55 D9 0F 49 70 ")
    (data "A3 B7 BB 05 2C 74 50 34 12 56 4B 08 18 9A 86 A6 91 30 59 AD C8 CC CE 46 5A 5A DA B9 98 98 B8 2A ")
    (data "6B 88 FD 58 EE D8 09 FB 09 42 AD 8F 88 0A DE D4 EF DC C5 66 8C 48 8E 8F 2B 3E 73 6E F4 E5 BA CB ")
    (data "4F 9C 29 2E 9E 74 BE B8 08 92 9F 47 20 10 80 C5 6C C7 DC 39 0B 51 53 57 8D 33 A7 4F 41 55 03 90 ")
    (data "55 01 1E AF 1B 66 A3 01 2C A5 82 86 8C F8 98 58 DC B2 FA B6 B3 CB 97 DE 34 3B 25 7B 6C D0 8D BF ")
    (data "EE 4C FF 94 E2 F2 76 EC DE BA 9B CE C9 CE 78 AB BC EC EC DC 13 27 0B 22 9B 9A 6A E1 F7 8B 20 09 ")
    (data "1A 92 C0 43 95 65 84 DB 6D 90 44 11 8A 2C 41 C7 31 60 58 16 26 5B 38 E6 2D 5C A8 C4 C6 C6 EE ED ")
    (data "E8 E8 28 4D 49 19 49 A6 A7 A7 6F 4A 4D 4D 6A 6E 6A 6A EF B7 DB 43 11 1A FE D5 9B 33 8B 8B 6A F0 ")
    (data "9D 6F 3D 82 0F B7 BE 9D D2 DC DA 34 B2 BE F9 99 AE 79 00 00 0B 2D 49 44 41 54 B9 FE EE D3 67 8A ")
    (data "6E BA 5C 53 49 F7 BB 7A 11 F0 FB 20 FA FC 30 9B CC 98 9C 3F 0D 73 E7 2E B8 20 4B F4 04 1F 2F D4 ")
    (data "FE FC 97 BF 8C 33 5A F4 B0 87 5A D0 DC 50 07 93 8E 81 C4 BB C1 52 12 8C 2C 8D 84 C4 64 DC 7E C7 ")
    (data "7D A5 19 19 19 63 73 26 05 F7 FA BA EB D6 F4 4F A9 A9 73 83 66 28 B6 B4 BC 38 C3 E3 75 3F 7B EA ")
    (data "F4 B9 09 E7 4B 2F 58 5B 1A 1B A1 67 08 D0 90 21 04 BC 50 05 1F 18 4A 83 DD 6A C1 80 A8 22 20 AB ")
    (data "D0 E9 F4 60 18 16 16 B3 0D 59 59 63 E0 70 C4 F8 72 73 C6 79 5C AE FE BF C8 1A 68 83 DE 88 D1 A3 ")
    (data "33 E0 F3 F9 21 08 22 62 62 A2 CB 6A 6B EB 0B 12 13 E3 67 74 75 B5 CF AB A9 6A 48 6D 69 6E C9 EA ")
    (data "EC 6E 73 B4 B7 B5 A0 B5 AD 09 3E FF 00 78 DE 0D 82 D0 60 B3 99 90 3D 26 5B 58 B8 60 F1 59 AB 35 ")
    (data "E6 96 65 2B 16 3A EB EB 03 62 59 F5 A5 88 A6 96 96 77 28 96 61 42 23 42 7E BE 77 C7 F6 37 4E 1C ")
    (data "39 90 C9 7B 7A 40 29 5E 40 E1 01 42 C5 D4 E9 F3 F1 9D 07 1E CC 74 44 C7 54 A4 66 64 05 AD CE AE ")
    (data "7B D3 3F 4F 49 55 13 9E 79 FA 29 64 E7 CE CC 35 9B F4 8F 5D 3C 5F B2 A6 A3 B1 01 CD F5 97 21 F1 ")
    (data "3C 74 8C 0A 4D 51 10 20 14 88 B2 04 80 00 CF 0B E0 38 1D 0C 46 13 02 FE 00 F4 9C 09 92 24 81 33 ")
    (data "18 20 49 32 1C 0E C7 FF EE 04 A2 29 44 44 44 C0 6E B7 A3 AB AB 1B 97 2E 5D 42 C0 E3 87 2A AB 60 ")
    (data "59 06 B2 C2 83 84 0F 34 A9 22 71 44 3C F2 A6 4C 55 27 4E 99 76 0C BC EF 96 9B 56 DD 1E 0F E0 DC ")
    (data "D9 63 E7 C9 C4 CC 38 35 2C 24 14 1F EF 2B 03 C3 B2 58 3E 2B 1D C7 CE B5 4F 79 FF ED BF FD 61 D7 ")
    (data "8E 4F C6 0B 9E 4E E8 18 09 14 A5 82 50 34 DC 75 CF 7D 3D B9 D9 D9 11 CB 56 07 EF 88 D7 7F 94 E9 ")
    (data "9F A7 B1 07 88 B0 22 A4 B1 AE F3 E1 83 07 8F 85 B6 B4 B5 4F 2D 2D 39 37 AE AF AF 17 03 EE 16 D0 ")
    (data "B4 0A 45 51 C0 F3 3C 28 8A 02 45 91 10 78 01 46 93 11 9A A6 41 53 24 C8 B2 00 9A 66 C0 30 34 78 ")
    (data "3E 00 82 20 C1 30 0C 54 55 83 28 0A 20 34 1A AA 4A 40 6F 36 41 F4 B9 10 63 D7 21 C2 CA E0 7B 8F ")
    (data "3C BA E7 E1 77 36 2E DE F3 EA 9B D8 B8 E9 0C C2 AC FA 6D 9E BE 8E E5 7E 57 97 3F 3E D2 38 DD 66 ")
    (data "0B 29 59 BA FE CE 2F E8 7D E6 8F BB 0D 97 AA CA 7D 07 F6 ED 02 EF E9 80 8E 12 10 66 A6 90 92 10 ")
    (data "89 97 5F 7E E1 D1 D0 D8 E8 17 58 63 52 50 EA 86 7A F2 C9 27 83 52 D0 70 C3 66 04 18 0A 7C 78 B8 ")
    (data "A9 70 E2 C4 D1 7B 07 DC D4 86 B5 EB D6 9F B3 86 84 EC 70 44 85 BA 17 2D 5A 98 DB DA D6 8E 96 B6 ")
    (data "2E D0 14 03 8A 62 41 10 34 08 82 86 C0 0B D0 54 80 65 0D A0 28 16 01 BF 08 55 25 41 D3 7A A8 32 ")
    (data "01 BD DE 0C 86 D1 23 36 36 1E DF FD AF 1F 60 42 FE 34 54 56 56 C2 D3 DF 01 89 0F 80 D1 9B 1C 77 ")
    (data "DE BC 6A 0F 65 08 EB 3C 59 52 BB 68 CB 27 DB 7E 7D F0 E0 2E 9C 2F 3E C1 C8 82 77 BD D9 CC EE 16 ")
    (data "DD 03 9D F1 A9 FF 78 07 5E DD E0 96 34 A0 A5 A1 A1 FE 26 8F DB 03 9A 50 C1 10 12 20 FB 61 E6 98 ")
    (data "16 CA 2F 6D 77 A4 05 A7 8B FF 8F 6D E9 57 40 52 53 B3 6B C9 E9 A2 22 63 5F 9F 33 5F 51 15 30 34 ")
    (data "03 51 94 D0 DD D3 85 AE CE 4E 65 E2 F8 09 2B 4B 4A CE EC 8E 8F 4F 4C B3 58 2C 29 D0 08 54 5E 2A ")
    (data "FF 64 F2 E4 7C 2A 2A CA 41 12 14 71 70 D6 AC 89 85 BF F8 ED AB EF BC F4 E2 1F B3 34 77 3B EC 3A ")
    (data "19 0C CB E0 89 3F 6C F0 AC 5F 7D 6B F4 BD 3F 79 AE 7C CF 96 ED 89 2C BC 80 AF 0B 84 EC C1 6D 6B ")
    (data "D7 89 8B 17 2F 8A 9C BA 70 85 EB F3 82 9E FA C3 36 F4 F5 76 16 7F F8 F7 B7 F3 02 EE 4E 98 29 2F ")
    (data "42 0D C0 AD 2B 6F C2 CC 69 D3 98 49 2B EF 0C CA D9 B8 FF 98 83 F6 5F 83 86 84 78 DB 8B 09 F1 0B ")
    (data "FF E9 3F 9D 3D 40 20 10 C0 BC 79 4B C0 50 34 04 31 00 02 04 D6 AC BE 0D 61 51 FF A8 B6 6D 67 3A ")
    (data "A8 DE 7E 6F A8 A8 30 A0 69 13 04 C5 0D C1 2B A0 E6 72 AD 50 D1 E5 15 3B 3B 5A 04 A7 B3 1B 8C E2 ")
    (data "86 DF DD 05 2B A7 61 E3 47 EF B3 11 0E C7 AE D0 A8 E8 F9 A3 72 26 F8 3E 2D EB BF 7F 70 13 3E D8 ")
    (data "59 F6 F8 B1 13 87 F7 34 57 B9 A0 A9 3C 14 59 C4 85 D2 52 AC 5D 73 6B 12 BE E4 D4 CA BF C3 35 3F ")
    (data "AA 3C 5C B1 87 03 31 F1 7A C4 27 1A E1 88 E3 90 98 6C 43 42 B2 F5 0B 86 03 C0 B6 6D 3B 94 A6 0E ")
    (data "57 AB 48 70 F0 07 00 9F 5F 06 CD B0 68 A9 6F 08 EB AA AB 4A 9A 38 7E 9C 51 A5 00 6F 80 87 0A 80 ")
    (data "E4 18 78 7C 7E 7C B0 71 D3 E4 8A 0B 15 0F 15 1F FE E2 99 F7 A6 96 96 0B 56 5B 08 08 56 07 49 25 ")
    (data "E0 75 7B D0 DD DA 8A C3 87 8F 04 ED AD CB 0D D3 AF 12 9D 29 04 F1 29 23 77 32 7A 33 F4 96 10 E8 ")
    (data "38 13 64 AF 1F 7E 67 37 3A AB 2F 48 13 C6 8D 6F 19 91 94 0C 43 48 28 18 93 15 6E BF 0C 8F 5F 45 ")
    (data "55 55 35 76 ED DE FD 6C 4B 53 D3 17 76 44 FC EC A1 A5 1D B1 09 C9 0D 36 7B 04 F4 06 0B 18 56 07 ")
    (data "93 8E 43 4F 47 5B D0 7A E5 1B A6 5F 25 2F FF 6C 35 B2 B3 C7 06 F4 9C 0E 8A A2 C2 68 E4 40 13 2A ")
    (data "9C 1D CD 08 31 B0 63 84 00 5F 15 62 0D 83 5E 67 05 45 19 A1 51 7A B0 9C 0E F6 10 1B 0A 0F 1D C4 ")
    (data "E5 EA EA 5F BF FF D2 5F 3E 2B EF CF 1B 8B 40 EB F4 A5 DE 80 08 45 01 34 99 80 24 F0 08 78 DD 41 ")
    (data "D3 7C C3 F4 20 10 F0 FB 9F 4F 49 4A 00 45 02 BC D7 0B 52 D1 D0 D3 50 89 9E B6 C6 71 AA 46 DD B3 ")
    (data "74 C9 CA CD B9 63 F2 10 15 95 00 9A 32 43 A7 0B 81 AB 3F 00 89 57 71 E4 C0 E1 B1 1C 67 7B EA D3 ")
    (data "B2 BE 77 EB 44 18 CC D6 73 01 51 84 AA 01 0C C7 42 91 64 44 44 06 EF D3 64 37 4C 0F 02 CE EE 4E ")
    (data "84 85 58 61 36 99 41 D1 3A 50 14 01 C1 2F 21 DE 11 BA 64 49 8A 8C E4 B4 F4 D5 77 DF F7 ED BC 75 ")
    (data "B7 7F EB CD 94 D1 39 D0 59 EC E0 4C 21 10 15 02 4D CD 4D 38 5D 7A EA DE 93 FB 3F FE AC BC F6 D6 ")
    (data "76 D0 0C 03 41 0C 40 96 05 58 42 6C 98 3E 6D 6A D0 F4 DE 30 3D 08 24 C5 44 81 A5 88 4A B7 20 41 ")
    (data "D4 9B 21 1A 0C 60 8C 24 20 BB 47 0E F4 35 63 ED A2 74 AC 5B 3E AE C4 EE 88 BF 6F F2 9C E5 6F 78 ")
    (data "18 0B DC 3A 23 3C 3A 0A FD 9A 07 47 0B DE 8F D2 94 C0 73 85 3B DF C2 9B 9F 5C 84 9E 65 E2 FD BC ")
    (data "0B 04 23 42 D1 BC 50 28 C0 E5 72 07 65 E4 0E DC 30 3D 28 DC 7F CB 78 B8 DC DE 3A 56 AF 83 4F 54 ")
    (data "A1 31 3A 28 14 83 D6 8E 4E 2A 3C EF E6 CF 76 32 FE E8 9E 05 88 4D 4A FE 6D 52 62 8A 42 90 1C 34 ")
    (data "92 82 A4 A8 E8 75 7A B0 E9 93 4F C6 F4 B8 24 50 20 68 8F D3 B9 84 02 40 53 00 67 D0 63 D2 E4 A9 ")
    (data "30 9B 74 5B 83 A5 F7 86 E9 41 C2 1E 11 46 90 34 05 50 34 74 7A 23 0C 06 13 3A BB 7A D5 97 EE 24 ")
    (data "FC 9F 4F 47 53 5A 5D 4A 4A F2 7E 31 C0 03 04 8B B0 08 07 34 52 07 A3 2D 7E 7E A4 23 91 3A 5A 70 ")
    (data "38 B4 B5 B9 31 46 11 03 E0 68 02 46 93 19 16 5B 38 C2 22 62 83 A6 F5 86 E9 41 C2 66 0F 3B 2C 6B ")
    (data "14 58 9D 0E A2 46 A2 C7 E3 41 79 75 AD 7E F1 C3 BB BF F0 09 E8 9F DD B3 10 B6 10 DB 31 8B D9 06 ")
    (data "59 06 FC 7E 15 1E 5E 81 D9 66 07 E6 CC 53 66 E5 8F 7B B9 B9 BE 11 3A 12 E0 7D 3E 88 92 8C 8E DE ")
    (data "DE E3 31 29 A3 82 76 53 D5 0D D3 83 84 CF EF 17 40 10 10 65 0D B2 4A 40 52 49 10 34 0B 5E 10 FE ")
    (data "CF 36 9D 89 B9 F9 7F 9A 36 75 C6 00 45 30 10 04 20 34 3C 1E 39 E3 C6 BE 9F D0 A4 A6 5E 38 7B 66 ")
    (data "05 A3 F0 D0 13 0A 28 4D 83 C7 13 40 54 4C 22 7F BA B8 38 68 5A BF C9 CB B0 41 25 2F 2F 8F 3C 71 ")
    (data "A2 10 03 01 17 48 86 03 A9 1A 71 B9 AE 01 A5 17 EA 1F 19 70 EF 3A 35 69 C9 3F D6 60 CC 26 B3 7F ")
    (data "C1 FC A5 CF 86 98 74 A1 B3 A7 4E FA A1 C1 A8 1D 19 3F 29 FF A7 67 4E 9E BF F9 CC C9 13 A4 45 C7 ")
    (data "42 92 54 A8 14 89 CC 31 B9 88 88 8A 7B 62 E2 92 E0 6D 83 BE 61 7A 90 D0 08 E2 C5 69 53 26 FF 65 ")
    (data "D7 8E AD 10 35 11 0C 08 74 F4 F5 E1 D4 A9 A2 35 19 A9 A3 BF 07 E0 B3 7B 6E D7 2C 1C 05 60 D4 D3 ")
    (data "AB 97 CC 44 98 1D 4F 55 5C 6A E8 6F 68 E6 ED A7 CF 16 FD B9 BF AF 0F 94 2C 81 80 02 CE 6C 46 D6 ")
    (data "98 EC 56 5B B8 3D A8 9B 24 6F 74 EF 41 22 3C 3C 02 14 AB 7F D4 D3 3F 00 82 A0 C0 B0 7A 48 32 70 ")
    (data "EC 58 01 0A 8F 9F 78 AF A2 F0 94 A3 AD FE 8B F7 1B 87 D9 01 00 FD E1 69 49 A1 45 E7 8B 8E 6F FA ")
    (data "68 0B 48 15 70 F7 75 81 90 04 44 47 44 20 27 2B F3 AD 39 CB 83 7B BD C9 0D D3 83 C4 DD 0B 46 23 ")
    (data "7F F2 B4 52 7B 84 03 FD FD 5E F8 BC 22 24 59 83 20 4B F8 78 EB 27 F3 4E 94 96 B5 F3 92 94 76 E1 ")
    (data "5C E5 67 79 5A 3A 34 B4 77 B8 7F FF CE 2B 7F EF FD CB 1F FF 32 CA 33 D0 0F 8F C7 09 6B A8 01 F6 ")
    (data "B0 50 AC 58 B9 BA 24 21 36 EE F1 60 6B BD D1 BD 07 91 9A 0B 35 87 A7 8E 9F E1 DD B3 73 B3 49 D1 ")
    (data "64 D8 CC 91 10 04 37 BA 5C 3D 78 F6 D9 27 D1 D4 D1 52 CD 30 BA A7 3B BB FB 11 16 EE D8 51 5A 76 ")
    (data "69 79 47 47 E7 0F DE 7D FB 75 04 DC ED 60 68 12 0A A3 C0 AB 4A B8 63 FD F7 B0 E4 D6 75 8F C5 C4 ")
    (data "05 FF 7B 74 DF E4 4D 14 41 E7 95 F7 8B D1 D1 DA 7A DF 9E 5D 9B 5E 6F 6F 28 83 22 B9 A1 67 15 B0 ")
    (data "14 05 5E 94 C1 72 26 80 A4 10 1E 16 0D 87 23 0E 0D 0D 2D E8 E9 EB 87 22 0C 40 0E 38 61 B2 1A C0 ")
    (data "E8 18 E4 E7 4F C7 4F 1F FB F9 43 51 51 8E 57 42 EC C1 BF 79 F2 46 F7 1E 44 1E 5C 37 1E A1 61 F6 ")
    (data "37 F2 A7 4E FE 11 67 0B 01 0F 02 E0 8C 10 40 C3 2F 02 5E 7F 00 4E 67 3F 1A 1A EB 50 5A 7A 06 ED ")
    (data "AD B5 08 78 BB A1 69 02 C2 63 C2 C1 E9 59 A4 A5 67 62 ED BA F5 AF 28 8A 3C 28 86 03 37 5A FA A0 ")
    (data "F0 FA A6 42 83 DB D3 79 E0 E0 81 5D 93 2B 2B CA A0 F0 22 08 55 81 2C 8A 90 F8 00 34 55 86 22 09 ")
    (data "B0 9A 4C 50 24 11 56 BB 05 46 B3 09 13 F3 A7 F4 AF BC F9 96 9F CD 9A 3D E7 2D 00 C2 60 E9 BB F1 ")
    (data "4C 1F 04 EE 5F 33 DD BF AF B8 6A 8A 2D 3C 64 49 4F 7B C7 53 BB 77 EC C9 E9 EE 68 85 14 F0 82 34 ")
    (data "99 A1 C9 02 FA 7B 3B 11 11 15 0E C8 32 E6 2F 5C D0 92 32 32 ED A5 EE DE BE DF F9 03 83 7E 79 F4 ")
    (data "8D 96 3E D8 9C B9 DC 81 86 FA E6 87 FA 3A 3B D3 3B DB 5A C6 A9 32 3F D9 6A 32 22 22 22 04 A1 76 ")
    (data "F3 4B 46 8E 2D F7 7B BD AF 2D 59 31 74 B7 4E DE 30 7D 08 B9 54 E7 44 6B 6B 33 12 62 C2 90 96 12 ")
    (data "3B CA E7 97 2F 19 0D 43 DF D9 DE 30 FD 1B C8 8D D1 FB 37 90 1B A6 7F 03 B9 61 FA 37 90 1B A6 7F ")
    (data "03 F9 7F 4D D9 ED C0 16 51 BA 76 00 00 00 00 49 45 4E 44 AE 42 60 82 ")
    )
  )
)
