(module D_SOD-123_TL (layer F.Cu) (tedit 5D679444)
  (descr SOD-123)
  (tags SOD-123)
  (attr smd)
  (fp_text reference REF** (at -0.03 -1.57) (layer F.SilkS)
    (effects (font (size 0.5 0.5) (thickness 0.05)))
  )
  (fp_text value D_SOD-123_TL (at -0.07 1.63) (layer F.Fab) hide
    (effects (font (size 0.5 0.5) (thickness 0.05)))
  )
  (fp_text user %R (at -0.02 -1.56) (layer F.Fab)
    (effects (font (size 0.5 0.5) (thickness 0.05)))
  )
  (fp_line (start -2.45 -1) (end -2.45 1) (layer F.SilkS) (width 0.12))
  (fp_line (start 0.25 0) (end 0.75 0) (layer F.Fab) (width 0.1))
  (fp_line (start 0.25 0.4) (end -0.35 0) (layer F.Fab) (width 0.1))
  (fp_line (start 0.25 -0.4) (end 0.25 0.4) (layer F.Fab) (width 0.1))
  (fp_line (start -0.35 0) (end 0.25 -0.4) (layer F.Fab) (width 0.1))
  (fp_line (start -0.35 0) (end -0.35 0.55) (layer F.Fab) (width 0.1))
  (fp_line (start -0.35 0) (end -0.35 -0.55) (layer F.Fab) (width 0.1))
  (fp_line (start -0.75 0) (end -0.35 0) (layer F.Fab) (width 0.1))
  (fp_line (start -1.4 0.85) (end -1.4 -0.85) (layer F.Fab) (width 0.1))
  (fp_line (start 1.4 0.85) (end -1.4 0.85) (layer F.Fab) (width 0.1))
  (fp_line (start 1.4 -0.85) (end 1.4 0.85) (layer F.Fab) (width 0.1))
  (fp_line (start -1.4 -0.85) (end 1.4 -0.85) (layer F.Fab) (width 0.1))
  (fp_line (start -2.6 -1.05) (end 2.6 -1.05) (layer F.CrtYd) (width 0.05))
  (fp_line (start 2.6 -1.05) (end 2.6 1.05) (layer F.CrtYd) (width 0.05))
  (fp_line (start 2.6 1.05) (end -2.6 1.05) (layer F.CrtYd) (width 0.05))
  (fp_line (start -2.6 -1.05) (end -2.6 1.05) (layer F.CrtYd) (width 0.05))
  (fp_line (start -2.45 1) (end 1.65 1) (layer F.SilkS) (width 0.12))
  (fp_line (start -2.45 -1) (end 1.65 -1) (layer F.SilkS) (width 0.12))
  (pad 1 smd rect (at -1.8 0) (size 1.2 1.2) (layers F.Cu F.Paste F.Mask))
  (pad 2 smd rect (at 1.8 0) (size 1.2 1.2) (layers F.Cu F.Paste F.Mask))
  (model ${KISYS3DMOD}/Diode_SMD.3dshapes/D_SOD-123.wrl
    (at (xyz 0 0 0))
    (scale (xyz 1 1 1))
    (rotate (xyz 0 0 0))
  )
)
