(module L_Murata_LQH2MC_TL (layer F.Cu) (tedit 5D67C656)
  (descr "Inductor, Taiyo Yuden, NR series, Taiyo-Yuden_NR-20xx, 2.0mmx2.0mm")
  (tags "inductor taiyo-yuden nr smd")
  (attr smd)
  (fp_text reference REF** (at 0.1 -1.46) (layer F.SilkS)
    (effects (font (size 0.5 0.5) (thickness 0.05)))
  )
  (fp_text value L_Murata_LQH2MC_TL (at 0.01 1.57) (layer F.Fab) hide
    (effects (font (size 0.5 0.5) (thickness 0.05)))
  )
  (fp_line (start -1.8 -1.1) (end 1.8 -1.1) (layer F.CrtYd) (width 0.05))
  (fp_line (start 1.8 1.1) (end 1.8 -1.1) (layer F.CrtYd) (width 0.05))
  (fp_line (start -1.8 1.1) (end 1.8 1.1) (layer F.CrtYd) (width 0.05))
  (fp_line (start -1.8 -1.1) (end -1.8 1.1) (layer F.CrtYd) (width 0.05))
  (fp_line (start -1 0.9) (end 1 0.9) (layer F.SilkS) (width 0.12))
  (fp_line (start -1 -0.9) (end 1 -0.9) (layer F.SilkS) (width 0.12))
  (fp_line (start -0.5 0.9) (end 0 0.9) (layer F.Fab) (width 0.1))
  (fp_line (start -1 0.7) (end -0.7 0.6) (layer F.Fab) (width 0.1))
  (fp_line (start -1 0) (end -1 0.7) (layer F.Fab) (width 0.1))
  (fp_line (start 0.5 0.9) (end 0 0.9) (layer F.Fab) (width 0.1))
  (fp_line (start 1 0.7) (end 0.7 0.6) (layer F.Fab) (width 0.1))
  (fp_line (start 1 0) (end 1 0.7) (layer F.Fab) (width 0.1))
  (fp_line (start 0.5 -0.9) (end 0 -0.9) (layer F.Fab) (width 0.1))
  (fp_line (start 1 -0.7) (end 0.7 -0.6) (layer F.Fab) (width 0.1))
  (fp_line (start 1 0) (end 1 -0.7) (layer F.Fab) (width 0.1))
  (fp_line (start -0.5 -0.9) (end 0 -0.9) (layer F.Fab) (width 0.1))
  (fp_line (start -1 -0.7) (end -0.7 -0.6) (layer F.Fab) (width 0.1))
  (fp_line (start -1 0) (end -1 -0.7) (layer F.Fab) (width 0.1))
  (fp_text user %R (at 0.13 -1.43) (layer F.Fab)
    (effects (font (size 0.5 0.5) (thickness 0.05)))
  )
  (fp_line (start -0.7 -0.6) (end -0.5 -0.9) (layer F.Fab) (width 0.1))
  (fp_line (start 0.5 -0.9) (end 0.7 -0.6) (layer F.Fab) (width 0.1))
  (fp_line (start 0.7 0.6) (end 0.5 0.9) (layer F.Fab) (width 0.1))
  (fp_line (start -0.7 0.6) (end -0.5 0.9) (layer F.Fab) (width 0.1))
  (pad 2 smd rect (at 1 0) (size 1.2 1.2) (layers F.Cu F.Paste F.Mask))
  (pad 1 smd rect (at -1 0) (size 1.2 1.2) (layers F.Cu F.Paste F.Mask))
)
