(module Polyfuse_PTC1206L050_TL (layer F.Cu) (tedit 5D67CC52)
  (descr "Resistor SMD 1206, reflow soldering, Vishay (see dcrcw.pdf)")
  (tags "resistor 1206")
  (attr smd)
  (fp_text reference REF** (at -0.02 -1.65) (layer F.SilkS)
    (effects (font (size 0.5 0.5) (thickness 0.05)))
  )
  (fp_text value Polyfuse_PTC1206L050_TL (at 0.08 1.83) (layer F.Fab) hide
    (effects (font (size 0.5 0.5) (thickness 0.05)))
  )
  (fp_line (start 2.3 1.1) (end -2.3 1.1) (layer F.CrtYd) (width 0.05))
  (fp_line (start 2.3 1.1) (end 2.3 -1.1) (layer F.CrtYd) (width 0.05))
  (fp_line (start -2.3 -1.1) (end -2.3 1.1) (layer F.CrtYd) (width 0.05))
  (fp_line (start -2.3 -1.1) (end 2.3 -1.1) (layer F.CrtYd) (width 0.05))
  (fp_line (start -1 -1.07) (end 1 -1.07) (layer F.SilkS) (width 0.12))
  (fp_line (start 1 1.07) (end -1 1.07) (layer F.SilkS) (width 0.12))
  (fp_line (start -1.6 -0.8) (end 1.6 -0.8) (layer F.Fab) (width 0.1))
  (fp_line (start 1.6 -0.8) (end 1.6 0.8) (layer F.Fab) (width 0.1))
  (fp_line (start 1.6 0.8) (end -1.6 0.8) (layer F.Fab) (width 0.1))
  (fp_line (start -1.6 0.8) (end -1.6 -0.8) (layer F.Fab) (width 0.1))
  (fp_text user %R (at 0.03 -1.68) (layer F.Fab)
    (effects (font (size 0.5 0.5) (thickness 0.05)))
  )
  (pad 2 smd rect (at 1.55 0) (size 1.1 1.8) (layers F.Cu F.Paste F.Mask))
  (pad 1 smd rect (at -1.55 0) (size 1.1 1.8) (layers F.Cu F.Paste F.Mask))
  (model ${KISYS3DMOD}/Resistors_SMD.3dshapes/R_1206.wrl
    (at (xyz 0 0 0))
    (scale (xyz 1 1 1))
    (rotate (xyz 0 0 0))
  )
)
