(module SOT-363_SC-70-6_TL (layer F.Cu) (tedit 5D67E05B)
  (descr "SOT-363, SC-70-6")
  (tags "SOT-363 SC-70-6")
  (attr smd)
  (fp_text reference REF** (at 0.15 -1.86) (layer F.SilkS)
    (effects (font (size 0.5 0.5) (thickness 0.05)))
  )
  (fp_text value SOT-363_SC-70-6_TL (at 0 2 180) (layer F.Fab) hide
    (effects (font (size 0.5 0.5) (thickness 0.05)))
  )
  (fp_line (start -0.175 -1.1) (end -0.675 -0.6) (layer F.Fab) (width 0.1))
  (fp_line (start 0.675 1.1) (end -0.675 1.1) (layer F.Fab) (width 0.1))
  (fp_line (start 0.675 -1.1) (end 0.675 1.1) (layer F.Fab) (width 0.1))
  (fp_line (start -1.55 1.3) (end 1.55 1.3) (layer F.CrtYd) (width 0.05))
  (fp_line (start -0.675 -1.1) (end -0.675 1.1) (layer F.Fab) (width 0.1))
  (fp_line (start 0.675 -1.1) (end -0.675 -1.1) (layer F.Fab) (width 0.1))
  (fp_line (start -1.55 -1.3) (end 1.55 -1.3) (layer F.CrtYd) (width 0.05))
  (fp_line (start -1.55 -1.3) (end -1.55 1.3) (layer F.CrtYd) (width 0.05))
  (fp_line (start 1.55 1.3) (end 1.55 -1.3) (layer F.CrtYd) (width 0.05))
  (fp_line (start -0.7 1.16) (end 0.7 1.16) (layer F.SilkS) (width 0.12))
  (fp_line (start 0.7 -1.16) (end -1.2 -1.16) (layer F.SilkS) (width 0.12))
  (fp_text user %R (at 0.24 -1.83 180) (layer F.Fab)
    (effects (font (size 0.5 0.5) (thickness 0.05)))
  )
  (pad 6 smd rect (at 1 -0.65) (size 0.7 0.4) (layers F.Cu F.Paste F.Mask))
  (pad 4 smd rect (at 1 0.65) (size 0.7 0.4) (layers F.Cu F.Paste F.Mask))
  (pad 2 smd rect (at -1 0) (size 0.7 0.4) (layers F.Cu F.Paste F.Mask))
  (pad 5 smd rect (at 1 0) (size 0.7 0.4) (layers F.Cu F.Paste F.Mask))
  (pad 3 smd rect (at -1 0.65) (size 0.7 0.4) (layers F.Cu F.Paste F.Mask))
  (pad 1 smd rect (at -1 -0.65) (size 0.7 0.4) (layers F.Cu F.Paste F.Mask))
  (model ${KISYS3DMOD}/TO_SOT_Packages_SMD.3dshapes/SOT-363_SC-70-6.wrl
    (at (xyz 0 0 0))
    (scale (xyz 1 1 1))
    (rotate (xyz 0 0 0))
  )
)
