(module SW_SPDT_PCM12_TL (layer F.Cu) (tedit 5D6A42FA)
  (descr "Ultraminiature Surface Mount Slide Switch, right-angle, https://www.ckswitches.com/media/1424/pcm.pdf")
  (attr smd)
  (fp_text reference REF** (at -0.07 -3.35) (layer F.SilkS)
    (effects (font (size 0.5 0.5) (thickness 0.05)))
  )
  (fp_text value SW_SPDT_PCM12_TL (at -0.03 3.77) (layer F.Fab) hide
    (effects (font (size 0.5 0.5) (thickness 0.05)))
  )
  (fp_text user %R (at -0.03 -3.28) (layer F.Fab)
    (effects (font (size 0.5 0.5) (thickness 0.05)))
  )
  (fp_line (start -1.4 1.3) (end -1.4 2.6) (layer F.Fab) (width 0.1))
  (fp_line (start -1.4 2.6) (end -1.2 2.8) (layer F.Fab) (width 0.1))
  (fp_line (start -1.2 2.8) (end -0.3 2.8) (layer F.Fab) (width 0.1))
  (fp_line (start -0.3 2.8) (end -0.1 2.6) (layer F.Fab) (width 0.1))
  (fp_line (start -0.1 2.6) (end -0.1 1.3) (layer F.Fab) (width 0.1))
  (fp_line (start -3.35 -1.3) (end -3.35 1.3) (layer F.Fab) (width 0.1))
  (fp_line (start -3.35 1.3) (end 3.35 1.3) (layer F.Fab) (width 0.1))
  (fp_line (start 3.35 1.3) (end 3.35 -1.3) (layer F.Fab) (width 0.1))
  (fp_line (start 3.35 -1.3) (end -3.35 -1.3) (layer F.Fab) (width 0.1))
  (fp_line (start 1.4 -1.4) (end 1.6 -1.4) (layer F.SilkS) (width 0.12))
  (fp_line (start -4.55 -2.7) (end 4.55 -2.7) (layer F.CrtYd) (width 0.05))
  (fp_line (start 4.55 -2.7) (end 4.55 1.6) (layer F.CrtYd) (width 0.05))
  (fp_line (start 4.55 1.6) (end 1.6 1.6) (layer F.CrtYd) (width 0.05))
  (fp_line (start 1.6 1.6) (end 1.6 3) (layer F.CrtYd) (width 0.05))
  (fp_line (start 1.6 3) (end -1.6 3) (layer F.CrtYd) (width 0.05))
  (fp_line (start -1.6 3) (end -1.6 1.6) (layer F.CrtYd) (width 0.05))
  (fp_line (start -1.6 1.6) (end -4.55 1.6) (layer F.CrtYd) (width 0.05))
  (fp_line (start -4.55 1.6) (end -4.55 -2.7) (layer F.CrtYd) (width 0.05))
  (fp_line (start -2.85 1.4) (end 2.85 1.4) (layer F.SilkS) (width 0.12))
  (fp_line (start -1.6 -1.4) (end 0.1 -1.4) (layer F.SilkS) (width 0.12))
  (fp_line (start -3.45 -0.4) (end -3.45 0.4) (layer F.SilkS) (width 0.12))
  (fp_line (start 3.45 0.4) (end 3.45 -0.4) (layer F.SilkS) (width 0.12))
  (pad "" np_thru_hole circle (at -1.5 0) (size 0.9 0.9) (drill 0.9) (layers *.Cu *.Mask))
  (pad "" np_thru_hole circle (at 1.5 0) (size 0.9 0.9) (drill 0.9) (layers *.Cu *.Mask))
  (pad 1 smd rect (at -2.25 -1.75) (size 0.7 1.5) (layers F.Cu F.Paste F.Mask))
  (pad 2 smd rect (at 0.75 -1.75) (size 0.7 1.5) (layers F.Cu F.Paste F.Mask))
  (pad 3 smd rect (at 2.25 -1.75) (size 0.7 1.5) (layers F.Cu F.Paste F.Mask))
  (pad M1 smd rect (at -3.75 0.9) (size 1.2 0.8) (layers F.Cu F.Paste F.Mask))
  (pad M4 smd rect (at 3.75 0.9) (size 1.2 0.8) (layers F.Cu F.Paste F.Mask))
  (pad M3 smd rect (at 3.75 -1.1) (size 1.2 0.8) (layers F.Cu F.Paste F.Mask))
  (pad M2 smd rect (at -3.75 -1.1) (size 1.2 0.8) (layers F.Cu F.Paste F.Mask))
  (model ${KISYS3DMOD}/Button_Switch_SMD.3dshapes/SW_SPDT_PCM12.wrl
    (at (xyz 0 0 0))
    (scale (xyz 1 1 1))
    (rotate (xyz 0 0 0))
  )
)
