EESchema Schematic File Version 4
LIBS:carte_clavier-rescue
LIBS:carte_clavier-cache
EELAYER 26 0
EELAYER END
$Descr A2 23386 16535
encoding utf-8
Sheet 4 5
Title "Clavier ToucheLibre   /   ToucheLibre Keyboard"
Date "16 juin 2018"
Rev "V0.0"
Comp "Lyliberté"
Comment1 ""
Comment2 ""
Comment3 ""
Comment4 "Connecteurs"
$EndDescr
$EndSCHEMATC
