M48
; DRILL file {KiCad 5.1.4-e60b266~84~ubuntu18.04.1} date jeu. 24 oct. 2019 22:41:48 CEST
; FORMAT={-:-/ absolute / inch / decimal}
; #@! TF.CreationDate,2019-10-24T22:41:48+02:00
; #@! TF.GenerationSoftware,Kicad,Pcbnew,5.1.4-e60b266~84~ubuntu18.04.1
; #@! TF.FileFunction,NonPlated,1,4,NPTH
FMAT,2
INCH
T1C0.0354
T2C0.0610
T3C0.1024
%
G90
G05
T1
X8.6811Y-2.4921
X8.7992Y-2.4921
T2
X11.5091Y-4.6732
X11.8555Y-4.4732
X10.5087Y-9.0033
X10.9087Y-9.0033
X12.6831Y-5.1319
X13.0295Y-4.9319
X4.8702Y-8.4249
X5.2565Y-8.3213
X7.4105Y-3.6858
X7.7569Y-3.8858
X6.8129Y-6.2957
X7.1593Y-6.4957
X13.5677Y-3.5124
X13.9436Y-3.3756
X5.7566Y-7.7316
X6.103Y-7.9316
X7.6058Y-8.0718
X7.9522Y-8.2718
X3.2978Y-6.0847
X3.6442Y-6.2847
X9.7213Y-9.0033
X10.1213Y-9.0033
X14.047Y-4.3445
X14.3934Y-4.1445
X4.0852Y-4.7208
X4.4316Y-4.9208
X4.3735Y-5.7965
X4.7199Y-5.9965
X15.1938Y-3.1513
X15.5936Y-3.1373
X14.4407Y-5.0264
X14.7871Y-4.8264
X4.1173Y-8.6267
X4.5037Y-8.5232
X9.3276Y-8.3215
X9.7276Y-8.3215
X5.8721Y-3.2011
X6.266Y-3.2705
X13.8643Y-7.1776
X14.2107Y-6.9776
X15.1226Y-4.6327
X15.469Y-4.4327
X12.0012Y-5.5255
X12.3476Y-5.3255
X16.9856Y-6.2847
X17.332Y-6.0847
X12.1724Y-7.3967
X12.5188Y-7.1967
X13.4175Y-9.0763
X13.5972Y-8.719
X7.1441Y-10.6697
X7.2823Y-10.2943
X14.0212Y-5.8747
X14.3676Y-5.6747
X5.1608Y-4.4327
X5.5072Y-4.6327
X9.3972Y-4.9692
X9.7436Y-5.1692
X6.465Y-8.1349
X6.7724Y-8.3909
X16.1262Y-8.5231
X16.5126Y-8.6266
X8.1111Y-7.1967
X8.4576Y-7.3967
X10.115Y-4.1807
X10.515Y-4.1807
X15.5752Y-7.5685
X15.9615Y-7.672
X12.6777Y-8.2718
X13.0241Y-8.0718
X8.5703Y-6.4012
X8.9167Y-6.6012
X11.2961Y-9.0033
X11.6961Y-9.0033
X8.2822Y-5.3256
X8.6286Y-5.5256
X5.0553Y-6.1901
X5.4017Y-6.3901
X10.5087Y-6.2758
X10.9087Y-6.2758
X12.0835Y-9.0033
X12.4835Y-9.0033
X3.6915Y-5.4028
X4.0379Y-5.6028
X13.3477Y-10.2943
X13.4858Y-10.6697
X16.5919Y-5.6029
X16.9383Y-5.4029
X8.5402Y-8.3215
X8.9402Y-8.3215
X14.143Y-9.7749
X14.2063Y-10.1699
X13.0769Y-5.8138
X13.4233Y-5.6138
X13.2339Y-4.5108
X13.5803Y-4.3108
X12.3951Y-6.2074
X12.7415Y-6.0074
X7.8885Y-6.0075
X8.2349Y-6.2075
X8.7742Y-4.4732
X9.1206Y-4.6732
X6.4238Y-10.1699
X6.487Y-9.7749
X4.4789Y-4.039
X4.8253Y-4.239
X10.8864Y-5.1691
X11.2328Y-4.9691
X6.0911Y-8.9281
X6.3433Y-9.2385
X4.7671Y-5.1145
X5.1135Y-5.3145
X7.4948Y-6.6894
X7.8412Y-6.8894
X8.9339Y-9.0031
X9.3339Y-9.0031
X12.1912Y-4.2795
X12.5376Y-4.0795
X6.6559Y-4.9927
X7.0023Y-5.1927
X5.8685Y-6.3566
X6.2149Y-6.5566
X10.115Y-6.9577
X10.515Y-6.9577
X10.9024Y-8.3215
X11.3024Y-8.3215
X5.0364Y-3.1372
X5.4362Y-3.1512
X4.6682Y-7.672
X5.0546Y-7.5685
X6.4192Y-6.9775
X6.7656Y-7.1775
X12.8729Y-3.8858
X13.2193Y-3.6858
X7.1011Y-7.3713
X7.4475Y-7.5713
X10.5087Y-7.6396
X10.9087Y-7.6396
X9.3276Y-6.9577
X9.7276Y-6.9577
X11.2961Y-7.6396
X11.6961Y-7.6396
X15.8046Y-4.239
X16.151Y-4.039
X13.4706Y-6.4957
X13.817Y-6.2957
X8.9339Y-7.6396
X9.3339Y-7.6396
X16.1983Y-4.9208
X16.5447Y-4.7208
X14.415Y-6.5565
X14.7614Y-6.3565
X7.3211Y-9.4811
X7.3441Y-9.8804
X10.115Y-5.5939
X10.515Y-5.5939
X6.2623Y-5.6747
X6.6087Y-5.8747
X5.4491Y-5.5083
X5.7955Y-5.7083
X8.1465Y-9.0033
X8.5465Y-9.0033
X9.7213Y-6.2758
X10.1213Y-6.2758
X17.4508Y-7.6675
X17.8372Y-7.7711
X13.1824Y-7.5712
X13.5288Y-7.3712
X14.2866Y-9.2385
X14.5388Y-8.9281
X8.0925Y-4.0795
X8.4389Y-4.2795
X16.3037Y-6.6783
X16.6501Y-6.4783
X5.8428Y-4.8264
X6.1892Y-5.0264
X3.9154Y-7.8737
X4.3018Y-7.7702
X10.115Y-8.3215
X10.515Y-8.3215
X7.0329Y-8.719
X7.2127Y-9.0763
X11.6898Y-8.3215
X12.0898Y-8.3215
X9.7213Y-7.6396
X10.1213Y-7.6396
X14.8344Y-5.7082
X15.1808Y-5.5082
X15.5164Y-5.3145
X15.8628Y-5.1145
X14.364Y-3.2705
X14.7579Y-3.2011
X11.713Y-6.6012
X12.0594Y-6.4012
X13.8576Y-8.3912
X14.1649Y-8.1351
X6.6863Y-3.3758
X7.0622Y-3.5126
X2.7928Y-7.7711
X3.1792Y-7.6675
X13.2857Y-9.8804
X13.3088Y-9.4811
X15.9101Y-5.9964
X16.2565Y-5.7964
X12.7888Y-6.8894
X13.1352Y-6.6894
X15.2281Y-6.3902
X15.5745Y-6.1902
X7.0496Y-4.3108
X7.396Y-4.5108
X3.9798Y-6.4783
X4.3262Y-6.6783
X14.5268Y-7.9315
X14.8732Y-7.7315
X7.6003Y-4.9319
X7.9467Y-5.1319
X13.6276Y-5.1927
X13.974Y-4.9927
X7.2066Y-5.6138
X7.553Y-5.8138
X16.3281Y-7.7702
X16.7145Y-7.8737
X15.3734Y-8.3214
X15.7598Y-8.425
X6.2364Y-4.1444
X6.5828Y-4.3444
X10.9024Y-6.9577
X11.3024Y-6.9577
T3
X6.4096Y-4.2444
X11.1024Y-6.9577
X11.6823Y-4.5732
X10.7087Y-9.0033
X12.8563Y-5.0319
X5.0634Y-8.3731
X7.5837Y-3.7858
X6.9861Y-6.3957
X13.7557Y-3.444
X5.9298Y-7.8316
X7.779Y-8.1718
X3.471Y-6.1847
X9.9213Y-9.0033
X14.2202Y-4.2445
X4.2584Y-4.8208
X4.5467Y-5.8965
X15.3937Y-3.1443
X14.6139Y-4.9264
X4.3105Y-8.575
X9.5276Y-8.3215
X6.069Y-3.2358
X14.0375Y-7.0776
X15.2958Y-4.5327
X12.1744Y-5.4255
X17.1588Y-6.1847
X12.3456Y-7.2967
X13.5073Y-8.8976
X7.2132Y-10.482
X14.1944Y-5.7747
X5.334Y-4.5327
X9.5704Y-5.0692
X6.6187Y-8.2629
X16.3194Y-8.5748
X8.2843Y-7.2967
X10.315Y-4.1807
X15.7683Y-7.6203
X12.8509Y-8.1718
X8.7435Y-6.5012
X11.4961Y-9.0033
X8.4554Y-5.4256
X5.2285Y-6.2901
X10.7087Y-6.2758
X12.2835Y-9.0033
X3.8647Y-5.5028
X13.4167Y-10.482
X16.7651Y-5.5029
X8.7402Y-8.3215
X14.1746Y-9.9724
X13.2501Y-5.7138
X13.4071Y-4.4108
X12.5683Y-6.1074
X8.0617Y-6.1075
X8.9474Y-4.5732
X6.4554Y-9.9724
X4.6521Y-4.139
X11.0596Y-5.0691
X6.2172Y-9.0833
X4.9403Y-5.2145
X7.668Y-6.7894
X9.1339Y-9.0031
X12.3644Y-4.1795
X6.8291Y-5.0927
X6.0417Y-6.4566
X10.315Y-6.9577
X11.1024Y-8.3215
X5.2363Y-3.1442
X4.8614Y-7.6203
X6.5924Y-7.0775
X13.0461Y-3.7858
X7.2743Y-7.4713
X10.7087Y-7.6396
X9.5276Y-6.9577
X11.4961Y-7.6396
X15.9778Y-4.139
X13.6438Y-6.3957
X9.1339Y-7.6396
X16.3715Y-4.8208
X14.5882Y-6.4565
X7.3326Y-9.6807
X10.315Y-5.5939
X6.4355Y-5.7747
X5.6223Y-5.6083
X8.3465Y-9.0033
X9.9213Y-6.2758
X17.644Y-7.7193
X13.3556Y-7.4712
X14.4127Y-9.0833
X8.2657Y-4.1795
X16.4769Y-6.5783
X6.016Y-4.9264
X4.1086Y-7.822
X10.315Y-8.3215
X7.1228Y-8.8976
X11.8898Y-8.3215
X9.9213Y-7.6396
X15.0076Y-5.6082
X15.6896Y-5.2145
X14.561Y-3.2358
X11.8862Y-6.5012
X14.0113Y-8.2631
X6.8742Y-3.4442
X2.986Y-7.7193
X13.2972Y-9.6807
X16.0833Y-5.8964
X12.962Y-6.7894
X15.4013Y-6.2902
X7.2228Y-4.4108
X4.153Y-6.5783
X14.7Y-7.8315
X7.7735Y-5.0319
X13.8008Y-5.0927
X7.3798Y-5.7138
X16.5213Y-7.822
X15.5666Y-8.3732
T0
M30
