EESchema Schematic File Version 4
LIBS:power
LIBS:device
LIBS:switches
LIBS:relays
LIBS:motors
LIBS:transistors
LIBS:conn
LIBS:linear
LIBS:regul
LIBS:74xx
LIBS:cmos4000
LIBS:adc-dac
LIBS:memory
LIBS:xilinx
LIBS:microcontrollers
LIBS:dsp
LIBS:microchip
LIBS:analog_switches
LIBS:motorola
LIBS:texas
LIBS:intel
LIBS:audio
LIBS:interface
LIBS:digital-audio
LIBS:philips
LIBS:display
LIBS:cypress
LIBS:siliconi
LIBS:opto
LIBS:atmel
LIBS:contrib
LIBS:valves
LIBS:carte_coco_simple-cache
EELAYER 26 0
EELAYER END
$Descr A2 23386 16535
encoding utf-8
Sheet 4 5
Title ""
Date ""
Rev ""
Comp ""
Comment1 ""
Comment2 ""
Comment3 ""
Comment4 ""
$EndDescr
$Comp
L Device:LED D?
U 1 1 5CC7A88A
P 9950 8800
AR Path="/5BBF869B/5CA9DC7A/5CC7A88A" Ref="D?"  Part="1" 
AR Path="/5BBF869B/5BBF872B/5CC7A88A" Ref="D?"  Part="1" 
F 0 "D?" V 10000 8600 50  0000 C CNN
F 1 "LED" V 9900 8600 50  0000 C CNN
F 2 "" H 9950 8800 50  0001 C CNN
F 3 "~" H 9950 8800 50  0001 C CNN
	1    9950 8800
	0    -1   -1   0   
$EndComp
$Comp
L carte_coco_simple-rescue:TCA6416A-Interface_Expansion U?
U 1 1 5CC7A891
P 8400 7850
AR Path="/5CC7A891" Ref="U?"  Part="1" 
AR Path="/5BBF869B/5CA9DC7A/5CC7A891" Ref="U?"  Part="1" 
AR Path="/5BBF869B/5BBF872B/5CC7A891" Ref="U?"  Part="1" 
F 0 "U?" H 8450 7750 50  0000 C CNN
F 1 "TCA6416A" H 8600 7650 50  0000 C CNN
F 2 "" H 8400 7850 50  0001 C CNN
F 3 "" H 8400 7850 50  0001 C CNN
	1    8400 7850
	1    0    0    -1  
$EndComp
Wire Wire Line
	7650 11650 7550 11650
Wire Wire Line
	7550 11650 7550 11350
Wire Wire Line
	7550 11650 7050 11650
Connection ~ 7550 11650
$Comp
L Device:R R?
U 1 1 5CC7A8A9
P 9950 9200
AR Path="/5BBF869B/5CA9DC7A/5CC7A8A9" Ref="R?"  Part="1" 
AR Path="/5BBF869B/5BBF872B/5CC7A8A9" Ref="R?"  Part="1" 
F 0 "R?" H 10020 9246 50  0000 L CNN
F 1 "R" H 10020 9155 50  0000 L CNN
F 2 "" V 9880 9200 50  0001 C CNN
F 3 "~" H 9950 9200 50  0001 C CNN
	1    9950 9200
	1    0    0    -1  
$EndComp
Wire Wire Line
	9950 9050 9950 8950
$Comp
L power:GND #PWR?
U 1 1 5CC7A8B1
P 9950 9350
AR Path="/5BBF869B/5CA9DC7A/5CC7A8B1" Ref="#PWR?"  Part="1" 
AR Path="/5BBF869B/5BBF872B/5CC7A8B1" Ref="#PWR?"  Part="1" 
F 0 "#PWR?" H 9950 9100 50  0001 C CNN
F 1 "GND" H 9955 9177 50  0000 C CNN
F 2 "" H 9950 9350 50  0001 C CNN
F 3 "" H 9950 9350 50  0001 C CNN
	1    9950 9350
	1    0    0    -1  
$EndComp
$Comp
L Device:LED D?
U 1 1 5CC7A8B7
P 10400 8800
AR Path="/5BBF869B/5CA9DC7A/5CC7A8B7" Ref="D?"  Part="1" 
AR Path="/5BBF869B/5BBF872B/5CC7A8B7" Ref="D?"  Part="1" 
F 0 "D?" V 10450 8600 50  0000 C CNN
F 1 "LED" V 10350 8600 50  0000 C CNN
F 2 "" H 10400 8800 50  0001 C CNN
F 3 "~" H 10400 8800 50  0001 C CNN
	1    10400 8800
	0    -1   -1   0   
$EndComp
$Comp
L Device:R R?
U 1 1 5CC7A8BE
P 10400 9200
AR Path="/5BBF869B/5CA9DC7A/5CC7A8BE" Ref="R?"  Part="1" 
AR Path="/5BBF869B/5BBF872B/5CC7A8BE" Ref="R?"  Part="1" 
F 0 "R?" H 10470 9246 50  0000 L CNN
F 1 "R" H 10470 9155 50  0000 L CNN
F 2 "" V 10330 9200 50  0001 C CNN
F 3 "~" H 10400 9200 50  0001 C CNN
	1    10400 9200
	1    0    0    -1  
$EndComp
Wire Wire Line
	10400 9050 10400 8950
$Comp
L power:GND #PWR?
U 1 1 5CC7A8C6
P 10400 9350
AR Path="/5BBF869B/5CA9DC7A/5CC7A8C6" Ref="#PWR?"  Part="1" 
AR Path="/5BBF869B/5BBF872B/5CC7A8C6" Ref="#PWR?"  Part="1" 
F 0 "#PWR?" H 10400 9100 50  0001 C CNN
F 1 "GND" H 10405 9177 50  0000 C CNN
F 2 "" H 10400 9350 50  0001 C CNN
F 3 "" H 10400 9350 50  0001 C CNN
	1    10400 9350
	1    0    0    -1  
$EndComp
$Comp
L Device:LED D?
U 1 1 5CC7A8CC
P 10850 8800
AR Path="/5BBF869B/5CA9DC7A/5CC7A8CC" Ref="D?"  Part="1" 
AR Path="/5BBF869B/5BBF872B/5CC7A8CC" Ref="D?"  Part="1" 
F 0 "D?" V 10900 8600 50  0000 C CNN
F 1 "LED" V 10800 8600 50  0000 C CNN
F 2 "" H 10850 8800 50  0001 C CNN
F 3 "~" H 10850 8800 50  0001 C CNN
	1    10850 8800
	0    -1   -1   0   
$EndComp
$Comp
L Device:R R?
U 1 1 5CC7A8D3
P 10850 9200
AR Path="/5BBF869B/5CA9DC7A/5CC7A8D3" Ref="R?"  Part="1" 
AR Path="/5BBF869B/5BBF872B/5CC7A8D3" Ref="R?"  Part="1" 
F 0 "R?" H 10920 9246 50  0000 L CNN
F 1 "R" H 10920 9155 50  0000 L CNN
F 2 "" V 10780 9200 50  0001 C CNN
F 3 "~" H 10850 9200 50  0001 C CNN
	1    10850 9200
	1    0    0    -1  
$EndComp
Wire Wire Line
	10850 9050 10850 8950
$Comp
L power:GND #PWR?
U 1 1 5CC7A8DB
P 10850 9350
AR Path="/5BBF869B/5CA9DC7A/5CC7A8DB" Ref="#PWR?"  Part="1" 
AR Path="/5BBF869B/5BBF872B/5CC7A8DB" Ref="#PWR?"  Part="1" 
F 0 "#PWR?" H 10850 9100 50  0001 C CNN
F 1 "GND" H 10855 9177 50  0000 C CNN
F 2 "" H 10850 9350 50  0001 C CNN
F 3 "" H 10850 9350 50  0001 C CNN
	1    10850 9350
	1    0    0    -1  
$EndComp
$Comp
L Device:LED D?
U 1 1 5CC7A8E1
P 11300 8800
AR Path="/5BBF869B/5CA9DC7A/5CC7A8E1" Ref="D?"  Part="1" 
AR Path="/5BBF869B/5BBF872B/5CC7A8E1" Ref="D?"  Part="1" 
F 0 "D?" V 11350 8600 50  0000 C CNN
F 1 "LED" V 11250 8600 50  0000 C CNN
F 2 "" H 11300 8800 50  0001 C CNN
F 3 "~" H 11300 8800 50  0001 C CNN
	1    11300 8800
	0    -1   -1   0   
$EndComp
$Comp
L Device:R R?
U 1 1 5CC7A8E8
P 11300 9200
AR Path="/5BBF869B/5CA9DC7A/5CC7A8E8" Ref="R?"  Part="1" 
AR Path="/5BBF869B/5BBF872B/5CC7A8E8" Ref="R?"  Part="1" 
F 0 "R?" H 11370 9246 50  0000 L CNN
F 1 "R" H 11370 9155 50  0000 L CNN
F 2 "" V 11230 9200 50  0001 C CNN
F 3 "~" H 11300 9200 50  0001 C CNN
	1    11300 9200
	1    0    0    -1  
$EndComp
Wire Wire Line
	11300 9050 11300 8950
$Comp
L power:GND #PWR?
U 1 1 5CC7A8F0
P 11300 9350
AR Path="/5BBF869B/5CA9DC7A/5CC7A8F0" Ref="#PWR?"  Part="1" 
AR Path="/5BBF869B/5BBF872B/5CC7A8F0" Ref="#PWR?"  Part="1" 
F 0 "#PWR?" H 11300 9100 50  0001 C CNN
F 1 "GND" H 11305 9177 50  0000 C CNN
F 2 "" H 11300 9350 50  0001 C CNN
F 3 "" H 11300 9350 50  0001 C CNN
	1    11300 9350
	1    0    0    -1  
$EndComp
$Comp
L Device:LED D?
U 1 1 5CC7A8F6
P 11750 8800
AR Path="/5BBF869B/5CA9DC7A/5CC7A8F6" Ref="D?"  Part="1" 
AR Path="/5BBF869B/5BBF872B/5CC7A8F6" Ref="D?"  Part="1" 
F 0 "D?" V 11800 8600 50  0000 C CNN
F 1 "LED" V 11700 8600 50  0000 C CNN
F 2 "" H 11750 8800 50  0001 C CNN
F 3 "~" H 11750 8800 50  0001 C CNN
	1    11750 8800
	0    -1   -1   0   
$EndComp
$Comp
L Device:R R?
U 1 1 5CC7A8FD
P 11750 9200
AR Path="/5BBF869B/5CA9DC7A/5CC7A8FD" Ref="R?"  Part="1" 
AR Path="/5BBF869B/5BBF872B/5CC7A8FD" Ref="R?"  Part="1" 
F 0 "R?" H 11820 9246 50  0000 L CNN
F 1 "R" H 11820 9155 50  0000 L CNN
F 2 "" V 11680 9200 50  0001 C CNN
F 3 "~" H 11750 9200 50  0001 C CNN
	1    11750 9200
	1    0    0    -1  
$EndComp
Wire Wire Line
	11750 9050 11750 8950
$Comp
L power:GND #PWR?
U 1 1 5CC7A905
P 11750 9350
AR Path="/5BBF869B/5CA9DC7A/5CC7A905" Ref="#PWR?"  Part="1" 
AR Path="/5BBF869B/5BBF872B/5CC7A905" Ref="#PWR?"  Part="1" 
F 0 "#PWR?" H 11750 9100 50  0001 C CNN
F 1 "GND" H 11755 9177 50  0000 C CNN
F 2 "" H 11750 9350 50  0001 C CNN
F 3 "" H 11750 9350 50  0001 C CNN
	1    11750 9350
	1    0    0    -1  
$EndComp
$Comp
L Device:LED D?
U 1 1 5CC7A90B
P 12200 8800
AR Path="/5BBF869B/5CA9DC7A/5CC7A90B" Ref="D?"  Part="1" 
AR Path="/5BBF869B/5BBF872B/5CC7A90B" Ref="D?"  Part="1" 
F 0 "D?" V 12250 8600 50  0000 C CNN
F 1 "LED" V 12150 8600 50  0000 C CNN
F 2 "" H 12200 8800 50  0001 C CNN
F 3 "~" H 12200 8800 50  0001 C CNN
	1    12200 8800
	0    -1   -1   0   
$EndComp
$Comp
L Device:R R?
U 1 1 5CC7A912
P 12200 9200
AR Path="/5BBF869B/5CA9DC7A/5CC7A912" Ref="R?"  Part="1" 
AR Path="/5BBF869B/5BBF872B/5CC7A912" Ref="R?"  Part="1" 
F 0 "R?" H 12270 9246 50  0000 L CNN
F 1 "R" H 12270 9155 50  0000 L CNN
F 2 "" V 12130 9200 50  0001 C CNN
F 3 "~" H 12200 9200 50  0001 C CNN
	1    12200 9200
	1    0    0    -1  
$EndComp
Wire Wire Line
	12200 9050 12200 8950
$Comp
L power:GND #PWR?
U 1 1 5CC7A91A
P 12200 9350
AR Path="/5BBF869B/5CA9DC7A/5CC7A91A" Ref="#PWR?"  Part="1" 
AR Path="/5BBF869B/5BBF872B/5CC7A91A" Ref="#PWR?"  Part="1" 
F 0 "#PWR?" H 12200 9100 50  0001 C CNN
F 1 "GND" H 12205 9177 50  0000 C CNN
F 2 "" H 12200 9350 50  0001 C CNN
F 3 "" H 12200 9350 50  0001 C CNN
	1    12200 9350
	1    0    0    -1  
$EndComp
Wire Wire Line
	9600 7750 9950 7750
Wire Wire Line
	9950 7750 9950 8650
Wire Wire Line
	9600 7650 10400 7650
Wire Wire Line
	10400 7650 10400 8650
Wire Wire Line
	9600 7550 10850 7550
Wire Wire Line
	10850 7550 10850 8650
Wire Wire Line
	11300 7450 11300 8650
Wire Wire Line
	9600 7350 11750 7350
Wire Wire Line
	11750 7350 11750 8650
Wire Wire Line
	9600 7250 12200 7250
Wire Wire Line
	12200 7250 12200 8650
$Comp
L power:GND #PWR?
U 1 1 5CC7A92B
P 8900 8100
AR Path="/5BBF869B/5CA9DC7A/5CC7A92B" Ref="#PWR?"  Part="1" 
AR Path="/5BBF869B/5BBF872B/5CC7A92B" Ref="#PWR?"  Part="1" 
F 0 "#PWR?" H 8900 7850 50  0001 C CNN
F 1 "GND" H 8905 7927 50  0000 C CNN
F 2 "" H 8900 8100 50  0001 C CNN
F 3 "" H 8900 8100 50  0001 C CNN
	1    8900 8100
	1    0    0    -1  
$EndComp
Wire Wire Line
	9600 6150 13100 6150
Wire Wire Line
	9600 6250 13450 6250
Wire Wire Line
	9600 6350 13800 6350
Wire Wire Line
	9600 6450 14150 6450
Wire Wire Line
	14000 6050 14250 6050
$Comp
L carte_coco_simple-rescue:SW_Coded_PT65-5-01-Switch U?
U 1 1 5CC7A936
P 14950 6500
AR Path="/5BBF869B/5CA9DC7A/5CC7A936" Ref="U?"  Part="1" 
AR Path="/5BBF869B/5BBF872B/5CC7A936" Ref="U?"  Part="1" 
F 0 "U?" H 15450 7250 50  0000 C CNN
F 1 "SW_Coded_PT65-5-01" H 15100 7150 50  0000 C CNN
F 2 "" H 14900 6350 50  0001 C CNN
F 3 "" H 14900 6350 50  0001 C CNN
	1    14950 6500
	-1   0    0    -1  
$EndComp
Wire Wire Line
	14250 5950 14000 5950
Connection ~ 14000 5950
Wire Wire Line
	14000 5950 14000 6050
$Comp
L power:+5V #PWR?
U 1 1 5CC7A940
P 9050 5350
AR Path="/5BBF869B/5CA9DC7A/5CC7A940" Ref="#PWR?"  Part="1" 
AR Path="/5BBF869B/5BBF872B/5CC7A940" Ref="#PWR?"  Part="1" 
F 0 "#PWR?" H 9050 5200 50  0001 C CNN
F 1 "+5V" H 9065 5523 50  0000 C CNN
F 2 "" H 9050 5350 50  0001 C CNN
F 3 "" H 9050 5350 50  0001 C CNN
	1    9050 5350
	1    0    0    -1  
$EndComp
$Comp
L power:+3.3V #PWR?
U 1 1 5CC7A946
P 8750 5350
AR Path="/5BBF869B/5CA9DC7A/5CC7A946" Ref="#PWR?"  Part="1" 
AR Path="/5BBF869B/5BBF872B/5CC7A946" Ref="#PWR?"  Part="1" 
F 0 "#PWR?" H 8750 5200 50  0001 C CNN
F 1 "+3.3V" H 8765 5523 50  0000 C CNN
F 2 "" H 8750 5350 50  0001 C CNN
F 3 "" H 8750 5350 50  0001 C CNN
	1    8750 5350
	1    0    0    -1  
$EndComp
$Comp
L power:+5V #PWR?
U 1 1 5CC7A94C
P 14000 5850
AR Path="/5BBF869B/5CA9DC7A/5CC7A94C" Ref="#PWR?"  Part="1" 
AR Path="/5BBF869B/5BBF872B/5CC7A94C" Ref="#PWR?"  Part="1" 
F 0 "#PWR?" H 14000 5700 50  0001 C CNN
F 1 "+5V" H 14015 6023 50  0000 C CNN
F 2 "" H 14000 5850 50  0001 C CNN
F 3 "" H 14000 5850 50  0001 C CNN
	1    14000 5850
	1    0    0    -1  
$EndComp
Wire Wire Line
	8100 7850 8100 7750
Wire Wire Line
	8100 7750 8200 7750
Wire Wire Line
	8200 6350 6800 6350
Wire Wire Line
	8200 6450 8150 6450
$Comp
L Device:R R?
U 1 1 5CC7A977
P 8100 8000
AR Path="/5BBF869B/5CA9DC7A/5CC7A977" Ref="R?"  Part="1" 
AR Path="/5BBF869B/5BBF872B/5CC7A977" Ref="R?"  Part="1" 
F 0 "R?" H 8170 8046 50  0000 L CNN
F 1 "R" H 8170 7955 50  0000 L CNN
F 2 "" V 8030 8000 50  0001 C CNN
F 3 "~" H 8100 8000 50  0001 C CNN
	1    8100 8000
	1    0    0    -1  
$EndComp
$Comp
L Device:R R?
U 1 1 5CC7A97E
P 8100 7500
AR Path="/5BBF869B/5CA9DC7A/5CC7A97E" Ref="R?"  Part="1" 
AR Path="/5BBF869B/5BBF872B/5CC7A97E" Ref="R?"  Part="1" 
F 0 "R?" H 8170 7546 50  0000 L CNN
F 1 "R" H 8170 7455 50  0000 L CNN
F 2 "" V 8030 7500 50  0001 C CNN
F 3 "~" H 8100 7500 50  0001 C CNN
	1    8100 7500
	1    0    0    -1  
$EndComp
Wire Wire Line
	8100 7750 8100 7650
Connection ~ 8100 7750
$Comp
L power:GND #PWR?
U 1 1 5CC7A987
P 8100 8200
AR Path="/5BBF869B/5CA9DC7A/5CC7A987" Ref="#PWR?"  Part="1" 
AR Path="/5BBF869B/5BBF872B/5CC7A987" Ref="#PWR?"  Part="1" 
F 0 "#PWR?" H 8100 7950 50  0001 C CNN
F 1 "GND" H 8105 8027 50  0000 C CNN
F 2 "" H 8100 8200 50  0001 C CNN
F 3 "" H 8100 8200 50  0001 C CNN
	1    8100 8200
	1    0    0    -1  
$EndComp
$Comp
L power:+3.3V #PWR?
U 1 1 5CC7A98D
P 8100 7300
AR Path="/5BBF869B/5CA9DC7A/5CC7A98D" Ref="#PWR?"  Part="1" 
AR Path="/5BBF869B/5BBF872B/5CC7A98D" Ref="#PWR?"  Part="1" 
F 0 "#PWR?" H 8100 7150 50  0001 C CNN
F 1 "+3.3V" H 8115 7473 50  0000 C CNN
F 2 "" H 8100 7300 50  0001 C CNN
F 3 "" H 8100 7300 50  0001 C CNN
	1    8100 7300
	1    0    0    -1  
$EndComp
Wire Wire Line
	8100 7350 8100 7300
Wire Wire Line
	8900 8100 8900 8050
Wire Wire Line
	8100 8200 8100 8150
Wire Wire Line
	14000 5850 14000 5950
Wire Wire Line
	9600 7450 11300 7450
$Comp
L Device:R R?
U 1 1 5CC7A998
P 13100 6900
AR Path="/5BBF869B/5CA9DC7A/5CC7A998" Ref="R?"  Part="1" 
AR Path="/5BBF869B/5BBF872B/5CC7A998" Ref="R?"  Part="1" 
F 0 "R?" H 13170 6946 50  0000 L CNN
F 1 "R" H 13170 6855 50  0000 L CNN
F 2 "" V 13030 6900 50  0001 C CNN
F 3 "~" H 13100 6900 50  0001 C CNN
	1    13100 6900
	1    0    0    -1  
$EndComp
$Comp
L power:GND #PWR?
U 1 1 5CC7A99F
P 13100 7050
AR Path="/5BBF869B/5CA9DC7A/5CC7A99F" Ref="#PWR?"  Part="1" 
AR Path="/5BBF869B/5BBF872B/5CC7A99F" Ref="#PWR?"  Part="1" 
F 0 "#PWR?" H 13100 6800 50  0001 C CNN
F 1 "GND" H 13105 6877 50  0000 C CNN
F 2 "" H 13100 7050 50  0001 C CNN
F 3 "" H 13100 7050 50  0001 C CNN
	1    13100 7050
	1    0    0    -1  
$EndComp
$Comp
L Device:R R?
U 1 1 5CC7A9A5
P 13450 6900
AR Path="/5BBF869B/5CA9DC7A/5CC7A9A5" Ref="R?"  Part="1" 
AR Path="/5BBF869B/5BBF872B/5CC7A9A5" Ref="R?"  Part="1" 
F 0 "R?" H 13520 6946 50  0000 L CNN
F 1 "R" H 13520 6855 50  0000 L CNN
F 2 "" V 13380 6900 50  0001 C CNN
F 3 "~" H 13450 6900 50  0001 C CNN
	1    13450 6900
	1    0    0    -1  
$EndComp
$Comp
L power:GND #PWR?
U 1 1 5CC7A9AC
P 13450 7050
AR Path="/5BBF869B/5CA9DC7A/5CC7A9AC" Ref="#PWR?"  Part="1" 
AR Path="/5BBF869B/5BBF872B/5CC7A9AC" Ref="#PWR?"  Part="1" 
F 0 "#PWR?" H 13450 6800 50  0001 C CNN
F 1 "GND" H 13455 6877 50  0000 C CNN
F 2 "" H 13450 7050 50  0001 C CNN
F 3 "" H 13450 7050 50  0001 C CNN
	1    13450 7050
	1    0    0    -1  
$EndComp
$Comp
L Device:R R?
U 1 1 5CC7A9B2
P 13800 6900
AR Path="/5BBF869B/5CA9DC7A/5CC7A9B2" Ref="R?"  Part="1" 
AR Path="/5BBF869B/5BBF872B/5CC7A9B2" Ref="R?"  Part="1" 
F 0 "R?" H 13870 6946 50  0000 L CNN
F 1 "R" H 13870 6855 50  0000 L CNN
F 2 "" V 13730 6900 50  0001 C CNN
F 3 "~" H 13800 6900 50  0001 C CNN
	1    13800 6900
	1    0    0    -1  
$EndComp
$Comp
L power:GND #PWR?
U 1 1 5CC7A9B9
P 13800 7050
AR Path="/5BBF869B/5CA9DC7A/5CC7A9B9" Ref="#PWR?"  Part="1" 
AR Path="/5BBF869B/5BBF872B/5CC7A9B9" Ref="#PWR?"  Part="1" 
F 0 "#PWR?" H 13800 6800 50  0001 C CNN
F 1 "GND" H 13805 6877 50  0000 C CNN
F 2 "" H 13800 7050 50  0001 C CNN
F 3 "" H 13800 7050 50  0001 C CNN
	1    13800 7050
	1    0    0    -1  
$EndComp
$Comp
L Switch:SW_Lin_MFP2320 U?
U 1 1 5CC7A9BF
P 16150 6950
AR Path="/5BBF869B/5CA9DC7A/5CC7A9BF" Ref="U?"  Part="1" 
AR Path="/5BBF869B/5BBF872B/5CC7A9BF" Ref="U?"  Part="1" 
F 0 "U?" H 16200 6800 50  0000 C CNN
F 1 "SW_Lin_MFP2320" H 16450 6700 50  0000 C CNN
F 2 "" H 16200 6850 50  0001 C CNN
F 3 "" H 16200 6850 50  0001 C CNN
	1    16150 6950
	1    0    0    -1  
$EndComp
Wire Wire Line
	15850 6650 15850 6750
Connection ~ 15850 6650
$Comp
L power:+5V #PWR?
U 1 1 5CC7A9C8
P 15850 6400
AR Path="/5BBF869B/5CA9DC7A/5CC7A9C8" Ref="#PWR?"  Part="1" 
AR Path="/5BBF869B/5BBF872B/5CC7A9C8" Ref="#PWR?"  Part="1" 
F 0 "#PWR?" H 15850 6250 50  0001 C CNN
F 1 "+5V" H 15865 6573 50  0000 C CNN
F 2 "" H 15850 6400 50  0001 C CNN
F 3 "" H 15850 6400 50  0001 C CNN
	1    15850 6400
	1    0    0    -1  
$EndComp
Wire Wire Line
	15850 6400 15850 6650
$Comp
L Device:R R?
U 1 1 5CC7A9CF
P 17100 6550
AR Path="/5BBF869B/5CA9DC7A/5CC7A9CF" Ref="R?"  Part="1" 
AR Path="/5BBF869B/5BBF872B/5CC7A9CF" Ref="R?"  Part="1" 
F 0 "R?" V 16893 6550 50  0000 C CNN
F 1 "R" V 16984 6550 50  0000 C CNN
F 2 "" V 17030 6550 50  0001 C CNN
F 3 "~" H 17100 6550 50  0001 C CNN
	1    17100 6550
	0    1    1    0   
$EndComp
$Comp
L Device:R R?
U 1 1 5CC7A9D6
P 17100 6850
AR Path="/5BBF869B/5CA9DC7A/5CC7A9D6" Ref="R?"  Part="1" 
AR Path="/5BBF869B/5BBF872B/5CC7A9D6" Ref="R?"  Part="1" 
F 0 "R?" V 17200 6800 50  0000 C CNN
F 1 "R" V 17300 6800 50  0000 C CNN
F 2 "" V 17030 6850 50  0001 C CNN
F 3 "~" H 17100 6850 50  0001 C CNN
	1    17100 6850
	0    1    1    0   
$EndComp
Wire Wire Line
	16750 6550 16800 6550
Wire Wire Line
	16950 6850 16800 6850
Wire Wire Line
	17250 6550 17350 6550
Wire Wire Line
	17350 6550 17350 6850
Wire Wire Line
	17350 6850 17250 6850
Wire Wire Line
	17350 6850 17350 6950
Connection ~ 17350 6850
Wire Wire Line
	16000 6550 15950 6550
Wire Wire Line
	15950 6550 15950 6400
Wire Wire Line
	15950 6400 16800 6400
Wire Wire Line
	16800 6400 16800 6550
Connection ~ 16800 6550
Wire Wire Line
	16800 6550 16950 6550
Wire Wire Line
	16800 6850 16800 7000
Wire Wire Line
	16800 7000 15950 7000
Wire Wire Line
	15950 7000 15950 6850
Wire Wire Line
	15950 6850 16000 6850
Connection ~ 16800 6850
Wire Wire Line
	16800 6850 16750 6850
Wire Wire Line
	15850 6650 16000 6650
Wire Wire Line
	15850 6750 16000 6750
Wire Wire Line
	15950 6850 15750 6850
Connection ~ 15950 6850
Wire Wire Line
	9600 6550 15950 6550
Connection ~ 15950 6550
Wire Wire Line
	9600 6650 15750 6650
Wire Wire Line
	15750 6650 15750 6850
$Comp
L power:+5V #PWR?
U 1 1 5CC7A9F8
P 16900 6400
AR Path="/5BBF869B/5CA9DC7A/5CC7A9F8" Ref="#PWR?"  Part="1" 
AR Path="/5BBF869B/5BBF872B/5CC7A9F8" Ref="#PWR?"  Part="1" 
F 0 "#PWR?" H 16900 6250 50  0001 C CNN
F 1 "+5V" H 16915 6573 50  0000 C CNN
F 2 "" H 16900 6400 50  0001 C CNN
F 3 "" H 16900 6400 50  0001 C CNN
	1    16900 6400
	1    0    0    -1  
$EndComp
Wire Wire Line
	16900 6400 16900 6650
Wire Wire Line
	16900 6650 16900 6750
Connection ~ 16900 6650
Wire Wire Line
	16750 6650 16900 6650
Wire Wire Line
	16750 6750 16900 6750
$Comp
L power:GND #PWR?
U 1 1 5CC7AA03
P 17350 6950
AR Path="/5BBF869B/5CA9DC7A/5CC7AA03" Ref="#PWR?"  Part="1" 
AR Path="/5BBF869B/5BBF872B/5CC7AA03" Ref="#PWR?"  Part="1" 
F 0 "#PWR?" H 17350 6700 50  0001 C CNN
F 1 "GND" H 17355 6777 50  0000 C CNN
F 2 "" H 17350 6950 50  0001 C CNN
F 3 "" H 17350 6950 50  0001 C CNN
	1    17350 6950
	1    0    0    -1  
$EndComp
$Comp
L Device:R R?
U 1 1 5CC7AA09
P 14150 6900
AR Path="/5BBF869B/5CA9DC7A/5CC7AA09" Ref="R?"  Part="1" 
AR Path="/5BBF869B/5BBF872B/5CC7AA09" Ref="R?"  Part="1" 
F 0 "R?" H 14220 6946 50  0000 L CNN
F 1 "R" H 14220 6855 50  0000 L CNN
F 2 "" V 14080 6900 50  0001 C CNN
F 3 "~" H 14150 6900 50  0001 C CNN
	1    14150 6900
	1    0    0    -1  
$EndComp
$Comp
L power:GND #PWR?
U 1 1 5CC7AA10
P 14150 7050
AR Path="/5BBF869B/5CA9DC7A/5CC7AA10" Ref="#PWR?"  Part="1" 
AR Path="/5BBF869B/5BBF872B/5CC7AA10" Ref="#PWR?"  Part="1" 
F 0 "#PWR?" H 14150 6800 50  0001 C CNN
F 1 "GND" H 14155 6877 50  0000 C CNN
F 2 "" H 14150 7050 50  0001 C CNN
F 3 "" H 14150 7050 50  0001 C CNN
	1    14150 7050
	1    0    0    -1  
$EndComp
Wire Wire Line
	14150 6750 14150 6450
Connection ~ 14150 6450
Wire Wire Line
	14150 6450 14250 6450
Wire Wire Line
	13800 6750 13800 6350
Connection ~ 13800 6350
Wire Wire Line
	13800 6350 14250 6350
Wire Wire Line
	13450 6750 13450 6250
Connection ~ 13450 6250
Wire Wire Line
	13450 6250 14250 6250
Wire Wire Line
	13100 6750 13100 6150
Connection ~ 13100 6150
Wire Wire Line
	13100 6150 14250 6150
NoConn ~ 9600 7050
NoConn ~ 9600 7150
Wire Notes Line
	9750 8650 12600 8650
Wire Notes Line
	12600 8650 12600 9900
Wire Notes Line
	12600 9900 9750 9900
Wire Notes Line
	9750 9900 9750 8650
Wire Notes Line
	12900 7300 12900 5600
Wire Notes Line
	12900 5600 15300 5600
Wire Notes Line
	15300 5600 15300 7300
Wire Notes Line
	15300 7300 12900 7300
Wire Notes Line
	15600 6100 17500 6100
Wire Notes Line
	17500 6100 17500 7300
Wire Notes Line
	17500 7300 15600 7300
Wire Notes Line
	15600 7300 15600 6100
Text Notes 12950 5550 0    79   ~ 16
Sélection de l’Ordinateur\nPC Selection 
Text Notes 15700 6050 0    79   ~ 16
Sélection du Mode\nMode Selection
Text Notes 9750 10250 0    79   ~ 16
État des Vérouillages\nLock Indicator
Wire Notes Line
	7300 5050 9750 5050
Wire Notes Line
	7300 8450 9750 8450
$Comp
L Device:C C?
U 1 1 5CC7AA35
P 9250 5650
AR Path="/5BBF869B/5CA9DC7A/5CC7AA35" Ref="C?"  Part="1" 
AR Path="/5BBF869B/5BBF872B/5CC7AA35" Ref="C?"  Part="1" 
F 0 "C?" H 9365 5696 50  0000 L CNN
F 1 "C" H 9365 5605 50  0000 L CNN
F 2 "" H 9288 5500 50  0001 C CNN
F 3 "~" H 9250 5650 50  0001 C CNN
	1    9250 5650
	1    0    0    -1  
$EndComp
$Comp
L power:GND #PWR?
U 1 1 5CC7AA3C
P 9250 5800
AR Path="/5BBF869B/5CA9DC7A/5CC7AA3C" Ref="#PWR?"  Part="1" 
AR Path="/5BBF869B/5BBF872B/5CC7AA3C" Ref="#PWR?"  Part="1" 
F 0 "#PWR?" H 9250 5550 50  0001 C CNN
F 1 "GND" H 9255 5627 50  0000 C CNN
F 2 "" H 9250 5800 50  0001 C CNN
F 3 "" H 9250 5800 50  0001 C CNN
	1    9250 5800
	1    0    0    -1  
$EndComp
$Comp
L Device:C C?
U 1 1 5CC7AA42
P 8550 5650
AR Path="/5BBF869B/5CA9DC7A/5CC7AA42" Ref="C?"  Part="1" 
AR Path="/5BBF869B/5BBF872B/5CC7AA42" Ref="C?"  Part="1" 
F 0 "C?" H 8300 5750 50  0000 L CNN
F 1 "C" H 8300 5550 50  0000 L CNN
F 2 "" H 8588 5500 50  0001 C CNN
F 3 "~" H 8550 5650 50  0001 C CNN
	1    8550 5650
	1    0    0    -1  
$EndComp
$Comp
L power:GND #PWR?
U 1 1 5CC7AA49
P 8550 5800
AR Path="/5BBF869B/5CA9DC7A/5CC7AA49" Ref="#PWR?"  Part="1" 
AR Path="/5BBF869B/5BBF872B/5CC7AA49" Ref="#PWR?"  Part="1" 
F 0 "#PWR?" H 8550 5550 50  0001 C CNN
F 1 "GND" H 8555 5627 50  0000 C CNN
F 2 "" H 8550 5800 50  0001 C CNN
F 3 "" H 8550 5800 50  0001 C CNN
	1    8550 5800
	1    0    0    -1  
$EndComp
Wire Wire Line
	8750 5350 8750 5450
Wire Wire Line
	8750 5450 8550 5450
Wire Wire Line
	8550 5450 8550 5500
Connection ~ 8750 5450
Wire Wire Line
	8750 5450 8750 5850
Wire Wire Line
	9050 5350 9050 5450
Wire Wire Line
	9250 5500 9250 5450
Wire Wire Line
	9250 5450 9050 5450
Connection ~ 9050 5450
Wire Wire Line
	9050 5450 9050 5850
Wire Notes Line
	9750 5050 9750 8450
Wire Notes Line
	7300 5050 7300 8450
Text Notes 7350 5000 0    79   ~ 16
GPIO Expander
Text Notes 9800 9800 0    50   ~ 0
Rouge\nRed
Text Notes 10300 9800 0    50   ~ 0
Orange\nOrange
Text Notes 10750 9800 0    50   ~ 0
Jaune\nYellow
Text Notes 11200 9800 0    50   ~ 0
Bleu\nBlue
Text Notes 11650 9800 0    50   ~ 0
Vert\nGreen
Text Notes 12100 9800 0    50   ~ 0
Blanc\nWhite
Text HLabel 6800 6150 0    50   BiDi ~ 0
I2C_COCO_SDA
Text HLabel 6800 6250 0    50   Input ~ 0
I2C_COCO_SCL
Text HLabel 6800 6350 0    50   Output ~ 0
I2C_COCO_INT
Text HLabel 7050 12150 0    50   Input ~ 0
Col_5bis_SW
Text HLabel 7050 11650 0    50   Output ~ 0
Lig_Fbis_SW
Wire Notes Line
	8500 12300 7400 12300
Wire Notes Line
	7400 12300 7400 11100
Wire Notes Line
	7400 11100 8500 11100
Wire Notes Line
	8500 11100 8500 12300
Text Notes 7400 11050 0    79   ~ 16
Touche Verrouillage\nLock Key
Wire Notes Line
	10550 4100 10550 2400
Wire Notes Line
	10550 2400 12950 2400
Text Notes 10600 2350 0    79   ~ 16
USB Detection
Wire Wire Line
	6800 6250 8200 6250
Wire Wire Line
	6800 6150 8200 6150
Text Notes 7350 6050 0    50   ~ 0
Pull-up Resistor\non MCU side
$Comp
L carte_clavier-rescue:ML1A-11JW J?
U 1 1 5D61DB62
P 7600 12150
F 0 "J?" H 7700 13100 60  0000 C CNN
F 1 "ML1A-11JW" H 7900 13000 60  0000 C CNN
F 2 "lib_clavier:SW_ML1A-11JW" H 8200 12900 60  0001 C CNN
F 3 "" H 8200 12900 60  0000 C CNN
	1    7600 12150
	1    0    0    -1  
$EndComp
Wire Wire Line
	8000 11350 7550 11350
NoConn ~ 8350 11650
Wire Wire Line
	8000 12150 7050 12150
Wire Wire Line
	8000 12150 8000 12100
$Comp
L Device:R R?
U 1 1 5D656F02
P 8150 5700
AR Path="/5BBF869B/5CA9DC7A/5D656F02" Ref="R?"  Part="1" 
AR Path="/5BBF869B/5BBF872B/5D656F02" Ref="R?"  Part="1" 
F 0 "R?" H 7900 5750 50  0000 L CNN
F 1 "R" H 7900 5650 50  0000 L CNN
F 2 "" V 8080 5700 50  0001 C CNN
F 3 "~" H 8150 5700 50  0001 C CNN
	1    8150 5700
	1    0    0    -1  
$EndComp
Wire Wire Line
	8150 5850 8150 6450
$Comp
L power:+3.3V #PWR?
U 1 1 5D6660EA
P 8150 5350
AR Path="/5BBF869B/5CA9DC7A/5D6660EA" Ref="#PWR?"  Part="1" 
AR Path="/5BBF869B/5BBF872B/5D6660EA" Ref="#PWR?"  Part="1" 
F 0 "#PWR?" H 8150 5200 50  0001 C CNN
F 1 "+3.3V" H 8165 5523 50  0000 C CNN
F 2 "" H 8150 5350 50  0001 C CNN
F 3 "" H 8150 5350 50  0001 C CNN
	1    8150 5350
	1    0    0    -1  
$EndComp
Wire Wire Line
	8150 5550 8150 5350
$EndSCHEMATC
